"","Early1:ALL","Mid1:OPN","Mid1:CLS","Late1:OPN","Late1:CLS","Totals"
"mean",209.640698033958,276.264867679219,3834.87168131727,964.482077270127,22055.7007343991,27340.9600586997
"standard_deviation",104.720220008502,105.184415171762,194.393058200767,353.42782318172,463.631139086213,400.081486449659
"confidence_interval_95_percent",2.05247859669775,2.06157665471561,3.81003392918102,6.92705804570562,9.08700334720258,7.84145304322582
