"","Early1:ALL","Mid1:OPN","Mid1:CLS","Late1:OPN","Late1:CLS","Totals"
"mean",0,0,0,0,31.786575185162,31.786575185162
"standard_deviation",0,0,0,0,0.668183080565711,0.668183080565711
"confidence_interval_95_percent",0,0,0,0,0.0130961477298782,0.0130961477298782
