"","Early1:ALL","Mid1:OPN","Mid1:CLS","Late1:OPN","Late1:CLS","Totals"
"mean",0,0,8.38315952632392,0,0.0896177219211413,8.47277724824506
"standard_deviation",0,0,0.491744069596295,0,0.0421575533427798,0.485171021031099
"confidence_interval_95_percent",0,0,0.00963800666019895,0,0.000826272862281746,0.00950917727563479
