"","Early1:ALL","Mid1:OPN","Mid1:CLS","Late1:OPN","Late1:CLS","Totals"
"mean",0,0,0,0.0021890360403225,0,0.0021890360403225
"standard_deviation",0,0,0,0.00121744795098094,0,0.00121744795098094
"confidence_interval_95_percent",0,0,0,2.38615413697472e-05,0,2.38615413697472e-05
