"","Early1:ALL","Mid1:OPN","Mid1:CLS","Late1:OPN","Late1:CLS","Totals"
"mean",211.042542615079,70.9935254175292,4075.1637963585,134.03954127348,21986.845518639,26478.0849243036
"standard_deviation",102.786803105331,41.4526671209095,195.468898389537,74.5470434784538,451.544753397554,281.296077136233
"confidence_interval_95_percent",2.01458432172459,0.812457346201103,3.83112000941213,1.46109520371711,8.85011454067226,5.51330180179417
