"","Early1.ALL","Late1.CLS","Late1.OPN","Mid1.CLS","Mid1.OPN","total","Early1.ALL.1","Late1.CLS.1","Late1.OPN.1","Mid1.CLS.1","Mid1.OPN.1","total.1","Early1.ALL.2","Late1.CLS.2","Late1.OPN.2","Mid1.CLS.2","Mid1.OPN.2","total.2","Early1.ALL.3","Late1.CLS.3","Late1.OPN.3","Mid1.CLS.3","Mid1.OPN.3","total.3","Early1.ALL.4","Late1.CLS.4","Late1.OPN.4","Mid1.CLS.4","Mid1.OPN.4","total.4","Early1.ALL.5","Late1.CLS.5","Late1.OPN.5","Mid1.CLS.5","Mid1.OPN.5","total.5","Early1.ALL.6","Late1.CLS.6","Late1.OPN.6","Mid1.CLS.6","Mid1.OPN.6","total.6","Early1.ALL.7","Late1.CLS.7","Late1.OPN.7","Mid1.CLS.7","Mid1.OPN.7","total.7","Early1.ALL.8","Late1.CLS.8","Late1.OPN.8","Mid1.CLS.8","Mid1.OPN.8","total.8","Early1.ALL.9","Late1.CLS.9","Late1.OPN.9","Mid1.CLS.9","Mid1.OPN.9","total.9"
"0",3070.09608157688,111307.313255468,39388.6795146991,60356.7825399371,11071.9422516443,225194.813643326,2808.81130867672,125024.763832727,41544.2788911254,56437.5109464347,9308.27003456819,235123.635013532,2972.11429173932,118362.002123773,39192.715935024,59572.9282212366,10092.1243532687,230191.884925041,3364.04145108955,123065.128035976,36057.298660222,59964.8553805869,9112.30645489307,231563.629982767,3004.77488835184,115618.512008321,39584.6430943742,61728.5275976629,9406.25182440575,229342.709413116,3233.39906463948,113266.94905222,39388.6795146991,61532.5640179878,9504.23361424331,226925.825263789,3004.77488835184,111699.240414819,41152.3517317752,61140.6368586376,9896.16077359354,226893.164667177,3233.39906463948,121105.492239224,40760.4245724249,56241.5473667595,9504.23361424331,230845.096857292,3494.68383753963,114834.657689621,37233.0801382727,57809.2560041605,11267.9058313194,224639.583500913,2906.79309851428,116402.366327022,41152.3517317752,60160.818960262,9504.23361424331,230126.563731816
"1",2612.8477290016,113266.94905222,39780.6066740493,62708.3454960386,10582.0333024565,228950.782253766,2645.50832561412,125808.618151427,41544.2788911254,58789.0739025361,8426.43392603015,237213.913196733,2482.20534255152,122281.273717275,39388.6795146991,60944.6732789625,9798.17898375598,234895.010837244,3037.43548496436,128160.181107529,36449.2258195722,60552.7461196122,8328.4521361926,236528.04066787,2449.544745939,118753.929283123,40172.5338333996,64667.9812927898,8524.41571586772,234568.404871119,2710.82951883916,116794.293486372,39780.6066740493,63296.2362350639,9112.30645489307,231694.272369217,2416.88414932648,112875.021892869,41152.3517317752,63296.2362350639,10288.0879329438,230028.581941979,2547.52653577656,125024.763832727,40956.3881521,58397.1467431859,9406.25182440575,236332.077088195,2972.11429173932,117970.074964422,37429.0437179479,59572.9282212366,11071.9422516443,229016.103446991,2580.18713238908,120321.637920524,41348.3153114503,60356.7825399371,9308.27003456819,233915.192938869
"2",2318.90235948892,115618.512008321,40760.4245724249,65255.8720318151,9112.30645489307,233066.017426943,2286.2417628764,128552.108266879,42132.1696301508,60160.818960262,7838.5431870048,240969.881807173,2318.90235948892,124240.909514026,39976.5702537244,61532.5640179878,9210.28824473063,237279.234389958,2547.52653577656,130903.671222981,37233.0801382727,62120.4547570132,7936.52497684236,240741.257630885,2122.9387798138,124632.836673377,40172.5338333996,64276.0541334395,8230.47034635504,239434.833766385,2090.27818320128,120713.565079874,40368.4974130747,65255.8720318151,8720.37929554283,237148.592003508,1731.01162046356,116402.366327022,41740.2424708005,65059.90845214,10288.0879329438,235221.616803369,1992.29639336372,127376.326788828,41152.3517317752,60160.818960262,9504.23361424331,240186.027488473,2580.18713238908,121105.492239224,37625.007297623,60944.6732789625,10680.015092294,232935.375040493,2220.92056965136,122673.200876625,42720.0603691761,61924.4911773381,8328.4521361926,237867.125128984
"3",1959.6357967512,117970.074964422,41152.3517317752,66627.617089541,8720.37929554283,236430.058878033,1828.99341030112,132863.307019732,42524.096789501,61140.6368586376,7446.61602765456,245803.650105826,1992.29639336372,125416.690992077,39976.5702537244,64080.0905537644,8622.39750570527,240088.045698635,2188.25997303884,136782.578613234,37429.0437179479,61728.5275976629,7642.57960732968,245770.989509213,1796.3328136886,127768.253948179,40172.5338333996,66039.7263505156,7544.59781749212,243321.444763274,1861.65400691364,123457.055195326,40564.4609927498,66823.5806692161,7838.5431870048,240545.29405121,1306.4238645008,120713.565079874,42132.1696301508,66235.6899301907,9700.19719391843,240088.045698635,1731.01162046356,129727.88974493,41740.2424708005,60160.818960262,9406.25182440575,242766.214620862,2122.9387798138,124240.909514026,38016.9344569732,62512.3819163634,10288.0879329438,237181.252600121,1796.3328136886,124632.836673377,43307.9511082015,63884.1269740893,7838.5431870048,241459.790756361
"4",1763.67221707608,120321.637920524,41740.2424708005,67999.3621472668,7740.56139716724,239565.476152835,1698.35102385104,136782.578613234,43307.9511082015,60944.6732789625,6564.77991911652,249298.333943366,1567.70863740096,127376.326788828,39976.5702537244,66039.7263505156,8426.43392603015,243386.765956499,1861.65400691364,140309.923047386,38016.9344569732,62316.4183366883,7152.67065814188,249657.600506103,1404.40565433836,129727.88974493,40956.3881521,67607.4349879166,7054.68886830432,246750.807407589,1502.38744417592,128944.035426229,40760.4245724249,66823.5806692161,7446.61602765456,245477.044139701,1110.46028482568,123065.128035976,42132.1696301508,68587.2528862922,8524.41571586772,243419.426553112,1469.7268475634,133255.234179082,41936.2060504757,60356.7825399371,9112.30645489307,246130.256071951,1861.65400691364,128160.181107529,38408.8616163235,63884.1269740893,9210.28824473063,241525.111949586,1665.69042723852,128160.181107529,43699.8782675518,64667.9812927898,6760.74349879164,244954.4745939
"5",1404.40565433836,123848.982354676,41740.2424708005,70938.8158423937,6466.79812927896,244399.244451488,1535.04804078844,139917.995888036,44091.805426902,60748.7096992873,5976.88918009116,252270.448235105,1208.44207466324,131687.525541681,39976.5702537244,66039.7263505156,8426.43392603015,247338.698146614,1698.35102385104,142269.558844138,38212.8980366483,64472.0177131146,5976.88918009116,252629.714797843,1110.46028482568,133255.234179082,40956.3881521,67607.4349879166,7054.68886830432,249984.206472229,1306.4238645008,132079.452701031,41152.3517317752,66235.6899301907,7348.634237817,248122.552465315,881.83610853804,126984.399629478,42328.1332098259,69175.1436253176,7838.5431870048,247208.055760164,1306.4238645008,136390.651453884,41740.2424708005,61336.6004383127,8426.43392603015,249200.352153528,1567.70863740096,132079.452701031,38604.8251959986,66431.6535098659,7740.56139716724,246424.201441464,1306.4238645008,133255.234179082,43895.8418472269,65451.8356114903,6074.87096992872,249984.206472229
"6",1175.78147805072,132471.379860381,39388.6795146991,70546.8886830434,6368.8163394414,249951.545875616,1208.44207466324,146580.75759699,41152.3517317752,63296.2362350639,5486.98023090336,257724.767869396,979.8178983756,139526.068728686,38408.8616163235,64863.9448724649,8524.41571586772,252303.108831718,1404.40565433836,152851.592146594,34685.5536024961,65255.8720318151,5584.96202074092,259782.385455985,849.17551192552,145796.90327829,37625.007297623,67411.4714082415,6466.79812927896,258149.355625359,1143.1208814382,140309.923047386,39192.715935024,66235.6899301907,6760.74349879164,253642.193292831,718.53312547544,139526.068728686,38800.7887756737,68195.325726942,7446.61602765456,254687.332384432,1045.13909160064,143445.340322188,39780.6066740493,63100.2726553888,7544.59781749212,254915.956560719,1241.10267127576,140701.850206737,35861.3350805469,67999.3621472668,7152.67065814188,252956.320763968,1045.13909160064,144621.121800239,40956.3881521,66627.617089541,4899.089491878,258149.355625359
"7",783.85431870048,143445.340322188,37625.007297623,70350.9251033683,5780.92560041604,257986.052642296,1045.13909160064,159906.281014899,36645.1893992474,63492.199814739,4801.10770204044,265889.917022526,881.83610853804,151283.883509193,34881.5171821713,64472.0177131146,7838.5431870048,259357.797700022,1306.4238645008,159514.353855548,32725.9178057449,65255.8720318151,5193.03486139068,263995.602419,653.2119322504,153243.519305944,35861.3350805469,67411.4714082415,6074.87096992872,263244.408696912,816.514915313,149716.174871792,37037.1165585976,65843.7627708405,6662.76170895408,260076.330825497,587.89073902536,148540.393393741,36449.2258195722,67999.3621472668,6858.7252886292,260435.597388235,685.87252886292,155987.009421396,36057.298660222,64276.0541334395,6760.74349879164,263766.978242712,979.8178983756,149324.247712442,33901.6992837957,67803.3985675917,6858.7252886292,258867.888750834,783.85431870048,154811.227943345,38408.8616163235,65843.7627708405,4801.10770204044,264648.81435125
"8",685.87252886292,151283.883509193,36057.298660222,69958.9979440181,5095.05307155312,263081.105713849,881.83610853804,169704.459998655,33509.7721244454,63884.1269740893,4213.21696301508,272193.412168742,620.55133563788,159514.353855548,31942.0634870444,68783.2164659673,5878.9073902536,266739.092534452,849.17551192552,170488.314317355,29394.5369512679,66431.6535098659,4899.089491878,272062.769782292,489.9089491878,165785.188405152,32921.8813854201,67411.4714082415,4899.089491878,271507.53963988,783.85431870048,159122.426696198,33901.6992837957,65451.8356114903,6172.85275976628,265432.668669951,555.23014241284,157554.718058797,34489.590022821,68391.2893066171,5486.98023090336,266477.807761551,620.55133563788,164217.479767751,33509.7721244454,65843.7627708405,5388.9984410658,269580.564439741,881.83610853804,157162.790899447,31354.1727480191,68391.2893066171,6172.85275976628,263962.941822387,653.2119322504,165785.188405152,35077.4807618464,64863.9448724649,4605.14412236532,270984.970094079
"9",522.56954580032,163433.625449051,31550.1363276942,71330.7430017439,4115.23517317752,270952.309497467,783.85431870048,183421.910575913,29002.6097919176,63884.1269740893,3331.38085447704,280423.882515098,489.9089491878,168920.605679954,29394.5369512679,67803.3985675917,5682.94381057848,272291.39395858,620.55133563788,179502.638982411,27826.8283138669,65255.8720318151,4703.12591220288,277909.016575934,424.58775596276,175975.294548259,29982.4276902932,67999.3621472668,3723.30801382728,278104.980155609,620.55133563788,167744.824201903,31942.0634870444,66039.7263505156,5193.03486139068,271540.200236492,424.58775596276,168136.751361254,31158.209168344,69763.0343643429,4213.21696301508,273695.799612918,359.26656273772,171664.095795406,31158.209168344,67411.4714082415,4703.12591220288,275296.168846932,555.23014241284,166960.969883203,29002.6097919176,69958.9979440181,5095.05307155312,271572.860833105,489.9089491878,175975.294548259,32725.9178057449,63884.1269740893,4213.21696301508,277288.465240296
"10",489.9089491878,174799.513070208,27630.8647341918,71918.6337407693,3037.43548496436,277876.355979321,685.87252886292,192436.235240969,26651.0468358162,63296.2362350639,2841.47190528924,285910.862746001,391.92715935024,177151.076026309,26847.0104154913,69958.9979440181,4115.23517317752,278464.246718346,424.58775596276,189692.745125517,25279.3017780904,64863.9448724649,4213.21696301508,284473.79649505,261.28477290016,187341.182169416,26063.1560967909,67999.3621472668,3331.38085447704,284996.366040851,359.26656273772,179110.71182306,28806.6462122425,67803.3985675917,3821.28980366484,279901.312969297,391.92715935024,183029.983416563,26063.1560967909,69763.0343643429,3135.41727480192,282383.518311849,293.94536951268,178718.78466371,29394.5369512679,68195.325726942,3625.32622398972,280227.918935422,489.9089491878,175191.440229558,26259.119676466,70546.8886830434,4311.19875285264,276798.556291108,489.9089491878,189300.817966167,28414.7190528923,63492.199814739,3233.39906463948,284931.044847625
"11",326.6059661252,184205.764894614,24887.3746187402,72506.5244797946,2253.58116626388,284179.851125538,555.23014241284,199490.924109273,24495.4474593899,64080.0905537644,2155.59937642632,290777.291641267,359.26656273772,184597.692053964,25083.3381984153,71722.6701610942,2351.56295610144,284114.529932312,293.94536951268,197139.361153172,22731.7752423139,67411.4714082415,2743.49011545168,290320.043288691,261.28477290016,196355.506834471,22927.738821989,69958.9979440181,1665.69042723852,291169.218800617,261.28477290016,187341.182169416,26847.0104154913,68783.2164659673,2547.52653577656,285780.220359551,326.6059661252,190476.599444218,23711.5931406895,71134.7794220688,1959.6357967512,287609.213769852,228.62417628764,188516.963647466,26651.0468358162,69175.1436253176,2253.58116626388,286825.359451152,457.24835257528,182246.129097862,24887.3746187402,71330.7430017439,2939.4536951268,281860.948766049,326.6059661252,198707.069790573,26455.0832561411,63100.2726553888,2547.52653577656,291136.558204004
"12",261.28477290016,193612.016719019,23711.5931406895,69175.1436253176,2351.56295610144,289111.601214028,457.24835257528,206545.612977578,22535.8116626387,63688.1633944142,1861.65400691364,295088.490394119,359.26656273772,193220.089559669,22535.8116626387,70154.9615236932,2253.58116626388,288523.710475003,293.94536951268,207721.394455628,19596.357967512,66039.7263505156,2351.56295610144,296002.98709927,228.62417628764,207329.467296278,19792.3215471871,68391.2893066171,1371.74505772584,297113.447384096,195.96357967512,195963.579675121,24103.5203000397,67607.4349879166,2547.52653577656,290418.025078529,326.6059661252,199882.851268623,20968.1030252378,70154.9615236932,1469.7268475634,292802.248631243,228.62417628764,196355.506834471,24299.4838797148,68783.2164659673,1665.69042723852,291332.521783679,293.94536951268,193612.016719019,22143.8845032885,69958.9979440181,2645.50832561412,288654.352861453,326.6059661252,208113.321614978,23711.5931406895,61532.5640179878,2351.56295610144,296035.647695882
"13",130.64238645008,201450.559906024,21164.0666049129,69175.1436253176,2057.61758658876,293978.030109294,359.26656273772,217911.500598735,19008.4672284866,61924.4911773381,1959.6357967512,301163.361364048,326.6059661252,198315.142631222,20968.1030252378,69567.0707846678,2155.59937642632,291332.52178368,261.28477290016,218303.427758085,16656.9042723852,64863.9448724649,1861.65400691364,301947.215682749,195.96357967512,213208.374686532,17440.7585910857,67999.3621472668,1371.74505772584,300216.204062285,163.3029830626,201842.487065375,22339.8480829636,67019.5442488912,2351.56295610144,293716.745336393,326.6059661252,205761.758658877,19204.4308081617,69567.0707846678,1175.78147805072,296035.647695882,228.62417628764,206153.685818227,21555.9937642632,66823.5806692161,1567.70863740096,296329.593065395,293.94536951268,205369.831499527,18812.5036488115,68195.325726942,2253.58116626388,294925.187411057,326.6059661252,215951.864801983,21555.9937642632,60748.7096992873,1861.65400691364,300444.828238573
"14",97.98178983756,210856.81173043,19596.357967512,67803.3985675917,1273.76326788828,299628.31332326,391.92715935024,227317.75242314,16264.977113035,59572.9282212366,2057.61758658876,305605.202503351,391.92715935024,208505.248774329,18812.5036488115,66823.5806692161,1861.65400691364,296394.91425862,293.94536951268,233196.659813394,13325.5234179082,60944.6732789625,1665.69042723852,309426.492307016,195.96357967512,223790.407988988,16460.9406927101,63884.1269740893,1273.76326788828,305605.202503351,195.96357967512,212816.447527181,19204.4308081617,65059.90845214,2057.61758658876,299334.367953747,326.6059661252,215559.937642633,16852.8678520603,67215.5078285664,1077.79968821316,301032.718977598,228.62417628764,216343.791961334,19008.4672284866,64863.9448724649,1273.76326788828,301718.591506461,326.6059661252,217127.646280034,15481.1227943345,65255.8720318151,2351.56295610144,300542.81002841,261.28477290016,224574.262307689,19008.4672284866,59181.0010618864,1959.6357967512,304984.651167713
"15",130.64238645008,219871.136395486,17832.6857504359,64863.9448724649,1273.76326788828,303972.172672725,424.58775596276,233588.586972744,15089.1956349842,58397.1467431859,1567.70863740096,309067.225744278,359.26656273772,215559.937642633,17832.6857504359,64667.9812927898,1763.67221707608,300183.543465673,228.62417628764,239467.494362998,11757.8147805072,60160.818960262,1469.7268475634,313084.479127618,163.3029830626,233196.659813394,14501.3048959589,61924.4911773381,979.8178983756,310765.576768129,195.96357967512,221830.772192237,16852.8678520603,64863.9448724649,1077.79968821316,304821.348184651,293.94536951268,226925.82526379,13325.5234179082,65843.7627708405,783.85431870048,307172.911140752,228.62417628764,225358.116626389,16656.9042723852,63100.2726553888,1077.79968821316,306421.717418664,326.6059661252,223006.553670288,13325.5234179082,65059.90845214,2057.61758658876,303776.20909305,261.28477290016,232412.805494694,16656.9042723852,57613.2924244854,1959.6357967512,308903.922761216
"16",195.96357967512,226925.82526379,15481.1227943345,63492.199814739,1175.78147805072,307270.89293059,326.6059661252,245738.328912602,11953.7783601823,56633.4745261098,1273.76326788828,315925.951032907,326.6059661252,228493.533901191,13521.4869975833,63296.2362350639,1469.7268475634,307107.589947527,228.62417628764,247306.037550003,8818.3610853804,59376.9646415615,1371.74505772584,317101.732510958,195.96357967512,243386.7659565,11365.887621157,59964.8553805869,881.83610853804,315795.308646457,228.62417628764,233196.659813394,12541.6690992077,63296.2362350639,1077.79968821316,310340.989012166,293.94536951268,237507.858566247,9798.178983756,64080.0905537644,783.85431870048,312463.92779198,195.96357967512,230453.169697942,14697.268475634,62904.3090757137,979.8178983756,309230.528727341,359.26656273772,232020.878335343,10386.0697227814,63884.1269740893,1763.67221707608,308414.013812028,293.94536951268,243778.693115851,13129.559838233,55457.6930480591,1861.65400691364,314521.545378569
"17",228.62417628764,233588.586972744,14305.3413162838,61728.5275976629,881.83610853804,310732.916171517,261.28477290016,252401.090621556,11757.8147805072,54869.8023090337,783.85431870048,320073.846802697,293.94536951268,232804.732654044,12933.5962585579,62904.3090757137,979.8178983756,309916.401256204,228.62417628764,251225.309143505,8230.47034635504,58397.1467431859,1175.78147805072,319257.331887384,228.62417628764,250441.454824805,10582.0333024565,57025.40168546,881.83610853804,319159.350097547,163.3029830626,238683.640044297,11953.7783601823,61924.4911773381,881.83610853804,313607.048673419,261.28477290016,243386.7659565,9210.28824473064,62316.4183366883,587.89073902536,315762.648049845,130.64238645008,234764.368450795,13717.4505772584,62316.4183366883,881.83610853804,311810.71585973,359.26656273772,237507.858566247,9210.28824473064,62708.3454960386,1567.70863740096,311353.467507155,293.94536951268,248089.891868703,12541.6690992077,54085.9479903332,1763.67221707608,316775.126544833
"18",261.28477290016,237899.785725597,13325.5234179082,60748.7096992873,685.87252886292,312921.176144556,228.62417628764,256712.289374408,10973.9604618067,53889.9844106581,685.87252886292,322490.730952023,359.26656273772,237899.785725597,11757.8147805072,61336.6004383127,881.83610853804,312235.303615693,228.62417628764,254752.653577657,8034.50676667992,57025.40168546,1077.79968821316,321118.985894298,228.62417628764,255144.580737007,10190.1061431062,55653.6566277342,587.89073902536,321804.858423161,163.3029830626,244954.474593901,10973.9604618067,59964.8553805869,783.85431870048,316840.447738058,195.96357967512,248481.819028053,8230.47034635504,61336.6004383127,489.9089491878,318734.762341584,163.3029830626,243778.693115851,12541.6690992077,58985.0374822112,783.85431870048,316252.556999033,326.6059661252,242994.83879715,8426.43392603016,60748.7096992873,1665.69042723852,314162.278815831,359.26656273772,251225.309143505,11757.8147805072,53498.0572513078,1469.7268475634,318310.174585621
"19",228.62417628764,245346.401753252,12345.7055195326,58397.1467431859,587.89073902536,316905.768931283,228.62417628764,260239.63380856,10190.1061431062,53106.1300919576,587.89073902536,324352.384958937,391.92715935024,242602.9116378,11169.9240414818,59572.9282212366,783.85431870048,314521.545378569,293.94536951268,258671.925171159,7642.57960732968,55457.6930480591,881.83610853804,322947.979304598,261.28477290016,258671.925171159,9994.14256343112,53889.9844106581,587.89073902536,323405.227657174,163.3029830626,251225.309143505,9602.21540408088,58397.1467431859,685.87252886292,320073.846802697,261.28477290016,251617.236302855,8034.50676667992,59768.8918009117,391.92715935024,320073.846802697,97.98178983756,247306.037550003,11561.8512008321,58397.1467431859,881.83610853804,318244.853392396,391.92715935024,245346.401753252,7446.61602765456,60356.7825399371,1567.70863740096,315109.436117594,391.92715935024,255928.435055708,11365.887621157,51538.4214545566,1371.74505772584,320596.416348497
"20",228.62417628764,252009.163462205,11561.8512008321,56045.5837870844,489.9089491878,320335.131575597,261.28477290016,264550.832561412,9406.25182440576,51342.4578748815,685.87252886292,326246.699562463,391.92715935024,249265.673346754,9994.14256343112,57417.3288448103,783.85431870048,317852.926233046,293.94536951268,263375.051083362,7642.57960732968,53889.9844106581,489.9089491878,325691.46942005,261.28477290016,262983.123924011,9210.28824473064,52714.2029326074,489.9089491878,325658.808823437,163.3029830626,255928.435055708,9210.28824473064,57025.40168546,391.92715935024,322719.355128311,293.94536951268,257888.070852459,7446.61602765456,56829.4381057849,489.9089491878,322947.979304599,65.32119322504,254360.726418307,10386.0697227814,56437.5109464347,783.85431870048,322033.482599448,326.6059661252,253968.799258956,6662.76170895408,57417.3288448103,1469.7268475634,319845.222626409,359.26656273772,261415.415286611,9798.178983756,50754.5671358561,1273.76326788828,323601.191236849
"21",326.6059661252,257888.070852459,10582.0333024565,53694.020830983,391.92715935024,322882.658111373,228.62417628764,269645.885632965,9014.32466505552,49970.7128171556,391.92715935024,329251.474450814,424.58775596276,257496.143693108,9014.32466505552,54085.9479903332,783.85431870048,321804.85842316,261.28477290016,268470.104154914,7642.57960732968,51734.3850342317,391.92715935024,328500.280728726,293.94536951268,270037.812792315,8818.3610853804,49578.7856578054,391.92715935024,329120.832064364,163.3029830626,261807.342445961,8034.50676667992,55261.7294683839,391.92715935024,325658.808823437,293.94536951268,263375.051083362,7250.65244797944,54281.9115700083,489.9089491878,325691.46942005,97.98178983756,261415.415286611,9014.32466505552,54281.9115700083,685.87252886292,325495.505840375,293.94536951268,259847.70664921,6466.79812927896,55653.6566277342,1077.79968821316,323339.906463949,326.6059661252,268862.031314265,8818.3610853804,48794.9313391049,979.8178983756,327781.747603251
"22",326.6059661252,263375.051083362,10190.1061431062,51734.3850342317,195.96357967512,325822.1118065,228.62417628764,274740.938704518,7838.5431870048,48403.0041797547,489.9089491878,331701.019196753,359.26656273772,264158.905402062,7250.65244797944,53498.0572513078,489.9089491878,325756.790613275,261.28477290016,273173.230067117,6466.79812927896,50754.5671358561,293.94536951268,330949.825474665,261.28477290016,273957.084385817,8622.39750570528,48011.0770204044,391.92715935024,331243.770844178,163.3029830626,265334.686880113,7642.57960732968,54085.9479903332,293.94536951268,327520.462830351,261.28477290016,267686.249836214,7250.65244797944,52322.2757732571,489.9089491878,328010.371779539,97.98178983756,265334.686880113,9014.32466505552,52126.312193582,783.85431870048,327357.159847288,359.26656273772,264550.832561412,5878.9073902536,54085.9479903332,783.85431870048,325658.808823437,293.94536951268,274740.938704518,7642.57960732968,47423.1862813791,881.83610853804,330982.486071277
"23",359.26656273772,270821.667111016,9014.32466505552,48794.9313391049,293.94536951268,329284.135047427,228.62417628764,279444.06461672,7054.68886830432,46639.3319626786,587.89073902536,333954.600363016,359.26656273772,270821.667111016,6270.83454960384,51342.4578748815,391.92715935024,329186.153257589,359.26656273772,279052.13745737,5682.94381057848,48011.0770204044,293.94536951268,333399.370220604,228.62417628764,279444.06461672,8426.43392603016,45855.4776439781,293.94536951268,334248.545732529,163.3029830626,270821.667111016,6858.7252886292,52518.2393529322,97.98178983756,330459.916525477,228.62417628764,271997.448589066,6662.76170895408,50362.6399765059,783.85431870048,330035.328769514,97.98178983756,269645.885632965,8622.39750570528,50754.5671358561,587.89073902536,329708.722803389,359.26656273772,270429.739951666,5682.94381057848,51342.4578748815,783.85431870048,328598.262518564,326.6059661252,279444.06461672,7054.68886830432,45659.514064303,783.85431870048,333268.727834153
"24",359.26656273772,274349.011545168,9210.28824473064,47031.2591220288,195.96357967512,331145.78905434,228.62417628764,282971.409050872,6466.79812927896,45463.5504846278,587.89073902536,335718.272580092,293.94536951268,275524.793023218,5682.94381057848,49774.7492374805,489.9089491878,331766.340389978,326.6059661252,288458.389281775,4507.16233252776,44679.6961659274,293.94536951268,338265.799115868,228.62417628764,287282.607803725,7446.61602765456,43111.9875285264,195.96357967512,338265.799115869,130.64238645008,275524.793023218,6270.83454960384,50950.5307155313,97.98178983756,332974.782464641,261.28477290016,275132.865863868,6270.83454960384,48794.9313391049,881.83610853804,331341.752634015,130.64238645008,276700.574501269,6074.87096992872,49774.7492374805,489.9089491878,333170.746044316,359.26656273772,277092.501660619,4703.12591220288,48990.89491878,783.85431870048,331929.64337304,326.6059661252,285322.972006974,6074.87096992872,43895.8418472269,685.87252886292,336306.163319117
"25",326.6059661252,280619.846094771,8230.47034635504,44875.6597456025,293.94536951268,334346.527522367,326.6059661252,285322.972006974,6466.79812927896,44091.805426902,391.92715935024,336600.10868863,293.94536951268,281011.773254121,4899.089491878,48207.0406000795,293.94536951268,334705.794085104,326.6059661252,292377.660875278,3723.30801382728,43503.9146878766,293.94536951268,340225.434912619,261.28477290016,291593.806556577,6466.79812927896,41740.2424708005,195.96357967512,340258.095509232,163.3029830626,279444.06461672,5095.05307155312,50166.6763968308,NA,NA,261.28477290016,279444.06461672,5486.98023090336,47423.1862813791,881.83610853804,333497.352010441,163.3029830626,282579.481891522,5486.98023090336,47227.2227017039,489.9089491878,335946.89675638,326.6059661252,283755.263369573,3723.30801382728,46835.2955423537,783.85431870048,335424.32721058,326.6059661252,288850.316441126,5878.9073902536,42916.0239488513,391.92715935024,338363.780905706
"26",326.6059661252,286106.826325674,7250.65244797944,42916.0239488513,391.92715935024,336992.03584798,359.26656273772,291201.879397227,5682.94381057848,41936.2060504757,293.94536951268,339474.241190532,391.92715935024,286106.826325674,4311.19875285264,45659.514064303,293.94536951268,336763.411671693,359.26656273772,297472.71394683,3135.41727480192,41544.2788911254,195.96357967512,342707.640255171,261.28477290016,294337.296672029,6270.83454960384,40564.4609927498,195.96357967512,341629.840566958,163.3029830626,283755.263369573,4703.12591220288,48403.0041797547,NA,NA,228.62417628764,282971.409050872,5095.05307155312,46051.4412236532,979.8178983756,335326.345420742,195.96357967512,289242.243600476,4899.089491878,44483.7325862522,391.92715935024,339212.956417631,261.28477290016,288850.316441126,3919.2715935024,44875.6597456025,587.89073902536,338494.423292156,359.26656273772,292769.588034628,5291.01665122824,41544.2788911254,293.94536951268,340258.095509232
"27",359.26656273772,292377.660875278,6466.79812927896,40368.4974130747,391.92715935024,339964.150139719,359.26656273772,295513.078150079,5291.01665122824,40172.5338333996,293.94536951268,341629.840566958,391.92715935024,288458.389281775,4115.23517317752,44483.7325862522,391.92715935024,337841.211359906,424.58775596276,301783.912699683,3135.41727480192,38996.7523553488,195.96357967512,344536.633665471,228.62417628764,297472.71394683,5878.9073902536,39976.5702537244,NA,NA,130.64238645008,291593.806556577,4311.19875285264,44875.6597456025,97.98178983756,341009.28923132,261.28477290016,288458.389281775,4899.089491878,43699.8782675518,783.85431870048,338102.496132806,228.62417628764,292769.588034628,4703.12591220288,42720.0603691761,391.92715935024,340813.325651645,261.28477290016,292769.588034628,3919.2715935024,43307.9511082015,391.92715935024,340650.022668582,359.26656273772,295905.00530943,5291.01665122824,40172.5338333996,195.96357967512,341923.78593647
"28",261.28477290016,297472.71394683,5486.98023090336,39388.6795146991,391.92715935024,343001.585624683,359.26656273772,299824.276902932,5291.01665122824,38016.9344569732,293.94536951268,343785.439943384,359.26656273772,292769.588034628,3919.2715935024,42720.0603691761,391.92715935024,340160.113719394,424.58775596276,304527.402815134,3331.38085447704,37233.0801382727,293.94536951268,345810.39693336,195.96357967512,300608.131221632,5878.9073902536,38604.8251959986,NA,NA,163.3029830626,298256.568265531,3919.2715935024,41740.2424708005,97.98178983756,344177.367102734,293.94536951268,292377.660875278,4703.12591220288,41544.2788911254,881.83610853804,339800.847156657,228.62417628764,299432.349743582,3331.38085447704,40956.3881521,293.94536951268,344242.688295959,261.28477290016,294337.296672029,3527.34443415216,42720.0603691761,489.9089491878,341335.895197445,359.26656273772,301391.985540333,4507.16233252776,38016.9344569732,293.94536951268,344569.294262084
"29",228.62417628764,302567.767018383,5095.05307155312,37037.1165585976,587.89073902536,345516.451563847,391.92715935024,305311.257133835,4703.12591220288,35665.3715008718,293.94536951268,346365.627075772,391.92715935024,295905.00530943,3527.34443415216,41936.2060504757,97.98178983756,341858.464743245,391.92715935024,310406.310205388,2743.49011545168,34881.5171821713,391.92715935024,348815.171821711,195.96357967512,304135.475655784,5878.9073902536,36841.1529789225,NA,NA,163.3029830626,301783.912699683,3527.34443415216,40368.4974130747,97.98178983756,345941.03931981,359.26656273772,296688.85962813,4311.19875285264,39780.6066740493,685.87252886292,341825.804146633,293.94536951268,304919.329974485,2939.4536951268,38212.8980366483,293.94536951268,346659.572445285,228.62417628764,298648.495424881,3331.38085447704,41152.3517317752,391.92715935024,343752.779346771,261.28477290016,306095.111452535,4115.23517317752,36253.2622398971,489.9089491878,347214.802587698
"30",228.62417628764,304919.329974485,4899.089491878,36057.298660222,587.89073902536,346692.233041898,326.6059661252,310406.310205388,4115.23517317752,34097.6628634708,293.94536951268,349239.759577674,391.92715935024,299824.276902932,3331.38085447704,40172.5338333996,97.98178983756,343818.100539996,391.92715935024,313933.65463954,2547.52653577656,33509.7721244454,293.94536951268,350676.825828624,195.96357967512,308054.747249286,5878.9073902536,34881.5171821713,NA,NA,130.64238645008,307662.820089936,2939.4536951268,38212.8980366483,97.98178983756,349043.795997999,391.92715935024,299432.349743582,3919.2715935024,38800.7887756737,587.89073902536,343132.228011133,293.94536951268,308446.674408637,2547.52653577656,36841.1529789225,293.94536951268,348423.244662361,261.28477290016,303351.621337084,3135.41727480192,38996.7523553488,293.94536951268,346039.021109647,228.62417628764,310406.310205388,3919.2715935024,34097.6628634708,685.87252886292,349337.741367511
"31",163.3029830626,310406.310205388,4899.089491878,33901.6992837957,489.9089491878,349860.310913312,359.26656273772,313149.800320839,4115.23517317752,32529.9542260698,293.94536951268,350448.201652337,326.6059661252,303743.548496434,3331.38085447704,38408.8616163235,195.96357967512,346006.360513035,391.92715935024,315109.43611759,2939.4536951268,32725.9178057449,195.96357967512,351362.698357487,130.64238645008,312365.946002139,5095.05307155312,33705.7357041205,97.98178983756,351395.3589541,130.64238645008,310014.383046037,2939.4536951268,37233.0801382727,NA,NA,326.6059661252,306878.965771236,3723.30801382728,35273.4443415215,783.85431870048,346986.17841141,261.28477290016,315109.43611759,2547.52653577656,33705.7357041205,293.94536951268,351917.9284999,195.96357967512,309230.528727337,2743.49011545168,36841.1529789225,293.94536951268,349305.080770899,228.62417628764,312757.873161489,4115.23517317752,32725.9178057449,685.87252886292,350513.522845562
"32",195.96357967512,313933.65463954,4507.16233252776,32333.9906463947,489.9089491878,351460.680147325,359.26656273772,317069.071914341,3919.2715935024,30766.2820089937,293.94536951268,352407.837449088,326.6059661252,310798.237364738,2939.4536951268,35273.4443415215,195.96357967512,349533.704947186,391.92715935024,317460.999073691,2939.4536951268,31550.1363276942,195.96357967512,352538.479835538,130.64238645008,316677.144754991,4899.089491878,31942.0634870444,NA,NA,163.3029830626,313541.727480189,2939.4536951268,35273.4443415215,NA,NA,326.6059661252,311190.164524088,3135.41727480192,33705.7357041205,783.85431870048,349141.777787836,261.28477290016,319812.562029793,2547.52653577656,31550.1363276942,195.96357967512,354367.473245839,228.62417628764,313933.65463954,2351.56295610144,34685.5536024961,293.94536951268,351493.340743937,228.62417628764,318244.853392392,4115.23517317752,30178.3912699684,587.89073902536,353354.994750851
"33",195.96357967512,315893.290436291,4311.19875285264,31354.1727480191,587.89073902536,352342.516255863,424.58775596276,319812.562029793,3723.30801382728,29394.5369512679,195.96357967512,353550.958330526,326.6059661252,318244.853392392,2939.4536951268,31746.0999073693,97.98178983756,353354.994750851,326.6059661252,319028.707711092,2939.4536951268,31158.209168344,195.96357967512,353648.940120363,163.3029830626,321380.270667194,4507.16233252776,29786.4641106181,NA,NA,228.62417628764,320596.416348493,2743.49011545168,31550.1363276942,NA,NA,391.92715935024,313933.65463954,3331.38085447704,32138.0270667196,587.89073902536,350382.880459112,261.28477290016,324515.687941995,2351.56295610144,29590.500530943,97.98178983756,356817.017991778,163.3029830626,317852.926233042,2351.56295610144,33117.8449650952,293.94536951268,353779.582506814,228.62417628764,322164.124985894,3723.30801382728,28806.6462122425,489.9089491878,355412.612337439
"34",195.96357967512,317852.926233042,4507.16233252776,30374.3548496435,489.9089491878,353420.315944076,424.58775596276,322556.052145244,3919.2715935024,27826.8283138669,195.96357967512,354922.703388251,326.6059661252,322947.979304595,2547.52653577656,29590.500530943,195.96357967512,355608.575917114,424.58775596276,322164.124985894,2743.49011545168,29198.5733715928,195.96357967512,354726.739808576,163.3029830626,325691.469420046,4115.23517317752,27826.8283138669,97.98178983756,357894.817679991,293.94536951268,324123.760782645,2351.56295610144,29786.4641106181,NA,NA,424.58775596276,319028.707711092,3331.38085447704,29590.500530943,489.9089491878,352865.085801663,261.28477290016,328434.959535498,2351.56295610144,27630.8647341918,97.98178983756,358776.653788529,195.96357967512,320988.343507843,2155.59937642632,31354.1727480191,391.92715935024,355086.006371314,359.26656273772,324907.615101346,3527.34443415216,27238.9375748416,293.94536951268,356327.10904259
"35",195.96357967512,324123.760782645,3919.2715935024,28022.7918935421,391.92715935024,356653.715008715,359.26656273772,326475.323738746,3331.38085447704,27042.9739951665,97.98178983756,357306.926940965,326.6059661252,324515.687941995,2939.4536951268,28414.7190528923,195.96357967512,356392.430235815,457.24835257528,325299.542260696,2351.56295610144,27826.8283138669,195.96357967512,356131.145462915,130.64238645008,329610.741013548,3919.2715935024,26259.119676466,97.98178983756,360017.756459804,326.6059661252,328043.032376147,2351.56295610144,27630.8647341918,NA,NA,457.24835257528,324515.687941995,3135.41727480192,27042.9739951665,391.92715935024,355543.254723889,228.62417628764,332354.231129,2351.56295610144,25867.1925171158,97.98178983756,360899.592568342,293.94536951268,324123.760782645,2155.59937642632,29394.5369512679,293.94536951268,356261.787849365,359.26656273772,329218.813854198,3331.38085447704,25279.3017780904,293.94536951268,358482.708419016
"36",195.96357967512,327651.105216797,3723.30801382728,26455.0832561411,391.92715935024,358417.387225791,457.24835257528,328043.032376147,3331.38085447704,25671.2289374406,97.98178983756,357600.872310478,228.62417628764,330786.522491599,2939.4536951268,25867.1925171158,195.96357967512,360017.756459804,391.92715935024,329218.813854198,2351.56295610144,26063.1560967909,293.94536951268,358319.405435953,65.32119322504,335489.648403801,3723.30801382728,23907.5567203646,97.98178983756,363283.816121056,326.6059661252,331962.303969649,1959.6357967512,26063.1560967909,NA,NA,489.9089491878,329610.741013548,2547.52653577656,25083.3381984153,293.94536951268,358025.460066441,228.62417628764,335489.648403801,1959.6357967512,24691.411039065,97.98178983756,362467.301205743,293.94536951268,326083.396579396,2351.56295610144,28414.7190528923,195.96357967512,357339.587537578,326.6059661252,331962.303969649,2939.4536951268,24495.4474593899,293.94536951268,360017.756459804
"37",195.96357967512,332354.231129,3723.30801382728,24495.4474593899,195.96357967512,360964.913761567,457.24835257528,332354.231129,3331.38085447704,23515.6295610143,97.98178983756,359756.471686904,195.96357967512,333921.939766401,2743.49011545168,24691.411039065,195.96357967512,361748.768080268,359.26656273772,330394.595332249,2351.56295610144,25671.2289374406,293.94536951268,359070.599158041,65.32119322504,340192.774316004,3135.41727480192,22143.8845032885,97.98178983756,365635.379077157,359.26656273772,336273.502722502,1567.70863740096,24103.5203000397,NA,NA,555.23014241284,333921.939766401,2155.59937642632,22927.738821989,293.94536951268,359854.453476741,293.94536951268,337449.284200553,1959.6357967512,23515.6295610143,NA,NA,326.6059661252,330394.595332249,2155.59937642632,26259.119676466,195.96357967512,359331.883930941,359.26656273772,338233.138519253,2939.4536951268,21360.030184588,195.96357967512,363087.852541381
"38",293.94536951268,341368.555794055,3527.34443415216,19596.357967512,195.96357967512,364982.167144907,489.9089491878,339016.992837953,2547.52653577656,20772.1394455627,97.98178983756,362924.549558318,195.96357967512,342152.410112755,2547.52653577656,20772.1394455627,195.96357967512,365864.003253445,359.26656273772,337057.357041202,2351.56295610144,22339.8480829636,293.94536951268,362401.980012518,97.98178983756,348031.317503008,2939.4536951268,18224.6129097861,97.98178983756,369391.347687596,359.26656273772,345679.754546907,1175.78147805072,19792.3215471871,NA,NA,587.89073902536,340976.628634704,2155.59937642632,19204.4308081617,293.94536951268,363218.494927831,228.62417628764,347639.390343658,1763.67221707608,19008.4672284866,NA,NA,293.94536951268,337449.284200553,1959.6357967512,23123.7024016641,195.96357967512,363022.531348156,359.26656273772,340192.774316004,3135.41727480192,20184.2487065373,195.96357967512,364067.670439756
"39",293.94536951268,346071.681706257,3527.34443415216,17244.7950114105,195.96357967512,367333.730101008,587.89073902536,341760.482953405,2547.52653577656,18812.5036488115,97.98178983756,363806.385666856,130.64238645008,345287.827387557,2351.56295610144,19988.2851268622,97.98178983756,367856.299646808,359.26656273772,341760.482953405,2547.52653577656,19792.3215471871,293.94536951268,364753.542968619,130.64238645008,351166.73477781,3135.41727480192,16264.977113035,97.98178983756,370795.753341935,391.92715935024,353518.297733911,1371.74505772584,15481.1227943345,NA,NA,555.23014241284,348815.171821709,2351.56295610144,15481.1227943345,195.96357967512,367399.051294233,195.96357967512,353910.224893262,1763.67221707608,16069.0135333598,NA,NA,293.94536951268,341760.482953405,2155.59937642632,20772.1394455627,195.96357967512,365178.130724582,457.24835257528,344503.973068856,3135.41727480192,17636.7221707608,97.98178983756,365831.342656832
"40",261.28477290016,350382.88045911,3135.41727480192,15677.0863740096,195.96357967512,369652.632460496,653.2119322504,348031.317503008,2155.59937642632,15873.0499536847,NA,NA,163.3029830626,348815.171821709,1959.6357967512,18420.5764894613,97.98178983756,369456.668880821,391.92715935024,346463.608865607,2547.52653577656,17440.7585910857,195.96357967512,367039.784731495,163.3029830626,354302.152052612,3331.38085447704,14305.3413162838,97.98178983756,372200.158996273,424.58775596276,355869.860690013,1371.74505772584,14109.3777366086,NA,NA,587.89073902536,353518.297733911,2351.56295610144,12737.6326788828,293.94536951268,369489.329477434,424.58775596276,355869.860690013,1567.70863740096,13913.4141569335,NA,NA,293.94536951268,346463.608865607,1959.6357967512,18616.5400691364,195.96357967512,367529.693680683,391.92715935024,349990.953299759,2939.4536951268,15481.1227943345,97.98178983756,368901.438738408
"41",293.94536951268,353910.224893262,3331.38085447704,13717.4505772584,97.98178983756,371350.983484347,653.2119322504,348815.171821709,2547.52653577656,14893.2320553091,97.98178983756,367007.124134882,228.62417628764,352734.443415211,2155.59937642632,15873.0499536847,97.98178983756,371089.698711447,359.26656273772,350774.80761846,2351.56295610144,15481.1227943345,293.94536951268,369260.705301146,195.96357967512,357829.496486764,3331.38085447704,12149.7419398574,195.96357967512,373702.546440448,424.58775596276,360181.059442865,1175.78147805072,12149.7419398574,NA,NA,555.23014241284,358613.350805464,2155.59937642632,10582.0333024565,293.94536951268,372200.158996273,457.24835257528,358613.350805464,1567.70863740096,12149.7419398574,97.98178983756,372886.031525135,359.26656273772,350382.88045911,2351.56295610144,16264.977113035,NA,NA,391.92715935024,353126.370574561,3135.41727480192,13717.4505772584,97.98178983756,370469.147375809
"42",359.26656273772,356653.715008713,3331.38085447704,11953.7783601823,97.98178983756,372396.122575948,620.55133563788,351558.66193716,2351.56295610144,13717.4505772584,195.96357967512,368444.190385833,228.62417628764,356261.787849363,2155.59937642632,14109.3777366086,97.98178983756,372853.370928523,391.92715935024,352734.443415211,2351.56295610144,14305.3413162838,293.94536951268,370077.220216459,228.62417628764,361748.768080266,3527.34443415216,9798.178983756,195.96357967512,375498.879254137,457.24835257528,363708.403877017,1175.78147805072,10190.1061431062,NA,NA,522.56954580032,361748.768080266,1959.6357967512,9210.28824473064,391.92715935024,373833.188826898,489.9089491878,361356.840920916,1175.78147805072,10777.9968821316,195.96357967512,373996.491809961,261.28477290016,353910.224893262,2547.52653577656,14697.268475634,97.98178983756,371514.28646741,391.92715935024,357045.642168063,2351.56295610144,12541.6690992077,97.98178983756,372428.78317256
"43",326.6059661252,360181.059442865,3135.41727480192,10777.9968821316,NA,NA,587.89073902536,355086.006371312,2351.56295610144,11953.7783601823,293.94536951268,370273.183796134,261.28477290016,360181.059442865,1959.6357967512,12345.7055195326,NA,NA,391.92715935024,355477.933530662,2351.56295610144,12933.5962585579,293.94536951268,371448.965274185,261.28477290016,364100.331036367,3723.30801382728,8426.43392603016,97.98178983756,376609.339538962,522.56954580032,364100.331036367,1175.78147805072,9602.21540408088,NA,NA,391.92715935024,364884.185355068,1763.67221707608,9014.32466505552,195.96357967512,376250.072976225,522.56954580032,363316.476717667,1175.78147805072,9602.21540408088,195.96357967512,374813.006725274,326.6059661252,355477.933530662,2743.49011545168,13325.5234179082,97.98178983756,371971.534819985,391.92715935024,361748.768080266,2155.59937642632,10386.0697227814,97.98178983756,374780.346128661
"44",293.94536951268,364492.258195717,2743.49011545168,9210.28824473064,NA,NA,555.23014241284,357045.642168063,2351.56295610144,11169.9240414818,293.94536951268,371416.304677572,326.6059661252,361356.840920916,2155.59937642632,11169.9240414818,NA,NA,424.58775596276,355869.860690013,2547.52653577656,12737.6326788828,97.98178983756,371677.589450472,261.28477290016,367235.748311169,3527.34443415216,7054.68886830432,97.98178983756,378177.048176363,424.58775596276,367235.748311169,1371.74505772584,8230.47034635504,97.98178983756,377360.53326105,359.26656273772,366059.966833118,1567.70863740096,8818.3610853804,195.96357967512,377001.266698312,489.9089491878,367235.748311169,1371.74505772584,7642.57960732968,195.96357967512,376935.945505087,293.94536951268,360572.986602215,2547.52653577656,11169.9240414818,97.98178983756,374682.364338824,293.94536951268,364100.331036367,1959.6357967512,9994.14256343112,97.98178983756,376446.0365559
"45",293.94536951268,367235.748311169,2939.4536951268,7642.57960732968,NA,NA,522.56954580032,360572.986602215,2351.56295610144,9406.25182440576,391.92715935024,373245.298087873,326.6059661252,364100.331036367,2155.59937642632,9798.178983756,NA,NA,424.58775596276,359397.205124165,2743.49011545168,10777.9968821316,97.98178983756,373441.261667548,359.26656273772,369979.23842662,2939.4536951268,5682.94381057848,97.98178983756,379058.884284901,424.58775596276,368803.45694857,1371.74505772584,7446.61602765456,97.98178983756,378144.387579751,326.6059661252,367627.675470519,1763.67221707608,8034.50676667992,195.96357967512,377948.424000075,522.56954580032,368803.45694857,1371.74505772584,6662.76170895408,195.96357967512,377556.496840725,195.96357967512,364100.331036367,2547.52653577656,9994.14256343112,97.98178983756,376935.945505088,261.28477290016,367627.675470519,1567.70863740096,8818.3610853804,97.98178983756,378373.011756038
"46",326.6059661252,368019.602629869,2939.4536951268,7054.68886830432,NA,NA,391.92715935024,363708.403877017,1959.6357967512,9210.28824473064,293.94536951268,375564.200447362,359.26656273772,366059.966833118,2155.59937642632,8622.39750570528,NA,NA,359.26656273772,363708.403877017,2351.56295610144,9406.25182440576,97.98178983756,375923.467010099,391.92715935024,370371.165585971,2939.4536951268,5291.01665122824,97.98178983756,379091.544881514,424.58775596276,368803.45694857,1371.74505772584,7446.61602765456,97.98178983756,378144.387579751,359.26656273772,368019.602629869,1763.67221707608,7642.57960732968,195.96357967512,377981.084596688,489.9089491878,370371.165585971,1567.70863740096,5878.9073902536,195.96357967512,378503.654142488,228.62417628764,366059.966833118,2547.52653577656,8818.3610853804,97.98178983756,377752.4604204,261.28477290016,369195.38410792,1567.70863740096,8034.50676667992,97.98178983756,379156.866074739
"47",326.6059661252,368411.52978922,3135.41727480192,6662.76170895408,NA,NA,457.24835257528,363316.476717667,2155.59937642632,8818.3610853804,293.94536951268,375041.630901561,424.58775596276,368411.52978922,1959.6357967512,7250.65244797944,NA,NA,359.26656273772,367235.748311169,2155.59937642632,7838.5431870048,97.98178983756,377687.139227175,424.58775596276,371546.947064021,2743.49011545168,4703.12591220288,97.98178983756,379516.132637476,424.58775596276,371546.947064021,1567.70863740096,5682.94381057848,195.96357967512,379418.150847639,326.6059661252,369195.38410792,1371.74505772584,8034.50676667992,NA,NA,587.89073902536,371546.947064021,1959.6357967512,4311.19875285264,195.96357967512,378601.635932326,261.28477290016,366843.821151819,2939.4536951268,7838.5431870048,97.98178983756,377981.084596688,261.28477290016,369195.38410792,1567.70863740096,8034.50676667992,97.98178983756,379156.866074739
"48",261.28477290016,369979.23842662,3135.41727480192,6270.83454960384,NA,NA,457.24835257528,364492.258195717,2351.56295610144,8034.50676667992,293.94536951268,375629.521640587,457.24835257528,368411.52978922,2155.59937642632,6858.7252886292,NA,NA,391.92715935024,368803.45694857,2155.59937642632,6858.7252886292,97.98178983756,378307.690562813,457.24835257528,372722.728542072,2939.4536951268,3919.2715935024,NA,NA,457.24835257528,373114.655701422,1763.67221707608,4507.16233252776,195.96357967512,380038.702183276,326.6059661252,370763.092745321,979.8178983756,7642.57960732968,NA,NA,587.89073902536,372330.801382722,1959.6357967512,4115.23517317752,97.98178983756,379091.544881513,261.28477290016,368411.52978922,2939.4536951268,7054.68886830432,97.98178983756,378764.938915388,261.28477290016,370371.165585971,1763.67221707608,7250.65244797944,97.98178983756,379744.756813764
"49",261.28477290016,370763.092745321,3135.41727480192,5878.9073902536,NA,NA,391.92715935024,366059.966833118,2155.59937642632,7838.5431870048,293.94536951268,376739.981925412,555.23014241284,368019.602629869,1959.6357967512,6662.76170895408,NA,NA,457.24835257528,368411.52978922,2351.56295610144,6466.79812927896,97.98178983756,377785.121017013,424.58775596276,372722.728542072,3135.41727480192,3919.2715935024,NA,NA,391.92715935024,372722.728542072,1763.67221707608,4899.089491878,293.94536951268,380071.362779889,359.26656273772,371155.019904671,979.8178983756,7250.65244797944,NA,NA,522.56954580032,373114.655701422,1763.67221707608,3919.2715935024,293.94536951268,379614.114427314,326.6059661252,369587.31126727,2547.52653577656,6270.83454960384,195.96357967512,378928.241898451,195.96357967512,371938.874223372,1763.67221707608,6662.76170895408,195.96357967512,380757.235308752
"50",228.62417628764,371938.874223372,2939.4536951268,5291.01665122824,195.96357967512,380593.932325689,293.94536951268,367235.748311169,1959.6357967512,7838.5431870048,391.92715935024,377719.799823788,489.9089491878,369979.23842662,1763.67221707608,6074.87096992872,97.98178983756,378405.672352651,424.58775596276,368019.602629869,2351.56295610144,6662.76170895408,195.96357967512,377654.478630563,424.58775596276,373506.582860772,2939.4536951268,3527.34443415216,97.98178983756,380495.950535852,391.92715935024,373506.582860772,1567.70863740096,4703.12591220288,293.94536951268,380463.289939239,293.94536951268,370763.092745321,1175.78147805072,7446.61602765456,97.98178983756,379777.417410376,424.58775596276,372722.728542072,1763.67221707608,4703.12591220288,293.94536951268,379908.059796826,359.26656273772,369979.23842662,2743.49011545168,5682.94381057848,195.96357967512,378960.902495063,195.96357967512,371938.874223372,1763.67221707608,6662.76170895408,195.96357967512,380757.235308752
"51",195.96357967512,373506.582860772,2939.4536951268,4703.12591220288,195.96357967512,381541.089627452,261.28477290016,367627.675470519,1959.6357967512,7642.57960732968,489.9089491878,377981.084596688,424.58775596276,369587.31126727,1763.67221707608,6662.76170895408,97.98178983756,378536.314739101,489.9089491878,367627.675470519,2155.59937642632,6662.76170895408,195.96357967512,377131.909084763,457.24835257528,373506.582860772,2547.52653577656,3723.30801382728,97.98178983756,380332.647552789,391.92715935024,374290.437179473,1371.74505772584,4703.12591220288,195.96357967512,380953.198888427,359.26656273772,369979.23842662,1175.78147805072,7642.57960732968,NA,NA,391.92715935024,372330.801382722,1763.67221707608,5095.05307155312,293.94536951268,379875.399200214,359.26656273772,370371.165585971,2351.56295610144,6074.87096992872,97.98178983756,379254.847864576,163.3029830626,371938.874223372,1763.67221707608,6858.7252886292,195.96357967512,380920.538291815
"52",130.64238645008,373898.510020123,2743.49011545168,5095.05307155312,195.96357967512,382063.659173253,293.94536951268,367235.748311169,1763.67221707608,7838.5431870048,489.9089491878,377621.81803395,424.58775596276,369979.23842662,1567.70863740096,6662.76170895408,97.98178983756,378732.278318776,424.58775596276,368019.602629869,2155.59937642632,7054.68886830432,97.98178983756,377752.4604204,424.58775596276,372330.801382722,2939.4536951268,3919.2715935024,195.96357967512,379810.078006989,359.26656273772,374290.437179473,1371.74505772584,4899.089491878,195.96357967512,381116.50187149,359.26656273772,370371.165585971,1175.78147805072,7446.61602765456,NA,NA,293.94536951268,371546.947064021,2155.59937642632,5291.01665122824,489.9089491878,379777.417410376,391.92715935024,369979.23842662,2547.52653577656,5878.9073902536,97.98178983756,378895.581301838,195.96357967512,371546.947064021,2155.59937642632,6662.76170895408,97.98178983756,380659.253518914
"53",130.64238645008,373114.655701422,2939.4536951268,5291.01665122824,195.96357967512,381671.732013902,293.94536951268,367627.675470519,1959.6357967512,7446.61602765456,489.9089491878,377817.781613625,424.58775596276,369979.23842662,1763.67221707608,6466.79812927896,97.98178983756,378732.278318776,391.92715935024,369587.31126727,1959.6357967512,6662.76170895408,97.98178983756,378699.617722163,359.26656273772,372330.801382722,2939.4536951268,4115.23517317752,293.94536951268,380038.702183276,293.94536951268,374290.437179473,1175.78147805072,5486.98023090336,195.96357967512,381443.107837615,359.26656273772,370763.092745321,979.8178983756,7446.61602765456,NA,NA,293.94536951268,371546.947064021,2155.59937642632,5486.98023090336,391.92715935024,379875.399200214,326.6059661252,369979.23842662,2547.52653577656,6074.87096992872,195.96357967512,379124.205478126,261.28477290016,371155.019904671,1959.6357967512,6662.76170895408,97.98178983756,380136.683973114
"54",130.64238645008,373898.510020123,2547.52653577656,5291.01665122824,195.96357967512,382063.659173253,326.6059661252,368411.52978922,1959.6357967512,7054.68886830432,391.92715935024,378144.387579751,424.58775596276,369587.31126727,1959.6357967512,6662.76170895408,NA,NA,326.6059661252,369587.31126727,2155.59937642632,6858.7252886292,97.98178983756,379026.223688289,359.26656273772,373506.582860772,2547.52653577656,3919.2715935024,293.94536951268,380626.592922302,326.6059661252,375074.291498173,979.8178983756,5486.98023090336,NA,NA,326.6059661252,371546.947064021,979.8178983756,7250.65244797944,NA,NA,261.28477290016,371938.874223372,2155.59937642632,5291.01665122824,489.9089491878,380136.683973114,359.26656273772,369979.23842662,2351.56295610144,6074.87096992872,195.96357967512,378960.902495063,261.28477290016,371938.874223372,1959.6357967512,6270.83454960384,97.98178983756,380528.611132464
"55",163.3029830626,373898.510020123,2547.52653577656,5095.05307155312,195.96357967512,381900.35619019,261.28477290016,368411.52978922,1959.6357967512,7446.61602765456,391.92715935024,378470.993545876,457.24835257528,369195.38410792,1959.6357967512,6662.76170895408,NA,NA,391.92715935024,368411.52978922,2155.59937642632,7250.65244797944,NA,NA,261.28477290016,373506.582860772,2547.52653577656,4507.16233252776,293.94536951268,381116.50187149,326.6059661252,374682.364338823,979.8178983756,5682.94381057848,NA,NA,293.94536951268,372722.728542072,979.8178983756,6858.7252886292,NA,NA,261.28477290016,372722.728542072,2155.59937642632,4899.089491878,489.9089491878,380528.611132464,359.26656273772,370371.165585971,2351.56295610144,5878.9073902536,195.96357967512,379156.866074739,261.28477290016,372722.728542072,1763.67221707608,6074.87096992872,97.98178983756,380920.538291814
"56",195.96357967512,373898.510020123,2351.56295610144,5095.05307155312,195.96357967512,381737.053207127,293.94536951268,368411.52978922,1959.6357967512,7642.57960732968,195.96357967512,378503.654142488,424.58775596276,368803.45694857,2155.59937642632,6662.76170895408,97.98178983756,378144.387579751,424.58775596276,367627.675470519,2155.59937642632,7250.65244797944,97.98178983756,377556.496840725,261.28477290016,373898.510020123,2351.56295610144,4703.12591220288,195.96357967512,381410.447241002,326.6059661252,374682.364338823,979.8178983756,5682.94381057848,NA,NA,261.28477290016,371938.874223372,1175.78147805072,7250.65244797944,NA,NA,261.28477290016,373506.582860772,2155.59937642632,4507.16233252776,489.9089491878,380920.538291814,391.92715935024,370763.092745321,2351.56295610144,5486.98023090336,195.96357967512,379189.526671351,326.6059661252,371546.947064021,1763.67221707608,6270.83454960384,97.98178983756,380006.041586664
"57",261.28477290016,373506.582860772,2351.56295610144,5095.05307155312,97.98178983756,381312.465451165,261.28477290016,368019.602629869,2155.59937642632,7838.5431870048,195.96357967512,378470.993545876,326.6059661252,368411.52978922,2155.59937642632,7250.65244797944,195.96357967512,378340.351159426,457.24835257528,367235.748311169,2155.59937642632,7250.65244797944,97.98178983756,377197.230277988,293.94536951268,373114.655701422,2351.56295610144,5095.05307155312,97.98178983756,380953.198888427,326.6059661252,374290.437179473,979.8178983756,5878.9073902536,NA,NA,293.94536951268,371155.019904671,1175.78147805072,7446.61602765456,NA,NA,228.62417628764,373898.510020123,1959.6357967512,5291.01665122824,195.96357967512,381573.750224065,359.26656273772,372330.801382722,1959.6357967512,5486.98023090336,97.98178983756,380234.665762952,424.58775596276,371155.019904671,1567.70863740096,6270.83454960384,NA,NA
"58",261.28477290016,373114.655701422,2351.56295610144,5095.05307155312,195.96357967512,381018.520081652,261.28477290016,369587.31126727,1763.67221707608,7446.61602765456,195.96357967512,379254.847864576,326.6059661252,368019.602629869,2547.52653577656,7054.68886830432,195.96357967512,378144.387579751,457.24835257528,366059.966833118,2547.52653577656,7446.61602765456,97.98178983756,376609.339538962,261.28477290016,372722.728542072,2547.52653577656,5291.01665122824,97.98178983756,380920.538291814,391.92715935024,372722.728542072,1175.78147805072,6074.87096992872,NA,NA,359.26656273772,369979.23842662,1175.78147805072,7642.57960732968,NA,NA,261.28477290016,374290.437179473,1567.70863740096,5291.01665122824,195.96357967512,381606.410820677,359.26656273772,372722.728542072,1763.67221707608,5486.98023090336,97.98178983756,380430.629342627,424.58775596276,371546.947064021,1567.70863740096,6074.87096992872,NA,NA
"59",261.28477290016,373114.655701422,2351.56295610144,5095.05307155312,195.96357967512,381018.520081652,163.3029830626,370371.165585971,1567.70863740096,7250.65244797944,489.9089491878,379842.738603601,261.28477290016,369195.38410792,2547.52653577656,6858.7252886292,195.96357967512,379058.884284901,391.92715935024,366451.893992468,2743.49011545168,7446.61602765456,97.98178983756,377131.909084763,261.28477290016,373114.655701422,2547.52653577656,5095.05307155312,97.98178983756,381116.50187149,391.92715935024,372330.801382722,1175.78147805072,6270.83454960384,NA,NA,391.92715935024,369195.38410792,1371.74505772584,7642.57960732968,NA,NA,228.62417628764,373898.510020123,1763.67221707608,5682.94381057848,97.98178983756,381671.732013902,326.6059661252,372330.801382722,1567.70863740096,6270.83454960384,NA,NA,424.58775596276,372330.801382722,1175.78147805072,5878.9073902536,97.98178983756,379908.059796826
"60",228.62417628764,373898.510020123,1959.6357967512,5291.01665122824,195.96357967512,381573.750224065,195.96357967512,370371.165585971,1567.70863740096,7054.68886830432,489.9089491878,379679.435620539,293.94536951268,369195.38410792,2351.56295610144,6858.7252886292,195.96357967512,378895.581301838,326.6059661252,366059.966833118,2743.49011545168,8034.50676667992,97.98178983756,377262.551471213,293.94536951268,372722.728542072,2351.56295610144,5291.01665122824,97.98178983756,380757.235308752,359.26656273772,372330.801382722,979.8178983756,6466.79812927896,97.98178983756,380234.665762952,424.58775596276,369195.38410792,1175.78147805072,7446.61602765456,97.98178983756,378340.351159426,228.62417628764,373114.655701422,1959.6357967512,5878.9073902536,97.98178983756,381279.804854552,326.6059661252,371546.947064021,1567.70863740096,6662.76170895408,NA,NA,424.58775596276,372330.801382722,1175.78147805072,5682.94381057848,195.96357967512,379810.078006989
