"","Early1.ALL","Late1.CLS","Late1.OPN","Mid1.CLS","Mid1.OPN","Early1.ALL.1","Late1.CLS.1","Late1.OPN.1","Mid1.CLS.1","Mid1.OPN.1","Early1.ALL.2","Late1.CLS.2","Late1.OPN.2","Mid1.CLS.2","Mid1.OPN.2","Early1.ALL.3","Late1.CLS.3","Late1.OPN.3","Mid1.CLS.3","Mid1.OPN.3","Early1.ALL.4","Late1.CLS.4","Late1.OPN.4","Mid1.CLS.4","Mid1.OPN.4","Early1.ALL.5","Late1.CLS.5","Late1.OPN.5","Mid1.CLS.5","Mid1.OPN.5","Early1.ALL.6","Late1.CLS.6","Late1.OPN.6","Mid1.CLS.6","Mid1.OPN.6","Early1.ALL.7","Late1.CLS.7","Late1.OPN.7","Mid1.CLS.7","Mid1.OPN.7","Early1.ALL.8","Late1.CLS.8","Late1.OPN.8","Mid1.CLS.8","Mid1.OPN.8","Early1.ALL.9","Late1.CLS.9","Late1.OPN.9","Mid1.CLS.9","Mid1.OPN.9"
"0",3.09207796952097,6.3965715757275,13.162108017072,0.347172213169718,4.82549935412378,2.82892239764684,7.18488145301787,13.8824223861655,0.324628562963892,4.05683574019257,2.99339463006817,6.80198808404826,13.096624892609,0.342663483128553,4.39846401305089,3.38812798787936,7.0722657562621,12.0488949012002,0.344917848149136,3.97142867197799,3.02628907655244,6.64432610859019,13.227591141535,0.355062490741757,4.09953927429986,3.25655020194229,6.50918727248327,13.162108017072,0.353935308231466,4.14224280840715,3.02628907655244,6.41909471507866,13.7514561372394,0.351680943210883,4.31305694483631,3.25655020194229,6.95965005950634,13.6204898883133,0.323501380453601,4.14224280840715,3.51970577381642,6.59927982988788,12.4417936479785,0.332518840535931,4.91090642233836,2.92760573709964,6.6893723872925,13.7514561372394,0.346045030659427,4.14224280840715
"1",2.63155571874125,6.50918727248327,13.2930742659981,0.360698403293214,4.61198168358733,2.66445016522552,7.22992773172018,13.8824223861655,0.338154753087388,3.67250393322696,2.49997793280419,7.0272194775598,13.162108017072,0.350553760700592,4.27035341072902,3.0591835230367,7.3650665678271,12.1798611501263,0.34829939568001,3.62980039911967,2.46708348631992,6.82451122339942,13.4240405149242,0.371970228396127,3.71520746733425,2.73023905819405,6.71189552664365,13.2930742659981,0.364079950824088,3.97142867197799,2.43418903983566,6.48666413313212,13.7514561372394,0.364079950824088,4.48387108126547,2.56576682577272,7.18488145301787,13.6859730127764,0.335900388066805,4.09953927429986,2.99339463006817,6.77946494469711,12.5072767724415,0.342663483128553,4.82549935412378,2.59866127225699,6.91460378080403,13.8169392617025,0.347172213169718,4.05683574019257
"2",2.33550570038286,6.64432610859019,13.6204898883133,0.375351775927001,3.97142867197799,2.3026112538986,7.38758970717825,14.0788717595546,0.346045030659427,3.41628272858322,2.33550570038286,7.13983517431556,13.3585573904611,0.353935308231466,4.01413220608528,2.56576682577272,7.52272854328517,12.4417936479785,0.35731685576234,3.45898626269051,2.13813902147727,7.16235831366672,13.4240405149242,0.369715863375544,3.58709686501238,2.105244574993,6.93712692015518,13.4895236393872,0.375351775927001,3.80061453554883,1.74340566366608,6.6893723872925,13.9479055106285,0.374224593416709,4.48387108126547,2.0065612355402,7.32002028912479,13.7514561372394,0.346045030659427,4.14224280840715,2.59866127225699,6.95965005950634,12.5727598969046,0.350553760700592,4.65468521769462,2.23682236093006,7.04974261691095,14.2753211329438,0.356189673252049,3.62980039911967
"3",1.97366678905594,6.77946494469711,13.7514561372394,0.38324205349904,3.80061453554883,1.84208900311888,7.63534424004094,14.2098380084807,0.351680943210883,3.24546859215406,2.0065612355402,7.20740459236902,13.3585573904611,0.368588680865253,3.75791100144154,2.2039279144458,7.86057563355247,12.5072767724415,0.355062490741757,3.33087566036864,1.80919455663461,7.34254342847594,13.4240405149242,0.379860505968166,3.28817212626135,1.87498344960314,7.09478889561326,13.5550067638503,0.384369236009331,3.41628272858322,1.31577785937063,6.93712692015518,14.0788717595546,0.380987688478457,4.22764987662173,1.74340566366608,7.45515912523171,13.9479055106285,0.346045030659427,4.09953927429986,2.13813902147727,7.13983517431556,12.7037261458307,0.359571220782922,4.48387108126547,1.80919455663461,7.16235831366672,14.4717705063329,0.367461498354962,3.41628272858322
"4",1.77630011015035,6.91460378080403,13.9479055106285,0.391132331071079,3.37357919447593,1.71051121718181,7.86057563355247,14.4717705063329,0.350553760700592,2.86113678518845,1.57893343124475,7.32002028912479,13.3585573904611,0.379860505968166,3.67250393322696,1.87498344960314,8.06328388771285,12.7037261458307,0.358444038272631,3.11735798983219,1.41446119882342,7.45515912523171,13.6859730127764,0.388877966050496,3.0746544557249,1.51314453827622,7.4101128465294,13.6204898883133,0.384369236009331,3.24546859215406,1.11841118046503,7.0722657562621,14.0788717595546,0.394513878601953,3.71520746733425,1.48025009179195,7.65786737939209,14.0133886350916,0.347172213169718,3.97142867197799,1.87498344960314,7.3650665678271,12.8346923947568,0.367461498354962,4.01413220608528,1.67761677069755,7.3650665678271,14.602736755259,0.371970228396127,2.94654385340303
"5",1.41446119882342,7.11731203496441,13.9479055106285,0.408040068725448,2.81843325108116,1.54603898476049,8.0407607483617,14.7337030041851,0.349426578190301,2.6049155805447,1.21709451991783,7.56777482198748,13.3585573904611,0.379860505968166,3.67250393322696,1.71051121718181,8.17589958446862,12.7692092702937,0.370843045885835,2.6049155805447,1.11841118046503,7.65786737939209,13.6859730127764,0.388877966050496,3.0746544557249,1.31577785937063,7.59029796133863,13.7514561372394,0.380987688478457,3.20276505804677,0.888150055075173,7.29749714977364,14.1443548840177,0.397895426132827,3.41628272858322,1.31577785937063,7.83805249420132,13.9479055106285,0.352808125721175,3.67250393322696,1.57893343124475,7.59029796133863,12.9001755192198,0.382114870988748,3.37357919447593,1.31577785937063,7.65786737939209,14.6682198797221,0.376478958437292,2.64761911465199
"6",1.18420007343356,7.61282110068978,13.162108017072,0.405785703704866,2.77572971697387,1.21709451991783,8.4236541173313,13.7514561372394,0.364079950824088,2.39139791000825,0.986833394527969,8.01823760901054,12.8346923947568,0.373097410906418,3.71520746733425,1.41446119882342,8.78402434694976,11.5905130299589,0.375351775927001,2.43410144411554,0.855255608590907,8.378607838629,12.5727598969046,0.387750783540205,2.81843325108116,1.1513056269493,8.06328388771285,13.096624892609,0.380987688478457,2.94654385340303,0.723677822653844,8.01823760901054,12.9656586436829,0.39225951358137,3.24546859215406,1.0526222874965,8.24346900252208,13.2930742659981,0.362952768313796,3.28817212626135,1.24998896640209,8.085807027064,11.9834117767372,0.391132331071079,3.11735798983219,1.0526222874965,8.31103842057554,13.6859730127764,0.38324205349904,2.13517670536451
"7",0.789466715622376,8.24346900252208,12.5727598969046,0.404658521194574,2.51950851233012,1.0526222874965,9.18944085527052,12.2453442745894,0.365207133334379,2.09247317125722,0.888150055075173,8.69393178954514,11.655996154422,0.370843045885835,3.41628272858322,1.31577785937063,9.16691771591936,10.9356817853285,0.375351775927001,2.26328730768638,0.657888929685313,8.80654748630091,11.9834117767372,0.387750783540205,2.64761911465199,0.822361162106641,8.60383923214053,12.3763105235155,0.378733323457875,2.90384031929574,0.592100036716782,8.53626981408707,12.1798611501263,0.391132331071079,2.98924738751032,0.690783376169579,8.96420946175899,12.0488949012002,0.369715863375544,2.94654385340303,0.986833394527969,8.58131609278938,11.3285805321067,0.390005148560788,2.98924738751032,0.789466715622376,8.89664004370552,12.8346923947568,0.378733323457875,2.09247317125722
"8",0.690783376169579,8.69393178954514,12.0488949012002,0.402404156173992,2.22058377357909,0.888150055075173,9.75251933904935,11.1976142831806,0.367461498354962,1.83625196661348,0.624994483201047,9.16691771591936,10.6737492874763,0.395641061112244,2.56221204643741,0.855255608590907,9.79756561775166,9.82246866945669,0.382114870988748,2.13517670536451,0.493416697263985,9.52728794553782,11.0011649097915,0.387750783540205,2.13517670536451,0.789466715622376,9.14439457656821,11.3285805321067,0.376478958437292,2.69032264875928,0.559205590232516,9.0543020191636,11.5250299054959,0.393386696091661,2.39139791000825,0.624994483201047,9.4371953881332,11.1976142831806,0.378733323457875,2.34869437590096,0.888150055075173,9.03177887981244,10.4772999140871,0.393386696091661,2.69032264875928,0.657888929685313,9.52728794553782,11.721479278885,0.373097410906418,2.00706610304264
"9",0.52631114374825,9.3921491094309,10.5427830385502,0.410294433746031,1.79354843250619,0.789466715622376,10.5408292163397,9.6915024205306,0.367461498354962,1.45192015964787,0.493416697263985,9.70747306034704,9.82246866945669,0.390005148560788,2.47680497822283,0.624994483201047,10.3155978228282,9.29860367375234,0.375351775927001,2.04976963714993,0.427627804295453,10.1128895686678,10.0189180428458,0.391132331071079,1.62273429607703,0.624994483201047,9.63990364229359,10.6737492874763,0.379860505968166,2.26328730768638,0.427627804295453,9.66242678164474,10.4118167896241,0.401276973663701,1.83625196661348,0.361838911326922,9.86513503580512,10.4118167896241,0.387750783540205,2.04976963714993,0.559205590232516,9.59485736359128,9.6915024205306,0.402404156173992,2.22058377357909,0.493416697263985,10.1128895686678,10.9356817853285,0.367461498354962,1.83625196661348
"10",0.493416697263985,10.0453201506143,9.23312054928929,0.413675981276905,1.323809557326,0.690783376169579,11.0588614214162,8.90570492697407,0.364079950824088,1.23840248911142,0.394733357811188,10.1804589867213,8.97118805143712,0.402404156173992,1.79354843250619,0.427627804295453,10.9011994459582,8.44732305573276,0.373097410906418,1.83625196661348,0.263155571874125,10.7660606098513,8.70925555358494,0.391132331071079,1.45192015964787,0.361838911326922,10.293074683477,9.62601929606756,0.390005148560788,1.66543783018432,0.394733357811188,10.5183060769886,8.70925555358494,0.401276973663701,1.36651309143329,0.296050018358391,10.2705515441259,9.82246866945669,0.39225951358137,1.58003076196974,0.493416697263985,10.0678432899655,8.77473867804799,0.405785703704866,1.87895550072077,0.493416697263985,10.878676306607,9.49505304714147,0.365207133334379,1.40921662554058
"11",0.328944464842656,10.585875495042,8.31635680680667,0.417057528807779,0.982181284467675,0.559205590232516,11.464277929737,8.18539055788059,0.368588680865253,0.939477750360385,0.361838911326922,10.6083986343932,8.38183993126972,0.412548798766614,1.02488481857497,0.296050018358391,11.3291390936301,7.59604243771319,0.387750783540205,1.19569895500413,0.263155571874125,11.2840928149278,7.66152556217623,0.402404156173992,0.725960079823934,0.263155571874125,10.7660606098513,8.97118805143712,0.395641061112244,1.11029188678955,0.328944464842656,10.9462457246605,7.92345806002841,0.40916725123574,0.854070682145805,0.230261125389859,10.8336300279047,8.90570492697407,0.397895426132827,0.982181284467675,0.460522250779719,10.4732597982863,8.31635680680667,0.410294433746031,1.28110602321871,0.328944464842656,11.4192316510347,8.84022180251103,0.362952768313796,1.11029188678955
"12",0.263155571874125,11.1264308394697,7.92345806002841,0.397895426132827,1.02488481857497,0.460522250779719,11.8696944380578,7.53055931325014,0.36633431584467,0.811367148038514,0.361838911326922,11.1039077001186,7.53055931325014,0.403531338684283,0.982181284467675,0.296050018358391,11.9372638561112,6.54831244630448,0.379860505968166,1.02488481857497,0.230261125389859,11.9147407167601,6.61379557076752,0.393386696091661,0.597849477502063,0.197366678905594,11.2615696755766,8.0544243089545,0.388877966050496,1.11029188678955,0.328944464842656,11.4868010690882,7.00669431754579,0.403531338684283,0.640553011609354,0.230261125389859,11.2840928149278,8.11990743341754,0.395641061112244,0.725960079823934,0.296050018358391,11.1264308394697,7.39959306432405,0.402404156173992,1.15299542089684,0.328944464842656,11.9597869954624,7.92345806002841,0.353935308231466,1.02488481857497
"13",0.131577785937063,11.5768936264928,7.07217744200883,0.397895426132827,0.896774216253095,0.361838911326922,12.5228654792412,6.35186307291534,0.356189673252049,0.854070682145805,0.328944464842656,11.3967085116835,7.00669431754579,0.400149791153409,0.939477750360385,0.263155571874125,12.5453886185924,5.56606557935881,0.373097410906418,0.811367148038514,0.197366678905594,12.2525878070274,5.82799807721099,0.391132331071079,0.597849477502063,0.164472232421328,11.5994167658439,7.4650761887871,0.385496418519622,1.02488481857497,0.328944464842656,11.8246481593555,6.41734619737839,0.400149791153409,0.512442409287483,0.230261125389859,11.8471712987066,7.20314369093492,0.384369236009331,0.683256545716644,0.296050018358391,11.8021250200043,6.2863799484523,0.39225951358137,0.982181284467675,0.328944464842656,12.4102497824854,7.20314369093492,0.349426578190301,0.811367148038514
"14",0.0986833394527969,12.1174489709205,6.54831244630448,0.390005148560788,0.555145943394773,0.394733357811188,13.0634208236689,5.43509933043272,0.342663483128553,0.896774216253095,0.394733357811188,11.9823101348135,6.2863799484523,0.384369236009331,0.811367148038514,0.296050018358391,13.4012679139362,4.45285246348705,0.350553760700592,0.725960079823934,0.197366678905594,12.8607125695085,5.50058245489577,0.367461498354962,0.555145943394773,0.197366678905594,12.2300646676762,6.41734619737839,0.374224593416709,0.896774216253095,0.328944464842656,12.3877266431343,5.63154870382186,0.386623601029914,0.469738875180193,0.230261125389859,12.4327729218366,6.35186307291534,0.373097410906418,0.555145943394773,0.328944464842656,12.4778192005389,5.17316683258055,0.375351775927001,1.02488481857497,0.263155571874125,12.9057588482108,6.35186307291534,0.34040911810797,0.854070682145805
"15",0.131577785937063,12.635481175997,5.95896432613708,0.373097410906418,0.555145943394773,0.427627804295453,13.4237910532873,5.04220058365446,0.335900388066805,0.683256545716644,0.361838911326922,12.3877266431343,5.95896432613708,0.371970228396127,0.768663613931224,0.230261125389859,13.7616381435546,3.92898746778269,0.346045030659427,0.640553011609354,0.164472232421328,13.4012679139362,4.84575121026532,0.356189673252049,0.427035341072902,0.197366678905594,12.7480968727527,5.63154870382186,0.373097410906418,0.469738875180193,0.296050018358391,13.0408976843177,4.45285246348705,0.378733323457875,0.341628272858322,0.230261125389859,12.9508051269131,5.56606557935881,0.362952768313796,0.469738875180193,0.328944464842656,12.8156662908062,4.45285246348705,0.374224593416709,0.896774216253095,0.263155571874125,13.3562216352339,5.56606557935881,0.33139165802564,0.854070682145805
"16",0.197366678905594,13.0408976843177,5.17316683258055,0.365207133334379,0.512442409287483,0.328944464842656,14.1220083731731,3.99447059224574,0.325755745474183,0.555145943394773,0.328944464842656,13.1309902417224,4.5183355879501,0.364079950824088,0.640553011609354,0.230261125389859,14.2121009305777,2.94674060083702,0.341536300618262,0.597849477502063,0.197366678905594,13.9868695370662,3.7980212188566,0.344917848149136,0.384331806965612,0.230261125389859,13.4012679139362,4.19091996563487,0.364079950824088,0.469738875180193,0.296050018358391,13.6490224467989,3.27415622315224,0.368588680865253,0.341628272858322,0.197366678905594,13.2436059384781,4.91123433472837,0.361825585803505,0.427035341072902,0.361838911326922,13.3336984958827,3.47060559654138,0.367461498354962,0.768663613931224,0.296050018358391,14.0093926764173,4.38736933902401,0.318992650412436,0.811367148038514
"17",0.230261125389859,13.4237910532873,4.78026808580228,0.355062490741757,0.384331806965612,0.263155571874125,14.5049017421427,3.92898746778269,0.315611102881562,0.341628272858322,0.296050018358391,13.378744774585,4.32188621456096,0.361825585803505,0.427035341072902,0.230261125389859,14.4373323240892,2.75029122744789,0.335900388066805,0.512442409287483,0.230261125389859,14.3922860453869,3.53608872100442,0.328010110494766,0.384331806965612,0.164472232421328,13.7165918648523,3.99447059224574,0.356189673252049,0.384331806965612,0.263155571874125,13.9868695370662,3.07770684976311,0.358444038272631,0.256221204643741,0.131577785937063,13.4913604713408,4.58381871241314,0.358444038272631,0.384331806965612,0.361838911326922,13.6490224467989,3.07770684976311,0.360698403293214,0.683256545716644,0.296050018358391,14.25714720928,4.19091996563487,0.311102372840397,0.768663613931224
"18",0.263155571874125,13.67154558615,4.45285246348705,0.349426578190301,0.298924738751032,0.230261125389859,14.7526562750054,3.66705496993051,0.309975190330105,0.298924738751032,0.361838911326922,13.67154558615,3.92898746778269,0.352808125721175,0.384331806965612,0.230261125389859,14.6400405782496,2.68480810298484,0.328010110494766,0.469738875180193,0.230261125389859,14.6625637176007,3.40512247207833,0.320119832922727,0.256221204643741,0.164472232421328,14.0769620944708,3.66705496993051,0.344917848149136,0.341628272858322,0.197366678905594,14.2796703486312,2.75029122744789,0.352808125721175,0.213517670536451,0.164472232421328,14.0093926764173,4.19091996563487,0.339281935597679,0.341628272858322,0.328944464842656,13.964346397715,2.81577435191093,0.349426578190301,0.725960079823934,0.361838911326922,14.4373323240892,3.92898746778269,0.307720825309523,0.640553011609354
"19",0.230261125389859,14.0994852338219,4.12543684117183,0.335900388066805,0.256221204643741,0.230261125389859,14.9553645291657,3.40512247207833,0.30546646028894,0.256221204643741,0.394733357811188,13.9418232583639,3.73253809439356,0.342663483128553,0.341628272858322,0.296050018358391,14.8652719717611,2.55384185405875,0.318992650412436,0.384331806965612,0.263155571874125,14.8652719717611,3.33963934761529,0.309975190330105,0.256221204643741,0.164472232421328,14.4373323240892,3.2086730986892,0.335900388066805,0.298924738751032,0.263155571874125,14.4598554634404,2.68480810298484,0.343790665638844,0.170814136429161,0.0986833394527969,14.2121009305777,3.86350434331965,0.335900388066805,0.384331806965612,0.394733357811188,14.0994852338219,2.48835872959571,0.347172213169718,0.683256545716644,0.394733357811188,14.707609996303,3.7980212188566,0.29644900020661,0.597849477502063
"20",0.230261125389859,14.4823786027915,3.86350434331965,0.32237419794331,0.213517670536451,0.263155571874125,15.2031190620284,3.14318997422615,0.295321817696318,0.298924738751032,0.394733357811188,14.3247166273335,3.33963934761529,0.330264475515349,0.341628272858322,0.296050018358391,15.1355496439749,2.55384185405875,0.309975190330105,0.213517670536451,0.263155571874125,15.1130265046238,3.07770684976311,0.303212095268357,0.213517670536451,0.164472232421328,14.707609996303,3.07770684976311,0.328010110494766,0.170814136429161,0.296050018358391,14.8202256930588,2.48835872959571,0.326882927984475,0.213517670536451,0.0657888929685313,14.6175174388984,3.47060559654138,0.324628562963892,0.341628272858322,0.328944464842656,14.5949942995473,2.22642623174353,0.330264475515349,0.640553011609354,0.361838911326922,15.0229339472192,3.27415622315224,0.291940270165444,0.555145943394773
"21",0.328944464842656,14.8202256930588,3.53608872100442,0.308848007819814,0.170814136429161,0.230261125389859,15.4959198735934,3.01222372530006,0.287431540124279,0.170814136429161,0.427627804295453,14.7977025537077,3.01222372530006,0.311102372840397,0.341628272858322,0.263155571874125,15.4283504555399,2.55384185405875,0.297576182716901,0.170814136429161,0.296050018358391,15.5184430129445,2.94674060083702,0.285177175103697,0.170814136429161,0.164472232421328,15.0454570865703,2.68480810298484,0.317865467902144,0.170814136429161,0.296050018358391,15.1355496439749,2.42287560513266,0.312229555350688,0.213517670536451,0.0986833394527969,15.0229339472192,3.01222372530006,0.312229555350688,0.298924738751032,0.296050018358391,14.9328413898146,2.16094310728048,0.320119832922727,0.469738875180193,0.328944464842656,15.4508735948911,2.94674060083702,0.280668445062531,0.427035341072902
"22",0.328944464842656,15.1355496439749,3.40512247207833,0.297576182716901,0.0854070682145804,0.230261125389859,15.7887206851583,2.6193249785218,0.278414080041949,0.213517670536451,0.361838911326922,15.1805959226772,2.42287560513266,0.307720825309523,0.213517670536451,0.263155571874125,15.6986281277537,2.16094310728048,0.291940270165444,0.128110602321871,0.263155571874125,15.743674406456,2.88125747637397,0.276159715021366,0.170814136429161,0.164472232421328,15.2481653407307,2.55384185405875,0.311102372840397,0.128110602321871,0.263155571874125,15.3833041768376,2.42287560513266,0.300957730247775,0.213517670536451,0.0986833394527969,15.2481653407307,3.01222372530006,0.299830547737484,0.341628272858322,0.361838911326922,15.2031190620284,1.96449373389135,0.311102372840397,0.341628272858322,0.296050018358391,15.7887206851583,2.55384185405875,0.272778167490492,0.384331806965612
"23",0.361838911326922,15.5634892916468,3.01222372530006,0.280668445062531,0.128110602321871,0.230261125389859,16.0589983573722,2.35739248066962,0.268269437449327,0.256221204643741,0.361838911326922,15.5634892916468,2.09545998281744,0.295321817696318,0.170814136429161,0.361838911326922,16.036475218021,1.8990106094283,0.276159715021366,0.128110602321871,0.230261125389859,16.0589983573722,2.81577435191093,0.263760707408162,0.128110602321871,0.164472232421328,15.5634892916468,2.29190935620657,0.302084912758066,0.0427035341072902,0.230261125389859,15.6310587097003,2.22642623174353,0.289685905144862,0.341628272858322,0.0986833394527969,15.4959198735934,2.88125747637397,0.291940270165444,0.256221204643741,0.361838911326922,15.5409661522957,1.8990106094283,0.295321817696318,0.341628272858322,0.328944464842656,16.0589983573722,2.35739248066962,0.262633524897871,0.341628272858322
"24",0.361838911326922,15.7661975458072,3.07770684976311,0.27052380246991,0.0854070682145804,0.230261125389859,16.2617066115325,2.16094310728048,0.261506342387579,0.256221204643741,0.296050018358391,15.8337669638606,1.8990106094283,0.286304357613988,0.213517670536451,0.328944464842656,16.5770305624486,1.50611186265003,0.256997612346414,0.128110602321871,0.230261125389859,16.5094611443952,2.48835872959571,0.247980152264084,0.0854070682145804,0.131577785937063,15.8337669638606,2.09545998281744,0.293067452675736,0.0427035341072902,0.263155571874125,15.8112438245095,2.09545998281744,0.280668445062531,0.384331806965612,0.131577785937063,15.9013363819141,2.02997685835439,0.286304357613988,0.213517670536451,0.361838911326922,15.9238595212652,1.57159498711308,0.281795627572823,0.341628272858322,0.328944464842656,16.3968454476394,2.02997685835439,0.252488882305249,0.298924738751032
"25",0.328944464842656,16.1265677754256,2.75029122744789,0.258124794856705,0.128110602321871,0.328944464842656,16.3968454476394,2.16094310728048,0.25361606481554,0.170814136429161,0.296050018358391,16.1490909147768,1.63707811157612,0.277286897531658,0.128110602321871,0.328944464842656,16.8022619559602,1.24417936479785,0.250234517284666,0.128110602321871,0.263155571874125,16.7572156772579,2.16094310728048,0.240089874692045,0.0854070682145804,0.164472232421328,16.0589983573722,1.70256123603917,0.288558722634571,NA,0.263155571874125,16.0589983573722,1.83352748496526,0.272778167490492,0.384331806965612,0.164472232421328,16.2391834721814,1.83352748496526,0.271650984980201,0.213517670536451,0.328944464842656,16.3067528902348,1.24417936479785,0.269396619959618,0.341628272858322,0.328944464842656,16.5995537017998,1.96449373389135,0.246852969753792,0.170814136429161
"26",0.328944464842656,16.4418917263417,2.42287560513266,0.246852969753792,0.170814136429161,0.361838911326922,16.7346925379067,1.8990106094283,0.241217057202336,0.128110602321871,0.394733357811188,16.4418917263417,1.44062873818699,0.262633524897871,0.128110602321871,0.361838911326922,17.0950627675251,1.04772999140872,0.238962692181753,0.0854070682145804,0.263155571874125,16.9148776527159,2.09545998281744,0.233326779630297,0.0854070682145804,0.164472232421328,16.3067528902348,1.57159498711308,0.278414080041949,NA,0.230261125389859,16.2617066115325,1.70256123603917,0.264887889918453,0.427035341072902,0.197366678905594,16.6220768411509,1.63707811157612,0.255870429836123,0.170814136429161,0.263155571874125,16.5995537017998,1.3096624892609,0.258124794856705,0.256221204643741,0.361838911326922,16.8247850953113,1.76804436050221,0.238962692181753,0.128110602321871
"27",0.361838911326922,16.8022619559602,2.16094310728048,0.232199597120006,0.170814136429161,0.361838911326922,16.9824470707694,1.76804436050221,0.231072414609714,0.128110602321871,0.394733357811188,16.5770305624486,1.37514561372394,0.255870429836123,0.170814136429161,0.427627804295453,17.3428173003878,1.04772999140872,0.224309319547966,0.0854070682145804,0.230261125389859,17.0950627675251,1.96449373389135,0.229945232099423,NA,0.131577785937063,16.7572156772579,1.44062873818699,0.258124794856705,0.0427035341072902,0.263155571874125,16.5770305624486,1.63707811157612,0.251361699794958,0.341628272858322,0.230261125389859,16.8247850953113,1.57159498711308,0.245725787243501,0.170814136429161,0.263155571874125,16.8247850953113,1.3096624892609,0.249107334774375,0.170814136429161,0.361838911326922,17.0049702101205,1.76804436050221,0.231072414609714,0.0854070682145804
"28",0.263155571874125,17.0950627675251,1.83352748496526,0.226563684568549,0.170814136429161,0.361838911326922,17.230201603632,1.76804436050221,0.21867340699651,0.128110602321871,0.361838911326922,16.8247850953113,1.3096624892609,0.245725787243501,0.170814136429161,0.427627804295453,17.5004792758459,1.11321311587176,0.214164676955345,0.128110602321871,0.197366678905594,17.2752478823344,1.96449373389135,0.222054954527384,NA,0.164472232421328,17.1401090462274,1.3096624892609,0.240089874692045,0.0427035341072902,0.296050018358391,16.8022619559602,1.57159498711308,0.238962692181753,0.384331806965612,0.230261125389859,17.2076784642809,1.11321311587176,0.235581144650879,0.128110602321871,0.263155571874125,16.9148776527159,1.17869624033481,0.245725787243501,0.213517670536451,0.361838911326922,17.3202941610367,1.50611186265003,0.21867340699651,0.128110602321871
"29",0.230261125389859,17.3878635790901,1.70256123603917,0.213037494445053,0.256221204643741,0.394733357811188,17.5455255545482,1.57159498711308,0.205147216873014,0.128110602321871,0.394733357811188,17.0049702101205,1.17869624033481,0.241217057202336,0.0427035341072902,0.394733357811188,17.8383263661131,0.916763742482628,0.200638486831849,0.170814136429161,0.197366678905594,17.4779561364947,1.96449373389135,0.211910311934762,NA,0.164472232421328,17.3428173003878,1.17869624033481,0.232199597120006,0.0427035341072902,0.361838911326922,17.0500164888228,1.44062873818699,0.228818049589132,0.298924738751032,0.296050018358391,17.523002415197,0.982246866945673,0.219800589506801,0.128110602321871,0.230261125389859,17.1626321855786,1.11321311587176,0.236708327161171,0.170814136429161,0.263155571874125,17.5905718332505,1.37514561372394,0.208528764403888,0.213517670536451
"30",0.230261125389859,17.523002415197,1.63707811157612,0.207401581893597,0.256221204643741,0.328944464842656,17.8383263661131,1.37514561372394,0.196129756790684,0.128110602321871,0.394733357811188,17.230201603632,1.11321311587176,0.231072414609714,0.0427035341072902,0.394733357811188,18.0410346202735,0.851280618019584,0.19274820925981,0.128110602321871,0.197366678905594,17.7031875300062,1.96449373389135,0.200638486831849,NA,0.131577785937063,17.6806643906551,0.982246866945673,0.219800589506801,0.0427035341072902,0.394733357811188,17.2076784642809,1.3096624892609,0.223182137037675,0.256221204643741,0.296050018358391,17.7257106693574,0.851280618019584,0.211910311934762,0.128110602321871,0.263155571874125,17.4329098577924,1.04772999140872,0.224309319547966,0.128110602321871,0.230261125389859,17.8383263661131,1.3096624892609,0.196129756790684,0.298924738751032
"31",0.164472232421328,17.8383263661131,1.63707811157612,0.195002574280393,0.213517670536451,0.361838911326922,17.9959883415712,1.37514561372394,0.187112296708354,0.128110602321871,0.328944464842656,17.4554329971436,1.11321311587176,0.220927772017093,0.0854070682145804,0.394733357811188,18.108604038327,0.982246866945673,0.188239479218645,0.0854070682145804,0.131577785937063,17.9509420628689,1.70256123603917,0.193875391770101,0.0427035341072902,0.131577785937063,17.815803226762,0.982246866945673,0.214164676955345,NA,0.328944464842656,17.6356181119528,1.24417936479785,0.202892851852432,0.341628272858322,0.263155571874125,18.108604038327,0.851280618019584,0.193875391770101,0.128110602321871,0.197366678905594,17.7707569480597,0.916763742482628,0.211910311934762,0.128110602321871,0.230261125389859,17.9734652022201,1.37514561372394,0.188239479218645,0.298924738751032
"32",0.197366678905594,18.0410346202735,1.50611186265003,0.185985114198062,0.213517670536451,0.361838911326922,18.2212197350827,1.3096624892609,0.176967654115732,0.128110602321871,0.328944464842656,17.8608495054643,0.982246866945673,0.202892851852432,0.0854070682145804,0.394733357811188,18.2437428744339,0.982246866945673,0.181476384156897,0.0854070682145804,0.131577785937063,18.1986965957316,1.63707811157612,0.18373074917748,NA,0.164472232421328,18.0185114809224,0.982246866945673,0.202892851852432,NA,0.328944464842656,17.8833726448154,1.04772999140872,0.193875391770101,0.341628272858322,0.263155571874125,18.3788817105408,0.851280618019584,0.181476384156897,0.0854070682145804,0.230261125389859,18.0410346202735,0.785797493556539,0.199511304321558,0.128110602321871,0.230261125389859,18.2887891531362,1.37514561372394,0.173586106584858,0.256221204643741
"33",0.197366678905594,18.1536503170293,1.44062873818699,0.180349201646606,0.256221204643741,0.427627804295453,18.3788817105408,1.24417936479785,0.169077376543693,0.0854070682145804,0.328944464842656,18.2887891531362,0.982246866945673,0.182603566667188,0.0427035341072902,0.328944464842656,18.3338354318385,0.982246866945673,0.179222019136314,0.0854070682145804,0.164472232421328,18.4689742679454,1.50611186265003,0.171331741564275,NA,0.230261125389859,18.4239279892431,0.916763742482628,0.181476384156897,NA,0.394733357811188,18.0410346202735,1.11321311587176,0.184857931687771,0.256221204643741,0.263155571874125,18.6491593827546,0.785797493556539,0.170204559053984,0.0427035341072902,0.164472232421328,18.266266013785,0.785797493556539,0.190493844239227,0.128110602321871,0.230261125389859,18.5140205466477,1.24417936479785,0.165695829012819,0.213517670536451
"34",0.197366678905594,18.266266013785,1.50611186265003,0.174713289095149,0.213517670536451,0.427627804295453,18.5365436859989,1.3096624892609,0.160059916461363,0.0854070682145804,0.328944464842656,18.55906682535,0.851280618019584,0.170204559053984,0.0854070682145804,0.427627804295453,18.5140205466477,0.916763742482628,0.167950194033402,0.0854070682145804,0.164472232421328,18.7167288008081,1.37514561372394,0.160059916461363,0.0427035341072902,0.296050018358391,18.6266362434035,0.785797493556539,0.171331741564275,NA,0.427627804295453,18.3338354318385,1.11321311587176,0.170204559053984,0.213517670536451,0.263155571874125,18.8743907762661,0.785797493556539,0.158932733951071,0.0427035341072902,0.197366678905594,18.4464511285942,0.720314369093494,0.180349201646606,0.170814136429161,0.361838911326922,18.6716825221058,1.17869624033481,0.156678368930489,0.128110602321871
"35",0.197366678905594,18.6266362434035,1.3096624892609,0.161187098971654,0.170814136429161,0.361838911326922,18.7617750795104,1.11321311587176,0.155551186420197,0.0427035341072902,0.328944464842656,18.6491593827546,0.982246866945673,0.163441463992236,0.0854070682145804,0.460522250779719,18.6942056614569,0.785797493556539,0.160059916461363,0.0854070682145804,0.131577785937063,18.9419601943196,1.3096624892609,0.151042456379032,0.0427035341072902,0.328944464842656,18.851867636915,0.785797493556539,0.158932733951071,NA,0.460522250779719,18.6491593827546,1.04772999140872,0.155551186420197,0.170814136429161,0.230261125389859,19.0996221697776,0.785797493556539,0.14878809135845,0.0427035341072902,0.296050018358391,18.6266362434035,0.720314369093494,0.169077376543693,0.128110602321871,0.361838911326922,18.9194370549684,1.11321311587176,0.145406543827576,0.128110602321871
"36",0.197366678905594,18.8293444975638,1.24417936479785,0.152169638889324,0.170814136429161,0.460522250779719,18.851867636915,1.11321311587176,0.147660908848159,0.0427035341072902,0.230261125389859,19.009529612373,0.982246866945673,0.14878809135845,0.0854070682145804,0.394733357811188,18.9194370549684,0.785797493556539,0.149915273868741,0.128110602321871,0.0657888929685313,19.2798072845869,1.24417936479785,0.137516266255537,0.0427035341072902,0.328944464842656,19.0770990304265,0.654831244630449,0.149915273868741,NA,0.493416697263985,18.9419601943196,0.851280618019584,0.144279361317285,0.128110602321871,0.230261125389859,19.2798072845869,0.654831244630449,0.142024996296702,0.0427035341072902,0.296050018358391,18.7392519401592,0.785797493556539,0.163441463992236,0.0854070682145804,0.328944464842656,19.0770990304265,0.982246866945673,0.140897813786411,0.128110602321871
"37",0.197366678905594,19.0996221697776,1.24417936479785,0.140897813786411,0.0854070682145804,0.460522250779719,19.0996221697776,1.11321311587176,0.135261901234954,0.0427035341072902,0.197366678905594,19.1897147271823,0.916763742482628,0.142024996296702,0.0854070682145804,0.361838911326922,18.9870064730219,0.785797493556539,0.147660908848159,0.128110602321871,0.0657888929685313,19.5500849568007,1.04772999140872,0.127371623662915,0.0427035341072902,0.361838911326922,19.3248535632892,0.523864995704359,0.138643448765828,NA,0.559205590232516,19.1897147271823,0.720314369093494,0.131880353704081,0.128110602321871,0.296050018358391,19.3924229813426,0.654831244630449,0.135261901234954,NA,0.328944464842656,18.9870064730219,0.720314369093494,0.151042456379032,0.0854070682145804,0.361838911326922,19.4374692600449,0.982246866945673,0.12286289362175,0.0854070682145804
"38",0.296050018358391,19.6176543748541,1.17869624033481,0.112718251029129,0.0854070682145804,0.493416697263985,19.4825155387472,0.851280618019584,0.119481346090877,0.0427035341072902,0.197366678905594,19.6627006535564,0.851280618019584,0.119481346090877,0.0854070682145804,0.361838911326922,19.3698998419915,0.785797493556539,0.128498806173207,0.128110602321871,0.0986833394527969,20.0005477438237,0.982246866945673,0.10482797345709,0.0427035341072902,0.361838911326922,19.8654089077168,0.392898746778269,0.11384543353942,NA,0.592100036716782,19.595131235503,0.720314369093494,0.110463886008546,0.128110602321871,0.230261125389859,19.9780246044726,0.589348120167404,0.109336703498255,NA,0.296050018358391,19.3924229813426,0.654831244630449,0.133007536214372,0.0854070682145804,0.361838911326922,19.5500849568007,1.04772999140872,0.116099798560003,0.0854070682145804
"39",0.296050018358391,19.887932047068,1.17869624033481,0.0991920609056335,0.0854070682145804,0.592100036716782,19.6401775142053,0.851280618019584,0.108209520987964,0.0427035341072902,0.131577785937063,19.8428857683657,0.785797493556539,0.114972616049711,0.0427035341072902,0.361838911326922,19.6401775142053,0.851280618019584,0.11384543353942,0.128110602321871,0.131577785937063,20.1807328586329,1.04772999140872,0.0935561483541771,0.0427035341072902,0.394733357811188,20.3158716947398,0.458381871241314,0.0890474183130119,NA,0.559205590232516,20.045594022526,0.785797493556539,0.0890474183130119,0.0854070682145804,0.197366678905594,20.338394834091,0.589348120167404,0.0924289658438858,NA,0.296050018358391,19.6401775142053,0.720314369093494,0.119481346090877,0.0854070682145804,0.460522250779719,19.7978394896633,1.04772999140872,0.101446425926216,0.0427035341072902
"40",0.263155571874125,20.1356865799306,1.04772999140872,0.0901746008233032,0.0854070682145804,0.657888929685313,20.0005477438237,0.720314369093494,0.0913017833335945,NA,0.164472232421328,20.045594022526,0.654831244630449,0.105955155967381,0.0427035341072902,0.394733357811188,19.9104551864191,0.851280618019584,0.100319243415925,0.0854070682145804,0.164472232421328,20.3609179734421,1.11321311587176,0.0822843232512642,0.0427035341072902,0.427627804295453,20.4510105308468,0.458381871241314,0.0811571407409729,NA,0.592100036716782,20.3158716947398,0.785797493556539,0.0732668631689339,0.128110602321871,0.427627804295453,20.4510105308468,0.523864995704359,0.0800299582306816,NA,0.296050018358391,19.9104551864191,0.654831244630449,0.107082338477672,0.0854070682145804,0.394733357811188,20.1131634405795,0.982246866945673,0.0890474183130119,0.0427035341072902
"41",0.296050018358391,20.338394834091,1.11321311587176,0.0789027757203903,0.0427035341072902,0.657888929685313,20.045594022526,0.851280618019584,0.0856658707821381,0.0427035341072902,0.230261125389859,20.2708254160375,0.720314369093494,0.0913017833335945,0.0427035341072902,0.361838911326922,20.1582097192818,0.785797493556539,0.0890474183130119,0.128110602321871,0.197366678905594,20.5636262276025,1.11321311587176,0.06988531563806,0.0854070682145804,0.427627804295453,20.6987650637094,0.392898746778269,0.06988531563806,NA,0.559205590232516,20.6086725063048,0.720314369093494,0.0608678555557297,0.128110602321871,0.460522250779719,20.6086725063048,0.523864995704359,0.06988531563806,0.0427035341072902,0.361838911326922,20.1356865799306,0.785797493556539,0.0935561483541771,NA,0.394733357811188,20.2933485553887,1.04772999140872,0.0789027757203903,0.0427035341072902
"42",0.361838911326922,20.4960568095491,1.11321311587176,0.0687581331277687,0.0427035341072902,0.624994483201047,20.2032559979841,0.785797493556539,0.0789027757203903,0.0854070682145804,0.230261125389859,20.4735336701979,0.720314369093494,0.0811571407409729,0.0427035341072902,0.394733357811188,20.2708254160375,0.785797493556539,0.0822843232512642,0.128110602321871,0.230261125389859,20.788857621114,1.17869624033481,0.0563591255145645,0.0854070682145804,0.460522250779719,20.9014733178698,0.392898746778269,0.0586134905351471,NA,0.52631114374825,20.788857621114,0.654831244630449,0.0529775779836906,0.170814136429161,0.493416697263985,20.7663344817629,0.392898746778269,0.061995038066021,0.0854070682145804,0.263155571874125,20.338394834091,0.851280618019584,0.0845386882718468,0.0427035341072902,0.394733357811188,20.5185799489002,0.785797493556539,0.0721396806586426,0.0427035341072902
"43",0.328944464842656,20.6987650637094,1.04772999140872,0.061995038066021,NA,0.592100036716782,20.4059642521445,0.785797493556539,0.0687581331277687,0.128110602321871,0.263155571874125,20.6987650637094,0.654831244630449,0.0710124981483513,NA,0.394733357811188,20.4284873914956,0.785797493556539,0.0743940456792252,0.128110602321871,0.263155571874125,20.9239964572209,1.24417936479785,0.0484688479425255,0.0427035341072902,0.52631114374825,20.9239964572209,0.392898746778269,0.0552319430042732,NA,0.394733357811188,20.9690427359232,0.589348120167404,0.0518503954733994,0.0854070682145804,0.52631114374825,20.8789501785186,0.392898746778269,0.0552319430042732,0.0854070682145804,0.328944464842656,20.4284873914956,0.916763742482628,0.0766484106998077,0.0427035341072902,0.394733357811188,20.788857621114,0.720314369093494,0.0597406730454384,0.0427035341072902
"44",0.296050018358391,20.9465195965721,0.916763742482628,0.0529775779836906,NA,0.559205590232516,20.5185799489002,0.785797493556539,0.0642494030866036,0.128110602321871,0.328944464842656,20.7663344817629,0.720314369093494,0.0642494030866036,NA,0.427627804295453,20.4510105308468,0.851280618019584,0.0732668631689339,0.0427035341072902,0.263155571874125,21.1041815720302,1.17869624033481,0.0405785703704865,0.0427035341072902,0.427627804295453,21.1041815720302,0.458381871241314,0.0473416654322342,0.0427035341072902,0.361838911326922,21.0366121539767,0.523864995704359,0.0507232129631081,0.0854070682145804,0.493416697263985,21.1041815720302,0.458381871241314,0.0439601179013603,0.0854070682145804,0.296050018358391,20.7212882030606,0.851280618019584,0.0642494030866036,0.0427035341072902,0.296050018358391,20.9239964572209,0.654831244630449,0.0574863080248558,0.0427035341072902
"45",0.296050018358391,21.1041815720302,0.982246866945673,0.0439601179013603,NA,0.52631114374825,20.7212882030606,0.785797493556539,0.0541047604939819,0.170814136429161,0.328944464842656,20.9239964572209,0.720314369093494,0.0563591255145645,NA,0.427627804295453,20.6537187850071,0.916763742482628,0.061995038066021,0.0427035341072902,0.361838911326922,21.2618435474882,0.982246866945673,0.0326882927984474,0.0427035341072902,0.427627804295453,21.1942741294348,0.458381871241314,0.042832935391069,0.0427035341072902,0.328944464842656,21.1267047113813,0.589348120167404,0.0462144829219429,0.0854070682145804,0.52631114374825,21.1942741294348,0.458381871241314,0.0383242053499039,0.0854070682145804,0.197366678905594,20.9239964572209,0.851280618019584,0.0574863080248558,0.0427035341072902,0.263155571874125,21.1267047113813,0.523864995704359,0.0507232129631081,0.0427035341072902
"46",0.328944464842656,21.1492278507325,0.982246866945673,0.0405785703704865,NA,0.394733357811188,20.9014733178698,0.654831244630449,0.0529775779836906,0.128110602321871,0.361838911326922,21.0366121539767,0.720314369093494,0.0495960304528168,NA,0.361838911326922,20.9014733178698,0.785797493556539,0.0541047604939819,0.0427035341072902,0.394733357811188,21.2843666868394,0.982246866945673,0.0304339277778648,0.0427035341072902,0.427627804295453,21.1942741294348,0.458381871241314,0.042832935391069,0.0427035341072902,0.361838911326922,21.1492278507325,0.589348120167404,0.0439601179013603,0.0854070682145804,0.493416697263985,21.2843666868394,0.523864995704359,0.0338154753087387,0.0854070682145804,0.230261125389859,21.0366121539767,0.851280618019584,0.0507232129631081,0.0427035341072902,0.263155571874125,21.2167972687859,0.523864995704359,0.0462144829219429,0.0427035341072902
"47",0.328944464842656,21.1717509900836,1.04772999140872,0.0383242053499039,NA,0.460522250779719,20.8789501785186,0.720314369093494,0.0507232129631081,0.128110602321871,0.427627804295453,21.1717509900836,0.654831244630449,0.0417057528807777,NA,0.361838911326922,21.1041815720302,0.720314369093494,0.0450873004116516,0.0427035341072902,0.427627804295453,21.3519361048928,0.916763742482628,0.027052380246991,0.0427035341072902,0.427627804295453,21.3519361048928,0.523864995704359,0.0326882927984474,0.0854070682145804,0.328944464842656,21.2167972687859,0.458381871241314,0.0462144829219429,NA,0.592100036716782,21.3519361048928,0.654831244630449,0.0247980152264084,0.0854070682145804,0.263155571874125,21.081658432679,0.982246866945673,0.0450873004116516,0.0427035341072902,0.263155571874125,21.2167972687859,0.523864995704359,0.0462144829219429,0.0427035341072902
"48",0.263155571874125,21.2618435474882,1.04772999140872,0.0360698403293213,NA,0.460522250779719,20.9465195965721,0.785797493556539,0.0462144829219429,0.128110602321871,0.460522250779719,21.1717509900836,0.720314369093494,0.0394513878601952,NA,0.394733357811188,21.1942741294348,0.720314369093494,0.0394513878601952,0.0427035341072902,0.460522250779719,21.4195055229463,0.982246866945673,0.0225436502058258,NA,0.460522250779719,21.4420286622974,0.589348120167404,0.0259251977366997,0.0854070682145804,0.328944464842656,21.3068898261905,0.327415622315224,0.0439601179013603,NA,0.592100036716782,21.3969823835951,0.654831244630449,0.0236708327161171,0.0427035341072902,0.263155571874125,21.1717509900836,0.982246866945673,0.0405785703704865,0.0427035341072902,0.263155571874125,21.2843666868394,0.589348120167404,0.0417057528807777,0.0427035341072902
"49",0.263155571874125,21.3068898261905,1.04772999140872,0.0338154753087387,NA,0.394733357811188,21.0366121539767,0.720314369093494,0.0450873004116516,0.128110602321871,0.559205590232516,21.1492278507325,0.654831244630449,0.0383242053499039,NA,0.460522250779719,21.1717509900836,0.785797493556539,0.0371970228396126,0.0427035341072902,0.427627804295453,21.4195055229463,1.04772999140872,0.0225436502058258,NA,0.394733357811188,21.4195055229463,0.589348120167404,0.0281795627572823,0.128110602321871,0.361838911326922,21.3294129655417,0.327415622315224,0.0417057528807777,NA,0.52631114374825,21.4420286622974,0.589348120167404,0.0225436502058258,0.128110602321871,0.328944464842656,21.2393204081371,0.851280618019584,0.0360698403293213,0.0854070682145804,0.197366678905594,21.374459244244,0.589348120167404,0.0383242053499039,0.0854070682145804
"50",0.230261125389859,21.374459244244,0.982246866945673,0.0304339277778648,0.0854070682145804,0.296050018358391,21.1041815720302,0.654831244630449,0.0450873004116516,0.170814136429161,0.493416697263985,21.2618435474882,0.589348120167404,0.03494265781903,0.0427035341072902,0.427627804295453,21.1492278507325,0.785797493556539,0.0383242053499039,0.0854070682145804,0.427627804295453,21.4645518016486,0.982246866945673,0.0202892851852432,0.0427035341072902,0.394733357811188,21.4645518016486,0.523864995704359,0.027052380246991,0.128110602321871,0.296050018358391,21.3068898261905,0.392898746778269,0.042832935391069,0.0427035341072902,0.427627804295453,21.4195055229463,0.589348120167404,0.027052380246991,0.128110602321871,0.361838911326922,21.2618435474882,0.916763742482628,0.0326882927984474,0.0854070682145804,0.197366678905594,21.374459244244,0.589348120167404,0.0383242053499039,0.0854070682145804
"51",0.197366678905594,21.4645518016486,0.982246866945673,0.027052380246991,0.0854070682145804,0.263155571874125,21.1267047113813,0.654831244630449,0.0439601179013603,0.213517670536451,0.427627804295453,21.2393204081371,0.589348120167404,0.0383242053499039,0.0427035341072902,0.493416697263985,21.1267047113813,0.720314369093494,0.0383242053499039,0.0854070682145804,0.460522250779719,21.4645518016486,0.851280618019584,0.0214164676955345,0.0427035341072902,0.394733357811188,21.5095980803509,0.458381871241314,0.027052380246991,0.0854070682145804,0.361838911326922,21.2618435474882,0.392898746778269,0.0439601179013603,NA,0.394733357811188,21.3969823835951,0.589348120167404,0.0293067452675735,0.128110602321871,0.361838911326922,21.2843666868394,0.785797493556539,0.03494265781903,0.0427035341072902,0.164472232421328,21.374459244244,0.589348120167404,0.0394513878601952,0.0854070682145804
"52",0.131577785937063,21.4870749409997,0.916763742482628,0.0293067452675735,0.0854070682145804,0.296050018358391,21.1041815720302,0.589348120167404,0.0450873004116516,0.213517670536451,0.427627804295453,21.2618435474882,0.523864995704359,0.0383242053499039,0.0427035341072902,0.427627804295453,21.1492278507325,0.720314369093494,0.0405785703704865,0.0427035341072902,0.427627804295453,21.3969823835951,0.982246866945673,0.0225436502058258,0.0854070682145804,0.361838911326922,21.5095980803509,0.458381871241314,0.0281795627572823,0.0854070682145804,0.361838911326922,21.2843666868394,0.392898746778269,0.042832935391069,NA,0.296050018358391,21.3519361048928,0.720314369093494,0.0304339277778648,0.213517670536451,0.394733357811188,21.2618435474882,0.851280618019584,0.0338154753087387,0.0427035341072902,0.197366678905594,21.3519361048928,0.720314369093494,0.0383242053499039,0.0427035341072902
"53",0.131577785937063,21.4420286622974,0.982246866945673,0.0304339277778648,0.0854070682145804,0.296050018358391,21.1267047113813,0.654831244630449,0.042832935391069,0.213517670536451,0.427627804295453,21.2618435474882,0.589348120167404,0.0371970228396126,0.0427035341072902,0.394733357811188,21.2393204081371,0.654831244630449,0.0383242053499039,0.0427035341072902,0.361838911326922,21.3969823835951,0.982246866945673,0.0236708327161171,0.128110602321871,0.296050018358391,21.5095980803509,0.392898746778269,0.0315611102881561,0.0854070682145804,0.361838911326922,21.3068898261905,0.327415622315224,0.042832935391069,NA,0.296050018358391,21.3519361048928,0.720314369093494,0.0315611102881561,0.170814136429161,0.328944464842656,21.2618435474882,0.851280618019584,0.03494265781903,0.0854070682145804,0.263155571874125,21.3294129655417,0.654831244630449,0.0383242053499039,0.0427035341072902
"54",0.131577785937063,21.4870749409997,0.851280618019584,0.0304339277778648,0.0854070682145804,0.328944464842656,21.1717509900836,0.654831244630449,0.0405785703704865,0.170814136429161,0.427627804295453,21.2393204081371,0.654831244630449,0.0383242053499039,NA,0.328944464842656,21.2393204081371,0.720314369093494,0.0394513878601952,0.0427035341072902,0.361838911326922,21.4645518016486,0.851280618019584,0.0225436502058258,0.128110602321871,0.328944464842656,21.5546443590532,0.327415622315224,0.0315611102881561,NA,0.328944464842656,21.3519361048928,0.327415622315224,0.0417057528807777,NA,0.263155571874125,21.374459244244,0.720314369093494,0.0304339277778648,0.213517670536451,0.361838911326922,21.2618435474882,0.785797493556539,0.03494265781903,0.0854070682145804,0.263155571874125,21.374459244244,0.654831244630449,0.0360698403293213,0.0427035341072902
"55",0.164472232421328,21.4870749409997,0.851280618019584,0.0293067452675735,0.0854070682145804,0.263155571874125,21.1717509900836,0.654831244630449,0.042832935391069,0.170814136429161,0.460522250779719,21.2167972687859,0.654831244630449,0.0383242053499039,NA,0.394733357811188,21.1717509900836,0.720314369093494,0.0417057528807777,NA,0.263155571874125,21.4645518016486,0.851280618019584,0.0259251977366997,0.128110602321871,0.328944464842656,21.532121219702,0.327415622315224,0.0326882927984474,NA,0.296050018358391,21.4195055229463,0.327415622315224,0.0394513878601952,NA,0.263155571874125,21.4195055229463,0.720314369093494,0.0281795627572823,0.213517670536451,0.361838911326922,21.2843666868394,0.785797493556539,0.0338154753087387,0.0854070682145804,0.263155571874125,21.4195055229463,0.589348120167404,0.03494265781903,0.0427035341072902
"56",0.197366678905594,21.4870749409997,0.785797493556539,0.0293067452675735,0.0854070682145804,0.296050018358391,21.1717509900836,0.654831244630449,0.0439601179013603,0.0854070682145804,0.427627804295453,21.1942741294348,0.720314369093494,0.0383242053499039,0.0427035341072902,0.427627804295453,21.1267047113813,0.720314369093494,0.0417057528807777,0.0427035341072902,0.263155571874125,21.4870749409997,0.785797493556539,0.027052380246991,0.0854070682145804,0.328944464842656,21.532121219702,0.327415622315224,0.0326882927984474,NA,0.263155571874125,21.374459244244,0.392898746778269,0.0417057528807777,NA,0.263155571874125,21.4645518016486,0.720314369093494,0.0259251977366997,0.213517670536451,0.394733357811188,21.3068898261905,0.785797493556539,0.0315611102881561,0.0854070682145804,0.328944464842656,21.3519361048928,0.589348120167404,0.0360698403293213,0.0427035341072902
"57",0.263155571874125,21.4645518016486,0.785797493556539,0.0293067452675735,0.0427035341072902,0.263155571874125,21.1492278507325,0.720314369093494,0.0450873004116516,0.0854070682145804,0.328944464842656,21.1717509900836,0.720314369093494,0.0417057528807777,0.0854070682145804,0.460522250779719,21.1041815720302,0.720314369093494,0.0417057528807777,0.0427035341072902,0.296050018358391,21.4420286622974,0.785797493556539,0.0293067452675735,0.0427035341072902,0.328944464842656,21.5095980803509,0.327415622315224,0.0338154753087387,NA,0.296050018358391,21.3294129655417,0.392898746778269,0.042832935391069,NA,0.230261125389859,21.4870749409997,0.654831244630449,0.0304339277778648,0.0854070682145804,0.361838911326922,21.3969823835951,0.654831244630449,0.0315611102881561,0.0427035341072902,0.427627804295453,21.3294129655417,0.523864995704359,0.0360698403293213,NA
"58",0.263155571874125,21.4420286622974,0.785797493556539,0.0293067452675735,0.0854070682145804,0.263155571874125,21.2393204081371,0.589348120167404,0.042832935391069,0.0854070682145804,0.328944464842656,21.1492278507325,0.851280618019584,0.0405785703704865,0.0854070682145804,0.460522250779719,21.0366121539767,0.851280618019584,0.042832935391069,0.0427035341072902,0.263155571874125,21.4195055229463,0.851280618019584,0.0304339277778648,0.0427035341072902,0.394733357811188,21.4195055229463,0.392898746778269,0.03494265781903,NA,0.361838911326922,21.2618435474882,0.392898746778269,0.0439601179013603,NA,0.263155571874125,21.5095980803509,0.523864995704359,0.0304339277778648,0.0854070682145804,0.361838911326922,21.4195055229463,0.589348120167404,0.0315611102881561,0.0427035341072902,0.427627804295453,21.3519361048928,0.523864995704359,0.03494265781903,NA
"59",0.263155571874125,21.4420286622974,0.785797493556539,0.0293067452675735,0.0854070682145804,0.164472232421328,21.2843666868394,0.523864995704359,0.0417057528807777,0.213517670536451,0.263155571874125,21.2167972687859,0.851280618019584,0.0394513878601952,0.0854070682145804,0.394733357811188,21.0591352933278,0.916763742482628,0.042832935391069,0.0427035341072902,0.263155571874125,21.4420286622974,0.851280618019584,0.0293067452675735,0.0427035341072902,0.394733357811188,21.3969823835951,0.392898746778269,0.0360698403293213,NA,0.394733357811188,21.2167972687859,0.458381871241314,0.0439601179013603,NA,0.230261125389859,21.4870749409997,0.589348120167404,0.0326882927984474,0.0427035341072902,0.328944464842656,21.3969823835951,0.523864995704359,0.0360698403293213,NA,0.427627804295453,21.3969823835951,0.392898746778269,0.0338154753087387,0.0427035341072902
"60",0.230261125389859,21.4870749409997,0.654831244630449,0.0304339277778648,0.0854070682145804,0.197366678905594,21.2843666868394,0.523864995704359,0.0405785703704865,0.213517670536451,0.296050018358391,21.2167972687859,0.785797493556539,0.0394513878601952,0.0854070682145804,0.328944464842656,21.0366121539767,0.916763742482628,0.0462144829219429,0.0427035341072902,0.296050018358391,21.4195055229463,0.785797493556539,0.0304339277778648,0.0427035341072902,0.361838911326922,21.3969823835951,0.327415622315224,0.0371970228396126,0.0427035341072902,0.427627804295453,21.2167972687859,0.392898746778269,0.042832935391069,0.0427035341072902,0.230261125389859,21.4420286622974,0.654831244630449,0.0338154753087387,0.0427035341072902,0.328944464842656,21.3519361048928,0.523864995704359,0.0383242053499039,NA,0.427627804295453,21.3969823835951,0.392898746778269,0.0326882927984474,0.0854070682145804
