"","Early1.ALL","Late1.CLS","Late1.OPN","Mid1.CLS","Mid1.OPN","Early1.ALL.1","Late1.CLS.1","Late1.OPN.1","Mid1.CLS.1","Mid1.OPN.1","Early1.ALL.2","Late1.CLS.2","Late1.OPN.2","Mid1.CLS.2","Mid1.OPN.2","Early1.ALL.3","Late1.CLS.3","Late1.OPN.3","Mid1.CLS.3","Mid1.OPN.3","Early1.ALL.4","Late1.CLS.4","Late1.OPN.4","Mid1.CLS.4","Mid1.OPN.4","Early1.ALL.5","Late1.CLS.5","Late1.OPN.5","Mid1.CLS.5","Mid1.OPN.5","Early1.ALL.6","Late1.CLS.6","Late1.OPN.6","Mid1.CLS.6","Mid1.OPN.6","Early1.ALL.7","Late1.CLS.7","Late1.OPN.7","Mid1.CLS.7","Mid1.OPN.7","Early1.ALL.8","Late1.CLS.8","Late1.OPN.8","Mid1.CLS.8","Mid1.OPN.8","Early1.ALL.9","Late1.CLS.9","Late1.OPN.9","Mid1.CLS.9","Mid1.OPN.9"
"0",0.00920414805256748,0.0750211291341857,0.155703450121605,0.094679672877648,0.0197892514511055,0.0084208163034128,0.0842666908232579,0.164224534456619,0.0885316421713072,0.0166369813084515,0.00891039864663447,0.0797759894314228,0.15492880609115,0.0934500667363798,0.0180379902607422,0.0100853962703665,0.0829458962962476,0.142534501603858,0.0940648698070139,0.0162867290703789,0.00900831511527881,0.0779268770936084,0.156478094152061,0.0968314836248673,0.0168121074274879,0.00969373039578915,0.076341923661196,0.155703450121605,0.0965240820895502,0.0169872335465242,0.00900831511527881,0.0752852880395877,0.162675246395707,0.0959092790189162,0.0176877380226695,0.00969373039578915,0.0816251017692373,0.161125958334796,0.0882242406359901,0.0169872335465242,0.0104770621449438,0.0773985592828042,0.147182365786592,0.0906834529185265,0.0201395036891782,0.0087145657093458,0.0784551949044125,0.162675246395707,0.094372271342331,0.0169872335465242
"1",0.0078333174915468,0.076341923661196,0.157252738182517,0.0983684913014525,0.0189136208559238,0.00793123396019113,0.084795008634062,0.164224534456619,0.0922204605951117,0.0150608462371246,0.00744165161696946,0.0824175784854435,0.155703450121605,0.0956018774835991,0.0175126119036332,0.00910623158392314,0.0863799620664744,0.144083789664769,0.094987074412965,0.0148857201180882,0.00734373514832512,0.0800401483368249,0.158802026243428,0.101442506654623,0.0152359723561609,0.0081270668974798,0.0787193538098146,0.157252738182517,0.0992906959074036,0.0162867290703789,0.00724581867968079,0.0760777647557939,0.162675246395707,0.0992906959074036,0.0183882424988148,0.00763748455425813,0.0842666908232579,0.161900602365251,0.0916056575244776,0.0168121074274879,0.00891039864663447,0.0795118305260208,0.147957009817048,0.0934500667363798,0.0197892514511055,0.00773540102290246,0.0810967839584331,0.163449890426163,0.094679672877648,0.0166369813084515
"2",0.00695206927374778,0.0779268770936084,0.161125958334796,0.102364711260574,0.0162867290703789,0.00685415280510345,0.0866441209718765,0.166548466547986,0.094372271342331,0.0140100895229066,0.00695206927374778,0.0837383730124538,0.158027382212973,0.0965240820895502,0.0164618551894152,0.00763748455425813,0.0882290744042889,0.147182365786592,0.0974462866955014,0.0141852156419429,0.00636457046188177,0.0840025319178558,0.158802026243428,0.100827703583989,0.0147105939990519,0.00626665399323744,0.0813609428638352,0.159576670273884,0.102364711260574,0.0155862245942336,0.00518957283814975,0.0784551949044125,0.164999178487075,0.102057309725257,0.0183882424988148,0.00597290458730443,0.0858516442556703,0.162675246395707,0.094372271342331,0.0169872335465242,0.00773540102290246,0.0816251017692373,0.148731653847504,0.0956018774835991,0.0190887469749602,0.00665831986781478,0.0826817373908455,0.168872398639353,0.0971388851601843,0.0148857201180882
"3",0.0058749881186601,0.0795118305260208,0.162675246395707,0.104516522007793,0.0155862245942336,0.00548332224408276,0.0895498689312992,0.168097754608898,0.0959092790189162,0.0133095850467613,0.00597290458730443,0.08453084972866,0.158027382212973,0.100520302048672,0.0154110984751972,0.00656040339917044,0.0921914579853198,0.147957009817048,0.0968314836248673,0.0136598372848339,0.00538540577543842,0.0861158031610724,0.158802026243428,0.103594317401842,0.0134847111657976,0.00558123871272709,0.0832100552016496,0.16035131430434,0.10482392354311,0.0140100895229066,0.0039166587457734,0.0813609428638352,0.166548466547986,0.103901718937159,0.0173374857845969,0.00518957283814975,0.0874365976880827,0.164999178487075,0.094372271342331,0.0168121074274879,0.00636457046188177,0.0837383730124538,0.150280941908415,0.0980610897661354,0.0183882424988148,0.00538540577543842,0.0840025319178558,0.171196330730721,0.100212900513355,0.0140100895229066
"4",0.00528748930679409,0.0810967839584331,0.164999178487075,0.106668332755013,0.0138349634038702,0.00509165636950542,0.0921914579853198,0.171196330730721,0.0956018774835991,0.0117334499754343,0.00469999049492808,0.0858516442556703,0.158027382212973,0.103594317401842,0.0150608462371246,0.00558123871272709,0.0945688881339384,0.150280941908415,0.0977536882308184,0.0127842066896523,0.0042104081517064,0.0874365976880827,0.161900602365251,0.106053529684379,0.0126090805706159,0.00450415755763941,0.0869082798772785,0.161125958334796,0.10482392354311,0.0133095850467613,0.00332915993390739,0.0829458962962476,0.166548466547986,0.107590537360964,0.0152359723561609,0.00440624108899507,0.0898140278367013,0.16577382251753,0.094679672877648,0.0162867290703789,0.00558123871272709,0.0863799620664744,0.151830229969327,0.100212900513355,0.0164618551894152,0.00499373990086108,0.0863799620664744,0.172745618791632,0.101442506654623,0.0120837022135069
"5",0.0042104081517064,0.0834742141070517,0.164999178487075,0.111279355784768,0.0115583238563979,0.00460207402628374,0.0943047292285363,0.174294906852544,0.0952944759482821,0.0106826932612163,0.00362290933984039,0.088757392215093,0.158027382212973,0.103594317401842,0.0150608462371246,0.00509165636950542,0.0958896826609487,0.151055585938871,0.101135105119306,0.0106826932612163,0.00332915993390739,0.0898140278367013,0.161900602365251,0.106053529684379,0.0126090805706159,0.0039166587457734,0.0890215511204951,0.162675246395707,0.103901718937159,0.0131344589277249,0.00264374465339704,0.0855874853502682,0.167323110578442,0.108512741966915,0.0140100895229066,0.0039166587457734,0.0919272990799178,0.164999178487075,0.0962166805542332,0.0150608462371246,0.00469999049492808,0.0890215511204951,0.152604873999782,0.104209120472476,0.0138349634038702,0.0039166587457734,0.0898140278367013,0.173520262822088,0.102672112795891,0.0108578193802526
"6",0.00352499287119606,0.0892857100258971,0.155703450121605,0.110664552714134,0.0113831977373616,0.00362290933984039,0.0987954306203714,0.162675246395707,0.0992906959074036,0.00980706266603461,0.00293749405933005,0.0940405703231343,0.151830229969327,0.10174990818994,0.0152359723561609,0.0042104081517064,0.103021973106804,0.137111993390667,0.102364711260574,0.00998218878507094,0.00254582818475271,0.0982671128095673,0.148731653847504,0.105746128149061,0.0115583238563979,0.00342707640255172,0.0945688881339384,0.15492880609115,0.103901718937159,0.0120837022135069,0.00215416231017537,0.0940405703231343,0.153379518030238,0.10697573429033,0.0133095850467613,0.00313332699661872,0.0966821593771549,0.157252738182517,0.0989832943720866,0.0134847111657976,0.00372082580848473,0.0948330470393405,0.141759857573402,0.106668332755013,0.0127842066896523,0.00313332699661872,0.0974746360933611,0.161900602365251,0.104516522007793,0.00875630595181661
"7",0.00234999524746404,0.0966821593771549,0.148731653847504,0.110357151178817,0.0103324410231436,0.00313332699661872,0.107776833404042,0.144858433695225,0.0995980974427206,0.00858117983278028,0.00264374465339704,0.101965337485196,0.137886637421123,0.101135105119306,0.0140100895229066,0.0039166587457734,0.10751267449864,0.12936555308611,0.102364711260574,0.00928168430892561,0.0019583293728867,0.103286132012207,0.141759857573402,0.105746128149061,0.0108578193802526,0.00244791171610837,0.100908701863588,0.146407721756136,0.103286915866525,0.0119085760944706,0.00176249643559803,0.100116225147382,0.144083789664769,0.106668332755013,0.0122588283325433,0.00205624584153103,0.105135244350021,0.142534501603858,0.100827703583989,0.0120837022135069,0.00293749405933005,0.100644542958186,0.134013417268844,0.106360931219696,0.0122588283325433,0.00234999524746404,0.104342767633815,0.151830229969327,0.103286915866525,0.00858117983278028
"8",0.00205624584153103,0.101965337485196,0.142534501603858,0.109742348108183,0.00910655818988928,0.00264374465339704,0.114380806039093,0.132464129207933,0.100212900513355,0.00753042311856229,0.00186041290424236,0.10751267449864,0.126266976964287,0.107897938896281,0.0105075671421799,0.00254582818475271,0.114909123849897,0.116196604568362,0.104209120472476,0.00875630595181661,0.00146874702966502,0.111739216985073,0.130140197116565,0.105746128149061,0.00875630595181661,0.00234999524746404,0.107248515593237,0.134013417268844,0.102672112795891,0.0110329454992889,0.00166457996695369,0.106191879971629,0.136337349360212,0.107283135825647,0.00980706266603461,0.00186041290424236,0.110682581363464,0.132464129207933,0.103286915866525,0.00963193654699827,0.00264374465339704,0.105927721066227,0.123943044872919,0.107283135825647,0.0110329454992889,0.0019583293728867,0.111739216985073,0.138661281451579,0.10174990818994,0.00823092759470762
"9",0.00156666349830936,0.11015426355266,0.124717688903375,0.111894158855402,0.00735529699952595,0.00234999524746404,0.123626367728165,0.11464731650745,0.100212900513355,0.0059542880472353,0.00146874702966502,0.113852488228289,0.116196604568362,0.106360931219696,0.0101573149041073,0.00186041290424236,0.120984778674145,0.109999452324716,0.102364711260574,0.00840605371374395,0.00127291409237635,0.118607348525526,0.118520536659729,0.106668332755013,0.00665479252338063,0.00186041290424236,0.113060011512083,0.126266976964287,0.103594317401842,0.00928168430892561,0.00127291409237635,0.113324170417485,0.123168400842464,0.109434946572866,0.00753042311856229,0.00107708115508768,0.115701600566104,0.123168400842464,0.105746128149061,0.00840605371374395,0.00166457996695369,0.112531693701279,0.11464731650745,0.109742348108183,0.00910655818988928,0.00146874702966502,0.118607348525526,0.12936555308611,0.100212900513355,0.00753042311856229
"10",0.00146874702966502,0.11781487180932,0.10922480829426,0.112816363461353,0.0054289096901263,0.00205624584153103,0.129702022552413,0.105351588141982,0.0992906959074036,0.00507865745205364,0.00117499762373202,0.119399825241732,0.106126232172437,0.109742348108183,0.00735529699952595,0.00127291409237635,0.127852910214598,0.0999290799287914,0.10174990818994,0.00753042311856229,0.00078333174915468,0.126267956782186,0.103027656050614,0.106668332755013,0.0059542880472353,0.00107708115508768,0.120720619768743,0.113872672476995,0.106360931219696,0.00682991864241696,0.00117499762373202,0.123362208822763,0.103027656050614,0.109434946572866,0.00560403580916263,0.000881248217799015,0.120456460863341,0.116196604568362,0.10697573429033,0.00647966640434429,0.00146874702966502,0.118079030714722,0.10380230008107,0.110664552714134,0.00770554923759862,0.00146874702966502,0.127588751309196,0.112323384416083,0.0995980974427206,0.00577916192819896
"11",0.00097916468644335,0.12415468553897,0.0983797918678799,0.113738568067305,0.00402790073783564,0.00166457996695369,0.13445688284965,0.0968305038069684,0.100520302048672,0.00385277461879931,0.00107708115508768,0.124418844444372,0.0991544358983356,0.112508961926036,0.00420302685687197,0.000881248217799015,0.132871929417238,0.0898587075328667,0.105746128149061,0.0049035313330173,0.00078333174915468,0.132343611606434,0.0906333515633224,0.109742348108183,0.00297714402361765,0.00078333174915468,0.126267956782186,0.106126232172437,0.107897938896281,0.00455327909494464,0.00097916468644335,0.128381228025403,0.0937319276851454,0.111586757320085,0.00350252238072664,0.000685415280510345,0.127060433498392,0.105351588141982,0.108512741966915,0.00402790073783564,0.00137083056102069,0.122833891011959,0.0983797918678799,0.111894158855402,0.00525378357108997,0.00097916468644335,0.133928565038846,0.104576944111526,0.0989832943720866,0.00455327909494464
"12",0.00078333174915468,0.130494499268619,0.0937319276851454,0.108512741966915,0.00420302685687197,0.00137083056102069,0.139211743146887,0.089084063502411,0.0999054989780377,0.00332739626169031,0.00107708115508768,0.130230340363217,0.089084063502411,0.1100497496435,0.00402790073783564,0.000881248217799015,0.140004219863093,0.0774644030455748,0.103594317401842,0.00420302685687197,0.000685415280510345,0.139740060957691,0.0782390470760305,0.107283135825647,0.00245176566650865,0.00058749881186601,0.132079452701032,0.0952812157460569,0.106053529684379,0.00455327909494464,0.00097916468644335,0.134721041755052,0.082886911258765,0.1100497496435,0.00262689178554498,0.000685415280510345,0.132343611606434,0.0960558597765126,0.107897938896281,0.00297714402361765,0.000881248217799015,0.130494499268619,0.0875347754414995,0.109742348108183,0.00472840521398097,0.00097916468644335,0.140268378768495,0.0937319276851454,0.0965240820895502,0.00420302685687197
"13",0.00039166587457734,0.13577767737666,0.0836615552892208,0.108512741966915,0.00367764849976298,0.00107708115508768,0.146872351403547,0.0751404709542076,0.0971388851601843,0.00350252238072664,0.00097916468644335,0.133664406133444,0.082886911258765,0.109127545037549,0.00385277461879931,0.00078333174915468,0.147136510308949,0.0658447425887387,0.10174990818994,0.00332739626169031,0.00058749881186601,0.143702444538722,0.0689433187105616,0.106668332755013,0.00245176566650865,0.000489582343221675,0.136041836282062,0.0883094194719552,0.105131325078427,0.00420302685687197,0.00097916468644335,0.138683425336083,0.0759151149846633,0.109127545037549,0.00210151342843599,0.000685415280510345,0.138947584241485,0.0852108433501322,0.10482392354311,0.00280201790458132,0.000881248217799015,0.138419266430681,0.0743658269237518,0.10697573429033,0.00402790073783564,0.00097916468644335,0.145551556876537,0.0852108433501322,0.0952944759482821,0.00332739626169031
"14",0.000293749405933005,0.14211749110631,0.0774644030455748,0.106360931219696,0.00227663954747232,0.00117499762373202,0.153212165133197,0.0642954545278272,0.0934500667363798,0.00367764849976298,0.00117499762373202,0.140532537673898,0.0743658269237518,0.10482392354311,0.00332739626169031,0.000881248217799015,0.157174548714228,0.052675794070991,0.0956018774835991,0.00297714402361765,0.00058749881186601,0.150834734984578,0.0650700985582829,0.100212900513355,0.00227663954747232,0.00058749881186601,0.14343828563332,0.0759151149846633,0.102057309725257,0.00367764849976298,0.00097916468644335,0.145287397971135,0.0666193866191944,0.105438726613744,0.00192638730939965,0.000685415280510345,0.145815715781939,0.0751404709542076,0.10174990818994,0.00227663954747232,0.00097916468644335,0.146344033592743,0.0611968784060042,0.102364711260574,0.00420302685687197,0.00078333174915468,0.151363052795382,0.0751404709542076,0.0928352636657458,0.00350252238072664
"15",0.00039166587457734,0.148193145930557,0.0704926067714731,0.10174990818994,0.00227663954747232,0.00127291409237635,0.15743870761963,0.0596475903450927,0.0916056575244776,0.00280201790458132,0.00107708115508768,0.145287397971135,0.0704926067714731,0.101442506654623,0.00315227014265398,0.000685415280510345,0.161401091200661,0.046478641827345,0.094372271342331,0.00262689178554498,0.000489582343221675,0.157174548714228,0.0573236582537255,0.0971388851601843,0.00175126119036332,0.00058749881186601,0.149513940457568,0.0666193866191944,0.10174990818994,0.00192638730939965,0.000881248217799015,0.152948006227795,0.052675794070991,0.103286915866525,0.00140100895229066,0.000685415280510345,0.151891370606186,0.0658447425887387,0.0989832943720866,0.00192638730939965,0.00097916468644335,0.150306417173774,0.052675794070991,0.102057309725257,0.00367764849976298,0.00078333174915468,0.156646230903423,0.0658447425887387,0.0903760513832094,0.00350252238072664
"16",0.00058749881186601,0.152948006227795,0.0611968784060042,0.0995980974427206,0.00210151342843599,0.00097916468644335,0.165627633687094,0.0472532858578007,0.0888390437066242,0.00227663954747232,0.00097916468644335,0.154004641849403,0.0534504381014467,0.0992906959074036,0.00262689178554498,0.000685415280510345,0.166684269308702,0.0348589813705087,0.0931426652010628,0.00245176566650865,0.00058749881186601,0.164042680254681,0.0449293537664335,0.0940648698070139,0.00157613507132699,0.000685415280510345,0.157174548714228,0.049577217949168,0.0992906959074036,0.00192638730939965,0.000881248217799015,0.16008029667365,0.0387322015227875,0.100520302048672,0.00140100895229066,0.00058749881186601,0.155325436376413,0.0580983022841812,0.0986758928367695,0.00175126119036332,0.00107708115508768,0.156382071998021,0.0410561336141547,0.100212900513355,0.00315227014265398,0.000881248217799015,0.164306839160083,0.0519011500405352,0.086994634494722,0.00332739626169031
"17",0.000685415280510345,0.15743870761963,0.0565490142232697,0.0968314836248673,0.00157613507132699,0.00078333174915468,0.170118335078928,0.046478641827345,0.0860724298887709,0.00140100895229066,0.000881248217799015,0.156910389808826,0.0511265060100795,0.0986758928367695,0.00175126119036332,0.000685415280510345,0.169325858362722,0.0325350492791415,0.0916056575244776,0.00210151342843599,0.000685415280510345,0.168797540551918,0.0418307776446105,0.0894538467772583,0.00157613507132699,0.000489582343221675,0.160872773389857,0.0472532858578007,0.0971388851601843,0.00157613507132699,0.00078333174915468,0.164042680254681,0.0364082694314202,0.0977536882308184,0.00105075671421799,0.00039166587457734,0.158231184335836,0.0542250821319025,0.0977536882308184,0.00157613507132699,0.00107708115508768,0.16008029667365,0.0364082694314202,0.0983684913014525,0.00280201790458132,0.000881248217799015,0.167212587119506,0.049577217949168,0.0848428237475027,0.00315227014265398
"18",0.00078333174915468,0.160344455579052,0.052675794070991,0.0952944759482821,0.00122588283325433,0.000685415280510345,0.173024083038351,0.043380065705522,0.0845354222121856,0.00122588283325433,0.00107708115508768,0.160344455579052,0.046478641827345,0.0962166805542332,0.00157613507132699,0.000685415280510345,0.171703288511341,0.0317604052486857,0.0894538467772583,0.00192638730939965,0.000685415280510345,0.171967447416743,0.040281489583699,0.087302036030039,0.00105075671421799,0.000489582343221675,0.16509931587629,0.043380065705522,0.0940648698070139,0.00140100895229066,0.00058749881186601,0.167476746024908,0.0325350492791415,0.0962166805542332,0.000875630595181661,0.000489582343221675,0.164306839160083,0.049577217949168,0.0925278621304287,0.00140100895229066,0.00097916468644335,0.163778521349279,0.0333096933095972,0.0952944759482821,0.00297714402361765,0.00107708115508768,0.169325858362722,0.046478641827345,0.0839206191415516,0.00262689178554498
"19",0.000685415280510345,0.165363474781692,0.0488025739187122,0.0916056575244776,0.00105075671421799,0.000685415280510345,0.175401513186969,0.040281489583699,0.0833058160709175,0.00105075671421799,0.00117499762373202,0.163514362443877,0.0441547097359777,0.0934500667363798,0.00140100895229066,0.000881248217799015,0.174344877565361,0.0302111171877742,0.086994634494722,0.00157613507132699,0.00078333174915468,0.174344877565361,0.0395068455532432,0.0845354222121856,0.00105075671421799,0.000489582343221675,0.169325858362722,0.0379575574923317,0.0916056575244776,0.00122588283325433,0.00078333174915468,0.169590017268124,0.0317604052486857,0.0937574682716969,0.000700504476145329,0.000293749405933005,0.166684269308702,0.0457039977968892,0.0916056575244776,0.00157613507132699,0.00117499762373202,0.165363474781692,0.0294364731573185,0.094679672877648,0.00280201790458132,0.00117499762373202,0.172495765227547,0.0449293537664335,0.0808466037883812,0.00245176566650865
"20",0.000685415280510345,0.169854176173526,0.0457039977968892,0.0879168391006731,0.000875630595181661,0.00078333174915468,0.178307261146392,0.037182913461876,0.0805392022530641,0.00122588283325433,0.00117499762373202,0.168005063835712,0.0395068455532432,0.0900686498478924,0.00140100895229066,0.000881248217799015,0.177514784430186,0.0302111171877742,0.0845354222121856,0.000875630595181661,0.00078333174915468,0.177250625524784,0.0364082694314202,0.0826910130002834,0.000875630595181661,0.000489582343221675,0.172495765227547,0.0364082694314202,0.0894538467772583,0.000700504476145329,0.000881248217799015,0.173816559754557,0.0294364731573185,0.0891464452419413,0.000875630595181661,0.00019583293728867,0.171439129605939,0.0410561336141547,0.0885316421713072,0.00140100895229066,0.00097916468644335,0.171174970700537,0.0263378970354955,0.0900686498478924,0.00262689178554498,0.00107708115508768,0.176193989903176,0.0387322015227875,0.079616997647113,0.00227663954747232
"21",0.00097916468644335,0.173816559754557,0.0418307776446105,0.0842280206768686,0.000700504476145329,0.000685415280510345,0.181741326916618,0.0356336254009645,0.0783873915058448,0.000700504476145329,0.00127291409237635,0.173552400849155,0.0356336254009645,0.0848428237475027,0.00140100895229066,0.00078333174915468,0.180948850200412,0.0302111171877742,0.0811540053236982,0.000700504476145329,0.000881248217799015,0.182005485822021,0.0348589813705087,0.0777725884352107,0.000700504476145329,0.000489582343221675,0.176458148808578,0.0317604052486857,0.0866872329594049,0.000700504476145329,0.000881248217799015,0.177514784430186,0.0286618291268627,0.0851502252828197,0.000875630595181661,0.000293749405933005,0.176193989903176,0.0356336254009645,0.0851502252828197,0.00122588283325433,0.000881248217799015,0.175137354281567,0.0255632530050397,0.087302036030039,0.00192638730939965,0.00097916468644335,0.181213009105814,0.0348589813705087,0.0765429822939426,0.00175126119036332
"22",0.00097916468644335,0.177514784430186,0.040281489583699,0.0811540053236982,0.000350252238072664,0.000685415280510345,0.185175392686845,0.03098576121823,0.0759281792233085,0.000875630595181661,0.00107708115508768,0.17804310224099,0.0286618291268627,0.0839206191415516,0.000875630595181661,0.00078333174915468,0.184118757065237,0.0255632530050397,0.079616997647113,0.000525378357108997,0.00078333174915468,0.184647074876041,0.034084337340053,0.0753133761526744,0.000700504476145329,0.000489582343221675,0.178835578957196,0.0302111171877742,0.0848428237475027,0.000525378357108997,0.00078333174915468,0.180420532389608,0.0286618291268627,0.0820762099296493,0.000875630595181661,0.000293749405933005,0.178835578957196,0.0356336254009645,0.0817688083943323,0.00140100895229066,0.00107708115508768,0.178307261146392,0.0232393209136725,0.0848428237475027,0.00140100895229066,0.000881248217799015,0.185175392686845,0.0302111171877742,0.0743911715467233,0.00157613507132699
"23",0.00107708115508768,0.182533803632825,0.0356336254009645,0.0765429822939426,0.000525378357108997,0.000685415280510345,0.18834529955167,0.027887185096407,0.0731615654054551,0.00105075671421799,0.00107708115508768,0.182533803632825,0.024788608974584,0.0805392022530641,0.000700504476145329,0.00107708115508768,0.188081140646268,0.0224646768832167,0.0753133761526744,0.000525378357108997,0.000685415280510345,0.18834529955167,0.0333096933095972,0.071931959264187,0.000525378357108997,0.000489582343221675,0.182533803632825,0.0271125410659512,0.0823836114649664,0.000175126119036332,0.000685415280510345,0.183326280349031,0.0263378970354955,0.0790021945764789,0.00140100895229066,0.000293749405933005,0.181741326916618,0.034084337340053,0.079616997647113,0.00105075671421799,0.00107708115508768,0.182269644727423,0.0224646768832167,0.0805392022530641,0.00140100895229066,0.00097916468644335,0.18834529955167,0.027887185096407,0.0716245577288699,0.00140100895229066
"24",0.00107708115508768,0.184911233781443,0.0364082694314202,0.0737763684760892,0.000350252238072664,0.000685415280510345,0.190722729700288,0.0255632530050397,0.0713171561935529,0.00105075671421799,0.000881248217799015,0.185703710497649,0.0224646768832167,0.0780799899705278,0.000875630595181661,0.00097916468644335,0.194420954375917,0.0178168127004822,0.0700875500522847,0.000525378357108997,0.000685415280510345,0.193628477659711,0.0294364731573185,0.0676283377697484,0.000350252238072664,0.00039166587457734,0.185703710497649,0.024788608974584,0.07992439918243,0.000175126119036332,0.00078333174915468,0.185439551592247,0.024788608974584,0.0765429822939426,0.00157613507132699,0.00039166587457734,0.186496187213855,0.0240139649441282,0.0780799899705278,0.000875630595181661,0.00107708115508768,0.186760346119257,0.018591456730938,0.0768503838292596,0.00140100895229066,0.00097916468644335,0.1923076831327,0.0240139649441282,0.0688579439110166,0.00122588283325433
"25",0.00097916468644335,0.189137776267876,0.0325350492791415,0.0703949515876018,0.000525378357108997,0.00097916468644335,0.1923076831327,0.0255632530050397,0.0691653454463336,0.000700504476145329,0.000881248217799015,0.189401935173278,0.0193661007613937,0.0756207776879915,0.000525378357108997,0.00097916468644335,0.197062543429937,0.0147182365786592,0.0682431408403825,0.000525378357108997,0.00078333174915468,0.196534225619133,0.0255632530050397,0.0654765270225291,0.000350252238072664,0.000489582343221675,0.18834529955167,0.0201407447918495,0.0786947930411619,NA,0.00078333174915468,0.18834529955167,0.021690032852761,0.0743911715467233,0.00157613507132699,0.000489582343221675,0.190458570794886,0.021690032852761,0.0740837700114063,0.000875630595181661,0.00097916468644335,0.191251047511092,0.0147182365786592,0.0734689669407722,0.00140100895229066,0.00097916468644335,0.194685113281319,0.0232393209136725,0.0673209362344313,0.000700504476145329
"26",0.00097916468644335,0.192836000943504,0.0286618291268627,0.0673209362344313,0.000700504476145329,0.00107708115508768,0.196270066713731,0.0224646768832167,0.0657839285578461,0.000525378357108997,0.00117499762373202,0.192836000943504,0.0170421686700265,0.0716245577288699,0.000525378357108997,0.00107708115508768,0.200496609200164,0.012394304487292,0.0651691254872121,0.000350252238072664,0.00078333174915468,0.198383337956947,0.024788608974584,0.0636321178106269,0.000350252238072664,0.000489582343221675,0.191251047511092,0.018591456730938,0.0759281792233085,NA,0.000685415280510345,0.190722729700288,0.0201407447918495,0.072239360799504,0.00175126119036332,0.00058749881186601,0.194949272186721,0.0193661007613937,0.0697801485169677,0.000700504476145329,0.00078333174915468,0.194685113281319,0.015492880609115,0.0703949515876018,0.00105075671421799,0.00107708115508768,0.197326702335339,0.0209153888223052,0.0651691254872121,0.000525378357108997
"27",0.00107708115508768,0.197062543429937,0.0255632530050397,0.0633247162753098,0.000700504476145329,0.00107708115508768,0.199175814673153,0.0209153888223052,0.0630173147399928,0.000525378357108997,0.00117499762373202,0.194420954375917,0.0162675246395707,0.0697801485169677,0.000700504476145329,0.00127291409237635,0.203402357159586,0.012394304487292,0.0611729055280905,0.000350252238072664,0.000685415280510345,0.200496609200164,0.0232393209136725,0.0627099132046757,NA,0.00039166587457734,0.196534225619133,0.0170421686700265,0.0703949515876018,0.000175126119036332,0.00078333174915468,0.194420954375917,0.0193661007613937,0.0685505423756995,0.00140100895229066,0.000685415280510345,0.197326702335339,0.018591456730938,0.0670135346991143,0.000700504476145329,0.00078333174915468,0.197326702335339,0.015492880609115,0.0679357393050654,0.000700504476145329,0.00107708115508768,0.199439973578556,0.0209153888223052,0.0630173147399928,0.000350252238072664
"28",0.00078333174915468,0.200496609200164,0.021690032852761,0.0617877085987246,0.000700504476145329,0.00107708115508768,0.202081562632576,0.0209153888223052,0.0596358978515053,0.000525378357108997,0.00107708115508768,0.197326702335339,0.015492880609115,0.0670135346991143,0.000700504476145329,0.00127291409237635,0.205251469497401,0.0131689485177477,0.0584062917102372,0.000525378357108997,0.00058749881186601,0.20260988044338,0.0232393209136725,0.0605581024574565,NA,0.000489582343221675,0.201024927010968,0.015492880609115,0.0654765270225291,0.000175126119036332,0.000881248217799015,0.197062543429937,0.018591456730938,0.0651691254872121,0.00157613507132699,0.000685415280510345,0.201817403727174,0.0131689485177477,0.0642469208812609,0.000525378357108997,0.00078333174915468,0.198383337956947,0.0139435925482035,0.0670135346991143,0.000875630595181661,0.00107708115508768,0.203138198254184,0.0178168127004822,0.0596358978515053,0.000525378357108997
"29",0.000685415280510345,0.20393067497039,0.0201407447918495,0.0580988901749201,0.00105075671421799,0.00117499762373202,0.205779787308205,0.018591456730938,0.0559470794277008,0.000525378357108997,0.00117499762373202,0.199439973578556,0.0139435925482035,0.0657839285578461,0.000175126119036332,0.00117499762373202,0.209213853078431,0.0108450164263805,0.0547174732864327,0.000700504476145329,0.00058749881186601,0.204987310591998,0.0232393209136725,0.0577914886396031,NA,0.000489582343221675,0.203402357159586,0.0139435925482035,0.0633247162753098,0.000175126119036332,0.00107708115508768,0.19996829138936,0.0170421686700265,0.0624025116693587,0.00122588283325433,0.000881248217799015,0.205515628402803,0.0116196604568362,0.0599432993868224,0.000525378357108997,0.000685415280510345,0.20128908591637,0.0131689485177477,0.064554322416578,0.000700504476145329,0.00078333174915468,0.206308105119009,0.0162675246395707,0.056869284033652,0.000875630595181661
"30",0.000685415280510345,0.205515628402803,0.0193661007613937,0.0565618824983349,0.00105075671421799,0.00097916468644335,0.209213853078431,0.0162675246395707,0.0534878671451645,0.000525378357108997,0.00117499762373202,0.202081562632576,0.0131689485177477,0.0630173147399928,0.000175126119036332,0.00117499762373202,0.21159128322705,0.0100703723959247,0.0525656625392134,0.000525378357108997,0.00058749881186601,0.207628899646019,0.0232393209136725,0.0547174732864327,NA,0.00039166587457734,0.207364740740617,0.0116196604568362,0.0599432993868224,0.000175126119036332,0.00117499762373202,0.201817403727174,0.015492880609115,0.0608655039927735,0.00105075671421799,0.000881248217799015,0.207893058551421,0.0100703723959247,0.0577914886396031,0.000525378357108997,0.00078333174915468,0.204458992781194,0.012394304487292,0.0611729055280905,0.000525378357108997,0.000685415280510345,0.209213853078431,0.015492880609115,0.0534878671451645,0.00122588283325433
"31",0.000489582343221675,0.209213853078431,0.0193661007613937,0.0531804656098475,0.000875630595181661,0.00107708115508768,0.211062965416246,0.0162675246395707,0.0510286548626282,0.000525378357108997,0.00097916468644335,0.204723151686596,0.0131689485177477,0.0602507009221394,0.000350252238072664,0.00117499762373202,0.212383759943256,0.0116196604568362,0.0513360563979452,0.000350252238072664,0.00039166587457734,0.210534647605441,0.0201407447918495,0.0528730640745304,0.000175126119036332,0.00039166587457734,0.208949694173029,0.0116196604568362,0.0584062917102372,NA,0.00097916468644335,0.206836422929813,0.0147182365786592,0.0553322763570668,0.00140100895229066,0.00078333174915468,0.212383759943256,0.0100703723959247,0.0528730640745304,0.000525378357108997,0.00058749881186601,0.208421376362225,0.0108450164263805,0.0577914886396031,0.000525378357108997,0.000685415280510345,0.210798806510844,0.0162675246395707,0.0513360563979452,0.00122588283325433
"32",0.00058749881186601,0.21159128322705,0.0178168127004822,0.0507212533273111,0.000875630595181661,0.00107708115508768,0.213704554470266,0.015492880609115,0.0482620410447748,0.000525378357108997,0.00097916468644335,0.209478011983833,0.0116196604568362,0.0553322763570668,0.000350252238072664,0.00117499762373202,0.213968713375668,0.0116196604568362,0.049491647186043,0.000350252238072664,0.00039166587457734,0.213440395564864,0.0193661007613937,0.0501064502566771,NA,0.000489582343221675,0.211327124321648,0.0116196604568362,0.0553322763570668,NA,0.00097916468644335,0.209742170889235,0.012394304487292,0.0528730640745304,0.00140100895229066,0.00078333174915468,0.21555366680808,0.0100703723959247,0.049491647186043,0.000350252238072664,0.000685415280510345,0.21159128322705,0.00929572836546899,0.0544100717511156,0.000525378357108997,0.000685415280510345,0.214497031186472,0.0162675246395707,0.0473398364388237,0.00105075671421799
"33",0.00058749881186601,0.21291207775406,0.0170421686700265,0.0491842456507259,0.00105075671421799,0.00127291409237635,0.21555366680808,0.0147182365786592,0.0461102302975556,0.000350252238072664,0.00097916468644335,0.214497031186472,0.0116196604568362,0.04979904872136,0.000175126119036332,0.00097916468644335,0.215025348997276,0.0116196604568362,0.0488768441154089,0.000350252238072664,0.000489582343221675,0.216610302429689,0.0178168127004822,0.0467250333681896,NA,0.000685415280510345,0.216081984618884,0.0108450164263805,0.049491647186043,NA,0.00117499762373202,0.21159128322705,0.0131689485177477,0.0504138517919941,0.00105075671421799,0.00078333174915468,0.218723573672905,0.00929572836546899,0.0464176318328726,0.000175126119036332,0.000489582343221675,0.21423287228107,0.00929572836546899,0.0519508594685793,0.000525378357108997,0.000685415280510345,0.217138620240493,0.0147182365786592,0.0451880256916044,0.000875630595181661
"34",0.00058749881186601,0.21423287228107,0.0178168127004822,0.0476472379741407,0.000875630595181661,0.00127291409237635,0.217402779145895,0.015492880609115,0.0436510180150193,0.000350252238072664,0.00097916468644335,0.217666938051297,0.0100703723959247,0.0464176318328726,0.000350252238072664,0.00127291409237635,0.217138620240493,0.0108450164263805,0.0458028287622385,0.000350252238072664,0.000489582343221675,0.219516050389111,0.0162675246395707,0.0436510180150193,0.000175126119036332,0.000881248217799015,0.218459414767503,0.00929572836546899,0.0467250333681896,NA,0.00127291409237635,0.215025348997276,0.0131689485177477,0.0464176318328726,0.000875630595181661,0.00078333174915468,0.221365162726925,0.00929572836546899,0.0433436164797022,0.000175126119036332,0.00058749881186601,0.216346143524286,0.00852108433501324,0.0491842456507259,0.000700504476145329,0.00107708115508768,0.218987732578307,0.0139435925482035,0.0427288134090682,0.000525378357108997
"35",0.00058749881186601,0.218459414767503,0.015492880609115,0.0439584195503363,0.000700504476145329,0.00107708115508768,0.220044368199915,0.0131689485177477,0.0424214118737511,0.000175126119036332,0.00097916468644335,0.218723573672905,0.0116196604568362,0.0445732226209704,0.000350252238072664,0.00137083056102069,0.219251891483709,0.00929572836546899,0.0436510180150193,0.000350252238072664,0.00039166587457734,0.222157639443131,0.015492880609115,0.041191805732483,0.000175126119036332,0.00097916468644335,0.221101003821523,0.00929572836546899,0.0433436164797022,NA,0.00137083056102069,0.218723573672905,0.012394304487292,0.0424214118737511,0.000700504476145329,0.000685415280510345,0.224006751780946,0.00929572836546899,0.0405770026618489,0.000175126119036332,0.000881248217799015,0.218459414767503,0.00852108433501324,0.0461102302975556,0.000525378357108997,0.00107708115508768,0.221893480537729,0.0131689485177477,0.0396547980558978,0.000525378357108997
"36",0.00058749881186601,0.220836844916121,0.0147182365786592,0.0414992072678,0.000700504476145329,0.00137083056102069,0.221101003821523,0.0131689485177477,0.0402696011265319,0.000175126119036332,0.000685415280510345,0.222950116159338,0.0116196604568362,0.0405770026618489,0.000350252238072664,0.00117499762373202,0.221893480537729,0.00929572836546899,0.0408844041971659,0.000525378357108997,0.00019583293728867,0.226120023024162,0.0147182365786592,0.0375029873086786,0.000175126119036332,0.00097916468644335,0.223742592875544,0.00774644030455749,0.0408844041971659,NA,0.00146874702966502,0.222157639443131,0.0100703723959247,0.0393473965205808,0.000525378357108997,0.000685415280510345,0.226120023024162,0.00774644030455749,0.0387325934499467,0.000175126119036332,0.000881248217799015,0.219780209294513,0.00929572836546899,0.0445732226209704,0.000350252238072664,0.00097916468644335,0.223742592875544,0.0116196604568362,0.0384251919146297,0.000525378357108997
"37",0.00058749881186601,0.224006751780946,0.0147182365786592,0.0384251919146297,0.000350252238072664,0.00137083056102069,0.224006751780946,0.0131689485177477,0.0368881842380445,0.000175126119036332,0.00058749881186601,0.225063387402554,0.0108450164263805,0.0387325934499467,0.000350252238072664,0.00107708115508768,0.222685957253936,0.00929572836546899,0.0402696011265319,0.000525378357108997,0.00019583293728867,0.229289929888987,0.012394304487292,0.0347363734908252,0.000175126119036332,0.00107708115508768,0.226648340834966,0.00619715224364599,0.0378103888439956,NA,0.00166457996695369,0.225063387402554,0.00852108433501324,0.0359659796320934,0.000525378357108997,0.000881248217799015,0.227440817551172,0.00774644030455749,0.0368881842380445,NA,0.00097916468644335,0.222685957253936,0.00852108433501324,0.041191805732483,0.000350252238072664,0.00107708115508768,0.227969135361976,0.0116196604568362,0.0335067673495571,0.000350252238072664
"38",0.000881248217799015,0.230082406605193,0.0139435925482035,0.0307401535317038,0.000350252238072664,0.00146874702966502,0.228497453172781,0.0100703723959247,0.032584562743606,0.000175126119036332,0.00058749881186601,0.230610724415997,0.0100703723959247,0.032584562743606,0.000350252238072664,0.00107708115508768,0.22717665864577,0.00929572836546899,0.0350437750261423,0.000525378357108997,0.000293749405933005,0.234573107997028,0.0116196604568362,0.0285883427844845,0.000175126119036332,0.00107708115508768,0.232988154564615,0.0046478641827345,0.0310475550670208,NA,0.00176249643559803,0.229818247699791,0.00852108433501324,0.0301253504610697,0.000525378357108997,0.000685415280510345,0.234308949091626,0.00697179627410174,0.0298179489257527,NA,0.000881248217799015,0.227440817551172,0.00774644030455749,0.0362733811674104,0.000350252238072664,0.00107708115508768,0.229289929888987,0.012394304487292,0.0316623581376549,0.000350252238072664
"39",0.000881248217799015,0.233252313470017,0.0139435925482035,0.0270513351078993,0.000350252238072664,0.00176249643559803,0.230346565510595,0.0100703723959247,0.0295105473904356,0.000175126119036332,0.00039166587457734,0.232723995659213,0.00929572836546899,0.0313549566023378,0.000175126119036332,0.00107708115508768,0.230346565510595,0.0100703723959247,0.0310475550670208,0.000525378357108997,0.00039166587457734,0.236686379240244,0.012394304487292,0.0255143274313142,0.000175126119036332,0.00117499762373202,0.238271332672656,0.00542250821319025,0.024284721290046,NA,0.00166457996695369,0.235101425807832,0.00929572836546899,0.024284721290046,0.000350252238072664,0.00058749881186601,0.238535491578058,0.00697179627410174,0.0252069258959971,NA,0.000881248217799015,0.230346565510595,0.00852108433501324,0.032584562743606,0.000350252238072664,0.00137083056102069,0.232195677848409,0.012394304487292,0.0276661381785334,0.000175126119036332
"40",0.00078333174915468,0.23615806142944,0.012394304487292,0.0245921228253631,0.000350252238072664,0.0019583293728867,0.234573107997028,0.00852108433501324,0.0248995243606801,NA,0.000489582343221675,0.235101425807832,0.00774644030455749,0.0288957443198016,0.000175126119036332,0.00117499762373202,0.233516472375419,0.0100703723959247,0.0273587366432164,0.000350252238072664,0.000489582343221675,0.23879965048346,0.0131689485177477,0.0224403120781438,0.000175126119036332,0.00127291409237635,0.239856286105069,0.00542250821319025,0.0221329105428268,NA,0.00176249643559803,0.238271332672656,0.00929572836546899,0.0199810997956075,0.000525378357108997,0.00127291409237635,0.239856286105069,0.00619715224364599,0.0218255090075097,NA,0.000881248217799015,0.233516472375419,0.00774644030455749,0.0292031458551186,0.000350252238072664,0.00117499762373202,0.235893902524038,0.0116196604568362,0.024284721290046,0.000175126119036332
"41",0.000881248217799015,0.238535491578058,0.0131689485177477,0.0215181074721927,0.000175126119036332,0.0019583293728867,0.235101425807832,0.0100703723959247,0.0233625166840949,0.000175126119036332,0.000685415280510345,0.237743014861852,0.00852108433501324,0.0248995243606801,0.000175126119036332,0.00107708115508768,0.236422220334842,0.00929572836546899,0.024284721290046,0.000525378357108997,0.00058749881186601,0.241177080632079,0.0131689485177477,0.0190588951896564,0.000350252238072664,0.00127291409237635,0.242762034064491,0.0046478641827345,0.0190588951896564,NA,0.00166457996695369,0.241705398442883,0.00852108433501324,0.0165996829071201,0.000525378357108997,0.00137083056102069,0.241705398442883,0.00619715224364599,0.0190588951896564,0.000175126119036332,0.00107708115508768,0.23615806142944,0.00929572836546899,0.0255143274313142,NA,0.00117499762373202,0.238007173767254,0.012394304487292,0.0215181074721927,0.000175126119036332
"42",0.00107708115508768,0.240384603915873,0.0131689485177477,0.0187514936543393,0.000175126119036332,0.00186041290424236,0.236950538145646,0.00929572836546899,0.0215181074721927,0.000350252238072664,0.000685415280510345,0.240120445010471,0.00852108433501324,0.0221329105428268,0.000175126119036332,0.00117499762373202,0.237743014861852,0.00929572836546899,0.0224403120781438,0.000525378357108997,0.000685415280510345,0.243818669686099,0.0139435925482035,0.0153700767658519,0.000350252238072664,0.00137083056102069,0.245139464213109,0.0046478641827345,0.015984879836486,NA,0.00156666349830936,0.243818669686099,0.00774644030455749,0.0144478721599008,0.000700504476145329,0.00146874702966502,0.243554510780697,0.0046478641827345,0.0169070844424371,0.000350252238072664,0.00078333174915468,0.238535491578058,0.0100703723959247,0.0230551151487779,0.000175126119036332,0.00117499762373202,0.240648762821275,0.00929572836546899,0.0196736982602905,0.000175126119036332
"43",0.00097916468644335,0.242762034064491,0.012394304487292,0.0169070844424371,NA,0.00176249643559803,0.239327968294264,0.00929572836546899,0.0187514936543393,0.000525378357108997,0.00078333174915468,0.242762034064491,0.00774644030455749,0.0193662967249734,NA,0.00117499762373202,0.239592127199666,0.00929572836546899,0.0202885013309245,0.000525378357108997,0.00078333174915468,0.245403623118511,0.0147182365786592,0.0132182660186326,0.000175126119036332,0.00156666349830936,0.245403623118511,0.0046478641827345,0.0150626752305349,NA,0.00117499762373202,0.245931940929316,0.00697179627410174,0.0141404706245838,0.000350252238072664,0.00156666349830936,0.244875305307707,0.0046478641827345,0.0150626752305349,0.000350252238072664,0.00097916468644335,0.239592127199666,0.0108450164263805,0.0209033044015586,0.000175126119036332,0.00117499762373202,0.243818669686099,0.00852108433501324,0.016292281371803,0.000175126119036332
"44",0.000881248217799015,0.245667782023914,0.0108450164263805,0.0144478721599008,NA,0.00166457996695369,0.240648762821275,0.00929572836546899,0.0175218875130712,0.000525378357108997,0.00097916468644335,0.243554510780697,0.00852108433501324,0.0175218875130712,NA,0.00127291409237635,0.239856286105069,0.0100703723959247,0.0199810997956075,0.000175126119036332,0.00078333174915468,0.247516894361728,0.0139435925482035,0.0110664552714134,0.000175126119036332,0.00127291409237635,0.247516894361728,0.00542250821319025,0.0129108644833156,0.000175126119036332,0.00107708115508768,0.246724417645522,0.00619715224364599,0.0138330690892667,0.000350252238072664,0.00146874702966502,0.247516894361728,0.00542250821319025,0.0119886598773645,0.000350252238072664,0.000881248217799015,0.243026192969893,0.0100703723959247,0.0175218875130712,0.000175126119036332,0.000881248217799015,0.245403623118511,0.00774644030455749,0.015677478301169,0.000175126119036332
"45",0.000881248217799015,0.247516894361728,0.0116196604568362,0.0119886598773645,NA,0.00156666349830936,0.243026192969893,0.00929572836546899,0.0147552736952178,0.000700504476145329,0.00097916468644335,0.245403623118511,0.00852108433501324,0.0153700767658519,NA,0.00127291409237635,0.242233716253687,0.0108450164263805,0.0169070844424371,0.000175126119036332,0.00107708115508768,0.249366006699542,0.0116196604568362,0.00891464452419411,0.000175126119036332,0.00127291409237635,0.248573529983336,0.00542250821319025,0.0116812583420475,0.000175126119036332,0.00097916468644335,0.24778105326713,0.00697179627410174,0.0126034629479986,0.000350252238072664,0.00156666349830936,0.248573529983336,0.00542250821319025,0.0104516522007793,0.000350252238072664,0.00058749881186601,0.245403623118511,0.0100703723959247,0.015677478301169,0.000175126119036332,0.00078333174915468,0.24778105326713,0.00619715224364599,0.0138330690892667,0.000175126119036332
"46",0.00097916468644335,0.248045212172532,0.0116196604568362,0.0110664552714134,NA,0.00117499762373202,0.245139464213109,0.00774644030455749,0.0144478721599008,0.000525378357108997,0.00107708115508768,0.246724417645522,0.00852108433501324,0.0135256675539497,NA,0.00107708115508768,0.245139464213109,0.00929572836546899,0.0147552736952178,0.000175126119036332,0.00117499762373202,0.249630165604944,0.0116196604568362,0.00829984145356003,0.000175126119036332,0.00127291409237635,0.248573529983336,0.00542250821319025,0.0116812583420475,0.000175126119036332,0.00107708115508768,0.248045212172532,0.00697179627410174,0.0119886598773645,0.000350252238072664,0.00146874702966502,0.249630165604944,0.00619715224364599,0.00922204605951115,0.000350252238072664,0.000685415280510345,0.246724417645522,0.0100703723959247,0.0138330690892667,0.000175126119036332,0.00078333174915468,0.248837688888738,0.00619715224364599,0.0126034629479986,0.000175126119036332
"47",0.00097916468644335,0.248309371077934,0.012394304487292,0.0104516522007793,NA,0.00137083056102069,0.244875305307707,0.00852108433501324,0.0138330690892667,0.000525378357108997,0.00127291409237635,0.248309371077934,0.00774644030455749,0.0113738568067304,NA,0.00107708115508768,0.247516894361728,0.00852108433501324,0.0122960614126815,0.000175126119036332,0.00127291409237635,0.25042264232115,0.0108450164263805,0.00737763684760892,0.000175126119036332,0.00127291409237635,0.25042264232115,0.00619715224364599,0.00891464452419411,0.000350252238072664,0.00097916468644335,0.248837688888738,0.00542250821319025,0.0126034629479986,NA,0.00176249643559803,0.25042264232115,0.00774644030455749,0.00676283377697484,0.000350252238072664,0.00078333174915468,0.247252735456326,0.0116196604568362,0.0122960614126815,0.000175126119036332,0.00078333174915468,0.248837688888738,0.00619715224364599,0.0126034629479986,0.000175126119036332
"48",0.00078333174915468,0.249366006699542,0.012394304487292,0.00983684913014523,NA,0.00137083056102069,0.245667782023914,0.00929572836546899,0.0126034629479986,0.000525378357108997,0.00137083056102069,0.248309371077934,0.00852108433501324,0.0107590537360963,NA,0.00117499762373202,0.248573529983336,0.00852108433501324,0.0107590537360963,0.000175126119036332,0.00137083056102069,0.251215119037356,0.0116196604568362,0.00614803070634077,NA,0.00137083056102069,0.251479277942759,0.00697179627410174,0.00707023531229188,0.000350252238072664,0.00097916468644335,0.249894324510346,0.00387322015227875,0.0119886598773645,NA,0.00176249643559803,0.250950960131954,0.00774644030455749,0.0064554322416578,0.000175126119036332,0.00078333174915468,0.248309371077934,0.0116196604568362,0.0110664552714134,0.000175126119036332,0.00078333174915468,0.249630165604944,0.00697179627410174,0.0113738568067304,0.000175126119036332
"49",0.00078333174915468,0.249894324510346,0.012394304487292,0.00922204605951115,NA,0.00117499762373202,0.246724417645522,0.00852108433501324,0.0122960614126815,0.000525378357108997,0.00166457996695369,0.248045212172532,0.00774644030455749,0.0104516522007793,NA,0.00137083056102069,0.248309371077934,0.00929572836546899,0.0101442506654623,0.000175126119036332,0.00127291409237635,0.251215119037356,0.012394304487292,0.00614803070634077,NA,0.00117499762373202,0.251215119037356,0.00697179627410174,0.00768503838292596,0.000525378357108997,0.00107708115508768,0.250158483415748,0.00387322015227875,0.0113738568067304,NA,0.00156666349830936,0.251479277942759,0.00697179627410174,0.00614803070634077,0.000525378357108997,0.00097916468644335,0.24910184779414,0.0100703723959247,0.00983684913014523,0.000350252238072664,0.00058749881186601,0.250686801226552,0.00697179627410174,0.0104516522007793,0.000350252238072664
"50",0.000685415280510345,0.250686801226552,0.0116196604568362,0.00829984145356003,0.000350252238072664,0.000881248217799015,0.247516894361728,0.00774644030455749,0.0122960614126815,0.000700504476145329,0.00146874702966502,0.249366006699542,0.00697179627410174,0.00952944759482819,0.000175126119036332,0.00127291409237635,0.248045212172532,0.00929572836546899,0.0104516522007793,0.000350252238072664,0.00127291409237635,0.251743436848161,0.0116196604568362,0.00553322763570669,0.000175126119036332,0.00117499762373202,0.251743436848161,0.00619715224364599,0.00737763684760892,0.000525378357108997,0.000881248217799015,0.249894324510346,0.0046478641827345,0.0116812583420475,0.000175126119036332,0.00127291409237635,0.251215119037356,0.00697179627410174,0.00737763684760892,0.000525378357108997,0.00107708115508768,0.249366006699542,0.0108450164263805,0.00891464452419411,0.000350252238072664,0.00058749881186601,0.250686801226552,0.00697179627410174,0.0104516522007793,0.000350252238072664
"51",0.00058749881186601,0.251743436848161,0.0116196604568362,0.00737763684760892,0.000350252238072664,0.00078333174915468,0.24778105326713,0.00774644030455749,0.0119886598773645,0.000875630595181661,0.00127291409237635,0.24910184779414,0.00697179627410174,0.0104516522007793,0.000175126119036332,0.00146874702966502,0.24778105326713,0.00852108433501324,0.0104516522007793,0.000350252238072664,0.00137083056102069,0.251743436848161,0.0100703723959247,0.00584062917102373,0.000175126119036332,0.00117499762373202,0.252271754658965,0.00542250821319025,0.00737763684760892,0.000350252238072664,0.00107708115508768,0.249366006699542,0.0046478641827345,0.0119886598773645,NA,0.00117499762373202,0.250950960131954,0.00697179627410174,0.007992439918243,0.000525378357108997,0.00107708115508768,0.249630165604944,0.00929572836546899,0.00952944759482819,0.000175126119036332,0.000489582343221675,0.250686801226552,0.00697179627410174,0.0107590537360963,0.000350252238072664
"52",0.00039166587457734,0.252007595753563,0.0108450164263805,0.007992439918243,0.000350252238072664,0.000881248217799015,0.247516894361728,0.00697179627410174,0.0122960614126815,0.000875630595181661,0.00127291409237635,0.249366006699542,0.00619715224364599,0.0104516522007793,0.000175126119036332,0.00127291409237635,0.248045212172532,0.00852108433501324,0.0110664552714134,0.000175126119036332,0.00127291409237635,0.250950960131954,0.0116196604568362,0.00614803070634077,0.000350252238072664,0.00107708115508768,0.252271754658965,0.00542250821319025,0.00768503838292596,0.000350252238072664,0.00107708115508768,0.249630165604944,0.0046478641827345,0.0116812583420475,NA,0.000881248217799015,0.25042264232115,0.00852108433501324,0.00829984145356003,0.000875630595181661,0.00117499762373202,0.249366006699542,0.0100703723959247,0.00922204605951115,0.000175126119036332,0.00058749881186601,0.25042264232115,0.00852108433501324,0.0104516522007793,0.000175126119036332
"53",0.00039166587457734,0.251479277942759,0.0116196604568362,0.00829984145356003,0.000350252238072664,0.000881248217799015,0.24778105326713,0.00774644030455749,0.0116812583420475,0.000875630595181661,0.00127291409237635,0.249366006699542,0.00697179627410174,0.0101442506654623,0.000175126119036332,0.00117499762373202,0.24910184779414,0.00774644030455749,0.0104516522007793,0.000175126119036332,0.00107708115508768,0.250950960131954,0.0116196604568362,0.0064554322416578,0.000525378357108997,0.000881248217799015,0.252271754658965,0.0046478641827345,0.00860724298887707,0.000350252238072664,0.00107708115508768,0.249894324510346,0.00387322015227875,0.0116812583420475,NA,0.000881248217799015,0.25042264232115,0.00852108433501324,0.00860724298887707,0.000700504476145329,0.00097916468644335,0.249366006699542,0.0100703723959247,0.00952944759482819,0.000350252238072664,0.00078333174915468,0.250158483415748,0.00774644030455749,0.0104516522007793,0.000175126119036332
"54",0.00039166587457734,0.252007595753563,0.0100703723959247,0.00829984145356003,0.000350252238072664,0.00097916468644335,0.248309371077934,0.00774644030455749,0.0110664552714134,0.000700504476145329,0.00127291409237635,0.24910184779414,0.00774644030455749,0.0104516522007793,NA,0.00097916468644335,0.24910184779414,0.00852108433501324,0.0107590537360963,0.000175126119036332,0.00107708115508768,0.251743436848161,0.0100703723959247,0.00614803070634077,0.000525378357108997,0.00097916468644335,0.252800072469769,0.00387322015227875,0.00860724298887707,NA,0.00097916468644335,0.25042264232115,0.00387322015227875,0.0113738568067304,NA,0.00078333174915468,0.250686801226552,0.00852108433501324,0.00829984145356003,0.000875630595181661,0.00107708115508768,0.249366006699542,0.00929572836546899,0.00952944759482819,0.000350252238072664,0.00078333174915468,0.250686801226552,0.00774644030455749,0.00983684913014523,0.000175126119036332
"55",0.000489582343221675,0.252007595753563,0.0100703723959247,0.007992439918243,0.000350252238072664,0.00078333174915468,0.248309371077934,0.00774644030455749,0.0116812583420475,0.000700504476145329,0.00137083056102069,0.248837688888738,0.00774644030455749,0.0104516522007793,NA,0.00117499762373202,0.248309371077934,0.00852108433501324,0.0113738568067304,NA,0.00078333174915468,0.251743436848161,0.0100703723959247,0.00707023531229188,0.000525378357108997,0.00097916468644335,0.252535913564367,0.00387322015227875,0.00891464452419411,NA,0.000881248217799015,0.251215119037356,0.00387322015227875,0.0107590537360963,NA,0.00078333174915468,0.251215119037356,0.00852108433501324,0.00768503838292596,0.000875630595181661,0.00107708115508768,0.249630165604944,0.00929572836546899,0.00922204605951115,0.000350252238072664,0.00078333174915468,0.251215119037356,0.00697179627410174,0.00952944759482819,0.000175126119036332
"56",0.00058749881186601,0.252007595753563,0.00929572836546899,0.007992439918243,0.000350252238072664,0.000881248217799015,0.248309371077934,0.00774644030455749,0.0119886598773645,0.000350252238072664,0.00127291409237635,0.248573529983336,0.00852108433501324,0.0104516522007793,0.000175126119036332,0.00127291409237635,0.24778105326713,0.00852108433501324,0.0113738568067304,0.000175126119036332,0.00078333174915468,0.252007595753563,0.00929572836546899,0.00737763684760892,0.000350252238072664,0.00097916468644335,0.252535913564367,0.00387322015227875,0.00891464452419411,NA,0.00078333174915468,0.250686801226552,0.0046478641827345,0.0113738568067304,NA,0.00078333174915468,0.251743436848161,0.00852108433501324,0.00707023531229188,0.000875630595181661,0.00117499762373202,0.249894324510346,0.00929572836546899,0.00860724298887707,0.000350252238072664,0.00097916468644335,0.25042264232115,0.00697179627410174,0.00983684913014523,0.000175126119036332
"57",0.00078333174915468,0.251743436848161,0.00929572836546899,0.007992439918243,0.000175126119036332,0.00078333174915468,0.248045212172532,0.00852108433501324,0.0122960614126815,0.000350252238072664,0.00097916468644335,0.248309371077934,0.00852108433501324,0.0113738568067304,0.000350252238072664,0.00137083056102069,0.247516894361728,0.00852108433501324,0.0113738568067304,0.000175126119036332,0.000881248217799015,0.251479277942759,0.00929572836546899,0.007992439918243,0.000175126119036332,0.00097916468644335,0.252271754658965,0.00387322015227875,0.00922204605951115,NA,0.000881248217799015,0.250158483415748,0.0046478641827345,0.0116812583420475,NA,0.000685415280510345,0.252007595753563,0.00774644030455749,0.00829984145356003,0.000350252238072664,0.00107708115508768,0.250950960131954,0.00774644030455749,0.00860724298887707,0.000175126119036332,0.00127291409237635,0.250158483415748,0.00619715224364599,0.00983684913014523,NA
"58",0.00078333174915468,0.251479277942759,0.00929572836546899,0.007992439918243,0.000350252238072664,0.00078333174915468,0.24910184779414,0.00697179627410174,0.0116812583420475,0.000350252238072664,0.00097916468644335,0.248045212172532,0.0100703723959247,0.0110664552714134,0.000350252238072664,0.00137083056102069,0.246724417645522,0.0100703723959247,0.0116812583420475,0.000175126119036332,0.00078333174915468,0.251215119037356,0.0100703723959247,0.00829984145356003,0.000175126119036332,0.00117499762373202,0.251215119037356,0.0046478641827345,0.00952944759482819,NA,0.00107708115508768,0.249366006699542,0.0046478641827345,0.0119886598773645,NA,0.00078333174915468,0.252271754658965,0.00619715224364599,0.00829984145356003,0.000350252238072664,0.00107708115508768,0.251215119037356,0.00697179627410174,0.00860724298887707,0.000175126119036332,0.00127291409237635,0.25042264232115,0.00619715224364599,0.00952944759482819,NA
"59",0.00078333174915468,0.251479277942759,0.00929572836546899,0.007992439918243,0.000350252238072664,0.000489582343221675,0.249630165604944,0.00619715224364599,0.0113738568067304,0.000875630595181661,0.00078333174915468,0.248837688888738,0.0100703723959247,0.0107590537360963,0.000350252238072664,0.00117499762373202,0.246988576550924,0.0108450164263805,0.0116812583420475,0.000175126119036332,0.00078333174915468,0.251479277942759,0.0100703723959247,0.007992439918243,0.000175126119036332,0.00117499762373202,0.250950960131954,0.0046478641827345,0.00983684913014523,NA,0.00117499762373202,0.248837688888738,0.00542250821319025,0.0119886598773645,NA,0.000685415280510345,0.252007595753563,0.00697179627410174,0.00891464452419411,0.000175126119036332,0.00097916468644335,0.250950960131954,0.00619715224364599,0.00983684913014523,NA,0.00127291409237635,0.250950960131954,0.0046478641827345,0.00922204605951115,0.000175126119036332
"60",0.000685415280510345,0.252007595753563,0.00774644030455749,0.00829984145356003,0.000350252238072664,0.00058749881186601,0.249630165604944,0.00619715224364599,0.0110664552714134,0.000875630595181661,0.000881248217799015,0.248837688888738,0.00929572836546899,0.0107590537360963,0.000350252238072664,0.00097916468644335,0.246724417645522,0.0108450164263805,0.0126034629479986,0.000175126119036332,0.000881248217799015,0.251215119037356,0.00929572836546899,0.00829984145356003,0.000175126119036332,0.00107708115508768,0.250950960131954,0.00387322015227875,0.0101442506654623,0.000175126119036332,0.00127291409237635,0.248837688888738,0.0046478641827345,0.0116812583420475,0.000175126119036332,0.000685415280510345,0.251479277942759,0.00774644030455749,0.00922204605951115,0.000175126119036332,0.00097916468644335,0.25042264232115,0.00619715224364599,0.0104516522007793,NA,0.00127291409237635,0.250950960131954,0.0046478641827345,0.00891464452419411,0.000350252238072664
