"","Early1.ALL","Late1.CLS","Late1.OPN","Mid1.CLS","Mid1.OPN","total","Early1.ALL.1","Late1.CLS.1","Late1.OPN.1","Mid1.CLS.1","Mid1.OPN.1","total.1","Early1.ALL.2","Late1.CLS.2","Late1.OPN.2","Mid1.CLS.2","Mid1.OPN.2","total.2","Early1.ALL.3","Late1.CLS.3","Late1.OPN.3","Mid1.CLS.3","Mid1.OPN.3","total.3","Early1.ALL.4","Late1.CLS.4","Late1.OPN.4","Mid1.CLS.4","Mid1.OPN.4","total.4","Early1.ALL.5","Late1.CLS.5","Late1.OPN.5","Mid1.CLS.5","Mid1.OPN.5","total.5","Early1.ALL.6","Late1.CLS.6","Late1.OPN.6","Mid1.CLS.6","Mid1.OPN.6","total.6","Early1.ALL.7","Late1.CLS.7","Late1.OPN.7","Mid1.CLS.7","Mid1.OPN.7","total.7","Early1.ALL.8","Late1.CLS.8","Late1.OPN.8","Mid1.CLS.8","Mid1.OPN.8","total.8","Early1.ALL.9","Late1.CLS.9","Late1.OPN.9","Mid1.CLS.9","Mid1.OPN.9","total.9"
"0",650860.369294298,23597150.4101593,8350400.0571162,12795637.8984667,2347251.75734858,47741300.492385,595467.997439464,26505249.9325381,8807387.12491859,11964752.3206441,1973353.24732846,49846210.6228687,630088.229848735,25092744.4502398,8308855.77822508,12629460.7829022,2139530.36289296,48800679.6041088,713176.787630985,26089807.1436268,7644147.31596707,12712549.3406844,1931808.96843733,49091489.5563466,637012.276330589,24511124.5457641,8391944.33600733,13086447.8507045,1994125.38677402,48620654.3955805,685480.601703569,24012593.1990706,8350400.0571162,13044903.5718134,2014897.52621958,48108274.9559233,637012.276330589,23680238.9679415,8724298.56713634,12961815.0140312,2097986.08400183,48101350.9094415,685480.601703569,25674364.3547156,8641210.00935408,11923208.041753,2014897.52621958,48939160.5337458,740872.973558402,24344947.4301996,7893412.98931382,12255562.272882,2388796.03623971,47623591.7021935,616240.136885027,24677301.6613286,8724298.56713634,12754093.6195755,2014897.52621958,48786831.511145
"1",553923.718548339,24012593.1990706,8433488.61489846,13294169.2451602,2243391.06012077,48537565.8377983,560847.765030193,26671427.0481026,8807387.12491859,12463283.6673377,1786403.99231839,50289349.5977074,526227.532620922,25923630.0280623,8350400.0571162,12920270.73514,2077213.94455627,49797742.2974958,643936.322812444,27169958.3947961,7727235.87374932,12837182.1773578,1765631.85287283,50143944.6215885,519303.486139068,25175833.0080221,8516577.17268071,13709612.0340714,1807176.13176396,49728501.8326772,574695.857993902,24760390.2191108,8433488.61489846,13418802.0818336,1931808.96843733,49119185.7422741,512379.439657214,23929504.6412883,8724298.56713634,13418802.0818336,2181074.64178408,48766059.3716995,540075.625584631,26505249.9325381,8682754.28824521,12380195.1095554,1994125.38677402,50102400.3426974,630088.229848735,25009655.8924576,7934957.26820495,12629460.7829022,2347251.75734858,48551413.930762,546999.672066485,25508187.2391511,8765842.84602746,12795637.8984667,1973353.24732846,49590020.9030401
"2",491607.300211651,24511124.5457641,8641210.00935408,13834244.8707448,1931808.96843733,49409995.6945119,484683.253729797,27253046.9525784,8932019.96159196,12754093.6195755,1661771.15564502,51085614.9431207,491607.300211651,26339072.8169736,8475032.89378958,13044903.5718134,1952581.10788289,50303197.6906711,540075.625584631,27751578.2992719,7893412.98931382,13169536.4084868,1682543.29509058,51037146.6177477,450063.021320526,26422161.3747558,8516577.17268071,13626523.4762892,1744859.71342727,50760184.7584735,443138.974838671,25591275.7969333,8558121.45157183,13834244.8707448,1848720.41065508,50275501.5047437,366974.463538275,24677301.6613286,8848931.40380971,13792700.5918537,2181074.64178408,49866982.7623143,422366.835393109,27003781.2792316,8724298.56713634,12754093.6195755,2014897.52621958,50919437.8275562,546999.672066485,25674364.3547156,7976501.54709607,12920270.73514,2264163.19956633,49382299.5085845,470835.160766088,26006718.5858446,9056652.79826534,13127992.1295957,1765631.85287283,50427830.5273445
"3",415442.788911254,25009655.8924576,8724298.56713634,14125054.8229827,1848720.41065508,50123172.4821429,387746.602983837,28167021.0881831,9015108.51937422,12961815.0140312,1578682.59786277,52110373.8224351,422366.835393109,26588338.4903203,8475032.89378958,13584979.1973981,1827948.27120952,50898665.6881106,463911.114284234,28997906.6660056,7934957.26820495,13086447.8507045,1620226.87675389,52103449.7759533,380822.556501983,27086869.8370139,8516577.17268071,14000421.9863093,1599454.73730833,51584146.2898142,394670.649465692,26172895.7014091,8599665.73046296,14166599.1018738,1661771.15564502,50995602.3388566,276961.85927417,25591275.7969333,8932019.96159196,14041966.2652004,2056441.80511071,50898665.6881106,366974.463538275,27502312.6259251,8848931.40380971,12754093.6195755,1994125.38677402,51466437.4996227,450063.021320526,26339072.8169736,8059590.10487832,13252624.966269,2181074.64178408,50282425.5512256,380822.556501983,26422161.3747558,9181285.63493872,13543434.9185069,1661771.15564502,51189475.6403485
"4",373898.510020129,25508187.2391511,8848931.40380971,14415864.7752206,1640999.01619946,50787880.9444009,360050.417056421,28997906.6660056,9181285.63493872,12920270.73514,1391733.3428527,52851246.7959935,332354.231129004,27003781.2792316,8475032.89378958,14000421.9863093,1786403.99231839,51597994.3827779,394670.649465692,29745703.6860459,8059590.10487832,13211080.6873779,1516366.17952608,52927411.3072939,297733.998719732,27502312.6259251,8682754.28824521,14332776.2174383,1495594.04008052,52311171.1704089,318506.138165295,27336135.5103606,8641210.00935408,14166599.1018738,1578682.59786277,52041133.3576166,235417.580383044,26089807.1436268,8932019.96159196,14540497.6118939,1807176.13176396,51604918.4292597,311582.091683441,28250109.6459654,8890475.68270084,12795637.8984667,1931808.96843733,52179614.2872537,394670.649465692,27169958.3947961,8142678.66266057,13543434.9185069,1952581.10788289,51203323.7333122,353126.370574566,27169958.3947961,9264374.19272097,13709612.0340714,1433277.62174383,51930348.6139069
"5",297733.998719732,26255984.2591913,8848931.40380971,15039028.9585875,1370961.20340714,51812639.8237154,325430.184647149,29662615.1282637,9347462.75050322,12878726.4562489,1267100.50617933,53481335.0258423,256189.719828607,27917755.4148364,8475032.89378958,14000421.9863093,1786403.99231839,52435804.0070823,360050.417056421,30161146.4749572,8101134.38376945,13668067.7551803,1267100.50617933,53557499.5371427,235417.580383044,28250109.6459654,8682754.28824521,14332776.2174383,1495594.04008052,52996651.7721125,276961.85927417,28000843.9726186,8724298.56713634,14041966.2652004,1557910.4584172,52601981.1226468,186949.255010064,26920692.7214494,8973564.24048309,14665130.4485673,1661771.15564502,52408107.8211549,276961.85927417,28914818.1082234,8848931.40380971,13003359.2929223,1786403.99231839,52830474.656548,332354.231129004,28000843.9726186,8184222.9415517,14083510.5440916,1640999.01619946,52241930.7055903,276961.85927417,28250109.6459654,9305918.4716121,13875789.1496359,1287872.64562489,52996651.7721125
"6",249265.673346753,28083932.5304009,8350400.0571162,14955940.4008052,1350189.06396158,52989727.7256306,256189.719828607,31075120.6105619,8724298.56713634,13418802.0818336,1163239.80895151,54637650.7883119,207721.394455627,29579526.5704814,8142678.66266057,13751156.3129626,1807176.13176396,53488259.0723241,297733.998719732,32404537.535078,7353337.36372918,13834244.8707448,1184011.94839708,55073865.7166688,180025.20852821,30908943.4949974,7976501.54709607,14291231.9385472,1370961.20340714,54727663.392576,242341.626864898,29745703.6860459,8308855.77822508,14041966.2652004,1433277.62174383,53772144.9780802,152329.022600793,29579526.5704814,8225767.22044282,14457409.0541117,1578682.59786277,53993714.4654995,221569.487419336,30410412.1483039,8433488.61489846,13377257.8029424,1599454.73730833,54042182.7908725,263113.766310461,29828792.2438282,7602603.03707594,14415864.7752206,1516366.17952608,53626740.0019612,221569.487419336,30659677.8216507,8682754.28824521,14125054.8229827,1038606.97227814,54727663.3925761
"7",166177.115564502,30410412.1483039,7976501.54709607,14914396.1219141,1225556.2272882,54693043.1601668,221569.487419336,33900131.5751585,7768780.15264044,13460346.3607247,1017834.83283257,56368662.4087755,186949.255010064,32072183.303949,7394881.64262031,13668067.7551803,1661771.15564502,54983853.1124047,276961.85927417,33817043.0173762,6937894.57481793,13834244.8707448,1100923.39061482,55967067.712828,138480.929637085,32487626.0928602,7602603.03707594,14291231.9385472,1287872.64562489,55807814.6437453,173101.162046356,31739829.0728199,7851868.71042269,13958877.7074182,1412505.48229827,55136182.1350054,124632.836673376,31490563.3994732,7727235.87374932,14415864.7752206,1454049.76118939,55212346.6463058,145404.976118939,33069245.997336,7644147.31596707,13626523.4762892,1433277.62174383,55918599.387455,207721.394455627,31656740.5150377,7187160.24816468,14374320.4963294,1454049.76118939,54879992.4151768,166177.115564502,32819980.3239892,8142678.66266057,13958877.7074182,1017834.83283257,56105548.6424651
"8",145404.976118939,32072183.303949,7644147.31596707,14831307.5641318,1080151.25116926,55773194.411336,186949.255010064,35977345.5197148,7104071.69038243,13543434.9185069,893201.996159197,57705003.3797734,131556.883155231,33817043.0173762,6771717.45925342,14582041.8907851,1246328.36673376,56548687.6173037,180025.20852821,36143522.6352793,6231641.83366879,14083510.5440916,1038606.97227814,57677307.193846,103860.697227814,35146459.9418923,6979438.85370905,14291231.9385472,1038606.97227814,57559598.4036545,166177.115564502,33733954.459594,7187160.24816468,13875789.1496359,1308644.78507045,56271725.7580296,117708.790191522,33401600.228465,7311793.08483806,14498953.3330028,1163239.80895151,56493295.2454489,131556.883155231,34814105.7107633,7104071.69038243,13958877.7074182,1142467.66950595,57151079.6612251,186949.255010064,33318511.6706827,6647084.62258004,14498953.3330028,1308644.78507045,55960143.6663461,138480.929637085,35146459.9418923,7436425.92151144,13751156.3129626,976290.553941448,57448813.6599448
"9",110784.743709668,34647928.5951988,6688628.90147117,15122117.5163697,872429.856713634,57441889.6134629,166177.115564502,38885445.0420936,6148553.27588654,13543434.9185069,706252.741149133,59449863.0932007,103860.697227814,35811168.4041503,6231641.83366879,14374320.4963294,1204784.08784264,57725775.519219,131556.883155231,38054559.4642711,5899287.60253979,13834244.8707448,997062.693387011,58916711.5140979,90012.6042641051,37306762.4442308,6356274.67034217,14415864.7752206,789341.298931384,58958255.792989,131556.883155231,35561902.7308035,6771717.45925342,14000421.9863093,1100923.39061482,57566522.4501363,90012.6042641051,35644991.2885858,6605540.34368892,14789763.2852407,893201.996159197,58023509.5179387,76164.5113003967,36392788.308626,6605540.34368892,14291231.9385472,997062.693387011,58362787.7955496,117708.790191522,35395725.615239,6148553.27588654,14831307.5641318,1080151.25116926,57573446.4966182,103860.697227814,37306762.4442308,6937894.57481793,13543434.9185069,893201.996159197,58785154.6309427
"10",103860.697227814,37057496.7708841,5857743.32364867,15246750.3530431,643936.322812444,58909787.4676161,145404.976118939,40796481.8710854,5650021.92919304,13418802.0818336,602392.043921319,60613102.9021522,83088.5577822509,37556028.1175776,5691566.20808417,14831307.5641318,872429.856713634,59034420.3042894,90012.6042641051,40214861.9666096,5359211.97695517,13751156.3129626,893201.996159197,60308444.8569506,55392.3718548339,39716330.6199161,5525389.09251967,14415864.7752206,706252.741149133,60419229.6006603,76164.5113003967,37971470.9064888,6107008.99699542,14374320.4963294,810113.438376946,59339078.349491,83088.5577822509,38802356.4843113,5525389.09251967,14789763.2852407,664708.462258007,59865305.882112,62316.4183366882,37888382.3487066,6231641.83366879,14457409.0541117,768569.159485821,59408318.8143096,103860.697227814,37140585.3286663,5566933.37141079,14955940.4008052,913974.13560476,58681293.9337149,103860.697227814,40131773.4088274,6023920.43921317,13460346.3607247,685480.60170357,60405381.5076966
"11",69240.4648185424,39051622.1576581,5276123.41917291,15371383.1897165,477759.207247943,60246128.438614,117708.790191522,42292075.9111659,5193034.86139067,13584979.1973981,456987.06780238,61644785.8279485,76164.5113003967,39134710.7154403,5317667.69806404,15205206.074152,498531.346693505,60232280.3456502,62316.4183366882,41793544.5644724,4819136.35137054,14291231.9385472,581619.904475756,61547849.1772026,55392.3718548339,41627367.4489079,4860680.63026166,14831307.5641318,353126.370574566,61727874.3857308,55392.3718548339,39716330.6199161,5691566.20808417,14582041.8907851,540075.625584631,60585406.7162248,69240.4648185424,40381039.0821741,5026857.74582616,15080573.2374786,415442.788911254,60973153.3192087,48468.3253729797,39965596.2932629,5650021.92919304,14665130.4485673,477759.207247943,60806976.2036441,96936.6507459594,38636179.3687468,5276123.41917291,15122117.5163697,623164.183366882,59754521.1384023,69240.4648185424,42125898.7956014,5608477.65030192,13377257.8029424,540075.625584631,61720950.3392489
"12",55392.3718548339,41045747.5444321,5026857.74582616,14665130.4485673,498531.346693505,61291659.457374,96936.6507459594,43787669.9512464,4777592.07247941,13501890.6396158,394670.649465692,62558759.9635533,76164.5113003967,40962658.9866499,4777592.07247941,14872851.843023,477759.207247943,61167026.6207006,62316.4183366882,44036935.6245932,4154427.88911254,14000421.9863093,498531.346693505,62752633.2650452,48468.3253729797,43953847.0668109,4195972.16800366,14498953.3330028,290809.952237878,62988050.8454283,41544.2788911254,41544278.8911256,5109946.30360841,14332776.2174383,540075.625584631,61568621.3166481,69240.4648185424,42375164.4689482,4445237.84135041,14872851.843023,311582.091683441,62074076.7098235,48468.3253729797,41627367.4489079,5151490.58249954,14582041.8907851,353126.370574566,61762494.61814,62316.4183366882,41045747.5444321,4694503.51469716,14831307.5641318,560847.765030193,61194722.806628,69240.4648185424,44120024.1823754,5026857.74582616,13044903.5718134,498531.346693505,62759557.3115271
"13",27696.185927417,42707518.7000772,4486782.12024154,14665130.4485673,436214.928356817,62323342.3831703,76164.5113003967,46197238.1269317,4029795.05243916,13127992.1295957,415442.788911254,63846632.6091782,69240.4648185424,42042810.2378192,4445237.84135041,14748219.0063496,456987.06780238,61762494.6181401,55392.3718548339,46280326.684714,3531263.70574566,13751156.3129626,394670.649465692,64012809.7247427,41544.2788911254,45200175.4335447,3697440.82131016,14415864.7752206,290809.952237878,63645835.2612045,34620.2324092712,42790607.2578594,4736047.79358829,14208143.3807649,498531.346693505,62267950.0113154,69240.4648185424,43621492.8356819,4071339.33133029,14748219.0063496,249265.673346753,62759557.3115271,48468.3253729797,43704581.3934642,4569870.67802379,14166599.1018738,332354.231129004,62821873.7298638,62316.4183366882,43538404.2778997,3988250.77354804,14457409.0541117,477759.207247943,62524139.731144,69240.4648185424,45781795.3380205,4569870.67802379,12878726.4562489,394670.649465692,63694303.5865774
"14",20772.1394455627,44701644.0868512,4154427.88911254,14374320.4963294,270037.812792315,63521202.4245311,83088.5577822509,48191363.5137058,3448175.14796341,12629460.7829022,436214.928356817,64788302.9307104,83088.5577822509,44203112.7401577,3988250.77354804,14166599.1018738,394670.649465692,62835721.8228275,62316.4183366882,49437691.8804395,2825010.96459653,12920270.73514,353126.370574566,65598416.3690874,41544.2788911254,47443566.4936655,3489719.42685454,13543434.9185069,270037.812792315,64788302.9307104,41544.2788911254,45117086.8757625,4071339.33133029,13792700.5918537,436214.928356817,63458886.0061944,69240.4648185424,45698706.7802382,3572807.98463679,14249687.6596561,228493.53390119,63818936.4232508,48468.3253729797,45864883.8958027,4029795.05243916,13751156.3129626,270037.812792315,63964341.3993697,69240.4648185424,46031061.0113672,3281998.03239891,13834244.8707448,498531.346693505,63715075.726023,55392.3718548339,47609743.60923,4029795.05243916,12546372.2251199,415442.788911254,64656746.0475552
"15",27696.185927417,46612680.915843,3780529.37909241,13751156.3129626,270037.812792315,64442100.6066177,90012.6042641051,49520780.4382218,3198909.47461666,12380195.1095554,332354.231129004,65522251.857787,76164.5113003967,45698706.7802382,3780529.37909241,13709612.0340714,373898.510020129,63638911.2147226,48468.3253729797,50767108.8049556,2492656.73346753,12754093.6195755,311582.091683441,66373909.5750551,34620.2324092712,49437691.8804395,3074276.63794328,13127992.1295957,207721.394455627,65882302.2748434,41544.2788911254,47028123.7047542,3572807.98463679,13751156.3129626,228493.53390119,64622125.8151459,62316.4183366882,48108274.9559235,2825010.96459653,13958877.7074182,166177.115564502,65120657.1618394,48468.3253729797,47775920.7247945,3531263.70574566,13377257.8029424,228493.53390119,64961404.0927568,69240.4648185424,47277389.378101,2825010.96459653,13792700.5918537,436214.928356817,64400556.3277266,55392.3718548339,49271514.764875,3531263.70574566,12214017.9939909,415442.788911254,65487631.6253777
"16",41544.2788911254,48108274.9559235,3281998.03239891,13460346.3607247,249265.673346753,65141429.301285,69240.4648185424,52096525.7294716,2534201.01235865,12006296.5995353,270037.812792315,66976301.6189764,69240.4648185424,48440629.1870525,2866555.24348766,13418802.0818336,311582.091683441,65106809.0688757,48468.3253729797,52428879.9606006,1869492.55010064,12587916.504011,290809.952237878,67225567.2923231,41544.2788911254,51597994.3827781,2409568.17568528,12712549.3406844,186949.255010064,66948605.433049,48468.3253729797,49437691.8804395,2658833.84903203,13418802.0818336,228493.53390119,65792289.6705793,62316.4183366882,50351666.0160443,2077213.94455627,13584979.1973981,166177.115564502,66242352.6918998,41544.2788911254,48856071.9759638,3115820.91683441,13335713.5240513,207721.394455627,65556872.0901963,76164.5113003967,49188426.2070928,2201846.78122965,13543434.9185069,373898.510020129,65383770.9281499,62316.4183366882,51681082.9405603,2783466.68570541,11757030.9261885,394670.649465692,66678567.6202566
"17",48468.3253729797,49520780.4382218,3032732.35905216,13086447.8507045,186949.255010064,65875378.2283615,55392.3718548339,53509031.2117698,2492656.73346753,11632398.0895151,166177.115564502,67855655.5221718,62316.4183366882,49354603.3226573,2741922.40681428,13335713.5240513,207721.394455627,65702277.0663152,48468.3253729797,53259765.538423,1744859.71342727,12380195.1095554,249265.673346753,67682554.3601255,48468.3253729797,53093588.4228586,2243391.06012077,12089385.1573175,186949.255010064,67661782.2206799,34620.2324092712,50600931.6893911,2534201.01235865,13127992.1295957,186949.255010064,66484694.3187647,55392.3718548339,51597994.3827781,1952581.1078829,13211080.6873779,124632.836673376,66941681.3865671,27696.185927417,49770046.1115686,2908099.52237878,13211080.6873779,186949.255010064,66103871.7622627,76164.5113003967,50351666.0160443,1952581.1078829,13294169.2451602,332354.231129004,66006935.1115168,62316.4183366882,52595057.0761651,2658833.84903203,11466220.9739506,373898.510020129,67156326.8275046
"18",55392.3718548339,50434754.5738266,2825010.96459653,12878726.4562489,145404.976118939,66339289.3426458,48468.3253729797,54423005.3473745,2326479.61790303,11424676.6950595,145404.976118939,68368034.9618289,76164.5113003967,50434754.5738266,2492656.73346753,13003359.2929223,186949.255010064,66193884.3665268,48468.3253729797,54007562.5584633,1703315.43453614,12089385.1573175,228493.53390119,68077225.0095911,48468.3253729797,54090651.1162455,2160302.50233852,11798575.2050796,124632.836673376,68222629.98571,34620.2324092712,51930348.6139071,2326479.61790303,12712549.3406844,166177.115564502,67170174.9204683,41544.2788911254,52678145.6339473,1744859.71342727,13003359.2929223,103860.697227814,67571769.6164158,34620.2324092712,51681082.9405603,2658833.84903203,12504827.9462288,166177.115564502,67045542.0837949,69240.4648185424,51514905.8249958,1786403.99231839,12878726.4562489,353126.370574566,66602403.1089563,76164.5113003967,53259765.538423,2492656.73346753,11341588.1372773,311582.091683441,67481757.0121517
"19",48468.3253729797,52013437.1716893,2617289.5701409,12380195.1095554,124632.836673376,67184023.013432,48468.3253729797,55170802.3674147,2160302.50233852,11258499.579495,124632.836673376,68762705.6112946,83088.5577822509,51431817.2672136,2368023.89679415,12629460.7829022,166177.115564502,66678567.6202566,62316.4183366882,54838448.1362857,1620226.87675389,11757030.9261885,186949.255010064,68464971.6125749,55392.3718548339,54838448.1362857,2118758.2234474,11424676.6950595,124632.836673376,68561908.2633208,34620.2324092712,53259765.538423,2035669.66566515,12380195.1095554,145404.976118939,67855655.5221718,55392.3718548339,53342854.0962053,1703315.43453614,12671005.0617933,83088.5577822509,67855655.5221718,20772.1394455627,52428879.9606006,2451112.4545764,12380195.1095554,186949.255010064,67467908.919188,83088.5577822509,52013437.1716893,1578682.59786277,12795637.8984667,332354.231129004,66803200.45693,83088.5577822509,54256828.23181,2409568.17568528,10926145.348366,290809.952237878,67966440.2658814
"20",48468.3253729797,53425942.6539875,2451112.4545764,11881663.7628619,103860.697227814,67911047.8940266,55392.3718548339,56084776.5030194,1994125.38677402,10884601.0694749,145404.976118939,69164300.3072421,83088.5577822509,52844322.7495118,2118758.2234474,12172473.7150998,166177.115564502,67384820.3614057,62316.4183366882,55835510.8296727,1620226.87675389,11424676.6950595,103860.697227814,69046591.5170506,55392.3718548339,55752422.2718904,1952581.1078829,11175411.0217128,103860.697227814,69039667.4705687,34620.2324092712,54256828.23181,1952581.1078829,12089385.1573175,83088.5577822509,68416503.2872019,62316.4183366882,54672271.0207212,1578682.59786277,12047840.8784264,103860.697227814,68464971.6125749,13848.0929637085,53924474.000681,2201846.78122965,11964752.3206441,166177.115564502,68271098.311083,69240.4648185424,53841385.4428988,1412505.48229827,12172473.7150998,311582.091683441,67807187.1967988,76164.5113003967,55420068.0407614,2077213.94455627,10759968.2328015,270037.812792315,68603452.5422119
"21",69240.4648185424,54672271.0207212,2243391.06012077,11383132.4161684,83088.5577822509,68451123.5196112,48468.3253729797,57164927.7541886,1911036.82899177,10593791.117237,83088.5577822509,69801312.5835726,90012.6042641051,54589182.462939,1911036.82899177,11466220.9739506,166177.115564502,68222629.98571,55392.3718548339,56915662.0808419,1620226.87675389,10967689.6272571,83088.5577822509,69642059.51449,62316.4183366882,57248016.3119708,1869492.55010064,10510702.5594547,83088.5577822509,69773616.3976452,34620.2324092712,55503156.5985437,1703315.43453614,11715486.6472974,83088.5577822509,69039667.4705687,62316.4183366882,55835510.8296727,1537138.31897164,11507765.2528418,103860.697227814,69046591.5170506,20772.1394455627,55420068.0407614,1911036.82899177,11507765.2528418,145404.976118939,69005047.2381595,62316.4183366882,55087713.8096325,1370961.20340714,11798575.2050796,228493.53390119,68548060.1703571,69240.4648185424,56998750.6386241,1869492.55010064,10344525.4438902,207721.394455627,69489730.4918891
"22",69240.4648185424,55835510.8296727,2160302.50233852,10967689.6272571,41544.2788911254,69074287.702978,48468.3253729797,58245079.0053578,1661771.15564502,10261436.886108,103860.697227814,70320616.0697116,76164.5113003967,56001687.9452372,1537138.31897164,11341588.1372773,103860.697227814,69060439.6100143,55392.3718548339,57912724.7742288,1370961.20340714,10759968.2328015,62316.4183366882,70161363.000629,55392.3718548339,58078901.8897933,1827948.27120952,10178348.3283257,83088.5577822509,70223679.4189657,34620.2324092712,56250953.6185839,1620226.87675389,11466220.9739506,62316.4183366882,69434338.1200344,55392.3718548339,56749484.9652774,1537138.31897164,11092322.4639305,103860.697227814,69538198.8172622,20772.1394455627,56250953.6185839,1911036.82899177,11050778.1850394,166177.115564502,69399717.8876251,76164.5113003967,56084776.5030194,1246328.36673376,11466220.9739506,166177.115564502,69039667.4705687,62316.4183366882,58245079.0053578,1620226.87675389,10053715.4916524,186949.255010064,70168287.0471108
"23",76164.5113003967,57414193.4275353,1911036.82899177,10344525.4438902,62316.4183366882,69808236.6300544,48468.3253729797,59242141.6987447,1495594.04008052,9887538.37608786,124632.836673376,70798375.2769595,76164.5113003967,57414193.4275353,1329416.92451601,10884601.0694749,83088.5577822509,69787464.4906089,76164.5113003967,59159053.1409625,1204784.08784264,10178348.3283257,62316.4183366882,70680666.486768,48468.3253729797,59242141.6987447,1786403.99231839,9721361.26052335,62316.4183366882,70860691.6952962,34620.2324092712,57414193.4275353,1454049.76118939,11133866.7428216,20772.1394455627,70057502.3034012,48468.3253729797,57663459.1008821,1412505.48229827,10676879.6750192,166177.115564502,69967489.6991371,20772.1394455627,57164927.7541886,1827948.27120952,10759968.2328015,124632.836673376,69898249.2343186,76164.5113003967,57331104.8697531,1204784.08784264,10884601.0694749,166177.115564502,69662831.6539355,69240.4648185424,59242141.6987447,1495594.04008052,9679816.98163223,166177.115564502,70652970.3008405
"24",76164.5113003967,58161990.4475756,1952581.1078829,9970626.93387011,41544.2788911254,70202907.2795201,48468.3253729797,59989938.718785,1370961.20340714,9638272.7027411,124632.836673376,71172273.7869796,62316.4183366882,58411256.1209223,1204784.08784264,10552246.8383459,103860.697227814,70334464.1626753,69240.4648185424,61153178.5277364,955518.414495885,9472095.5871766,62316.4183366882,71712349.4125641,48468.3253729797,60903912.8543897,1578682.59786277,9139741.35604759,41544.2788911254,71712349.4125641,27696.185927417,58411256.1209223,1329416.92451601,10801512.5116926,20772.1394455627,70590653.8825039,55392.3718548339,58328167.56314,1329416.92451601,10344525.4438902,186949.255010064,70244451.5584112,27696.185927417,58660521.794269,1287872.64562489,10552246.8383459,103860.697227814,70632198.161395,76164.5113003967,58743610.3520513,997062.693387011,10386069.7227814,166177.115564502,70369084.3950846,69240.4648185424,60488470.0654784,1287872.64562489,9305918.4716121,145404.976118939,71296906.6236529
"25",69240.4648185424,59491407.3720915,1744859.71342727,9513639.86606773,62316.4183366882,70881463.8347417,69240.4648185424,60488470.0654784,1370961.20340714,9347462.75050322,83088.5577822509,71359223.0419896,62316.4183366882,59574495.9298737,1038606.97227814,10219892.6072169,62316.4183366882,70957628.3460421,69240.4648185424,61984064.1055589,789341.298931384,9222829.91382984,62316.4183366882,72127792.2014753,55392.3718548339,61817886.9899944,1370961.20340714,8848931.40380971,41544.2788911254,72134716.2479572,34620.2324092712,59242141.6987447,1080151.25116926,10635335.3961281,NA,NA,55392.3718548339,59242141.6987447,1163239.80895151,10053715.4916524,186949.255010064,70701438.6262135,34620.2324092712,59906850.1610027,1163239.80895151,10012171.2127612,103860.697227814,71220742.1123526,69240.4648185424,60156115.8343494,789341.298931384,9929082.65497898,166177.115564502,71109957.3686429,69240.4648185424,61236267.0855187,1246328.36673376,9098197.07715647,83088.5577822509,71733121.5520097
"26",69240.4648185424,60654647.1810429,1537138.31897164,9098197.07715647,83088.5577822509,71442311.5997718,76164.5113003967,61734798.4322121,1204784.08784264,8890475.68270084,62316.4183366882,71968539.1323927,83088.5577822509,60654647.1810429,913974.13560476,9679816.98163223,62316.4183366882,71393843.2743989,76164.5113003967,63064215.356728,664708.462258007,8807387.12491859,41544.2788911254,72654019.7340962,55392.3718548339,62399506.8944701,1329416.92451601,8599665.73046296,41544.2788911254,72425526.200195,34620.2324092712,60156115.8343494,997062.693387011,10261436.886108,NA,NA,48468.3253729797,59989938.718785,1080151.25116926,9762905.53941448,207721.394455627,71089185.2291973,41544.2788911254,61319355.6433009,1038606.97227814,9430551.30828547,83088.5577822509,71913146.7605379,55392.3718548339,61236267.0855187,830885.577822509,9513639.86606773,124632.836673376,71760817.7379371,76164.5113003967,62067152.6633411,1121695.53006039,8807387.12491859,62316.4183366882,72134716.2479572
"27",76164.5113003967,61984064.1055589,1370961.20340714,8558121.45157183,83088.5577822509,72072399.8296205,76164.5113003967,62648772.5678168,1121695.53006039,8516577.17268071,62316.4183366882,72425526.200195,83088.5577822509,61153178.5277364,872429.856713634,9430551.30828547,83088.5577822509,71622336.8083,90012.6042641051,63978189.4923328,664708.462258007,8267311.49933395,41544.2788911254,73041766.3370799,48468.3253729797,63064215.356728,1246328.36673376,8475032.89378958,NA,NA,27696.185927417,61817886.9899944,913974.13560476,9513639.86606773,20772.1394455627,72293969.3170398,55392.3718548339,61153178.5277364,1038606.97227814,9264374.19272097,166177.115564502,71677729.1801548,48468.3253729797,62067152.6633411,997062.693387011,9056652.79826534,83088.5577822509,72252425.0381487,55392.3718548339,62067152.6633411,830885.577822509,9181285.63493872,83088.5577822509,72217804.8057394,76164.5113003967,62731861.1255991,1121695.53006039,8516577.17268071,41544.2788911254,72487842.6185317
"28",55392.3718548339,63064215.356728,1163239.80895151,8350400.0571162,83088.5577822509,72716336.1524328,76164.5113003967,63562746.7034215,1121695.53006039,8059590.10487832,62316.4183366882,72882513.2679973,76164.5113003967,62067152.6633411,830885.577822509,9056652.79826534,83088.5577822509,72113944.1085116,90012.6042641051,64559809.3968085,706252.741149133,7893412.98931382,62316.4183366882,73311804.1498722,41544.2788911254,63728923.818986,1246328.36673376,8184222.9415517,NA,NA,34620.2324092712,63230392.4722925,830885.577822509,8848931.40380971,20772.1394455627,72965601.8257796,62316.4183366882,61984064.1055589,997062.693387011,8807387.12491859,186949.255010064,72037779.5972112,48468.3253729797,63479658.1456393,706252.741149133,8682754.28824521,62316.4183366882,72979449.9187433,55392.3718548339,62399506.8944701,747797.020040258,9056652.79826534,103860.697227814,72363209.7818583,76164.5113003967,63895100.9345505,955518.414495885,8059590.10487832,62316.4183366882,73048690.3835618
"29",48468.3253729797,64144366.6078973,1080151.25116926,7851868.71042269,124632.836673376,73249487.7315356,83088.5577822509,64725986.512373,997062.693387011,7561058.75818481,62316.4183366882,73429512.9400637,83088.5577822509,62731861.1255991,747797.020040258,8890475.68270084,20772.1394455627,72473994.525568,83088.5577822509,65806137.7635422,581619.904475756,7394881.64262031,83088.5577822509,73948816.4262027,41544.2788911254,64476720.8390262,1246328.36673376,7810324.43153157,NA,NA,34620.2324092712,63978189.4923328,747797.020040258,8558121.45157183,20772.1394455627,73339500.3357997,76164.5113003967,62898038.2411636,913974.13560476,8433488.61489846,145404.976118939,72467070.4790861,62316.4183366882,64642897.9545907,623164.183366882,8101134.38376945,62316.4183366882,73491829.3584004,48468.3253729797,63313481.0300748,706252.741149133,8724298.56713634,83088.5577822509,72875589.2215155,55392.3718548339,64892163.6279375,872429.856713634,7685691.59485819,103860.697227814,73609538.1485919
"30",48468.3253729797,64642897.9545907,1038606.97227814,7644147.31596707,124632.836673376,73498753.4048823,69240.4648185424,65806137.7635422,872429.856713634,7228704.52705581,62316.4183366882,74038829.0304668,83088.5577822509,63562746.7034215,706252.741149133,8516577.17268071,20772.1394455627,72889437.3144792,83088.5577822509,66553934.7835824,540075.625584631,7104071.69038243,62316.4183366882,74343487.0756684,41544.2788911254,65307606.4168487,1246328.36673376,7394881.64262031,NA,NA,27696.185927417,65224517.8590664,623164.183366882,8101134.38376945,20772.1394455627,73997284.7515758,83088.5577822509,63479658.1456393,830885.577822509,8225767.22044282,124632.836673376,72744032.3383602,62316.4183366882,65390694.9746309,540075.625584631,7810324.43153157,62316.4183366882,73865727.8684205,55392.3718548339,64310543.7234617,664708.462258007,8267311.49933395,62316.4183366882,73360272.4752452,48468.3253729797,65806137.7635422,830885.577822509,7228704.52705581,145404.976118939,74059601.1699124
"31",34620.2324092712,65806137.7635422,1038606.97227814,7187160.24816468,103860.697227814,74170385.9136221,76164.5113003967,66387757.6680179,872429.856713634,6896350.2959268,62316.4183366882,74295018.7502954,69240.4648185424,64393632.281244,706252.741149133,8142678.66266057,41544.2788911254,73353348.4287634,83088.5577822509,66803200.4569291,623164.183366882,6937894.57481793,41544.2788911254,74488892.0517873,27696.185927417,66221580.5524534,1080151.25116926,7145615.96927355,20772.1394455627,74495816.0982692,27696.185927417,65723049.2057599,623164.183366882,7893412.98931382,NA,NA,69240.4648185424,65058340.743502,789341.298931384,7477970.20040256,166177.115564502,73561069.8232189,55392.3718548339,66803200.4569291,540075.625584631,7145615.96927355,62316.4183366882,74606600.8419788,41544.2788911254,65556872.0901954,581619.904475756,7810324.43153157,62316.4183366882,74052677.1234306,48468.3253729797,66304669.1102356,872429.856713634,6937894.57481793,145404.976118939,74308866.8432591
"32",41544.2788911254,66553934.7835824,955518.414495885,6854806.01703567,103860.697227814,74509664.1912329,76164.5113003967,67218643.2458403,830885.577822509,6522451.78590667,62316.4183366882,74710461.5392066,69240.4648185424,65889226.3213244,623164.183366882,7477970.20040256,41544.2788911254,74101145.4488035,83088.5577822509,67301731.8036226,623164.183366882,6688628.90147117,41544.2788911254,74738157.725134,27696.185927417,67135554.6880581,1038606.97227814,6771717.45925342,NA,NA,34620.2324092712,66470846.2258001,623164.183366882,7477970.20040256,NA,NA,69240.4648185424,65972314.8791067,664708.462258007,7145615.96927355,166177.115564502,74018056.8910213,55392.3718548339,67800263.1503161,540075.625584631,6688628.90147117,41544.2788911254,75125904.3281178,48468.3253729797,66553934.7835824,498531.346693505,7353337.36372918,62316.4183366882,74516588.2377147,48468.3253729797,67467908.9191871,872429.856713634,6397818.94923329,124632.836673376,74911258.8871804
"33",41544.2788911254,66969377.5724936,913974.13560476,6647084.62258004,124632.836673376,74696613.4462429,90012.6042641051,67800263.1503161,789341.298931384,6231641.83366879,41544.2788911254,74952803.1660715,69240.4648185424,67467908.9191871,623164.183366882,6730173.1803623,20772.1394455627,74911258.8871804,69240.4648185424,67634086.0347516,623164.183366882,6605540.34368892,41544.2788911254,74973575.305517,34620.2324092712,68132617.3814451,955518.414495885,6314730.39145104,NA,NA,48468.3253729797,67966440.2658806,581619.904475756,6688628.90147117,NA,NA,83088.5577822509,66553934.7835824,706252.741149133,6813261.73814455,124632.836673376,74281170.6573317,55392.3718548339,68797325.843703,498531.346693505,6273186.11255992,20772.1394455627,75645207.8142568,34620.2324092712,67384820.3614048,498531.346693505,7020983.13260018,62316.4183366882,75001271.4914445,48468.3253729797,68298794.4970095,789341.298931384,6107008.99699542,103860.697227814,75347473.8155371
"34",41544.2788911254,67384820.3614048,955518.414495885,6439363.22812442,103860.697227814,74925106.9801441,90012.6042641051,68381883.0547918,830885.577822509,5899287.60253979,41544.2788911254,75243613.1183093,69240.4648185424,68464971.612574,540075.625584631,6273186.11255992,41544.2788911254,75389018.0944283,90012.6042641051,68298794.4970095,581619.904475756,6190097.55477767,41544.2788911254,75202068.8394182,34620.2324092712,69046591.5170498,872429.856713634,5899287.60253979,20772.1394455627,75873701.348158,62316.4183366882,68714237.2859208,498531.346693505,6314730.39145104,NA,NA,90012.6042641051,67634086.0347516,706252.741149133,6273186.11255992,103860.697227814,74807398.1899525,55392.3718548339,69628211.4215255,498531.346693505,5857743.32364867,20772.1394455627,76060650.603168,41544.2788911254,68049528.8236628,456987.06780238,6647084.62258004,83088.5577822509,75278233.3507186,76164.5113003967,68880414.4014853,747797.020040258,5774654.76586642,62316.4183366882,75541347.117029
"35",41544.2788911254,68714237.2859208,830885.577822509,5940831.88143092,83088.5577822509,75610587.5818476,76164.5113003967,69212768.6326143,706252.741149133,5733110.48697529,20772.1394455627,75749068.5114846,69240.4648185424,68797325.843703,623164.183366882,6023920.43921317,41544.2788911254,75555195.2099927,96936.6507459594,68963502.9592675,498531.346693505,5899287.60253979,41544.2788911254,75499802.8381379,27696.185927417,69877477.0948722,830885.577822509,5566933.37141079,20772.1394455627,76323764.3694785,69240.4648185424,69545122.8637432,498531.346693505,5857743.32364867,NA,NA,96936.6507459594,68797325.843703,664708.462258007,5733110.48697529,83088.5577822509,75375170.0014645,48468.3253729797,70459096.9993479,498531.346693505,5483844.81362854,20772.1394455627,76510713.6244885,62316.4183366882,68714237.2859208,456987.06780238,6231641.83366879,62316.4183366882,75527499.0240653,76164.5113003967,69794388.53709,706252.741149133,5359211.97695517,62316.4183366882,75998334.1848314
"36",41544.2788911254,69462034.305961,789341.298931384,5608477.65030192,83088.5577822509,75984486.0918677,96936.6507459594,69545122.8637432,706252.741149133,5442300.53473742,20772.1394455627,75811384.9298213,48468.3253729797,70126742.7682189,623164.183366882,5483844.81362854,41544.2788911254,76323764.3694785,83088.5577822509,69794388.53709,498531.346693505,5525389.09251967,62316.4183366882,75963713.9524221,13848.0929637085,71123805.4616059,789341.298931384,5068402.02471729,20772.1394455627,77016169.0176638,69240.4648185424,70376008.4415657,415442.788911254,5525389.09251967,NA,NA,103860.697227814,69877477.0948722,540075.625584631,5317667.69806404,62316.4183366882,75901397.5340854,48468.3253729797,71123805.4616059,415442.788911254,5234579.14028179,20772.1394455627,76843067.8556175,62316.4183366882,69129680.074832,498531.346693505,6023920.43921317,41544.2788911254,75755992.5579665,69240.4648185424,70376008.4415657,623164.183366882,5193034.86139067,62316.4183366882,76323764.3694785
"37",41544.2788911254,70459096.9993479,789341.298931384,5193034.86139067,41544.2788911254,76524561.7174522,96936.6507459594,70459096.9993479,706252.741149133,4985313.46693504,20772.1394455627,76268371.9976236,41544.2788911254,70791451.2304769,581619.904475756,5234579.14028179,41544.2788911254,76690738.8330167,76164.5113003967,70043654.2104367,498531.346693505,5442300.53473742,62316.4183366882,76122967.0215047,13848.0929637085,72120868.1549928,664708.462258007,4694503.51469716,20772.1394455627,77514700.3643573,76164.5113003967,71289982.5771704,332354.231129004,5109946.30360841,NA,NA,117708.790191522,70791451.2304769,456987.06780238,4860680.63026166,62316.4183366882,76289144.1370692,62316.4183366882,71539248.2505171,415442.788911254,4985313.46693504,NA,NA,69240.4648185424,70043654.2104367,456987.06780238,5566933.37141079,41544.2788911254,76178359.3933595,76164.5113003967,71705425.3660816,623164.183366882,4528326.39913266,41544.2788911254,76974624.7387727
"38",62316.4183366882,72370133.8283396,747797.020040258,4154427.88911254,41544.2788911254,77376219.4347202,103860.697227814,71871602.4816461,540075.625584631,4403693.56245929,20772.1394455627,76940004.5063634,41544.2788911254,72536310.9439041,540075.625584631,4403693.56245929,41544.2788911254,77563168.6897302,76164.5113003967,71456159.6927349,498531.346693505,4736047.79358829,62316.4183366882,76829219.7626538,20772.1394455627,73782639.3106378,623164.183366882,3863617.93687466,20772.1394455627,78310965.7097704,76164.5113003967,73284107.9639443,249265.673346753,4195972.16800366,NA,NA,124632.836673376,72287045.2705573,456987.06780238,4071339.33133029,62316.4183366882,77002320.9247001,48468.3253729797,73699550.7528555,373898.510020129,4029795.05243916,NA,NA,62316.4183366882,71539248.2505171,415442.788911254,4902224.90915279,41544.2788911254,76960776.645809,76164.5113003967,72120868.1549928,664708.462258007,4279060.72578591,41544.2788911254,77182346.1332283
"39",62316.4183366882,73367196.5217265,747797.020040258,3655896.54241904,41544.2788911254,77874750.7814137,124632.836673376,72453222.3861218,540075.625584631,3988250.77354804,20772.1394455627,77126953.7613734,27696.185927417,73201019.4061621,498531.346693505,4237516.44689479,20772.1394455627,77985535.5251233,76164.5113003967,72453222.3861218,540075.625584631,4195972.16800366,62316.4183366882,77327751.1093472,27696.185927417,74447347.7728957,664708.462258007,3448175.14796341,20772.1394455627,78608699.7084901,83088.5577822509,74945879.1195892,290809.952237878,3281998.03239891,NA,NA,117708.790191522,73948816.4262023,498531.346693505,3281998.03239891,41544.2788911254,77888598.8743773,41544.2788911254,75028967.6773715,373898.510020129,3406630.86907229,NA,NA,62316.4183366882,72453222.3861218,456987.06780238,4403693.56245929,41544.2788911254,77417763.7136113,96936.6507459594,73034842.2905976,664708.462258007,3738985.10020129,20772.1394455627,77556244.6432484
"40",55392.3718548339,74281170.6573312,664708.462258007,3323542.31129004,41544.2788911254,78366358.0816252,138480.929637085,73782639.3106378,456987.06780238,3365086.59018116,NA,NA,34620.2324092712,73948816.4262023,415442.788911254,3905162.21576579,20772.1394455627,78324813.8027342,83088.5577822509,73450285.0795088,540075.625584631,3697440.82131016,41544.2788911254,77812434.363077,34620.2324092712,75112056.2351537,706252.741149133,3032732.35905216,20772.1394455627,78906433.7072098,90012.6042641051,75444410.4662827,290809.952237878,2991188.08016103,NA,NA,124632.836673376,74945879.1195892,498531.346693505,2700378.12792315,62316.4183366882,78331737.8492159,90012.6042641051,75444410.4662827,332354.231129004,2949643.80126991,NA,NA,62316.4183366882,73450285.0795088,415442.788911254,3946706.49465691,41544.2788911254,77916295.0603048,83088.5577822509,74198082.099549,623164.183366882,3281998.03239891,20772.1394455627,78207105.0125426
"41",62316.4183366882,75028967.6773715,706252.741149133,2908099.52237878,20772.1394455627,78726408.4986816,138480.929637085,73948816.4262023,540075.625584631,3157365.19572553,20772.1394455627,77805510.3165951,48468.3253729797,74779702.0040247,456987.06780238,3365086.59018116,20772.1394455627,78671016.1268268,76164.5113003967,74364259.2151135,498531.346693505,3281998.03239891,62316.4183366882,78283269.523843,41544.2788911254,75859853.2551939,706252.741149133,2575745.29124978,41544.2788911254,79224939.8453751,90012.6042641051,76358384.6018874,249265.673346753,2575745.29124978,NA,NA,117708.790191522,76026030.3707584,456987.06780238,2243391.06012077,62316.4183366882,78906433.7072098,96936.6507459594,76026030.3707584,332354.231129004,2575745.29124978,20772.1394455627,79051838.6833287,76164.5113003967,74281170.6573312,498531.346693505,3448175.14796341,NA,NA,83088.5577822509,74862790.561807,664708.462258007,2908099.52237878,20772.1394455627,78539459.2436716
"42",76164.5113003967,75610587.5818472,706252.741149133,2534201.01235865,20772.1394455627,78947977.9861009,131556.883155231,74530436.330678,498531.346693505,2908099.52237878,41544.2788911254,78110168.3617966,48468.3253729797,75527499.0240649,456987.06780238,2991188.08016103,20772.1394455627,79044914.6368469,83088.5577822509,74779702.0040247,498531.346693505,3032732.35905216,62316.4183366882,78456370.6858893,48468.3253729797,76690738.8330164,747797.020040258,2077213.94455627,41544.2788911254,79605762.401877,96936.6507459594,77106181.6219276,249265.673346753,2160302.50233852,NA,NA,110784.743709668,76690738.8330164,415442.788911254,1952581.1078829,83088.5577822509,79252636.0313024,103860.697227814,76607650.2752341,249265.673346753,2284935.3390119,41544.2788911254,79287256.2637117,55392.3718548339,75028967.6773715,540075.625584631,3115820.91683441,20772.1394455627,78761028.7310909,83088.5577822509,75693676.1396294,498531.346693505,2658833.84903203,20772.1394455627,78954902.0325828
"43",69240.4648185424,76358384.6018874,664708.462258007,2284935.3390119,NA,NA,124632.836673376,75278233.3507182,498531.346693505,2534201.01235865,62316.4183366882,78497914.9647804,55392.3718548339,76358384.6018874,415442.788911254,2617289.5701409,NA,NA,83088.5577822509,75361321.9085004,498531.346693505,2741922.40681428,62316.4183366882,78747180.6381272,55392.3718548339,77189270.1797099,789341.298931384,1786403.99231839,20772.1394455627,79841179.98226,110784.743709668,77189270.1797099,249265.673346753,2035669.66566515,NA,NA,83088.5577822509,77355447.2952743,373898.510020129,1911036.82899177,41544.2788911254,79765015.4709596,110784.743709668,77023093.0641454,249265.673346753,2035669.66566515,41544.2788911254,79460357.4257581,69240.4648185424,75361321.9085004,581619.904475756,2825010.96459653,20772.1394455627,78857965.3818368,83088.5577822509,76690738.8330164,456987.06780238,2201846.78122965,20772.1394455627,79453433.3792762
"44",62316.4183366882,77272358.7374921,581619.904475756,1952581.1078829,NA,NA,117708.790191522,75693676.1396294,498531.346693505,2368023.89679415,62316.4183366882,78740256.5916453,69240.4648185424,76607650.2752341,456987.06780238,2368023.89679415,NA,NA,90012.6042641051,75444410.4662827,540075.625584631,2700378.12792315,20772.1394455627,78795648.9635001,55392.3718548339,77853978.6419678,747797.020040258,1495594.04008052,20772.1394455627,80173534.213389,90012.6042641051,77853978.6419678,290809.952237878,1744859.71342727,20772.1394455627,80000433.0513426,76164.5113003967,77604712.9686211,332354.231129004,1869492.55010064,41544.2788911254,79924268.5400423,103860.697227814,77853978.6419678,290809.952237878,1620226.87675389,41544.2788911254,79910420.4470785,62316.4183366882,76441473.1596696,540075.625584631,2368023.89679415,20772.1394455627,79432661.2398307,62316.4183366882,77189270.1797099,415442.788911254,2118758.2234474,20772.1394455627,79806559.7498507
"45",62316.4183366882,77853978.6419678,623164.183366882,1620226.87675389,NA,NA,110784.743709668,76441473.1596696,498531.346693505,1994125.38677402,83088.5577822509,79128003.1946291,69240.4648185424,77189270.1797099,456987.06780238,2077213.94455627,NA,NA,90012.6042641051,76192207.4863229,581619.904475756,2284935.3390119,20772.1394455627,79169547.4735202,76164.5113003967,78435598.5464435,623164.183366882,1204784.08784264,20772.1394455627,80360483.468399,90012.6042641051,78186332.8730968,290809.952237878,1578682.59786277,20772.1394455627,80166610.1669071,69240.4648185424,77937067.1997501,373898.510020129,1703315.43453614,41544.2788911254,80125065.888016,110784.743709668,78186332.8730968,290809.952237878,1412505.48229827,41544.2788911254,80041977.3302337,41544.2788911254,77189270.1797099,540075.625584631,2118758.2234474,20772.1394455627,79910420.4470786,55392.3718548339,77937067.1997501,332354.231129004,1869492.55010064,20772.1394455627,80215078.4922801
"46",69240.4648185424,78020155.7575323,623164.183366882,1495594.04008052,NA,NA,83088.5577822509,77106181.6219276,415442.788911254,1952581.1078829,62316.4183366882,79619610.4948407,76164.5113003967,77604712.9686211,456987.06780238,1827948.27120952,NA,NA,76164.5113003967,77106181.6219276,498531.346693505,1994125.38677402,20772.1394455627,79695775.0061411,83088.5577822509,78518687.1042258,623164.183366882,1121695.53006039,20772.1394455627,80367407.5148809,90012.6042641051,78186332.8730968,290809.952237878,1578682.59786277,20772.1394455627,80166610.1669071,76164.5113003967,78020155.7575323,373898.510020129,1620226.87675389,41544.2788911254,80131989.9344978,103860.697227814,78518687.1042258,332354.231129004,1246328.36673376,41544.2788911254,80242774.6782075,48468.3253729797,77604712.9686211,540075.625584631,1869492.55010064,20772.1394455627,80083521.6091249,55392.3718548339,78269421.430879,332354.231129004,1703315.43453614,20772.1394455627,80381255.6078446
"47",69240.4648185424,78103244.3153146,664708.462258007,1412505.48229827,NA,NA,96936.6507459594,77023093.0641454,456987.06780238,1869492.55010064,62316.4183366882,79508825.751131,90012.6042641051,78103244.3153146,415442.788911254,1537138.31897164,NA,NA,76164.5113003967,77853978.6419678,456987.06780238,1661771.15564502,20772.1394455627,80069673.5161612,90012.6042641051,78767952.7775725,581619.904475756,997062.693387011,20772.1394455627,80457420.119145,90012.6042641051,78767952.7775725,332354.231129004,1204784.08784264,41544.2788911254,80436647.9796994,69240.4648185424,78269421.430879,290809.952237878,1703315.43453614,NA,NA,124632.836673376,78767952.7775725,415442.788911254,913974.13560476,41544.2788911254,80263546.817653,55392.3718548339,77770890.0841856,623164.183366882,1661771.15564502,20772.1394455627,80131989.9344979,55392.3718548339,78269421.430879,332354.231129004,1703315.43453614,20772.1394455627,80381255.6078446
"48",55392.3718548339,78435598.5464435,664708.462258007,1329416.92451601,NA,NA,96936.6507459594,77272358.7374921,498531.346693505,1703315.43453614,62316.4183366882,79633458.5878044,96936.6507459594,78103244.3153146,456987.06780238,1454049.76118939,NA,NA,83088.5577822509,78186332.8730968,456987.06780238,1454049.76118939,20772.1394455627,80201230.3993164,96936.6507459594,79017218.4509193,623164.183366882,830885.577822509,NA,NA,96936.6507459594,79100307.0087015,373898.510020129,955518.414495885,41544.2788911254,80568204.8628546,69240.4648185424,78601775.662008,207721.394455627,1620226.87675389,NA,NA,124632.836673376,78934129.893137,415442.788911254,872429.856713634,20772.1394455627,80367407.5148808,55392.3718548339,78103244.3153146,623164.183366882,1495594.04008052,20772.1394455627,80298167.0500623,55392.3718548339,78518687.1042258,373898.510020129,1537138.31897164,20772.1394455627,80505888.444518
"49",55392.3718548339,78601775.662008,664708.462258007,1246328.36673376,NA,NA,83088.5577822509,77604712.9686211,456987.06780238,1661771.15564502,62316.4183366882,79868876.1681874,117708.790191522,78020155.7575323,415442.788911254,1412505.48229827,NA,NA,96936.6507459594,78103244.3153146,498531.346693505,1370961.20340714,20772.1394455627,80090445.6556067,90012.6042641051,79017218.4509193,664708.462258007,830885.577822509,NA,NA,83088.5577822509,79017218.4509193,373898.510020129,1038606.97227814,62316.4183366882,80575128.9093365,76164.5113003967,78684864.2197903,207721.394455627,1537138.31897164,NA,NA,110784.743709668,79100307.0087015,373898.510020129,830885.577822509,62316.4183366882,80478192.2585905,69240.4648185424,78352509.9886613,540075.625584631,1329416.92451601,41544.2788911254,80332787.2824716,41544.2788911254,78851041.3353548,373898.510020129,1412505.48229827,41544.2788911254,80720533.8854554
"50",48468.3253729797,78851041.3353548,623164.183366882,1121695.53006039,41544.2788911254,80685913.6530461,62316.4183366882,77853978.6419678,415442.788911254,1661771.15564502,83088.5577822509,80076597.562643,103860.697227814,78435598.5464435,373898.510020129,1287872.64562489,20772.1394455627,80222002.5387619,90012.6042641051,78020155.7575323,498531.346693505,1412505.48229827,41544.2788911254,80062749.4696793,90012.6042641051,79183395.5664838,623164.183366882,747797.020040258,20772.1394455627,80665141.5136005,83088.5577822509,79183395.5664838,332354.231129004,997062.693387011,62316.4183366882,80658217.4671187,62316.4183366882,78601775.662008,249265.673346753,1578682.59786277,20772.1394455627,80512812.4909998,90012.6042641051,79017218.4509193,373898.510020129,997062.693387011,62316.4183366882,80540508.6769272,76164.5113003967,78435598.5464435,581619.904475756,1204784.08784264,41544.2788911254,80339711.3289534,41544.2788911254,78851041.3353548,373898.510020129,1412505.48229827,41544.2788911254,80720533.8854554
"51",41544.2788911254,79183395.5664838,623164.183366882,997062.693387011,41544.2788911254,80886711.0010199,55392.3718548339,77937067.1997501,415442.788911254,1620226.87675389,103860.697227814,80131989.9344978,90012.6042641051,78352509.9886613,373898.510020129,1412505.48229827,20772.1394455627,80249698.7246893,103860.697227814,77937067.1997501,456987.06780238,1412505.48229827,41544.2788911254,79951964.7259697,96936.6507459594,79183395.5664838,540075.625584631,789341.298931384,20772.1394455627,80630521.2811913,83088.5577822509,79349572.6820482,290809.952237878,997062.693387011,41544.2788911254,80762078.1643465,76164.5113003967,78435598.5464435,249265.673346753,1620226.87675389,NA,NA,83088.5577822509,78934129.893137,373898.510020129,1080151.25116926,62316.4183366882,80533584.6304453,76164.5113003967,78518687.1042258,498531.346693505,1287872.64562489,20772.1394455627,80402027.7472901,34620.2324092712,78851041.3353548,373898.510020129,1454049.76118939,41544.2788911254,80755154.1178647
"52",27696.185927417,79266484.124266,581619.904475756,1080151.25116926,41544.2788911254,80997495.7447296,62316.4183366882,77853978.6419678,373898.510020129,1661771.15564502,103860.697227814,80055825.4231975,90012.6042641051,78435598.5464435,332354.231129004,1412505.48229827,20772.1394455627,80291243.0035805,90012.6042641051,78020155.7575323,456987.06780238,1495594.04008052,20772.1394455627,80083521.6091249,90012.6042641051,78934129.893137,623164.183366882,830885.577822509,41544.2788911254,80519736.5374816,76164.5113003967,79349572.6820482,290809.952237878,1038606.97227814,41544.2788911254,80796698.3967558,76164.5113003967,78518687.1042258,249265.673346753,1578682.59786277,NA,NA,62316.4183366882,78767952.7775725,456987.06780238,1121695.53006039,103860.697227814,80512812.4909998,83088.5577822509,78435598.5464435,540075.625584631,1246328.36673376,20772.1394455627,80325863.2359897,41544.2788911254,78767952.7775725,456987.06780238,1412505.48229827,20772.1394455627,80699761.7460099
"53",27696.185927417,79100307.0087015,623164.183366882,1121695.53006039,41544.2788911254,80914407.1869473,62316.4183366882,77937067.1997501,415442.788911254,1578682.59786277,103860.697227814,80097369.7020886,90012.6042641051,78435598.5464435,373898.510020129,1370961.20340714,20772.1394455627,80291243.0035805,83088.5577822509,78352509.9886613,415442.788911254,1412505.48229827,20772.1394455627,80284318.9570986,76164.5113003967,78934129.893137,623164.183366882,872429.856713634,62316.4183366882,80568204.8628546,62316.4183366882,79349572.6820482,249265.673346753,1163239.80895151,41544.2788911254,80865938.8615743,76164.5113003967,78601775.662008,207721.394455627,1578682.59786277,NA,NA,62316.4183366882,78767952.7775725,456987.06780238,1163239.80895151,83088.5577822509,80533584.6304453,69240.4648185424,78435598.5464435,540075.625584631,1287872.64562489,41544.2788911254,80374331.5613627,55392.3718548339,78684864.2197903,415442.788911254,1412505.48229827,20772.1394455627,80588977.0023002
"54",27696.185927417,79266484.124266,540075.625584631,1121695.53006039,41544.2788911254,80997495.7447296,69240.4648185424,78103244.3153146,415442.788911254,1495594.04008052,83088.5577822509,80166610.1669071,90012.6042641051,78352509.9886613,415442.788911254,1412505.48229827,NA,NA,69240.4648185424,78352509.9886613,456987.06780238,1454049.76118939,20772.1394455627,80353559.4219172,76164.5113003967,79183395.5664838,540075.625584631,830885.577822509,62316.4183366882,80692837.699528,69240.4648185424,79515749.7976127,207721.394455627,1163239.80895151,NA,NA,69240.4648185424,78767952.7775725,207721.394455627,1537138.31897164,NA,NA,55392.3718548339,78851041.3353548,456987.06780238,1121695.53006039,103860.697227814,80588977.0023002,76164.5113003967,78435598.5464435,498531.346693505,1287872.64562489,41544.2788911254,80339711.3289534,55392.3718548339,78851041.3353548,415442.788911254,1329416.92451601,20772.1394455627,80672065.5600824
"55",34620.2324092712,79266484.124266,540075.625584631,1080151.25116926,41544.2788911254,80962875.5123203,55392.3718548339,78103244.3153146,415442.788911254,1578682.59786277,83088.5577822509,80235850.6317257,96936.6507459594,78269421.430879,415442.788911254,1412505.48229827,NA,NA,83088.5577822509,78103244.3153146,456987.06780238,1537138.31897164,NA,NA,55392.3718548339,79183395.5664838,540075.625584631,955518.414495885,62316.4183366882,80796698.3967558,69240.4648185424,79432661.2398305,207721.394455627,1204784.08784264,NA,NA,62316.4183366882,79017218.4509193,207721.394455627,1454049.76118939,NA,NA,55392.3718548339,79017218.4509193,456987.06780238,1038606.97227814,103860.697227814,80672065.5600824,76164.5113003967,78518687.1042258,498531.346693505,1246328.36673376,41544.2788911254,80381255.6078446,55392.3718548339,79017218.4509193,373898.510020129,1287872.64562489,20772.1394455627,80755154.1178647
"56",41544.2788911254,79266484.124266,498531.346693505,1080151.25116926,41544.2788911254,80928255.279911,62316.4183366882,78103244.3153146,415442.788911254,1620226.87675389,41544.2788911254,80242774.6782075,90012.6042641051,78186332.8730968,456987.06780238,1412505.48229827,20772.1394455627,80166610.1669071,90012.6042641051,77937067.1997501,456987.06780238,1537138.31897164,20772.1394455627,80041977.3302338,55392.3718548339,79266484.124266,498531.346693505,997062.693387011,41544.2788911254,80859014.8150925,69240.4648185424,79432661.2398305,207721.394455627,1204784.08784264,NA,NA,55392.3718548339,78851041.3353548,249265.673346753,1537138.31897164,NA,NA,55392.3718548339,79183395.5664838,456987.06780238,955518.414495885,103860.697227814,80755154.1178647,83088.5577822509,78601775.662008,498531.346693505,1163239.80895151,41544.2788911254,80388179.6543264,69240.4648185424,78767952.7775725,373898.510020129,1329416.92451601,20772.1394455627,80561280.8163728
"57",55392.3718548339,79183395.5664838,498531.346693505,1080151.25116926,20772.1394455627,80838242.6756469,55392.3718548339,78020155.7575323,456987.06780238,1661771.15564502,41544.2788911254,80235850.6317257,69240.4648185424,78103244.3153146,456987.06780238,1537138.31897164,41544.2788911254,80208154.4457982,96936.6507459594,77853978.6419678,456987.06780238,1537138.31897164,20772.1394455627,79965812.8189334,62316.4183366882,79100307.0087015,498531.346693505,1080151.25116926,20772.1394455627,80762078.1643465,69240.4648185424,79349572.6820482,207721.394455627,1246328.36673376,NA,NA,62316.4183366882,78684864.2197903,249265.673346753,1578682.59786277,NA,NA,48468.3253729797,79266484.124266,415442.788911254,1121695.53006039,41544.2788911254,80893635.0475017,76164.5113003967,78934129.893137,415442.788911254,1163239.80895151,20772.1394455627,80609749.1417457,90012.6042641051,78684864.2197903,332354.231129004,1329416.92451601,NA,NA
"58",55392.3718548339,79100307.0087015,498531.346693505,1080151.25116926,41544.2788911254,80775926.2573102,55392.3718548339,78352509.9886613,373898.510020129,1578682.59786277,41544.2788911254,80402027.7472901,69240.4648185424,78020155.7575323,540075.625584631,1495594.04008052,41544.2788911254,80166610.1669071,96936.6507459594,77604712.9686211,540075.625584631,1578682.59786277,20772.1394455627,79841179.98226,55392.3718548339,79017218.4509193,540075.625584631,1121695.53006039,20772.1394455627,80755154.1178647,83088.5577822509,79017218.4509193,249265.673346753,1287872.64562489,NA,NA,76164.5113003967,78435598.5464435,249265.673346753,1620226.87675389,NA,NA,55392.3718548339,79349572.6820482,332354.231129004,1121695.53006039,41544.2788911254,80900559.0939836,76164.5113003967,79017218.4509193,373898.510020129,1163239.80895151,20772.1394455627,80651293.4206368,90012.6042641051,78767952.7775725,332354.231129004,1287872.64562489,NA,NA
"59",55392.3718548339,79100307.0087015,498531.346693505,1080151.25116926,41544.2788911254,80775926.2573102,34620.2324092712,78518687.1042258,332354.231129004,1537138.31897164,103860.697227814,80526660.5839635,55392.3718548339,78269421.430879,540075.625584631,1454049.76118939,41544.2788911254,80360483.468399,83088.5577822509,77687801.5264033,581619.904475756,1578682.59786277,20772.1394455627,79951964.7259697,55392.3718548339,79100307.0087015,540075.625584631,1080151.25116926,20772.1394455627,80796698.3967558,83088.5577822509,78934129.893137,249265.673346753,1329416.92451601,NA,NA,83088.5577822509,78269421.430879,290809.952237878,1620226.87675389,NA,NA,48468.3253729797,79266484.124266,373898.510020129,1204784.08784264,20772.1394455627,80914407.1869473,69240.4648185424,78934129.893137,332354.231129004,1329416.92451601,NA,NA,90012.6042641051,78934129.893137,249265.673346753,1246328.36673376,20772.1394455627,80540508.6769272
"60",48468.3253729797,79266484.124266,415442.788911254,1121695.53006039,41544.2788911254,80893635.0475017,41544.2788911254,78518687.1042258,332354.231129004,1495594.04008052,103860.697227814,80492040.3515542,62316.4183366882,78269421.430879,498531.346693505,1454049.76118939,41544.2788911254,80325863.2359897,69240.4648185424,77604712.9686211,581619.904475756,1703315.43453614,20772.1394455627,79979660.9118971,62316.4183366882,79017218.4509193,498531.346693505,1121695.53006039,20772.1394455627,80720533.8854554,76164.5113003967,78934129.893137,207721.394455627,1370961.20340714,20772.1394455627,80609749.1417457,90012.6042641051,78269421.430879,249265.673346753,1578682.59786277,20772.1394455627,80208154.4457982,48468.3253729797,79100307.0087015,415442.788911254,1246328.36673376,20772.1394455627,80831318.6291651,69240.4648185424,78767952.7775725,332354.231129004,1412505.48229827,NA,NA,90012.6042641051,78934129.893137,249265.673346753,1204784.08784264,41544.2788911254,80519736.5374816
