"","Early1.ALL","Late1.CLS","Late1.OPN","Mid1.CLS","Mid1.OPN","Early1.ALL.1","Late1.CLS.1","Late1.OPN.1","Mid1.CLS.1","Mid1.OPN.1","Early1.ALL.2","Late1.CLS.2","Late1.OPN.2","Mid1.CLS.2","Mid1.OPN.2","Early1.ALL.3","Late1.CLS.3","Late1.OPN.3","Mid1.CLS.3","Mid1.OPN.3","Early1.ALL.4","Late1.CLS.4","Late1.OPN.4","Mid1.CLS.4","Mid1.OPN.4","Early1.ALL.5","Late1.CLS.5","Late1.OPN.5","Mid1.CLS.5","Mid1.OPN.5","Early1.ALL.6","Late1.CLS.6","Late1.OPN.6","Mid1.CLS.6","Mid1.OPN.6","Early1.ALL.7","Late1.CLS.7","Late1.OPN.7","Mid1.CLS.7","Mid1.OPN.7","Early1.ALL.8","Late1.CLS.8","Late1.OPN.8","Mid1.CLS.8","Mid1.OPN.8","Early1.ALL.9","Late1.CLS.9","Late1.OPN.9","Mid1.CLS.9","Mid1.OPN.9"
"0",0.221046917873535,0.565812175715297,0.58426541280137,0.410426121271572,0.0420733805562482,0.202234414224724,0.635542549483028,0.616240136885027,0.383775074435756,0.0353714261313591,0.213992229005231,0.601673510795845,0.581358619702855,0.405095911904409,0.0383500725424209,0.242210984478448,0.62558106751621,0.534849930126626,0.407761016587991,0.0346267645285937,0.216343791961332,0.587727436042299,0.587172205899884,0.419753987664108,0.0357437569327418,0.232804732654042,0.575773657682116,0.58426541280137,0.418421435322317,0.0361160877341246,0.216343791961332,0.567804472108661,0.610426550687998,0.415756330638736,0.0376054109396555,0.232804732654042,0.615619585549391,0.60461296449097,0.382442522093965,0.0361160877341246,0.251617236302854,0.583742843255571,0.552290688717712,0.393102940828292,0.0428180421590136,0.209289103093028,0.591712028829026,0.610426550687998,0.409093568929781,0.0361160877341246
"1",0.188125036488115,0.575773657682116,0.590078998998398,0.426416749373062,0.0402117265493345,0.190476599444217,0.639527142269756,0.616240136885027,0.399765702537246,0.0320204489189146,0.178718784663709,0.621596474729482,0.58426541280137,0.414423778296945,0.0372330801382727,0.218695354917434,0.651480920629938,0.540663516323655,0.411758673613363,0.0316481181175319,0.176367221707608,0.603665807189208,0.595892585195427,0.43974227279097,0.0323927797202973,0.195179725356419,0.59370432522239,0.590078998998398,0.430414406398435,0.0346267645285937,0.174015658751507,0.573781361288752,0.610426550687998,0.430414406398435,0.0390947341451864,0.183421910575912,0.635542549483028,0.607519757589484,0.397100597853664,0.0357437569327418,0.213992229005231,0.599681214402481,0.555197481816227,0.405095911904409,0.0420733805562482,0.185773473532014,0.611634992762663,0.613333343786513,0.410426121271572,0.0353714261313591
"2",0.166960969883202,0.587727436042299,0.60461296449097,0.443739929816343,0.0346267645285937,0.164609406927101,0.653473217023302,0.62496051618057,0.409093568929781,0.0297864641106182,0.166960969883202,0.631557956696301,0.592985792096912,0.418421435322317,0.0349990953299764,0.183421910575912,0.665426995383484,0.552290688717712,0.42241909234769,0.030158794912001,0.152851592146594,0.633550253089665,0.595892585195427,0.437077168107389,0.0312757873161491,0.150500029190492,0.613627289156027,0.598799378293941,0.443739929816343,0.0331374413230628,0.124632836673376,0.591712028829026,0.619146929983541,0.442407377474552,0.0390947341451864,0.143445340322188,0.647496327843211,0.610426550687998,0.409093568929781,0.0361160877341246,0.185773473532014,0.615619585549391,0.558104274914741,0.414423778296945,0.0405840573507173,0.159906281014898,0.623588771122846,0.633680895476113,0.421086540005899,0.0316481181175319
"3",0.141093777366086,0.599681214402481,0.610426550687998,0.453067796208879,0.0331374413230628,0.131687525541681,0.675388477350303,0.630774102377598,0.415756330638736,0.0282971409050873,0.143445340322188,0.637534845876392,0.592985792096912,0.435744615765598,0.03276511052168,0.157554718058797,0.69531144128394,0.555197481816227,0.419753987664108,0.0290418025078528,0.129335962585579,0.649488624236574,0.595892585195427,0.449070139183506,0.0286694717064701,0.134039088497782,0.627573363909573,0.601706171392455,0.45440034855067,0.0297864641106182,0.0940625182440576,0.613627289156027,0.62496051618057,0.450402691525297,0.03686074933689,0.124632836673376,0.659450106203393,0.619146929983541,0.409093568929781,0.0357437569327418,0.152851592146594,0.631557956696301,0.563917861111769,0.425084197031271,0.0390947341451864,0.129335962585579,0.633550253089665,0.642401274771656,0.434412063423807,0.0297864641106182
"4",0.126984399629478,0.611634992762663,0.619146929983541,0.462395662601415,0.0294141333092355,0.122281273717275,0.69531144128394,0.642401274771656,0.414423778296945,0.0249461636926428,0.112875021892869,0.647496327843211,0.592985792096912,0.449070139183506,0.0320204489189146,0.134039088497782,0.713242108824214,0.563917861111769,0.423751644689481,0.0271801485009391,0.101117207112362,0.659450106203393,0.607519757589484,0.459730557917833,0.0268078176995564,0.108171895980666,0.655465513416666,0.60461296449097,0.45440034855067,0.0282971409050873,0.079953140507449,0.62558106751621,0.62496051618057,0.466393319626787,0.0323927797202973,0.105820333024565,0.677380773743667,0.622053723082056,0.410426121271572,0.0346267645285937,0.134039088497782,0.651480920629938,0.569731447308798,0.434412063423807,0.0349990953299764,0.119929710761173,0.651480920629938,0.648214860968684,0.43974227279097,0.0256908252954082
"5",0.101117207112362,0.629565660302937,0.619146929983541,0.482383947728277,0.0245738328912601,0.110523458936768,0.71124981243085,0.654028447165713,0.413091225955154,0.0227121788843464,0.0870078293757533,0.669411588170212,0.592985792096912,0.449070139183506,0.0320204489189146,0.122281273717275,0.723203590791033,0.566824654210284,0.43840972044918,0.0227121788843464,0.079953140507449,0.677380773743667,0.607519757589484,0.459730557917833,0.0268078176995564,0.0940625182440576,0.671403884563575,0.610426550687998,0.450402691525297,0.0279248101037046,0.0634921998147389,0.645504031449847,0.627867309279084,0.47039097665216,0.0297864641106182,0.0940625182440576,0.693319144890577,0.619146929983541,0.417088882980526,0.0320204489189146,0.112875021892869,0.671403884563575,0.572638240407312,0.451735243867088,0.0294141333092355,0.0940625182440576,0.677380773743667,0.651121654067199,0.445072482158134,0.0230845096857291
"6",0.0846562664196519,0.673396180956939,0.58426541280137,0.479718843044695,0.0242015020898773,0.0870078293757533,0.745118851118034,0.610426550687998,0.430414406398435,0.0208505248774328,0.0705468886830432,0.709257516037487,0.569731447308798,0.441074825132761,0.0323927797202973,0.101117207112362,0.776995593411854,0.514502378437026,0.443739929816343,0.0212228556788155,0.0611406368586375,0.741134258331306,0.558104274914741,0.458398005576042,0.0245738328912601,0.0823047034635504,0.713242108824214,0.581358619702855,0.450402691525297,0.0256908252954082,0.0517343850342317,0.709257516037487,0.575545033505827,0.463728214943205,0.0282971409050873,0.0752500145952461,0.729180479971124,0.590078998998398,0.429081854056644,0.0286694717064701,0.0893593923318547,0.715234405217578,0.531943137028112,0.462395662601415,0.0271801485009391,0.0752500145952461,0.735157369151215,0.607519757589484,0.453067796208879,0.0186165400691364
"7",0.0564375109464346,0.729180479971124,0.558104274914741,0.478386290702904,0.021967517281581,0.0752500145952461,0.812856928492401,0.543570309422169,0.431746958740226,0.0182442092677537,0.0634921998147389,0.769026407838399,0.51740917153554,0.43840972044918,0.0297864641106182,0.0940625182440576,0.810864632099037,0.485434447451883,0.443739929816343,0.0197335324732846,0.0470312591220288,0.778987889805217,0.531943137028112,0.458398005576042,0.0230845096857291,0.058789073902536,0.761057222264944,0.549383895619198,0.447737586841715,0.0253184944940255,0.0423281332098259,0.755080333084852,0.540663516323655,0.462395662601415,0.026063156096791,0.0493828220781302,0.792933964558764,0.534849930126626,0.437077168107389,0.0256908252954082,0.0705468886830432,0.75906492587158,0.502875206042969,0.461063110259624,0.026063156096791,0.0564375109464346,0.786957075378672,0.569731447308798,0.447737586841715,0.0182442092677537
"8",0.0493828220781302,0.769026407838399,0.534849930126626,0.475721186019323,0.0193612016719019,0.0634921998147389,0.862664338326494,0.49706161984594,0.434412063423807,0.0160102244594573,0.0446796961659274,0.810864632099037,0.473807275057826,0.467725871968578,0.0223398480829637,0.0611406368586375,0.866648931113222,0.43601896477714,0.451735243867088,0.0186165400691364,0.0352734443415216,0.842741374392857,0.488341240550397,0.458398005576042,0.0186165400691364,0.0564375109464346,0.808872335705673,0.502875206042969,0.445072482158134,0.0234568404871119,0.0399765702537245,0.800903150132218,0.511595585338512,0.465060767284996,0.0208505248774328,0.0446796961659274,0.834772188819402,0.49706161984594,0.447737586841715,0.02047819407605,0.0634921998147389,0.798910853738855,0.465086895762283,0.465060767284996,0.0234568404871119,0.0470312591220288,0.842741374392857,0.520315964634055,0.441074825132761,0.0174995476649882
"9",0.037625007297623,0.830787596032674,0.467993688860797,0.485049052411859,0.0156378936580746,0.0564375109464346,0.932394712094225,0.430205378580112,0.434412063423807,0.0126592472470128,0.0352734443415216,0.858679745539767,0.43601896477714,0.461063110259624,0.0215951864801982,0.0446796961659274,0.912471748160588,0.412764619989026,0.443739929816343,0.0178718784663709,0.0305703184293187,0.894541080620314,0.444739344072683,0.462395662601415,0.0141485704525437,0.0446796961659274,0.852702856359676,0.473807275057826,0.449070139183506,0.0197335324732846,0.0305703184293187,0.854695152753039,0.462180102663769,0.474388633677532,0.0160102244594573,0.0258671925171158,0.872625820293313,0.462180102663769,0.458398005576042,0.0178718784663709,0.0399765702537245,0.848718263572948,0.430205378580112,0.475721186019323,0.0193612016719019,0.0352734443415216,0.894541080620314,0.485434447451883,0.434412063423807,0.0160102244594573
"10",0.0352734443415216,0.888564191440223,0.409857826890512,0.489046709437231,0.0115422548428646,0.0493828220781302,0.978217529141591,0.395323861397941,0.430414406398435,0.0107975932400991,0.0282187554732173,0.900517969800405,0.398230654496455,0.475721186019323,0.0156378936580746,0.0305703184293187,0.964271454388045,0.374976309708341,0.441074825132761,0.0160102244594573,0.0188125036488115,0.952317676027863,0.386603482102398,0.462395662601415,0.0126592472470128,0.0258671925171158,0.910479451767224,0.427298585481597,0.461063110259624,0.0145209012539264,0.0282187554732173,0.930402415700861,0.386603482102398,0.474388633677532,0.0119145856442473,0.021164066604913,0.90848715537386,0.43601896477714,0.463728214943205,0.0137762396511609,0.0352734443415216,0.890556487833587,0.389510275200912,0.479718843044695,0.01638255526084,0.0352734443415216,0.962279157994681,0.421484999284569,0.431746958740226,0.01228691644563
"11",0.0235156295610144,0.936379304880953,0.369162723511312,0.493044366462604,0.00856360843180274,0.0399765702537245,1.01407886422214,0.363349137314284,0.435744615765598,0.00819127763042002,0.0258671925171158,0.938371601274316,0.372069516609827,0.48771415709544,0.00893593923318547,0.021164066604913,1.00212508586196,0.337187999427656,0.458398005576042,0.0104252624387164,0.0188125036488115,0.998140493075228,0.34009479252617,0.475721186019323,0.00632962362350638,0.0188125036488115,0.952317676027863,0.398230654496455,0.467725871968578,0.00968060083595093,0.0235156295610144,0.968256047174772,0.351721964920227,0.483716500070068,0.00744661602765456,0.0164609406927101,0.958294565207954,0.395323861397941,0.47039097665216,0.00856360843180274,0.0329218813854202,0.926417822914134,0.369162723511312,0.485049052411859,0.0111699240414818,0.0235156295610144,1.01009427143541,0.392417068299426,0.429081854056644,0.00968060083595093
"12",0.0188125036488115,0.984194418321682,0.351721964920227,0.47039097665216,0.00893593923318547,0.0329218813854202,1.04994019930269,0.334281206329141,0.433079511082016,0.00707428522627183,0.0258671925171158,0.982202121928319,0.334281206329141,0.477053738361114,0.00856360843180274,0.021164066604913,1.05591708848278,0.290679309851428,0.449070139183506,0.00893593923318547,0.0164609406927101,1.05392479208941,0.293586102949942,0.465060767284996,0.00521263121935819,0.0141093777366086,0.996148196681865,0.357535551117255,0.459730557917833,0.00968060083595093,0.0235156295610144,1.0160711606155,0.311026861541027,0.477053738361114,0.00558496202074092,0.0164609406927101,0.998140493075228,0.36044234421577,0.467725871968578,0.00632962362350638,0.021164066604913,0.984194418321682,0.328467620132113,0.475721186019323,0.0100529316373337,0.0235156295610144,1.05790938487614,0.351721964920227,0.418421435322317,0.00893593923318547
"13",0.00940625182440576,1.02404034618896,0.313933654639542,0.47039097665216,0.00781894682903729,0.0258671925171158,1.10771679471023,0.281958930555885,0.421086540005899,0.00744661602765456,0.0235156295610144,1.00810197504205,0.311026861541027,0.473056081335741,0.00819127763042002,0.0188125036488115,1.1097090911036,0.247077413373714,0.441074825132761,0.00707428522627183,0.0141093777366086,1.08380923798987,0.258704585767771,0.462395662601415,0.00521263121935819,0.0117578147805072,1.02603264258232,0.331374413230627,0.45573290089246,0.00893593923318547,0.0235156295610144,1.04595560651596,0.284865723654399,0.473056081335741,0.00446796961659274,0.0164609406927101,1.04794790290932,0.31974724083657,0.45440034855067,0.00595729282212365,0.021164066604913,1.04396331012259,0.279052137457371,0.463728214943205,0.00856360843180274,0.0235156295610144,1.09775531274342,0.31974724083657,0.413091225955154,0.00707428522627183
"14",0.00705468886830432,1.07185545962969,0.290679309851428,0.461063110259624,0.00484030041797546,0.0282187554732173,1.15553190815096,0.241263827176685,0.405095911904409,0.00781894682903729,0.0282187554732173,1.0599016812695,0.279052137457371,0.45440034855067,0.00707428522627183,0.021164066604913,1.18541635405142,0.197661930698971,0.414423778296945,0.00632962362350638,0.0141093777366086,1.13760124061069,0.244170620275199,0.434412063423807,0.00484030041797546,0.0141093777366086,1.08181694159651,0.284865723654399,0.442407377474552,0.00781894682903729,0.0235156295610144,1.09576301635005,0.249984206472228,0.457065453234251,0.00409563881521001,0.0164609406927101,1.09974760913678,0.281958930555885,0.441074825132761,0.00484030041797546,0.0235156295610144,1.10373220192351,0.229636654782628,0.443739929816343,0.00893593923318547,0.0188125036488115,1.14158583339742,0.281958930555885,0.402430807220827,0.00744661602765456
"15",0.00940625182440576,1.11767827667705,0.264518171964799,0.441074825132761,0.00484030041797546,0.0305703184293187,1.18740865044478,0.2238230685856,0.397100597853664,0.00595729282212365,0.0258671925171158,1.09576301635005,0.264518171964799,0.43974227279097,0.00670195442488911,0.0164609406927101,1.21729309634524,0.174407585910857,0.409093568929781,0.00558496202074092,0.0117578147805072,1.18541635405142,0.215102689290057,0.421086540005899,0.00372330801382728,0.0141093777366086,1.12763975864387,0.249984206472228,0.441074825132761,0.00409563881521001,0.021164066604913,1.1535396117576,0.197661930698971,0.447737586841715,0.00297864641106182,0.0164609406927101,1.14557042618415,0.247077413373714,0.429081854056644,0.00409563881521001,0.0235156295610144,1.13361664782396,0.197661930698971,0.442407377474552,0.00781894682903729,0.0188125036488115,1.18143176126469,0.247077413373714,0.391770388486501,0.00744661602765456
"16",0.0141093777366086,1.1535396117576,0.229636654782628,0.431746958740226,0.00446796961659274,0.0235156295610144,1.24916983863906,0.177314379009371,0.385107626777547,0.00484030041797546,0.0235156295610144,1.16150879733105,0.200568723797485,0.430414406398435,0.00558496202074092,0.0164609406927101,1.25713902421251,0.130805689433143,0.403763359562618,0.00521263121935819,0.0141093777366086,1.23721606027888,0.168593999713828,0.407761016587991,0.00335097721244455,0.0164609406927101,1.18541635405142,0.186034758304914,0.430414406398435,0.00409563881521001,0.021164066604913,1.20733161437842,0.145339654925714,0.435744615765598,0.00297864641106182,0.0141093777366086,1.17147027929787,0.218009482388571,0.427749301714853,0.00372330801382728,0.0258671925171158,1.17943946487133,0.154060034221257,0.434412063423807,0.00670195442488911,0.021164066604913,1.23920835667224,0.194755137600457,0.377112312726802,0.00707428522627183
"17",0.0164609406927101,1.18740865044478,0.212195896191542,0.419753987664108,0.00335097721244455,0.0188125036488115,1.28303887732624,0.174407585910857,0.373114655701429,0.00297864641106182,0.021164066604913,1.18342405765806,0.191848344501942,0.427749301714853,0.00372330801382728,0.0164609406927101,1.27706198814615,0.1220853101376,0.397100597853664,0.00446796961659274,0.0164609406927101,1.27307739535942,0.156966827319771,0.387772731461128,0.00335097721244455,0.0117578147805072,1.21330850355851,0.177314379009371,0.421086540005899,0.00335097721244455,0.0188125036488115,1.23721606027888,0.136619275630171,0.423751644689481,0.00223398480829637,0.00940625182440576,1.19338553962487,0.203475516896,0.423751644689481,0.00335097721244455,0.0258671925171158,1.20733161437842,0.136619275630171,0.426416749373062,0.00595729282212365,0.021164066604913,1.26112361699924,0.186034758304914,0.367784446334266,0.00670195442488911
"18",0.0188125036488115,1.20932391077178,0.197661930698971,0.413091225955154,0.0026063156096791,0.0164609406927101,1.30495413765324,0.1627804135168,0.366451893992475,0.0026063156096791,0.0258671925171158,1.20932391077178,0.174407585910857,0.417088882980526,0.00335097721244455,0.0164609406927101,1.29499265568642,0.119178517039085,0.387772731461128,0.00409563881521001,0.0164609406927101,1.29698495207979,0.151153241122743,0.378444865068592,0.00223398480829637,0.0117578147805072,1.24518524585233,0.1627804135168,0.407761016587991,0.00297864641106182,0.0141093777366086,1.2631159133926,0.1220853101376,0.417088882980526,0.00186165400691364,0.0117578147805072,1.23920835667224,0.186034758304914,0.401098254879036,0.00297864641106182,0.0235156295610144,1.23522376388551,0.124992103236114,0.413091225955154,0.00632962362350638,0.0258671925171158,1.27706198814615,0.174407585910857,0.363786789308893,0.00558496202074092
"19",0.0164609406927101,1.2471775422457,0.1831279652064,0.397100597853664,0.00223398480829637,0.0164609406927101,1.32288480519351,0.151153241122743,0.361121684625312,0.00223398480829637,0.0282187554732173,1.23323146749215,0.165687206615314,0.405095911904409,0.00297864641106182,0.021164066604913,1.31491561962006,0.113364930842057,0.377112312726802,0.00335097721244455,0.0188125036488115,1.31491561962006,0.148246448024228,0.366451893992475,0.00223398480829637,0.0117578147805072,1.27706198814615,0.1424328618272,0.397100597853664,0.0026063156096791,0.0188125036488115,1.27905428453951,0.119178517039085,0.4064284642462,0.00148932320553091,0.00705468886830432,1.25713902421251,0.171500792812343,0.397100597853664,0.00335097721244455,0.0282187554732173,1.2471775422457,0.110458137743543,0.410426121271572,0.00595729282212365,0.0282187554732173,1.30096954486651,0.168593999713828,0.350461265890985,0.00521263121935819
"20",0.0164609406927101,1.28104658093288,0.171500792812343,0.381109969752174,0.00186165400691364,0.0188125036488115,1.34480006552051,0.139526068728685,0.349128713549194,0.0026063156096791,0.0282187554732173,1.26710050617933,0.148246448024228,0.39043783614471,0.00297864641106182,0.021164066604913,1.33882317634042,0.113364930842057,0.366451893992475,0.00186165400691364,0.0188125036488115,1.33683087994706,0.136619275630171,0.35845657994173,0.00186165400691364,0.0117578147805072,1.30096954486651,0.136619275630171,0.387772731461128,0.00148932320553091,0.021164066604913,1.31093102683333,0.110458137743543,0.386440179119337,0.00186165400691364,0.00470312591220288,1.29300035929306,0.154060034221257,0.383775074435756,0.00297864641106182,0.0235156295610144,1.2910080628997,0.0988309653494855,0.39043783614471,0.00558496202074092,0.0258671925171158,1.3288616943736,0.145339654925714,0.345131056523822,0.00484030041797546
"21",0.0235156295610144,1.31093102683333,0.156966827319771,0.365119341650684,0.00148932320553091,0.0164609406927101,1.37069991863424,0.133712482531657,0.339800847156658,0.00148932320553091,0.0305703184293187,1.30893873043997,0.133712482531657,0.367784446334266,0.00297864641106182,0.0188125036488115,1.36472302945415,0.113364930842057,0.351793818232776,0.00148932320553091,0.021164066604913,1.3726922150276,0.130805689433143,0.337135742473077,0.00148932320553091,0.0117578147805072,1.33085399076697,0.119178517039085,0.375779760385011,0.00148932320553091,0.021164066604913,1.33882317634042,0.107551344645028,0.369116998676057,0.00186165400691364,0.00705468886830432,1.3288616943736,0.133712482531657,0.369116998676057,0.0026063156096791,0.021164066604913,1.32089250880015,0.0959241722509712,0.378444865068592,0.00409563881521001,0.0235156295610144,1.36671532584751,0.130805689433143,0.331805533105913,0.00372330801382728
"22",0.0235156295610144,1.33882317634042,0.151153241122743,0.351793818232776,0.000744661602765456,0.0164609406927101,1.39659977174797,0.116271723940571,0.329140428422332,0.00186165400691364,0.0258671925171158,1.34280776912715,0.107551344645028,0.363786789308893,0.00186165400691364,0.0188125036488115,1.38863058617451,0.0959241722509712,0.345131056523822,0.00111699240414818,0.0188125036488115,1.39261517896124,0.127898896334628,0.32647532373875,0.00148932320553091,0.0117578147805072,1.34878465830724,0.113364930842057,0.367784446334266,0.00111699240414818,0.0188125036488115,1.36073843666742,0.107551344645028,0.355791475258148,0.00186165400691364,0.00705468886830432,1.34878465830724,0.133712482531657,0.354458922916357,0.00297864641106182,0.0258671925171158,1.34480006552051,0.0872037929554284,0.367784446334266,0.00297864641106182,0.021164066604913,1.39659977174797,0.113364930842057,0.322477666713378,0.00335097721244455
"23",0.0258671925171158,1.37667680781433,0.133712482531657,0.331805533105913,0.00111699240414818,0.0164609406927101,1.42050732846833,0.104644551546514,0.317147457346214,0.00223398480829637,0.0258671925171158,1.37667680781433,0.093017379152457,0.349128713549194,0.00148932320553091,0.0258671925171158,1.41851503207497,0.0842969998569141,0.32647532373875,0.00111699240414818,0.0164609406927101,1.42050732846833,0.124992103236114,0.311817247979051,0.00111699240414818,0.0117578147805072,1.37667680781433,0.101737758448,0.357124027599939,0.000372330801382728,0.0164609406927101,1.38265369699442,0.0988309653494855,0.34246595184024,0.00297864641106182,0.00705468886830432,1.37069991863424,0.127898896334628,0.345131056523822,0.00223398480829637,0.0258671925171158,1.37468451142097,0.0842969998569141,0.349128713549194,0.00297864641106182,0.0235156295610144,1.42050732846833,0.104644551546514,0.31048469563726,0.00297864641106182
"24",0.0258671925171158,1.3946074753546,0.136619275630171,0.319812562029796,0.000744661602765456,0.0164609406927101,1.4384379960086,0.0959241722509712,0.309152143295469,0.00223398480829637,0.021164066604913,1.40058436453469,0.0842969998569141,0.338468294814868,0.00186165400691364,0.0235156295610144,1.46633014551569,0.0668562412658284,0.303821933928306,0.00111699240414818,0.0164609406927101,1.4603532563356,0.110458137743543,0.293161515193979,0.000744661602765456,0.00940625182440576,1.40058436453469,0.093017379152457,0.346463608865613,0.000372330801382728,0.0188125036488115,1.39859206814133,0.093017379152457,0.331805533105913,0.00335097721244455,0.00940625182440576,1.40656125371478,0.0901105860539427,0.338468294814868,0.00186165400691364,0.0258671925171158,1.40855355010815,0.0697630343643427,0.333138085447704,0.00297864641106182,0.0235156295610144,1.45039177436878,0.0901105860539427,0.298491724561143,0.0026063156096791
"25",0.0235156295610144,1.42648421764842,0.1220853101376,0.305154486270097,0.00111699240414818,0.0235156295610144,1.45039177436878,0.0959241722509712,0.299824276902934,0.00148932320553091,0.021164066604913,1.42847651404178,0.072669827462857,0.327807876080541,0.00111699240414818,0.0235156295610144,1.48625310944933,0.0552290688717713,0.295826619877561,0.00111699240414818,0.0188125036488115,1.4822685166626,0.0959241722509712,0.283833648801444,0.000744661602765456,0.0117578147805072,1.42050732846833,0.0755766205613713,0.341133399498449,NA,0.0188125036488115,1.42050732846833,0.0813902067583998,0.322477666713378,0.00335097721244455,0.0117578147805072,1.43644569961524,0.0813902067583998,0.321145114371587,0.00186165400691364,0.0235156295610144,1.44242258879533,0.0552290688717713,0.318480009688005,0.00297864641106182,0.0235156295610144,1.46832244190906,0.0872037929554284,0.291828962852189,0.00148932320553091
"26",0.0235156295610144,1.45437636715551,0.107551344645028,0.291828962852189,0.00148932320553091,0.0258671925171158,1.48027622026924,0.0842969998569141,0.285166201143234,0.00111699240414818,0.0282187554732173,1.45437636715551,0.0639494481673142,0.31048469563726,0.00111699240414818,0.0258671925171158,1.51215296256305,0.0465086895762285,0.282501096459653,0.000744661602765456,0.0188125036488115,1.49621459141615,0.093017379152457,0.275838334750699,0.000744661602765456,0.0117578147805072,1.44242258879533,0.0697630343643427,0.329140428422332,NA,0.0164609406927101,1.4384379960086,0.0755766205613713,0.313149800320842,0.00372330801382728,0.0141093777366086,1.47031473830242,0.072669827462857,0.302489381586515,0.00148932320553091,0.0188125036488115,1.46832244190906,0.0581358619702856,0.305154486270097,0.00223398480829637,0.0258671925171158,1.48824540584269,0.0784834136598856,0.282501096459653,0.00111699240414818
"27",0.0258671925171158,1.48625310944933,0.0959241722509712,0.274505782408908,0.00148932320553091,0.0258671925171158,1.50219148059624,0.0784834136598856,0.273173230067117,0.00111699240414818,0.0282187554732173,1.46633014551569,0.0610426550687999,0.302489381586515,0.00148932320553091,0.0305703184293187,1.53406822289005,0.0465086895762285,0.265177916016372,0.000744661602765456,0.0164609406927101,1.51215296256305,0.0872037929554284,0.271840677725326,NA,0.00940625182440576,1.4822685166626,0.0639494481673142,0.305154486270097,0.000372330801382728,0.0188125036488115,1.46633014551569,0.072669827462857,0.297159172219352,0.00297864641106182,0.0164609406927101,1.48824540584269,0.0697630343643427,0.290496410510398,0.00148932320553091,0.0188125036488115,1.48824540584269,0.0581358619702856,0.29449406753577,0.00148932320553091,0.0258671925171158,1.5041837769896,0.0784834136598856,0.273173230067117,0.000744661602765456
"28",0.0188125036488115,1.51215296256305,0.0813902067583998,0.267843020699954,0.00148932320553091,0.0258671925171158,1.52410674092324,0.0784834136598856,0.258515154307418,0.00111699240414818,0.0258671925171158,1.48824540584269,0.0581358619702856,0.290496410510398,0.00148932320553091,0.0305703184293187,1.5480142976436,0.0494154826747428,0.253184944940255,0.00111699240414818,0.0141093777366086,1.52809133370996,0.0872037929554284,0.26251281133279,NA,0.0117578147805072,1.51613755534978,0.0581358619702856,0.283833648801444,0.000372330801382728,0.021164066604913,1.48625310944933,0.0697630343643427,0.282501096459653,0.00335097721244455,0.0164609406927101,1.52211444452987,0.0494154826747428,0.27850343943428,0.00111699240414818,0.0188125036488115,1.49621459141615,0.052322275773257,0.290496410510398,0.00186165400691364,0.0258671925171158,1.53207592649669,0.0668562412658284,0.258515154307418,0.00111699240414818
"29",0.0164609406927101,1.53805281567678,0.0755766205613713,0.251852392598464,0.00223398480829637,0.0282187554732173,1.55199889043033,0.0697630343643427,0.242524526205928,0.00111699240414818,0.0282187554732173,1.5041837769896,0.052322275773257,0.285166201143234,0.000372330801382728,0.0282187554732173,1.57789874354405,0.0406951033791999,0.237194316838765,0.00148932320553091,0.0141093777366086,1.54602200125024,0.0872037929554284,0.250519840256673,NA,0.0117578147805072,1.53406822289005,0.052322275773257,0.274505782408908,0.000372330801382728,0.0258671925171158,1.50816836977633,0.0639494481673142,0.270508125383535,0.0026063156096791,0.021164066604913,1.55000659403696,0.0436018964777142,0.259847706649209,0.00111699240414818,0.0164609406927101,1.51812985174315,0.0494154826747428,0.279835991776071,0.00148932320553091,0.0188125036488115,1.55598348321705,0.0610426550687999,0.2465221832313,0.00186165400691364
"30",0.0164609406927101,1.55000659403696,0.072669827462857,0.24518963088951,0.00223398480829637,0.0235156295610144,1.57789874354405,0.0610426550687999,0.231864107471601,0.00111699240414818,0.0282187554732173,1.52410674092324,0.0494154826747428,0.273173230067117,0.000372330801382728,0.0282187554732173,1.59582941108433,0.0377883102806856,0.227866450446229,0.00111699240414818,0.0141093777366086,1.56594496518387,0.0872037929554284,0.237194316838765,NA,0.00940625182440576,1.56395266879051,0.0436018964777142,0.259847706649209,0.000372330801382728,0.0282187554732173,1.52211444452987,0.0581358619702856,0.263845363674581,0.00223398480829637,0.021164066604913,1.56793726157724,0.0377883102806856,0.250519840256673,0.00111699240414818,0.0188125036488115,1.54203740846351,0.0465086895762285,0.265177916016372,0.00111699240414818,0.0164609406927101,1.57789874354405,0.0581358619702856,0.231864107471601,0.0026063156096791
"31",0.0117578147805072,1.57789874354405,0.072669827462857,0.23053155512981,0.00186165400691364,0.0258671925171158,1.5918448182976,0.0610426550687999,0.221203688737275,0.00111699240414818,0.0235156295610144,1.54402970485687,0.0494154826747428,0.261180258991,0.000744661602765456,0.0282187554732173,1.60180630026442,0.0436018964777142,0.222536241079066,0.000744661602765456,0.00940625182440576,1.58786022551087,0.0755766205613713,0.22919900278802,0.000372330801382728,0.00940625182440576,1.57590644715069,0.0436018964777142,0.253184944940255,NA,0.0235156295610144,1.55996807600378,0.0552290688717713,0.239859421522346,0.00297864641106182,0.0188125036488115,1.60180630026442,0.0377883102806856,0.22919900278802,0.00111699240414818,0.0141093777366086,1.57192185436396,0.0406951033791999,0.250519840256673,0.00111699240414818,0.0164609406927101,1.58985252190423,0.0610426550687999,0.222536241079066,0.0026063156096791
"32",0.0141093777366086,1.59582941108433,0.0668562412658284,0.219871136395484,0.00186165400691364,0.0258671925171158,1.61176778223123,0.0581358619702856,0.209210717661157,0.00111699240414818,0.0235156295610144,1.57989103993742,0.0436018964777142,0.239859421522346,0.000744661602765456,0.0282187554732173,1.6137600786246,0.0436018964777142,0.214540927028321,0.000744661602765456,0.00940625182440576,1.60977548583787,0.072669827462857,0.217206031711902,NA,0.0117578147805072,1.59383711469096,0.0436018964777142,0.239859421522346,NA,0.0235156295610144,1.58188333633078,0.0465086895762285,0.22919900278802,0.00297864641106182,0.0188125036488115,1.62571385698478,0.0377883102806856,0.214540927028321,0.000744661602765456,0.0164609406927101,1.59582941108433,0.0348815171821714,0.235861764496974,0.00111699240414818,0.0164609406927101,1.61774467141133,0.0610426550687999,0.205213060635785,0.00223398480829637
"33",0.0141093777366086,1.60579089305114,0.0639494481673142,0.21320837468653,0.00223398480829637,0.0305703184293187,1.62571385698478,0.0552290688717713,0.199882851268622,0.000744661602765456,0.0235156295610144,1.61774467141133,0.0436018964777142,0.215873479370111,0.000372330801382728,0.0235156295610144,1.62172926419805,0.0436018964777142,0.211875822344739,0.000744661602765456,0.0117578147805072,1.63368304255823,0.0668562412658284,0.202547955952203,NA,0.0164609406927101,1.62969844977151,0.0406951033791999,0.214540927028321,NA,0.0282187554732173,1.59582941108433,0.0494154826747428,0.218538584053693,0.00223398480829637,0.0188125036488115,1.64962141370514,0.0348815171821714,0.201215403610412,0.000372330801382728,0.0117578147805072,1.61575237501796,0.0348815171821714,0.225201345762647,0.00111699240414818,0.0164609406927101,1.63766763534496,0.0552290688717713,0.195885194243249,0.00186165400691364
"34",0.0141093777366086,1.61575237501796,0.0668562412658284,0.206545612977576,0.00186165400691364,0.0305703184293187,1.63965993173833,0.0581358619702856,0.189222432534295,0.000744661602765456,0.0235156295610144,1.64165222813169,0.0377883102806856,0.201215403610412,0.000744661602765456,0.0305703184293187,1.63766763534496,0.0406951033791999,0.198550298926831,0.000744661602765456,0.0117578147805072,1.65559830288523,0.0610426550687999,0.189222432534295,0.000372330801382728,0.021164066604913,1.64762911731178,0.0348815171821714,0.202547955952203,NA,0.0305703184293187,1.62172926419805,0.0494154826747428,0.201215403610412,0.00186165400691364,0.0188125036488115,1.66954437763878,0.0348815171821714,0.187889880192504,0.000372330801382728,0.0141093777366086,1.63169074616487,0.0319747240836571,0.21320837468653,0.00148932320553091,0.0258671925171158,1.65161371009851,0.052322275773257,0.185224775508923,0.00111699240414818
"35",0.0141093777366086,1.64762911731178,0.0581358619702856,0.190554984876086,0.00148932320553091,0.0258671925171158,1.65958289567196,0.0494154826747428,0.183892223167132,0.000372330801382728,0.0235156295610144,1.64962141370514,0.0436018964777142,0.193220089559668,0.000744661602765456,0.0329218813854202,1.65360600649187,0.0348815171821714,0.189222432534295,0.000744661602765456,0.00940625182440576,1.67552126681887,0.0581358619702856,0.178562013799969,0.000372330801382728,0.0235156295610144,1.66755208124542,0.0348815171821714,0.187889880192504,NA,0.0329218813854202,1.64962141370514,0.0465086895762285,0.183892223167132,0.00148932320553091,0.0164609406927101,1.68946734157242,0.0348815171821714,0.175896909116387,0.000372330801382728,0.021164066604913,1.64762911731178,0.0319747240836571,0.199882851268622,0.00111699240414818,0.0258671925171158,1.67352897042551,0.0494154826747428,0.171899252091015,0.00111699240414818
"36",0.0141093777366086,1.66555978485205,0.0552290688717713,0.17989456614176,0.00148932320553091,0.0329218813854202,1.66755208124542,0.0494154826747428,0.174564356774596,0.000372330801382728,0.0164609406927101,1.68149815599896,0.0436018964777142,0.175896909116387,0.000744661602765456,0.0282187554732173,1.67352897042551,0.0348815171821714,0.177229461458178,0.00111699240414818,0.00470312591220288,1.70540571271932,0.0552290688717713,0.162571385698479,0.000372330801382728,0.0235156295610144,1.68747504517905,0.0290679309851428,0.177229461458178,NA,0.0352734443415216,1.67552126681887,0.0377883102806856,0.170566699749224,0.00111699240414818,0.0164609406927101,1.70540571271932,0.0290679309851428,0.167901595065642,0.000372330801382728,0.021164066604913,1.6575905992786,0.0348815171821714,0.193220089559668,0.000744661602765456,0.0235156295610144,1.68747504517905,0.0436018964777142,0.166569042723852,0.00111699240414818
"37",0.0141093777366086,1.68946734157242,0.0552290688717713,0.166569042723852,0.000744661602765456,0.0329218813854202,1.68946734157242,0.0494154826747428,0.159906281014897,0.000372330801382728,0.0141093777366086,1.69743652714587,0.0406951033791999,0.167901595065642,0.000744661602765456,0.0258671925171158,1.6795058596056,0.0348815171821714,0.174564356774596,0.00111699240414818,0.00470312591220288,1.72931326943969,0.0465086895762285,0.150578414622362,0.000372330801382728,0.0258671925171158,1.70939030550605,0.0232543447881142,0.16390393804027,NA,0.0399765702537245,1.69743652714587,0.0319747240836571,0.155908623989525,0.00111699240414818,0.021164066604913,1.71536719468614,0.0290679309851428,0.159906281014897,NA,0.0235156295610144,1.6795058596056,0.0319747240836571,0.178562013799969,0.000744661602765456,0.0258671925171158,1.71935178747287,0.0436018964777142,0.145248205255199,0.000744661602765456
"38",0.021164066604913,1.73529015861978,0.052322275773257,0.133255234179081,0.000744661602765456,0.0352734443415216,1.7233363802596,0.0377883102806856,0.141250548229826,0.000372330801382728,0.0141093777366086,1.73927475140651,0.0377883102806856,0.141250548229826,0.000744661602765456,0.0258671925171158,1.71337489829278,0.0348815171821714,0.151910966964153,0.00111699240414818,0.00705468886830432,1.76915919730696,0.0436018964777142,0.123927367786546,0.000372330801382728,0.0258671925171158,1.75720541894678,0.0174407585910857,0.134587786520872,NA,0.0423281332098259,1.73329786222641,0.0319747240836571,0.1305901294955,0.00111699240414818,0.0164609406927101,1.7671669009136,0.0261611378866285,0.129257577153709,NA,0.021164066604913,1.71536719468614,0.0290679309851428,0.157241176331316,0.000744661602765456,0.0258671925171158,1.72931326943969,0.0465086895762285,0.137252891204454,0.000744661602765456
"39",0.021164066604913,1.75919771534014,0.052322275773257,0.117264606077592,0.000744661602765456,0.0423281332098259,1.73728245501314,0.0377883102806856,0.127925024811918,0.000372330801382728,0.00940625182440576,1.75521312255341,0.0348815171821714,0.135920338862663,0.000372330801382728,0.0258671925171158,1.73728245501314,0.0377883102806856,0.134587786520872,0.00111699240414818,0.00940625182440576,1.78509756845387,0.0465086895762285,0.110601844368638,0.000372330801382728,0.0282187554732173,1.79705134681405,0.0203475516896,0.105271635001474,NA,0.0399765702537245,1.77314379009369,0.0348815171821714,0.105271635001474,0.000744661602765456,0.0141093777366086,1.79904364320741,0.0261611378866285,0.109269292026847,NA,0.021164066604913,1.73728245501314,0.0319747240836571,0.141250548229826,0.000744661602765456,0.0329218813854202,1.75122852976669,0.0465086895762285,0.119929710761173,0.000372330801382728
"40",0.0188125036488115,1.78111297566714,0.0465086895762285,0.106604187343265,0.000744661602765456,0.0470312591220288,1.76915919730696,0.0319747240836571,0.107936739685056,NA,0.0117578147805072,1.77314379009369,0.0290679309851428,0.125259920128337,0.000372330801382728,0.0282187554732173,1.7611900117335,0.0377883102806856,0.118597158419383,0.000744661602765456,0.0117578147805072,1.80103593960078,0.0494154826747428,0.0972763209507296,0.000372330801382728,0.0305703184293187,1.80900512517423,0.0203475516896,0.0959437686089388,NA,0.0423281332098259,1.79705134681405,0.0348815171821714,0.0866159022164031,0.00111699240414818,0.0305703184293187,1.80900512517423,0.0232543447881142,0.094611216267148,NA,0.021164066604913,1.7611900117335,0.0290679309851428,0.126592472470127,0.000744661602765456,0.0282187554732173,1.77912067927378,0.0436018964777142,0.105271635001474,0.000372330801382728
"41",0.021164066604913,1.79904364320741,0.0494154826747428,0.0932786639253571,0.000372330801382728,0.0470312591220288,1.77314379009369,0.0377883102806856,0.101273977976102,0.000372330801382728,0.0164609406927101,1.79306675402732,0.0319747240836571,0.107936739685056,0.000372330801382728,0.0258671925171158,1.7831052720605,0.0348815171821714,0.105271635001474,0.00111699240414818,0.0141093777366086,1.81896660714105,0.0494154826747428,0.0826182451910306,0.000744661602765456,0.0305703184293187,1.83092038550123,0.0174407585910857,0.0826182451910306,NA,0.0399765702537245,1.82295119992778,0.0319747240836571,0.0719578264567041,0.00111699240414818,0.0329218813854202,1.82295119992778,0.0232543447881142,0.0826182451910306,0.000372330801382728,0.0258671925171158,1.78111297566714,0.0348815171821714,0.110601844368638,NA,0.0282187554732173,1.79505905042069,0.0465086895762285,0.0932786639253571,0.000372330801382728
"42",0.0258671925171158,1.81298971796096,0.0494154826747428,0.0812856928492398,0.000372330801382728,0.0446796961659274,1.78708986484723,0.0348815171821714,0.0932786639253571,0.000744661602765456,0.0164609406927101,1.81099742156759,0.0319747240836571,0.0959437686089388,0.000372330801382728,0.0282187554732173,1.79306675402732,0.0348815171821714,0.0972763209507296,0.00111699240414818,0.0164609406927101,1.83888957107468,0.052322275773257,0.0666276170895408,0.000744661602765456,0.0329218813854202,1.8488510530415,0.0174407585910857,0.0692927217731224,NA,0.037625007297623,1.83888957107468,0.0290679309851428,0.0626299600641684,0.00148932320553091,0.0352734443415216,1.83689727468132,0.0174407585910857,0.0732903787984949,0.000744661602765456,0.0188125036488115,1.79904364320741,0.0377883102806856,0.0999414256343112,0.000372330801382728,0.0282187554732173,1.81498201435432,0.0348815171821714,0.0852833498746122,0.000372330801382728
"43",0.0235156295610144,1.83092038550123,0.0465086895762285,0.0732903787984949,NA,0.0423281332098259,1.8050205323875,0.0348815171821714,0.0812856928492398,0.00111699240414818,0.0188125036488115,1.83092038550123,0.0290679309851428,0.0839507975328214,NA,0.0282187554732173,1.80701282878087,0.0348815171821714,0.0879484545581939,0.00111699240414818,0.0188125036488115,1.85084334943487,0.0552290688717713,0.0572997506970051,0.000372330801382728,0.037625007297623,1.85084334943487,0.0174407585910857,0.06529506474775,NA,0.0282187554732173,1.85482794222159,0.0261611378866285,0.0612974077223775,0.000744661602765456,0.037625007297623,1.84685875664814,0.0174407585910857,0.06529506474775,0.000744661602765456,0.0235156295610144,1.80701282878087,0.0406951033791999,0.0906135592417755,0.000372330801382728,0.0282187554732173,1.83888957107468,0.0319747240836571,0.0706252741149133,0.000372330801382728
"44",0.021164066604913,1.85283564582823,0.0406951033791999,0.0626299600641684,NA,0.0399765702537245,1.81498201435432,0.0348815171821714,0.0759554834820765,0.00111699240414818,0.0235156295610144,1.83689727468132,0.0319747240836571,0.0759554834820765,NA,0.0305703184293187,1.80900512517423,0.0377883102806856,0.0866159022164031,0.000372330801382728,0.0188125036488115,1.86678172058178,0.052322275773257,0.0479718843044694,0.000372330801382728,0.0305703184293187,1.86678172058178,0.0203475516896,0.0559671983552143,0.000372330801382728,0.0258671925171158,1.86080483140168,0.0232543447881142,0.0599648553805867,0.000744661602765456,0.0352734443415216,1.86678172058178,0.0203475516896,0.0519695413298418,0.000744661602765456,0.021164066604913,1.83291268189459,0.0377883102806856,0.0759554834820765,0.000372330801382728,0.021164066604913,1.85084334943487,0.0290679309851428,0.0679601694313316,0.000372330801382728
"45",0.021164066604913,1.86678172058178,0.0436018964777142,0.0519695413298418,NA,0.037625007297623,1.83291268189459,0.0348815171821714,0.0639625124059592,0.00148932320553091,0.0235156295610144,1.85084334943487,0.0319747240836571,0.0666276170895408,NA,0.0305703184293187,1.8269357927145,0.0406951033791999,0.0732903787984949,0.000372330801382728,0.0258671925171158,1.88072779533532,0.0436018964777142,0.0386440179119337,0.000372330801382728,0.0305703184293187,1.87475090615523,0.0203475516896,0.050636988988051,0.000372330801382728,0.0235156295610144,1.86877401697514,0.0261611378866285,0.0546346460134235,0.000744661602765456,0.037625007297623,1.87475090615523,0.0203475516896,0.0453067796208877,0.000744661602765456,0.0141093777366086,1.85084334943487,0.0377883102806856,0.0679601694313316,0.000372330801382728,0.0188125036488115,1.86877401697514,0.0232543447881142,0.0599648553805867,0.000372330801382728
"46",0.0235156295610144,1.8707663133685,0.0436018964777142,0.0479718843044694,NA,0.0282187554732173,1.8488510530415,0.0290679309851428,0.0626299600641684,0.00111699240414818,0.0258671925171158,1.86080483140168,0.0319747240836571,0.0586323030387959,NA,0.0258671925171158,1.8488510530415,0.0348815171821714,0.0639625124059592,0.000372330801382728,0.0282187554732173,1.88272009172868,0.0436018964777142,0.035978913228352,0.000372330801382728,0.0305703184293187,1.87475090615523,0.0203475516896,0.050636988988051,0.000372330801382728,0.0258671925171158,1.8707663133685,0.0261611378866285,0.0519695413298418,0.000744661602765456,0.0352734443415216,1.88272009172868,0.0232543447881142,0.0399765702537245,0.000744661602765456,0.0164609406927101,1.86080483140168,0.0377883102806856,0.0599648553805867,0.000372330801382728,0.0188125036488115,1.87674320254859,0.0232543447881142,0.0546346460134235,0.000372330801382728
"47",0.0235156295610144,1.87275860976187,0.0465086895762285,0.0453067796208877,NA,0.0329218813854202,1.84685875664814,0.0319747240836571,0.0599648553805867,0.00111699240414818,0.0305703184293187,1.87275860976187,0.0290679309851428,0.0493044366462602,NA,0.0258671925171158,1.86678172058178,0.0319747240836571,0.0533020936716326,0.000372330801382728,0.0305703184293187,1.88869698090878,0.0406951033791999,0.0319812562029796,0.000372330801382728,0.0305703184293187,1.88869698090878,0.0232543447881142,0.0386440179119337,0.000744661602765456,0.0235156295610144,1.87674320254859,0.0203475516896,0.0546346460134235,NA,0.0423281332098259,1.88869698090878,0.0290679309851428,0.029316151519398,0.000744661602765456,0.0188125036488115,1.86478942418841,0.0436018964777142,0.0533020936716326,0.000372330801382728,0.0188125036488115,1.87674320254859,0.0232543447881142,0.0546346460134235,0.000372330801382728
"48",0.0188125036488115,1.88072779533532,0.0465086895762285,0.0426416749373061,NA,0.0329218813854202,1.85283564582823,0.0348815171821714,0.0546346460134235,0.00111699240414818,0.0329218813854202,1.87275860976187,0.0319747240836571,0.0466393319626786,NA,0.0282187554732173,1.87475090615523,0.0319747240836571,0.0466393319626786,0.000372330801382728,0.0329218813854202,1.89467387008887,0.0436018964777142,0.0266510468358163,NA,0.0329218813854202,1.89666616648223,0.0261611378866285,0.0306487038611888,0.000744661602765456,0.0235156295610144,1.88471238812205,0.0145339654925714,0.0519695413298418,NA,0.0423281332098259,1.8926815736955,0.0290679309851428,0.0279835991776071,0.000372330801382728,0.0188125036488115,1.87275860976187,0.0436018964777142,0.0479718843044694,0.000372330801382728,0.0188125036488115,1.88272009172868,0.0261611378866285,0.0493044366462602,0.000372330801382728
"49",0.0188125036488115,1.88471238812205,0.0465086895762285,0.0399765702537245,NA,0.0282187554732173,1.86080483140168,0.0319747240836571,0.0533020936716326,0.00111699240414818,0.0399765702537245,1.8707663133685,0.0290679309851428,0.0453067796208877,NA,0.0329218813854202,1.87275860976187,0.0348815171821714,0.0439742272790969,0.000372330801382728,0.0305703184293187,1.89467387008887,0.0465086895762285,0.0266510468358163,NA,0.0282187554732173,1.89467387008887,0.0261611378866285,0.0333138085447704,0.00111699240414818,0.0258671925171158,1.88670468451541,0.0145339654925714,0.0493044366462602,NA,0.037625007297623,1.89666616648223,0.0261611378866285,0.0266510468358163,0.00111699240414818,0.0235156295610144,1.87873549894196,0.0377883102806856,0.0426416749373061,0.000744661602765456,0.0141093777366086,1.89068927730214,0.0261611378866285,0.0453067796208877,0.000744661602765456
"50",0.0164609406927101,1.89068927730214,0.0436018964777142,0.035978913228352,0.000744661602765456,0.021164066604913,1.86678172058178,0.0290679309851428,0.0533020936716326,0.00148932320553091,0.0352734443415216,1.88072779533532,0.0261611378866285,0.0413091225955153,0.000372330801382728,0.0305703184293187,1.8707663133685,0.0348815171821714,0.0453067796208877,0.000744661602765456,0.0305703184293187,1.89865846287559,0.0436018964777142,0.0239859421522347,0.000372330801382728,0.0282187554732173,1.89865846287559,0.0232543447881142,0.0319812562029796,0.00111699240414818,0.021164066604913,1.88471238812205,0.0174407585910857,0.050636988988051,0.000372330801382728,0.0305703184293187,1.89467387008887,0.0261611378866285,0.0319812562029796,0.00111699240414818,0.0258671925171158,1.88072779533532,0.0406951033791999,0.0386440179119337,0.000744661602765456,0.0141093777366086,1.89068927730214,0.0261611378866285,0.0453067796208877,0.000744661602765456
"51",0.0141093777366086,1.89865846287559,0.0436018964777142,0.0319812562029796,0.000744661602765456,0.0188125036488115,1.86877401697514,0.0290679309851428,0.0519695413298418,0.00186165400691364,0.0305703184293187,1.87873549894196,0.0261611378866285,0.0453067796208877,0.000372330801382728,0.0352734443415216,1.86877401697514,0.0319747240836571,0.0453067796208877,0.000744661602765456,0.0329218813854202,1.89865846287559,0.0377883102806856,0.0253184944940255,0.000372330801382728,0.0282187554732173,1.90264305566232,0.0203475516896,0.0319812562029796,0.000744661602765456,0.0258671925171158,1.88072779533532,0.0174407585910857,0.0519695413298418,NA,0.0282187554732173,1.8926815736955,0.0261611378866285,0.0346463608865612,0.00111699240414818,0.0258671925171158,1.88272009172868,0.0348815171821714,0.0413091225955153,0.000372330801382728,0.0117578147805072,1.89068927730214,0.0261611378866285,0.0466393319626786,0.000744661602765456
"52",0.00940625182440576,1.90065075926896,0.0406951033791999,0.0346463608865612,0.000744661602765456,0.021164066604913,1.86678172058178,0.0261611378866285,0.0533020936716326,0.00186165400691364,0.0305703184293187,1.88072779533532,0.0232543447881142,0.0453067796208877,0.000372330801382728,0.0305703184293187,1.8707663133685,0.0319747240836571,0.0479718843044694,0.000372330801382728,0.0305703184293187,1.8926815736955,0.0436018964777142,0.0266510468358163,0.000744661602765456,0.0258671925171158,1.90264305566232,0.0203475516896,0.0333138085447704,0.000744661602765456,0.0258671925171158,1.88272009172868,0.0174407585910857,0.050636988988051,NA,0.021164066604913,1.88869698090878,0.0319747240836571,0.035978913228352,0.00186165400691364,0.0282187554732173,1.88072779533532,0.0377883102806856,0.0399765702537245,0.000372330801382728,0.0141093777366086,1.88869698090878,0.0319747240836571,0.0453067796208877,0.000372330801382728
"53",0.00940625182440576,1.89666616648223,0.0436018964777142,0.035978913228352,0.000744661602765456,0.021164066604913,1.86877401697514,0.0290679309851428,0.050636988988051,0.00186165400691364,0.0305703184293187,1.88072779533532,0.0261611378866285,0.0439742272790969,0.000372330801382728,0.0282187554732173,1.87873549894196,0.0290679309851428,0.0453067796208877,0.000372330801382728,0.0258671925171158,1.8926815736955,0.0436018964777142,0.0279835991776071,0.00111699240414818,0.021164066604913,1.90264305566232,0.0174407585910857,0.0373114655701429,0.000744661602765456,0.0258671925171158,1.88471238812205,0.0145339654925714,0.050636988988051,NA,0.021164066604913,1.88869698090878,0.0319747240836571,0.0373114655701429,0.00148932320553091,0.0235156295610144,1.88072779533532,0.0377883102806856,0.0413091225955153,0.000744661602765456,0.0188125036488115,1.88670468451541,0.0290679309851428,0.0453067796208877,0.000372330801382728
"54",0.00940625182440576,1.90065075926896,0.0377883102806856,0.035978913228352,0.000744661602765456,0.0235156295610144,1.87275860976187,0.0290679309851428,0.0479718843044694,0.00148932320553091,0.0305703184293187,1.87873549894196,0.0290679309851428,0.0453067796208877,NA,0.0235156295610144,1.87873549894196,0.0319747240836571,0.0466393319626786,0.000372330801382728,0.0258671925171158,1.89865846287559,0.0377883102806856,0.0266510468358163,0.00111699240414818,0.0235156295610144,1.90662764844905,0.0145339654925714,0.0373114655701429,NA,0.0235156295610144,1.88869698090878,0.0145339654925714,0.0493044366462602,NA,0.0188125036488115,1.89068927730214,0.0319747240836571,0.035978913228352,0.00186165400691364,0.0258671925171158,1.88072779533532,0.0348815171821714,0.0413091225955153,0.000744661602765456,0.0188125036488115,1.89068927730214,0.0290679309851428,0.0426416749373061,0.000372330801382728
"55",0.0117578147805072,1.90065075926896,0.0377883102806856,0.0346463608865612,0.000744661602765456,0.0188125036488115,1.87275860976187,0.0290679309851428,0.050636988988051,0.00148932320553091,0.0329218813854202,1.87674320254859,0.0290679309851428,0.0453067796208877,NA,0.0282187554732173,1.87275860976187,0.0319747240836571,0.0493044366462602,NA,0.0188125036488115,1.89865846287559,0.0377883102806856,0.0306487038611888,0.00111699240414818,0.0235156295610144,1.90463535205568,0.0145339654925714,0.0386440179119337,NA,0.021164066604913,1.89467387008887,0.0145339654925714,0.0466393319626786,NA,0.0188125036488115,1.89467387008887,0.0319747240836571,0.0333138085447704,0.00186165400691364,0.0258671925171158,1.88272009172868,0.0348815171821714,0.0399765702537245,0.000744661602765456,0.0188125036488115,1.89467387008887,0.0261611378866285,0.0413091225955153,0.000372330801382728
"56",0.0141093777366086,1.90065075926896,0.0348815171821714,0.0346463608865612,0.000744661602765456,0.021164066604913,1.87275860976187,0.0290679309851428,0.0519695413298418,0.000744661602765456,0.0305703184293187,1.87475090615523,0.0319747240836571,0.0453067796208877,0.000372330801382728,0.0305703184293187,1.86877401697514,0.0319747240836571,0.0493044366462602,0.000372330801382728,0.0188125036488115,1.90065075926896,0.0348815171821714,0.0319812562029796,0.000744661602765456,0.0235156295610144,1.90463535205568,0.0145339654925714,0.0386440179119337,NA,0.0188125036488115,1.89068927730214,0.0174407585910857,0.0493044366462602,NA,0.0188125036488115,1.89865846287559,0.0319747240836571,0.0306487038611888,0.00186165400691364,0.0282187554732173,1.88471238812205,0.0348815171821714,0.0373114655701429,0.000744661602765456,0.0235156295610144,1.88869698090878,0.0261611378866285,0.0426416749373061,0.000372330801382728
"57",0.0188125036488115,1.89865846287559,0.0348815171821714,0.0346463608865612,0.000372330801382728,0.0188125036488115,1.8707663133685,0.0319747240836571,0.0533020936716326,0.000744661602765456,0.0235156295610144,1.87275860976187,0.0319747240836571,0.0493044366462602,0.000744661602765456,0.0329218813854202,1.86678172058178,0.0319747240836571,0.0493044366462602,0.000372330801382728,0.021164066604913,1.89666616648223,0.0348815171821714,0.0346463608865612,0.000372330801382728,0.0235156295610144,1.90264305566232,0.0145339654925714,0.0399765702537245,NA,0.021164066604913,1.88670468451541,0.0174407585910857,0.050636988988051,NA,0.0164609406927101,1.90065075926896,0.0290679309851428,0.035978913228352,0.000744661602765456,0.0258671925171158,1.8926815736955,0.0290679309851428,0.0373114655701429,0.000372330801382728,0.0305703184293187,1.88670468451541,0.0232543447881142,0.0426416749373061,NA
"58",0.0188125036488115,1.89666616648223,0.0348815171821714,0.0346463608865612,0.000744661602765456,0.0188125036488115,1.87873549894196,0.0261611378866285,0.050636988988051,0.000744661602765456,0.0235156295610144,1.8707663133685,0.0377883102806856,0.0479718843044694,0.000744661602765456,0.0329218813854202,1.86080483140168,0.0377883102806856,0.050636988988051,0.000372330801382728,0.0188125036488115,1.89467387008887,0.0377883102806856,0.035978913228352,0.000372330801382728,0.0282187554732173,1.89467387008887,0.0174407585910857,0.0413091225955153,NA,0.0258671925171158,1.88072779533532,0.0174407585910857,0.0519695413298418,NA,0.0188125036488115,1.90264305566232,0.0232543447881142,0.035978913228352,0.000744661602765456,0.0258671925171158,1.89467387008887,0.0261611378866285,0.0373114655701429,0.000372330801382728,0.0305703184293187,1.88869698090878,0.0232543447881142,0.0413091225955153,NA
"59",0.0188125036488115,1.89666616648223,0.0348815171821714,0.0346463608865612,0.000744661602765456,0.0117578147805072,1.88272009172868,0.0232543447881142,0.0493044366462602,0.00186165400691364,0.0188125036488115,1.87674320254859,0.0377883102806856,0.0466393319626786,0.000744661602765456,0.0282187554732173,1.86279712779505,0.0406951033791999,0.050636988988051,0.000372330801382728,0.0188125036488115,1.89666616648223,0.0377883102806856,0.0346463608865612,0.000372330801382728,0.0282187554732173,1.8926815736955,0.0174407585910857,0.0426416749373061,NA,0.0282187554732173,1.87674320254859,0.0203475516896,0.0519695413298418,NA,0.0164609406927101,1.90065075926896,0.0261611378866285,0.0386440179119337,0.000372330801382728,0.0235156295610144,1.8926815736955,0.0232543447881142,0.0426416749373061,NA,0.0305703184293187,1.8926815736955,0.0174407585910857,0.0399765702537245,0.000372330801382728
"60",0.0164609406927101,1.90065075926896,0.0290679309851428,0.035978913228352,0.000744661602765456,0.0141093777366086,1.88272009172868,0.0232543447881142,0.0479718843044694,0.00186165400691364,0.021164066604913,1.87674320254859,0.0348815171821714,0.0466393319626786,0.000744661602765456,0.0235156295610144,1.86080483140168,0.0406951033791999,0.0546346460134235,0.000372330801382728,0.021164066604913,1.89467387008887,0.0348815171821714,0.035978913228352,0.000372330801382728,0.0258671925171158,1.8926815736955,0.0145339654925714,0.0439742272790969,0.000372330801382728,0.0305703184293187,1.87674320254859,0.0174407585910857,0.050636988988051,0.000372330801382728,0.0164609406927101,1.89666616648223,0.0290679309851428,0.0399765702537245,0.000372330801382728,0.0235156295610144,1.88869698090878,0.0232543447881142,0.0453067796208877,NA,0.0305703184293187,1.8926815736955,0.0174407585910857,0.0386440179119337,0.000744661602765456
