"","Early1.ALL","Late1.CLS","Late1.OPN","Mid1.CLS","Mid1.OPN","Early1.ALL.1","Late1.CLS.1","Late1.OPN.1","Mid1.CLS.1","Mid1.OPN.1","Early1.ALL.2","Late1.CLS.2","Late1.OPN.2","Mid1.CLS.2","Mid1.OPN.2","Early1.ALL.3","Late1.CLS.3","Late1.OPN.3","Mid1.CLS.3","Mid1.OPN.3","Early1.ALL.4","Late1.CLS.4","Late1.OPN.4","Mid1.CLS.4","Mid1.OPN.4","Early1.ALL.5","Late1.CLS.5","Late1.OPN.5","Mid1.CLS.5","Mid1.OPN.5","Early1.ALL.6","Late1.CLS.6","Late1.OPN.6","Mid1.CLS.6","Mid1.OPN.6","Early1.ALL.7","Late1.CLS.7","Late1.OPN.7","Mid1.CLS.7","Mid1.OPN.7","Early1.ALL.8","Late1.CLS.8","Late1.OPN.8","Mid1.CLS.8","Mid1.OPN.8","Early1.ALL.9","Late1.CLS.9","Late1.OPN.9","Mid1.CLS.9","Mid1.OPN.9"
"0",3.09220077336423,6.39646026841425,13.1623837378286,0.348057445980304,4.82515243326657,2.82903475009919,7.18475642825404,13.8827131961177,0.32545631312444,4.05654408106482,2.99351351463984,6.80186972204614,13.0968992416205,0.343537219409131,4.39814779315448,3.3882625495374,7.07214269113407,12.0491473022909,0.345797332694718,3.9711431530424,3.02640926754797,6.64421049007818,13.2278682340367,0.355967842479856,4.09924454507602,3.25667953790488,6.50907400553422,13.1623837378286,0.354837785837063,4.14194500908723,3.02640926754797,6.41898301583824,13.7517442037015,0.352577672551477,4.31274686513207,3.25667953790488,6.9595289540141,13.6207752112853,0.324326256481647,4.14194500908723,3.51984556116992,6.59916499523019,12.4420542795395,0.333366709623992,4.91055336128898,2.92772200882358,6.68925598492617,13.7517442037015,0.346927389337511,4.14194500908723
"1",2.63166023265041,6.50907400553422,13.2933527302448,0.361618125693822,4.61165011321052,2.66455598555854,7.22980192310203,13.8827131961177,0.339016992837958,3.67223990496394,2.50007722101789,7.02709719628608,13.1623837378286,0.351447615908684,4.27004640112086,3.0593050204561,7.36493840764599,12.1801162947071,0.349187502623097,3.62953944095273,2.46718146810976,6.82439246947013,13.424321722661,0.372918692121754,3.71494036897515,2.7303474913748,6.71177873235016,13.2933527302448,0.365008295622202,3.9711431530424,2.43428571520163,6.48655125811022,13.7517442037015,0.365008295622202,4.4835487211769,2.56586872683415,7.18475642825404,13.6862597074934,0.336756879552372,4.09924454507602,2.99351351463984,6.77934697462215,12.5075387757476,0.343537219409131,4.82515243326657,2.59876447974228,6.91448345916611,13.8172286999096,0.348057445980304,4.05654408106482
"2",2.33559845647724,6.64421049007818,13.6207752112853,0.376308862050134,3.9711431530424,2.30270270356911,7.38746115506998,14.0791666847421,0.346927389337511,3.41603712089669,2.33559845647724,7.13971093340605,13.3588372264529,0.354837785837063,4.01384361705361,2.56586872683415,7.52259763961395,12.4420542795395,0.358227955765443,3.4587375849079,2.13822393902846,7.16223368083004,13.424321722661,0.370658578836168,3.58683897694153,2.10532818612033,6.9370062065901,13.4898062188691,0.376308862050134,3.80034129699757,1.7434749041309,6.68925598492617,13.9481976923258,0.375178805407341,4.4835487211769,2.00664092739594,7.319892912798,13.7517442037015,0.346927389337511,4.14194500908723,2.59876447974228,6.9595289540141,12.5730232719557,0.351447615908684,4.65435057722173,2.23691119775285,7.04961994371007,14.2756201733664,0.35709789912265,3.62953944095273
"3",1.97374517448781,6.77934697462215,13.7517442037015,0.384219258549686,3.80034129699757,1.84216216285529,7.63521137673392,14.2101356771583,0.352577672551477,3.24523526485186,2.00664092739594,7.20727917567803,13.3588372264529,0.369528522193375,3.75764083298636,2.20401544484472,7.86043885097386,12.5075387757476,0.355967842479856,3.33063619287428,1.80926640994716,7.342415660222,13.424321722661,0.380829088621307,3.28793572886307,1.87505791576342,7.09466543855806,13.5552907150772,0.38534931519248,3.41603712089669,1.31583011632521,6.9370062065901,14.0791666847421,0.3819591452641,4.22734593710965,1.7434749041309,7.45502939734197,13.9481976923258,0.346927389337511,4.09924454507602,2.13822393902846,7.13971093340605,12.7039922643719,0.360488069051029,4.4835487211769,1.80926640994716,7.16223368083004,14.4720736619907,0.368398465550582,3.41603712089669
"4",1.77637065703903,6.91448345916611,13.9481976923258,0.392129655049239,3.37333665688548,1.71057915122277,7.86043885097386,14.4720736619907,0.351447615908684,2.86093108875098,1.57899613959025,7.319892912798,13.3588372264529,0.380829088621307,3.67223990496394,1.87505791576342,8.0631435777898,12.7039922643719,0.359358012408236,3.11713387281823,1.4145173750496,7.45502939734197,13.6862597074934,0.389869541763652,3.07443340880702,1.51320463377399,7.40998390249398,13.6207752112853,0.38534931519248,3.24523526485186,1.11845559887643,7.07214269113407,14.0791666847421,0.395519824977618,3.71494036897515,1.48030888086586,7.65773412415791,14.0136821885339,0.348057445980304,3.9711431530424,1.87505791576342,7.36493840764599,12.8349612567881,0.368398465550582,4.01384361705361,1.67768339831464,7.36493840764599,14.6030426544069,0.372918692121754,2.9463320167734
"5",1.4145173750496,7.11718818598206,13.9481976923258,0.409080504691137,2.81823062473977,1.54610038668212,8.04062083036581,14.7340116468231,0.35031755926589,2.60472830468373,1.21714285760082,7.56764313446194,13.3588372264529,0.380829088621307,3.67223990496394,1.71057915122277,8.17575731490977,12.76947676058,0.371788635478961,2.60472830468373,1.11845559887643,7.65773412415791,13.6862597074934,0.389869541763652,3.07443340880702,1.31583011632521,7.59016588188593,13.7517442037015,0.3819591452641,3.20253480084065,0.888185328519514,7.29737016537401,14.1446511809502,0.398909994905998,3.41603712089669,1.31583011632521,7.83791610354986,13.9481976923258,0.35370772919427,3.67223990496394,1.57899613959025,7.59016588188593,12.9004457529962,0.383089201906893,3.37333665688548,1.31583011632521,7.65773412415791,14.668527150615,0.377438918692927,2.64742876869494
"6",1.18424710469269,7.61268862930992,13.1623837378286,0.40682039140555,2.77553016072856,1.21714285760082,8.42350753657371,13.7517442037015,0.365008295622202,2.39122598462768,0.986872587243904,8.01809808294182,12.8349612567881,0.374048748764548,3.71494036897515,1.4145173750496,8.78387149535761,11.5907558288341,0.376308862050134,2.43392644863889,0.855289575611384,8.37846204172572,12.5730232719557,0.388739485120859,2.81823062473977,1.15135135178456,8.0631435777898,13.0968992416205,0.3819591452641,2.9463320167734,0.723706563978863,8.01809808294182,12.9659302492043,0.393259711692032,3.24523526485186,1.05266409306016,8.24332555718176,13.2933527302448,0.363878238979409,3.28793572886307,1.25003861050895,8.0856663252138,11.9836628060827,0.392129655049239,3.11713387281823,1.05266409306016,8.31089379945374,13.6862597074934,0.384219258549686,2.13502320056043
"7",0.789498069795123,8.24332555718176,12.5730232719557,0.405690334762757,2.51932737666131,1.05266409306016,9.1892809489895,12.2456007909152,0.366138352264995,2.09232273654922,0.888185328519514,8.69378050566164,11.6562403250422,0.371788635478961,3.41603712089669,1.31583011632521,9.16675820156551,10.9359108667531,0.376308862050134,2.26312459259406,0.657915058162603,8.80639424278161,11.9836628060827,0.388739485120859,2.64742876869494,0.822393822703254,8.60368951596566,12.3765697833314,0.379699031978514,2.90363155276219,0.592123552346343,8.53612127369368,12.1801162947071,0.392129655049239,2.98903248078461,0.690810811070733,8.96405347474956,12.0491473022909,0.370658578836168,2.9463320167734,0.986872587243904,8.58116676854167,11.3288178440017,0.390999598406446,2.98903248078461,0.789498069795123,8.89648523247758,12.8349612567881,0.379699031978514,2.09232273654922
"8",0.690810811070733,8.69378050566164,12.0491473022909,0.403430221477171,2.22042412858285,0.888185328519514,9.75234963458935,11.1978488515855,0.368398465550582,1.83611995248197,0.625019305254473,9.16675820156551,10.6739728819207,0.396649881620412,2.56202784067252,0.855289575611384,9.79739512943734,9.82267443121535,0.383089201906893,2.13502320056043,0.493436293621952,9.52712216034941,11.0013953629612,0.388739485120859,2.13502320056043,0.789498069795123,9.14423545414152,11.3288178440017,0.377438918692927,2.69012923270615,0.559227799438213,9.05414446444554,11.525271332626,0.394389768334825,2.39122598462768,0.625019305254473,9.43703117065344,11.1978488515855,0.379699031978514,2.34852552061648,0.888185328519514,9.03162171702155,10.4775193932964,0.394389768334825,2.69012923270615,0.657915058162603,9.52712216034941,11.7217248212503,0.374048748764548,2.00692180852681
"9",0.526332046530082,9.39198567580545,10.5430038895045,0.411340617976723,1.79341948847076,0.789498069795123,10.5406457944291,9.69170543879915,0.368398465550582,1.45181577638109,0.493436293621952,9.70730413974137,9.82267443121535,0.390999598406446,2.4766269126501,0.625019305254473,10.3154183201892,9.29879846155053,0.376308862050134,2.04962227253802,0.427644787805692,10.1127135933733,10.0191279198397,0.392129655049239,1.62261763242593,0.625019305254473,9.63973589746938,10.6739728819207,0.380829088621307,2.26312459259406,0.427644787805692,9.66225864489338,10.4120348970883,0.402300164834378,1.83611995248197,0.361853281989432,9.86496337170932,10.4120348970883,0.388739485120859,2.04962227253802,0.559227799438213,9.5946904026214,9.69170543879915,0.403430221477171,2.22042412858285,0.493436293621952,10.1127135933733,10.9359108667531,0.368398465550582,1.83611995248197
"10",0.493436293621952,10.0451453511013,9.23331396534243,0.414730787905103,1.32371438434747,0.690810811070733,11.058668985181,8.90589148430192,0.365008295622202,1.23831345632505,0.394749034897562,10.1802818356452,8.97137598051003,0.403430221477171,1.79341948847076,0.427644787805692,10.901009753213,8.44750001084521,0.374048748764548,1.83611995248197,0.263166023265041,10.7658732686691,8.70943799567762,0.392129655049239,1.45181577638109,0.361853281989432,10.2928955727652,9.62622094259105,0.390999598406446,1.66531809643714,0.394749034897562,10.5181230470051,8.70943799567762,0.402300164834378,1.36641484835868,0.296061776173171,10.2703728253412,9.82267443121535,0.393259711692032,1.57991716841472,0.493436293621952,10.0676680985253,8.77492249188572,0.40682039140555,1.87882041649318,0.493436293621952,10.8784870057891,9.49525195017484,0.366138352264995,1.40911531236989
"11",0.328957529081301,10.5856912892771,8.316531018429,0.418120957833482,0.982110672257799,0.559227799438213,11.4640784388129,8.1855620260128,0.369528522193375,0.93941020824659,0.361853281989432,10.6082140367011,8.38201551463711,0.41360073126231,1.02481113626901,0.296061776173171,11.3289419542689,7.59620156013988,0.388739485120859,1.19561299231384,0.263166023265041,11.2838964594209,7.66168605634798,0.403430221477171,0.725907888190547,0.263166023265041,10.7658732686691,8.97137598051003,0.396649881620412,1.11021206429143,0.328957529081301,10.946055248061,7.92362404118039,0.41021056133393,0.854009280224173,0.230270270356911,10.8334415109411,8.90589148430192,0.398909994905998,0.982110672257799,0.460540540713822,10.4730775521572,8.316531018429,0.411340617976723,1.28101392033626,0.328957529081301,11.4190329439649,8.84040698809382,0.363878238979409,1.11021206429143
"12",0.263166023265041,11.126237227453,7.92362404118039,0.398909994905998,1.02481113626901,0.460540540713822,11.8694878924448,7.53071706393178,0.367268408907788,0.811308816212964,0.361853281989432,11.103714480029,7.53071706393178,0.404560278119964,0.982110672257799,0.296061776173171,11.9370561347168,6.54844962081025,0.380829088621307,1.02481113626901,0.230270270356911,11.9145333872928,6.61393411701835,0.394389768334825,0.597806496156921,0.197374517448781,11.261373711997,8.0545930335966,0.389869541763652,1.11021206429143,0.328957529081301,11.4866011862369,7.00684109426696,0.404560278119964,0.64050696016813,0.230270270356911,11.2838964594209,8.1200775298047,0.396649881620412,0.725907888190547,0.296061776173171,11.126237227453,7.39974807151558,0.403430221477171,1.15291252830263,0.328957529081301,11.9595788821408,7.92362404118039,0.354837785837063,1.02481113626901
"13",0.131583011632521,11.5766921759329,7.07232559047507,0.398909994905998,0.896709744235382,0.361853281989432,12.5226475677406,6.35199613218594,0.35709789912265,0.854009280224173,0.328957529081301,11.3965101965409,7.00684109426696,0.401170108191584,0.93941020824659,0.263166023265041,12.5451703151646,5.56618217768872,0.374048748764548,0.811308816212964,0.197374517448781,12.2523745986527,5.82812016252113,0.392129655049239,0.597806496156921,0.164478764540651,11.5992149233569,7.46523256772368,0.386479371835273,1.02481113626901,0.328957529081301,11.8244423975968,6.41748062839404,0.401170108191584,0.512405568134504,0.230270270356911,11.8469651450208,7.20329458289127,0.38534931519248,0.683207424179339,0.296061776173171,11.8019196501728,6.28651163597784,0.393259711692032,0.982110672257799,0.328957529081301,12.4100338306206,7.20329458289127,0.35031755926589,0.811308816212964
"14",0.0986872587243904,12.1172381141087,6.54844962081025,0.390999598406446,0.555106032145713,0.394749034897562,13.0631935059165,5.43521318527251,0.343537219409131,0.896709744235382,0.394749034897562,11.9821016295648,6.28651163597784,0.38534931519248,0.811308816212964,0.296061776173171,13.4010347172764,4.45294574215098,0.351447615908684,0.725907888190547,0.197374517448781,12.8604887791005,5.50069768148062,0.368398465550582,0.555106032145713,0.197374517448781,12.2298518512287,6.41748062839404,0.375178805407341,0.896709744235382,0.328957529081301,12.3875110831967,5.63166667389682,0.387609428478066,0.469705104123295,0.230270270356911,12.4325565780446,6.35199613218594,0.374048748764548,0.555106032145713,0.328957529081301,12.4776020728926,5.17327520044011,0.376308862050134,1.02481113626901,0.263166023265041,12.9055342739485,6.35199613218594,0.341277106123545,0.854009280224173
"15",0.131583011632521,12.6352613048606,5.95908915493733,0.374048748764548,0.555106032145713,0.427644787805692,13.4235574647004,5.0423062080239,0.336756879552372,0.683207424179339,0.361853281989432,12.3875110831967,5.95908915493733,0.372918692121754,0.768608352201756,0.230270270356911,13.7613986760603,3.92906977248616,0.346927389337511,0.64050696016813,0.164478764540651,13.4010347172764,4.84585271939959,0.35709789912265,0.427004640112087,0.197374517448781,12.7478750419806,5.63166667389682,0.374048748764548,0.469705104123295,0.296061776173171,13.0406707584925,4.45294574215098,0.379699031978514,0.341603712089669,0.230270270356911,12.9505797687965,5.56618217768872,0.363878238979409,0.469705104123295,0.328957529081301,12.8154432842525,4.45294574215098,0.375178805407341,0.896709744235382,0.263166023265041,13.3559892224284,5.56618217768872,0.332236652981199,0.854009280224173
"16",0.197374517448781,13.0406707584925,5.17327520044011,0.366138352264995,0.512405568134504,0.328957529081301,14.1217626348442,3.99455426869426,0.326586369767233,0.555106032145713,0.328957529081301,13.1307617481885,4.51843023835908,0.365008295622202,0.64050696016813,0.230270270356911,14.2118536245402,2.94680232936462,0.342407162766338,0.597806496156921,0.197374517448781,13.9866261503002,3.79810078006995,0.345797332694718,0.384304176100878,0.230270270356911,13.4010347172764,4.19100775731857,0.365008295622202,0.469705104123295,0.296061776173171,13.6487849389403,3.27422481040513,0.369528522193375,0.341603712089669,0.197374517448781,13.2433754853084,4.9113372156077,0.362748182336616,0.427004640112087,0.361853281989432,13.3334664750044,3.47067829902944,0.368398465550582,0.768608352201756,0.296061776173171,14.0091488977242,4.38746124594288,0.319806029910474,0.811308816212964
"17",0.230270270356911,13.4235574647004,4.78036822319149,0.355967842479856,0.384304176100878,0.263166023265041,14.5046493410521,3.92906977248616,0.316415859982094,0.341603712089669,0.296061776173171,13.3785119698524,4.32197674973477,0.362748182336616,0.427004640112087,0.230270270356911,14.4370810987801,2.75034884074031,0.336756879552372,0.512405568134504,0.230270270356911,14.3920356039321,3.53616279523754,0.328846483052819,0.384304176100878,0.164478764540651,13.7163531812123,3.99455426869426,0.35709789912265,0.384304176100878,0.263166023265041,13.9866261503002,3.07777132178082,0.359358012408236,0.256202784067252,0.131583011632521,13.4911257069724,4.58391473456718,0.359358012408236,0.384304176100878,0.361853281989432,13.6487849389403,3.07777132178082,0.361618125693822,0.683207424179339,0.296061776173171,14.2568991193881,4.19100775731857,0.311895633410921,0.768608352201756
"18",0.263166023265041,13.6713076863643,4.45294574215098,0.35031755926589,0.298903248078461,0.230270270356911,14.752399562716,3.66713178765375,0.310765576768128,0.298903248078461,0.361853281989432,13.6713076863643,3.92906977248616,0.35370772919427,0.384304176100878,0.230270270356911,14.639785825596,2.68486434453221,0.328846483052819,0.469705104123295,0.230270270356911,14.66230857302,3.40519380282134,0.320936086553267,0.256202784067252,0.164478764540651,14.0767171399962,3.66713178765375,0.345797332694718,0.341603712089669,0.197374517448781,14.2794218668121,2.75034884074031,0.35370772919427,0.213502320056043,0.164478764540651,14.0091488977242,4.19100775731857,0.340147049480752,0.341603712089669,0.328957529081301,13.9641034028762,2.81583333694841,0.35031755926589,0.725907888190547,0.361853281989432,14.4370810987801,3.92906977248616,0.308505463482542,0.64050696016813
"19",0.230270270356911,14.0992398874202,4.12552326111046,0.336756879552372,0.256202784067252,0.230270270356911,14.9551042895319,3.40519380282134,0.306245350196955,0.256202784067252,0.394749034897562,13.9415806554522,3.73261628386185,0.343537219409131,0.341603712089669,0.296061776173171,14.8650132998359,2.553895352116,0.319806029910474,0.384304176100878,0.263166023265041,14.8650132998359,3.33970930661323,0.310765576768128,0.256202784067252,0.164478764540651,14.4370810987801,3.20874031419703,0.336756879552372,0.298903248078461,0.263166023265041,14.4596038462041,2.68486434453221,0.344667276051924,0.170801856044835,0.0986872587243904,14.2118536245402,3.86358527627805,0.336756879552372,0.384304176100878,0.394749034897562,14.0992398874202,2.4884108559079,0.348057445980304,0.683207424179339,0.394749034897562,14.707354067868,3.79810078006995,0.29720489705461,0.597806496156921
"20",0.230270270356911,14.4821265936281,3.86358527627805,0.323196199838854,0.213502320056043,0.263166023265041,15.2028545111958,3.14325581798892,0.296074840411817,0.298903248078461,0.394749034897562,14.3244673616601,3.33970930661323,0.331106596338406,0.341603712089669,0.296061776173171,15.1352862689238,2.553895352116,0.310765576768128,0.213502320056043,0.263166023265041,15.1127635214999,3.07777132178082,0.303985236911369,0.213502320056043,0.164478764540651,14.707354067868,3.07777132178082,0.328846483052819,0.170801856044835,0.296061776173171,14.819967804988,2.4884108559079,0.327716426410026,0.213502320056043,0.0657915058162603,14.617263078172,3.47067829902944,0.32545631312444,0.341603712089669,0.328957529081301,14.594740330748,2.22647287107549,0.331106596338406,0.64050696016813,0.361853281989432,15.0226725318039,3.27422481040513,0.292684670483437,0.555106032145713
"21",0.328957529081301,14.819967804988,3.53616279523754,0.309635520125335,0.170801856044835,0.230270270356911,15.4956502277077,3.01228682557272,0.288164443912264,0.170801856044835,0.427644787805692,14.797445057564,3.01228682557272,0.311895633410921,0.341603712089669,0.263166023265041,15.4280819854357,2.553895352116,0.298334953697403,0.170801856044835,0.296061776173171,15.5181729751317,2.94680232936462,0.285904330626678,0.170801856044835,0.164478764540651,15.0451952792279,2.68486434453221,0.318675973267681,0.170801856044835,0.296061776173171,15.1352862689238,2.4229263596998,0.313025690053715,0.213502320056043,0.0986872587243904,15.0226725318039,3.01228682557272,0.313025690053715,0.298903248078461,0.296061776173171,14.9325815421079,2.16098837486739,0.320936086553267,0.469705104123295,0.328957529081301,15.4506047328597,2.94680232936462,0.281384104055505,0.427004640112087
"22",0.328957529081301,15.1352862689238,3.40519380282134,0.298334953697403,0.0854009280224173,0.230270270356911,15.7884459442196,2.6193798483241,0.279123990769919,0.213502320056043,0.361853281989432,15.1803317637718,2.4229263596998,0.308505463482542,0.213502320056043,0.263166023265041,15.6983549545237,2.16098837486739,0.292684670483437,0.128101392033626,0.263166023265041,15.7434004493716,2.88131783315651,0.276863877484332,0.170801856044835,0.164478764540651,15.2479000060438,2.553895352116,0.311895633410921,0.128101392033626,0.263166023265041,15.3830364905878,2.4229263596998,0.301725123625783,0.213502320056043,0.0986872587243904,15.2479000060438,3.01228682557272,0.300595066982989,0.341603712089669,0.361853281989432,15.2028545111958,1.96453488624308,0.311895633410921,0.341603712089669,0.296061776173171,15.7884459442196,2.553895352116,0.273473707555953,0.384304176100878
"23",0.361853281989432,15.5632184699797,3.01228682557272,0.281384104055505,0.128101392033626,0.230270270356911,16.0587189133075,2.35744186349169,0.26895348098478,0.256202784067252,0.361853281989432,15.5632184699797,2.09550387865928,0.296074840411817,0.170801856044835,0.361853281989432,16.0361961658835,1.89905039003498,0.276863877484332,0.128101392033626,0.230270270356911,16.0587189133075,2.81583333694841,0.264433254413607,0.128101392033626,0.164478764540651,15.5632184699797,2.29195736728359,0.302855180268576,0.0427004640112086,0.230270270356911,15.6307867122517,2.22647287107549,0.290424557197851,0.341603712089669,0.0986872587243904,15.4956502277077,2.88131783315651,0.292684670483437,0.256202784067252,0.361853281989432,15.5406957225557,1.89905039003498,0.296074840411817,0.341603712089669,0.328957529081301,16.0587189133075,2.35744186349169,0.263303197770814,0.341603712089669
"24",0.361853281989432,15.7659231967956,3.07777132178082,0.271213594270366,0.0854009280224173,0.230270270356911,16.2614236401235,2.16098837486739,0.262173141128021,0.256202784067252,0.296061776173171,15.8334914390676,1.89905039003498,0.287034387269471,0.213502320056043,0.328957529081301,16.5767421040594,1.50614341278636,0.257652914556848,0.128101392033626,0.230270270356911,16.5091738617874,2.4884108559079,0.248612461414502,0.0854009280224173,0.131583011632521,15.8334914390676,2.09550387865928,0.29381472712623,0.0427004640112086,0.263166023265041,15.8109686916436,2.09550387865928,0.281384104055505,0.384304176100878,0.131583011632521,15.9010596813396,2.03001938245118,0.287034387269471,0.213502320056043,0.361853281989432,15.9235824287636,1.57162790899446,0.282514160698298,0.341603712089669,0.328957529081301,16.3965601246674,2.03001938245118,0.253132687985675,0.298903248078461
"25",0.328957529081301,16.1262871555795,2.75034884074031,0.258782971199641,0.128101392033626,0.328957529081301,16.3965601246674,2.16098837486739,0.254262744628468,0.170801856044835,0.296061776173171,16.1488099030035,1.63711240520257,0.277993934127125,0.128101392033626,0.328957529081301,16.8019695782993,1.24420542795395,0.250872574700089,0.128101392033626,0.263166023265041,16.7569240834513,2.16098837486739,0.24070206491495,0.0854009280224173,0.164478764540651,16.0587189133075,1.70259690141067,0.289294500555057,NA,0.263166023265041,16.0587189133075,1.83356589382687,0.273473707555953,0.384304176100878,0.164478764540651,16.2389008926995,1.83356589382687,0.272343650913159,0.213502320056043,0.328957529081301,16.3064691349715,1.24420542795395,0.270083537627573,0.341603712089669,0.328957529081301,16.5992648514834,1.96453488624308,0.247482404771709,0.170801856044835
"26",0.328957529081301,16.4416056195154,2.4229263596998,0.247482404771709,0.170801856044835,0.361853281989432,16.7344013360273,1.89905039003498,0.241832121557743,0.128101392033626,0.394749034897562,16.4416056195154,1.44065891657826,0.263303197770814,0.128101392033626,0.361853281989432,17.0947652948112,1.04775193932964,0.239572008272157,0.0854009280224173,0.263166023265041,16.9145833154193,2.09550387865928,0.233921725058191,0.0854009280224173,0.164478764540651,16.3064691349715,1.57162790899446,0.279123990769919,NA,0.230270270356911,16.2614236401235,1.70259690141067,0.2655633110564,0.427004640112087,0.197374517448781,16.6217875989073,1.63711240520257,0.256522857914055,0.170801856044835,0.263166023265041,16.5992648514834,1.30968992416205,0.258782971199641,0.256202784067252,0.361853281989432,16.8244923257233,1.76808139761877,0.239572008272157,0.128101392033626
"27",0.361853281989432,16.8019695782993,2.16098837486739,0.232791668415397,0.170801856044835,0.361853281989432,16.9821515576912,1.76808139761877,0.231661611772604,0.128101392033626,0.394749034897562,16.5767421040594,1.37517442037015,0.256522857914055,0.170801856044835,0.427644787805692,17.3425155164751,1.04775193932964,0.224881271915845,0.0854009280224173,0.230270270356911,17.0947652948112,1.96453488624308,0.230531555129811,NA,0.131583011632521,16.7569240834513,1.44065891657826,0.258782971199641,0.0427004640112086,0.263166023265041,16.5767421040594,1.63711240520257,0.252002631342882,0.341603712089669,0.230270270356911,16.8244923257233,1.57162790899446,0.246352348128916,0.170801856044835,0.263166023265041,16.8244923257233,1.30968992416205,0.249742518057295,0.170801856044835,0.361853281989432,17.0046743051152,1.76808139761877,0.231661611772604,0.0854009280224173
"28",0.263166023265041,17.0947652948112,1.83356589382687,0.227141385201431,0.170801856044835,0.361853281989432,17.2299017793551,1.76808139761877,0.219230988701879,0.128101392033626,0.361853281989432,16.8244923257233,1.30968992416205,0.246352348128916,0.170801856044835,0.427644787805692,17.5001747484431,1.11323643553774,0.214710762130706,0.128101392033626,0.197374517448781,17.2749472742031,1.96453488624308,0.222621158630259,NA,0.164478764540651,17.1398107896592,1.30968992416205,0.24070206491495,0.0427004640112086,0.296061776173171,16.8019695782993,1.57162790899446,0.239572008272157,0.384304176100878,0.230270270356911,17.2073790319312,1.11323643553774,0.236181838343777,0.128101392033626,0.263166023265041,16.9145833154193,1.17872093174585,0.246352348128916,0.213502320056043,0.361853281989432,17.3199927690511,1.50614341278636,0.219230988701879,0.128101392033626
"29",0.230270270356911,17.3875610113231,1.70259690141067,0.213580705487913,0.256202784067252,0.394749034897562,17.545220243291,1.57162790899446,0.20567030898836,0.128101392033626,0.394749034897562,17.0046743051152,1.17872093174585,0.241832121557743,0.0427004640112086,0.394749034897562,17.8380159598029,0.916782946913436,0.201150082417188,0.170801856044835,0.197374517448781,17.4776520010191,1.96453488624308,0.21245064884512,NA,0.164478764540651,17.3425155164751,1.17872093174585,0.232791668415397,0.0427004640112086,0.361853281989432,17.0497197999632,1.44065891657826,0.229401498487018,0.298903248078461,0.296061776173171,17.522697495867,0.982267443121539,0.220361045344672,0.128101392033626,0.230270270356911,17.1623335370832,1.11323643553774,0.23731189498657,0.170801856044835,0.263166023265041,17.590265738139,1.37517442037015,0.20906047891674,0.213502320056043
"30",0.230270270356911,17.522697495867,1.63711240520257,0.207930422273947,0.256202784067252,0.328957529081301,17.8380159598029,1.37517442037015,0.196629855846015,0.128101392033626,0.394749034897562,17.2299017793551,1.11323643553774,0.231661611772604,0.0427004640112086,0.394749034897562,18.0407206866189,0.851298450705334,0.193239685917635,0.128101392033626,0.197374517448781,17.702879475259,1.96453488624308,0.201150082417188,NA,0.131583011632521,17.680356727835,0.982267443121539,0.220361045344672,0.0427004640112086,0.394749034897562,17.2073790319312,1.30968992416205,0.223751215273052,0.256202784067252,0.296061776173171,17.725402222683,0.851298450705334,0.21245064884512,0.128101392033626,0.263166023265041,17.4326065061711,1.04775193932964,0.224881271915845,0.128101392033626,0.230270270356911,17.8380159598029,1.30968992416205,0.196629855846015,0.298903248078461
"31",0.164478764540651,17.8380159598029,1.63711240520257,0.195499799203222,0.213502320056043,0.361853281989432,17.9956751917709,1.37517442037015,0.187589402703669,0.128101392033626,0.328957529081301,17.4551292535951,1.11323643553774,0.221491101987465,0.0854009280224173,0.394749034897562,18.1082889288909,0.982267443121539,0.188719459346462,0.0854009280224173,0.131583011632521,17.9506296969229,1.70259690141067,0.194369742560428,0.0427004640112086,0.131583011632521,17.8154932123789,0.982267443121539,0.214710762130706,NA,0.328957529081301,17.635311232987,1.24420542795395,0.203410195702774,0.341603712089669,0.263166023265041,18.1082889288909,0.851298450705334,0.194369742560428,0.128101392033626,0.197374517448781,17.770447717531,0.916782946913436,0.21245064884512,0.128101392033626,0.230270270356911,17.9731524443469,1.37517442037015,0.188719459346462,0.298903248078461
"32",0.197374517448781,18.0407206866189,1.50614341278636,0.186459346060876,0.213502320056043,0.361853281989432,18.2209026660108,1.30968992416205,0.17741889291853,0.128101392033626,0.328957529081301,17.8605387072269,0.982267443121539,0.203410195702774,0.0854009280224173,0.394749034897562,18.2434254134348,0.982267443121539,0.181939119489703,0.0854009280224173,0.131583011632521,18.1983799185868,1.63711240520257,0.18419923277529,NA,0.164478764540651,18.0181979391949,0.982267443121539,0.203410195702774,NA,0.328957529081301,17.8830614546509,1.04775193932964,0.194369742560428,0.341603712089669,0.263166023265041,18.3785618979788,0.851298450705334,0.181939119489703,0.0854009280224173,0.230270270356911,18.0407206866189,0.785813954497231,0.200020025774394,0.128101392033626,0.230270270356911,18.2884709082828,1.37517442037015,0.174028722990151,0.256202784067252
"33",0.197374517448781,18.1533344237388,1.44065891657826,0.18080906284691,0.256202784067252,0.427644787805692,18.3785618979788,1.24420542795395,0.169508496418978,0.0854009280224173,0.328957529081301,18.2884709082828,0.982267443121539,0.183069176132496,0.0427004640112086,0.328957529081301,18.3335164031308,0.982267443121539,0.179679006204117,0.0854009280224173,0.164478764540651,18.4686528876747,1.50614341278636,0.171768609704565,NA,0.230270270356911,18.4236073928267,0.916782946913436,0.181939119489703,NA,0.394749034897562,18.0407206866189,1.11323643553774,0.185329289418083,0.256202784067252,0.263166023265041,18.6488348670667,0.785813954497231,0.170638553061771,0.0427004640112086,0.164478764540651,18.2659481608588,0.785813954497231,0.190979572632049,0.128101392033626,0.230270270356911,18.5136983825227,1.24420542795395,0.166118326490599,0.213502320056043
"34",0.197374517448781,18.2659481608588,1.50614341278636,0.175158779632944,0.213502320056043,0.427644787805692,18.5362211299467,1.30968992416205,0.160468043276633,0.0854009280224173,0.328957529081301,18.5587438773707,0.851298450705334,0.170638553061771,0.0854009280224173,0.427644787805692,18.5136983825227,0.916782946913436,0.168378439776185,0.0854009280224173,0.164478764540651,18.7164031093386,1.37517442037015,0.160468043276633,0.0427004640112086,0.296061776173171,18.6263121196427,0.785813954497231,0.171768609704565,NA,0.427644787805692,18.3335164031308,1.11323643553774,0.170638553061771,0.213502320056043,0.263166023265041,18.8740623413066,0.785813954497231,0.159337986633839,0.0427004640112086,0.197374517448781,18.4461301402507,0.720329458289129,0.18080906284691,0.170801856044835,0.361853281989432,18.6713576144907,1.17872093174585,0.157077873348253,0.128101392033626
"35",0.197374517448781,18.6263121196427,1.30968992416205,0.161598099919426,0.170801856044835,0.361853281989432,18.7614486041866,1.11323643553774,0.15594781670546,0.0427004640112086,0.328957529081301,18.6488348670667,0.982267443121539,0.163858213205012,0.0854009280224173,0.460540540713822,18.6938803619147,0.785813954497231,0.160468043276633,0.0854009280224173,0.131583011632521,18.9416305835786,1.30968992416205,0.151427590134287,0.0427004640112086,0.328957529081301,18.8515395938826,0.785813954497231,0.159337986633839,NA,0.460540540713822,18.6488348670667,1.04775193932964,0.15594781670546,0.170801856044835,0.230270270356911,19.0992898155465,0.785813954497231,0.149167476848701,0.0427004640112086,0.296061776173171,18.6263121196427,0.720329458289129,0.169508496418978,0.128101392033626,0.361853281989432,18.9191078361546,1.11323643553774,0.145777306920321,0.128101392033626
"36",0.197374517448781,18.8290168464586,1.24420542795395,0.15255764677708,0.170801856044835,0.460540540713822,18.8515395938826,1.11323643553774,0.148037420205908,0.0427004640112086,0.230270270356911,19.0091988258505,0.982267443121539,0.149167476848701,0.0854009280224173,0.394749034897562,18.9191078361546,0.785813954497231,0.150297533491494,0.128101392033626,0.0657915058162603,19.2794717949385,1.24420542795395,0.137866910420769,0.0427004640112086,0.328957529081301,19.0767670681225,0.654844962081026,0.150297533491494,NA,0.493436293621952,18.9416305835786,0.851298450705334,0.144647250277528,0.128101392033626,0.230270270356911,19.2794717949385,0.654844962081026,0.142387136991942,0.0427004640112086,0.296061776173171,18.7389258567626,0.785813954497231,0.163858213205012,0.0854009280224173,0.328957529081301,19.0767670681225,0.982267443121539,0.141257080349149,0.128101392033626
"37",0.197374517448781,19.0992898155465,1.24420542795395,0.141257080349149,0.0854009280224173,0.460540540713822,19.0992898155465,1.11323643553774,0.135606797135183,0.0427004640112086,0.197374517448781,19.1893808052425,0.916782946913436,0.142387136991942,0.0854009280224173,0.361853281989432,18.9866760784266,0.785813954497231,0.148037420205908,0.128101392033626,0.0657915058162603,19.5497447640264,1.04775193932964,0.12769640063563,0.0427004640112086,0.361853281989432,19.3245172897864,0.523875969664821,0.138996967063562,NA,0.559227799438213,19.1893808052425,0.720329458289129,0.132216627206803,0.128101392033626,0.296061776173171,19.3920855320584,0.654844962081026,0.135606797135183,NA,0.328957529081301,18.9866760784266,0.720329458289129,0.151427590134287,0.0854009280224173,0.361853281989432,19.4371310269064,0.982267443121539,0.123176174064458,0.0854009280224173
"38",0.296061776173171,19.6173130062983,1.17872093174585,0.113005664279319,0.0854009280224173,0.493436293621952,19.4821765217544,0.851298450705334,0.119786004136078,0.0427004640112086,0.197374517448781,19.6623585011463,0.851298450705334,0.119786004136078,0.0854009280224173,0.361853281989432,19.3695627846344,0.785813954497231,0.128826457278424,0.128101392033626,0.0986872587243904,20.0001997125062,0.982267443121539,0.105095267779767,0.0427004640112086,0.361853281989432,19.8650632279623,0.392906977248616,0.114135720922112,NA,0.592123552346343,19.5947902588744,0.720329458289129,0.110745550993733,0.128101392033626,0.230270270356911,19.9776769650822,0.589360465872923,0.109615494350939,NA,0.296061776173171,19.3920855320584,0.654844962081026,0.133346683849596,0.0854009280224173,0.361853281989432,19.5497447640264,1.04775193932964,0.116395834207699,0.0854009280224173
"39",0.296061776173171,19.8875859753863,1.17872093174585,0.0994449845658008,0.0854009280224173,0.592123552346343,19.6398357537223,0.851298450705334,0.108485437708146,0.0427004640112086,0.131583011632521,19.8425404805383,0.785813954497231,0.115265777564905,0.0427004640112086,0.361853281989432,19.6398357537223,0.851298450705334,0.114135720922112,0.128101392033626,0.131583011632521,20.1803816918982,1.04775193932964,0.0937947013518349,0.0427004640112086,0.394749034897562,20.3155181764421,0.458391473456718,0.0892744747806622,NA,0.559227799438213,20.0452452073542,0.785813954497231,0.0892744747806622,0.0854009280224173,0.197374517448781,20.3380409238661,0.589360465872923,0.0926646447090417,NA,0.296061776173171,19.6398357537223,0.720329458289129,0.119786004136078,0.0854009280224173,0.460540540713822,19.7974949856903,1.04775193932964,0.101705097851387,0.0427004640112086
"40",0.263166023265041,20.1353361970502,1.04775193932964,0.0904045314234554,0.0854009280224173,0.657915058162603,20.0001997125062,0.720329458289129,0.0915345880662485,NA,0.164478764540651,20.0452452073542,0.654844962081026,0.10622532442256,0.0427004640112086,0.394749034897562,19.9101087228102,0.851298450705334,0.100575041208594,0.0854009280224173,0.164478764540651,20.3605636712901,1.11323643553774,0.082494134923903,0.0427004640112086,0.427644787805692,20.4506546609861,0.458391473456718,0.0813640782811098,NA,0.592123552346343,20.3155181764421,0.785813954497231,0.0734536817815575,0.128101392033626,0.427644787805692,20.4506546609861,0.523875969664821,0.0802340216383167,NA,0.296061776173171,19.9101087228102,0.654844962081026,0.107355381065353,0.0854009280224173,0.394749034897562,20.1128134496262,0.982267443121539,0.0892744747806622,0.0427004640112086
"41",0.296061776173171,20.3380409238661,1.11323643553774,0.0791039649955235,0.0427004640112086,0.657915058162603,20.0452452073542,0.851298450705334,0.0858843048522826,0.0427004640112086,0.230270270356911,20.2704726815941,0.720329458289129,0.0915345880662485,0.0427004640112086,0.361853281989432,20.1578589444742,0.785813954497231,0.0892744747806622,0.128101392033626,0.197374517448781,20.563268398106,1.11323643553774,0.0700635118531779,0.0854009280224173,0.427644787805692,20.69840488265,0.392906977248616,0.0700635118531779,NA,0.559227799438213,20.608313892954,0.720329458289129,0.0610230587108324,0.128101392033626,0.460540540713822,20.608313892954,0.523875969664821,0.0700635118531779,0.0427004640112086,0.361853281989432,20.1353361970502,0.785813954497231,0.0937947013518349,NA,0.394749034897562,20.2929954290181,1.04775193932964,0.0791039649955235,0.0427004640112086
"42",0.361853281989432,20.495700155834,1.11323643553774,0.0689334552103847,0.0427004640112086,0.625019305254473,20.2029044393221,0.785813954497231,0.0791039649955235,0.0854009280224173,0.230270270356911,20.4731774084101,0.720329458289129,0.0813640782811098,0.0427004640112086,0.394749034897562,20.2704726815941,0.785813954497231,0.082494134923903,0.128101392033626,0.230270270356911,20.7884958723459,1.17872093174585,0.0565028321396596,0.0854009280224173,0.460540540713822,20.9011096094659,0.392906977248616,0.058762945425246,NA,0.526332046530082,20.7884958723459,0.654844962081026,0.05311266221128,0.170801856044835,0.493436293621952,20.765973124922,0.392906977248616,0.0621531153536256,0.0854009280224173,0.263166023265041,20.3380409238661,0.851298450705334,0.0847542482094894,0.0427004640112086,0.394749034897562,20.518222903258,0.785813954497231,0.0723236251387643,0.0427004640112086
"43",0.328957529081301,20.69840488265,1.04775193932964,0.0621531153536256,NA,0.592123552346343,20.4056091661381,0.785813954497231,0.0689334552103847,0.128101392033626,0.263166023265041,20.69840488265,0.654844962081026,0.0711935684959711,NA,0.394749034897562,20.4281319135621,0.785813954497231,0.0745837384243507,0.128101392033626,0.263166023265041,20.9236323568899,1.24420542795395,0.0485924356401073,0.0427004640112086,0.526332046530082,20.9236323568899,0.392906977248616,0.0553727754968664,NA,0.394749034897562,20.9686778517379,0.589360465872923,0.0519826055684868,0.0854009280224173,0.526332046530082,20.8785868620419,0.392906977248616,0.0553727754968664,0.0854009280224173,0.328957529081301,20.4281319135621,0.916782946913436,0.0768438517099371,0.0427004640112086,0.394749034897562,20.7884958723459,0.720329458289129,0.0598930020680392,0.0427004640112086
"44",0.296061776173171,20.9461551043139,0.916782946913436,0.05311266221128,NA,0.559227799438213,20.518222903258,0.785813954497231,0.064413228639212,0.128101392033626,0.328957529081301,20.765973124922,0.720329458289129,0.064413228639212,NA,0.427644787805692,20.4506546609861,0.851298450705334,0.0734536817815575,0.0427004640112086,0.263166023265041,21.1038143362818,1.17872093174585,0.0406820391405549,0.0427004640112086,0.427644787805692,21.1038143362818,0.458391473456718,0.0474623789973141,0.0427004640112086,0.361853281989432,21.0362460940099,0.523875969664821,0.0508525489256936,0.0854009280224173,0.493436293621952,21.1038143362818,0.458391473456718,0.0440722090689345,0.0854009280224173,0.296061776173171,20.720927630074,0.851298450705334,0.064413228639212,0.0427004640112086,0.296061776173171,20.9236323568899,0.654844962081026,0.0576328887824528,0.0427004640112086
"45",0.296061776173171,21.1038143362818,0.982267443121539,0.0440722090689345,NA,0.526332046530082,20.720927630074,0.785813954497231,0.0542427188540732,0.170801856044835,0.328957529081301,20.9236323568899,0.720329458289129,0.0565028321396596,NA,0.427644787805692,20.653359387802,0.916782946913436,0.0621531153536256,0.0427004640112086,0.361853281989432,21.2614735682498,0.982267443121539,0.0327716426410026,0.0427004640112086,0.427644787805692,21.1939053259778,0.458391473456718,0.0429421524261413,0.0427004640112086,0.328957529081301,21.1263370837058,0.589360465872923,0.0463323223545209,0.0854009280224173,0.526332046530082,21.1939053259778,0.458391473456718,0.0384219258549685,0.0854009280224173,0.197374517448781,20.9236323568899,0.851298450705334,0.0576328887824528,0.0427004640112086,0.263166023265041,21.1263370837058,0.523875969664821,0.0508525489256936,0.0427004640112086
"46",0.328957529081301,21.1488598311298,0.982267443121539,0.0406820391405549,NA,0.394749034897562,20.9011096094659,0.654844962081026,0.05311266221128,0.128101392033626,0.361853281989432,21.0362460940099,0.720329458289129,0.0497224922829005,NA,0.361853281989432,20.9011096094659,0.785813954497231,0.0542427188540732,0.0427004640112086,0.394749034897562,21.2839963156738,0.982267443121539,0.0305115293554162,0.0427004640112086,0.427644787805692,21.1939053259778,0.458391473456718,0.0429421524261413,0.0427004640112086,0.361853281989432,21.1488598311298,0.589360465872923,0.0440722090689345,0.0854009280224173,0.493436293621952,21.2839963156738,0.523875969664821,0.0339016992837958,0.0854009280224173,0.230270270356911,21.0362460940099,0.851298450705334,0.0508525489256936,0.0427004640112086,0.263166023265041,21.2164280734018,0.523875969664821,0.0463323223545209,0.0427004640112086
"47",0.328957529081301,21.1713825785538,1.04775193932964,0.0384219258549685,NA,0.460540540713822,20.8785868620419,0.720329458289129,0.0508525489256936,0.128101392033626,0.427644787805692,21.1713825785538,0.654844962081026,0.0418120957833481,NA,0.361853281989432,21.1038143362818,0.720329458289129,0.0452022657117277,0.0427004640112086,0.427644787805692,21.3515645579458,0.916782946913436,0.0271213594270366,0.0427004640112086,0.427644787805692,21.3515645579458,0.523875969664821,0.0327716426410026,0.0854009280224173,0.328957529081301,21.2164280734018,0.458391473456718,0.0463323223545209,NA,0.592123552346343,21.3515645579458,0.654844962081026,0.0248612461414502,0.0854009280224173,0.263166023265041,21.0812915888578,0.982267443121539,0.0452022657117277,0.0427004640112086,0.263166023265041,21.2164280734018,0.523875969664821,0.0463323223545209,0.0427004640112086
"48",0.263166023265041,21.2614735682498,1.04775193932964,0.0361618125693822,NA,0.460540540713822,20.9461551043139,0.785813954497231,0.0463323223545209,0.128101392033626,0.460540540713822,21.1713825785538,0.720329458289129,0.0395519824977617,NA,0.394749034897562,21.1939053259778,0.720329458289129,0.0395519824977617,0.0427004640112086,0.460540540713822,21.4191328002177,0.982267443121539,0.0226011328558638,NA,0.460540540713822,21.4416555476417,0.589360465872923,0.0259913027842434,0.0854009280224173,0.328957529081301,21.3065190630978,0.327422481040513,0.0440722090689345,NA,0.592123552346343,21.3966100527937,0.654844962081026,0.023731189498657,0.0427004640112086,0.263166023265041,21.1713825785538,0.982267443121539,0.0406820391405549,0.0427004640112086,0.263166023265041,21.2839963156738,0.589360465872923,0.0418120957833481,0.0427004640112086
"49",0.263166023265041,21.3065190630978,1.04775193932964,0.0339016992837958,NA,0.394749034897562,21.0362460940099,0.720329458289129,0.0452022657117277,0.128101392033626,0.559227799438213,21.1488598311298,0.654844962081026,0.0384219258549685,NA,0.460540540713822,21.1713825785538,0.785813954497231,0.0372918692121753,0.0427004640112086,0.427644787805692,21.4191328002177,1.04775193932964,0.0226011328558638,NA,0.394749034897562,21.4191328002177,0.589360465872923,0.0282514160698298,0.128101392033626,0.361853281989432,21.3290418105218,0.327422481040513,0.0418120957833481,NA,0.526332046530082,21.4416555476417,0.589360465872923,0.0226011328558638,0.128101392033626,0.328957529081301,21.2389508208258,0.851298450705334,0.0361618125693822,0.0854009280224173,0.197374517448781,21.3740873053698,0.589360465872923,0.0384219258549685,0.0854009280224173
"50",0.230270270356911,21.3740873053698,0.982267443121539,0.0305115293554162,0.0854009280224173,0.296061776173171,21.1038143362818,0.654844962081026,0.0452022657117277,0.170801856044835,0.493436293621952,21.2614735682498,0.589360465872923,0.035031755926589,0.0427004640112086,0.427644787805692,21.1488598311298,0.785813954497231,0.0384219258549685,0.0854009280224173,0.427644787805692,21.4641782950657,0.982267443121539,0.0203410195702775,0.0427004640112086,0.394749034897562,21.4641782950657,0.523875969664821,0.0271213594270366,0.128101392033626,0.296061776173171,21.3065190630978,0.392906977248616,0.0429421524261413,0.0427004640112086,0.427644787805692,21.4191328002177,0.589360465872923,0.0271213594270366,0.128101392033626,0.361853281989432,21.2614735682498,0.916782946913436,0.0327716426410026,0.0854009280224173,0.197374517448781,21.3740873053698,0.589360465872923,0.0384219258549685,0.0854009280224173
"51",0.197374517448781,21.4641782950657,0.982267443121539,0.0271213594270366,0.0854009280224173,0.263166023265041,21.1263370837058,0.654844962081026,0.0440722090689345,0.213502320056043,0.427644787805692,21.2389508208258,0.589360465872923,0.0384219258549685,0.0427004640112086,0.493436293621952,21.1263370837058,0.720329458289129,0.0384219258549685,0.0854009280224173,0.460540540713822,21.4641782950657,0.851298450705334,0.0214710762130707,0.0427004640112086,0.394749034897562,21.5092237899137,0.458391473456718,0.0271213594270366,0.0854009280224173,0.361853281989432,21.2614735682498,0.392906977248616,0.0440722090689345,NA,0.394749034897562,21.3966100527937,0.589360465872923,0.029381472712623,0.128101392033626,0.361853281989432,21.2839963156738,0.785813954497231,0.035031755926589,0.0427004640112086,0.164478764540651,21.3740873053698,0.589360465872923,0.0395519824977617,0.0854009280224173
"52",0.131583011632521,21.4867010424897,0.916782946913436,0.029381472712623,0.0854009280224173,0.296061776173171,21.1038143362818,0.589360465872923,0.0452022657117277,0.213502320056043,0.427644787805692,21.2614735682498,0.523875969664821,0.0384219258549685,0.0427004640112086,0.427644787805692,21.1488598311298,0.720329458289129,0.0406820391405549,0.0427004640112086,0.427644787805692,21.3966100527937,0.982267443121539,0.0226011328558638,0.0854009280224173,0.361853281989432,21.5092237899137,0.458391473456718,0.0282514160698298,0.0854009280224173,0.361853281989432,21.2839963156738,0.392906977248616,0.0429421524261413,NA,0.296061776173171,21.3515645579458,0.720329458289129,0.0305115293554162,0.213502320056043,0.394749034897562,21.2614735682498,0.851298450705334,0.0339016992837958,0.0427004640112086,0.197374517448781,21.3515645579458,0.720329458289129,0.0384219258549685,0.0427004640112086
"53",0.131583011632521,21.4416555476417,0.982267443121539,0.0305115293554162,0.0854009280224173,0.296061776173171,21.1263370837058,0.654844962081026,0.0429421524261413,0.213502320056043,0.427644787805692,21.2614735682498,0.589360465872923,0.0372918692121753,0.0427004640112086,0.394749034897562,21.2389508208258,0.654844962081026,0.0384219258549685,0.0427004640112086,0.361853281989432,21.3966100527937,0.982267443121539,0.023731189498657,0.128101392033626,0.296061776173171,21.5092237899137,0.392906977248616,0.0316415859982094,0.0854009280224173,0.361853281989432,21.3065190630978,0.327422481040513,0.0429421524261413,NA,0.296061776173171,21.3515645579458,0.720329458289129,0.0316415859982094,0.170801856044835,0.328957529081301,21.2614735682498,0.851298450705334,0.035031755926589,0.0854009280224173,0.263166023265041,21.3290418105218,0.654844962081026,0.0384219258549685,0.0427004640112086
"54",0.131583011632521,21.4867010424897,0.851298450705334,0.0305115293554162,0.0854009280224173,0.328957529081301,21.1713825785538,0.654844962081026,0.0406820391405549,0.170801856044835,0.427644787805692,21.2389508208258,0.654844962081026,0.0384219258549685,NA,0.328957529081301,21.2389508208258,0.720329458289129,0.0395519824977617,0.0427004640112086,0.361853281989432,21.4641782950657,0.851298450705334,0.0226011328558638,0.128101392033626,0.328957529081301,21.5542692847617,0.327422481040513,0.0316415859982094,NA,0.328957529081301,21.3515645579458,0.327422481040513,0.0418120957833481,NA,0.263166023265041,21.3740873053698,0.720329458289129,0.0305115293554162,0.213502320056043,0.361853281989432,21.2614735682498,0.785813954497231,0.035031755926589,0.0854009280224173,0.263166023265041,21.3740873053698,0.654844962081026,0.0361618125693822,0.0427004640112086
"55",0.164478764540651,21.4867010424897,0.851298450705334,0.029381472712623,0.0854009280224173,0.263166023265041,21.1713825785538,0.654844962081026,0.0429421524261413,0.170801856044835,0.460540540713822,21.2164280734018,0.654844962081026,0.0384219258549685,NA,0.394749034897562,21.1713825785538,0.720329458289129,0.0418120957833481,NA,0.263166023265041,21.4641782950657,0.851298450705334,0.0259913027842434,0.128101392033626,0.328957529081301,21.5317465373377,0.327422481040513,0.0327716426410026,NA,0.296061776173171,21.4191328002177,0.327422481040513,0.0395519824977617,NA,0.263166023265041,21.4191328002177,0.720329458289129,0.0282514160698298,0.213502320056043,0.361853281989432,21.2839963156738,0.785813954497231,0.0339016992837958,0.0854009280224173,0.263166023265041,21.4191328002177,0.589360465872923,0.035031755926589,0.0427004640112086
"56",0.197374517448781,21.4867010424897,0.785813954497231,0.029381472712623,0.0854009280224173,0.296061776173171,21.1713825785538,0.654844962081026,0.0440722090689345,0.0854009280224173,0.427644787805692,21.1939053259778,0.720329458289129,0.0384219258549685,0.0427004640112086,0.427644787805692,21.1263370837058,0.720329458289129,0.0418120957833481,0.0427004640112086,0.263166023265041,21.4867010424897,0.785813954497231,0.0271213594270366,0.0854009280224173,0.328957529081301,21.5317465373377,0.327422481040513,0.0327716426410026,NA,0.263166023265041,21.3740873053698,0.392906977248616,0.0418120957833481,NA,0.263166023265041,21.4641782950657,0.720329458289129,0.0259913027842434,0.213502320056043,0.394749034897562,21.3065190630978,0.785813954497231,0.0316415859982094,0.0854009280224173,0.328957529081301,21.3515645579458,0.589360465872923,0.0361618125693822,0.0427004640112086
"57",0.263166023265041,21.4641782950657,0.785813954497231,0.029381472712623,0.0427004640112086,0.263166023265041,21.1488598311298,0.720329458289129,0.0452022657117277,0.0854009280224173,0.328957529081301,21.1713825785538,0.720329458289129,0.0418120957833481,0.0854009280224173,0.460540540713822,21.1038143362818,0.720329458289129,0.0418120957833481,0.0427004640112086,0.296061776173171,21.4416555476417,0.785813954497231,0.029381472712623,0.0427004640112086,0.328957529081301,21.5092237899137,0.327422481040513,0.0339016992837958,NA,0.296061776173171,21.3290418105218,0.392906977248616,0.0429421524261413,NA,0.230270270356911,21.4867010424897,0.654844962081026,0.0305115293554162,0.0854009280224173,0.361853281989432,21.3966100527937,0.654844962081026,0.0316415859982094,0.0427004640112086,0.427644787805692,21.3290418105218,0.523875969664821,0.0361618125693822,NA
"58",0.263166023265041,21.4416555476417,0.785813954497231,0.029381472712623,0.0854009280224173,0.263166023265041,21.2389508208258,0.589360465872923,0.0429421524261413,0.0854009280224173,0.328957529081301,21.1488598311298,0.851298450705334,0.0406820391405549,0.0854009280224173,0.460540540713822,21.0362460940099,0.851298450705334,0.0429421524261413,0.0427004640112086,0.263166023265041,21.4191328002177,0.851298450705334,0.0305115293554162,0.0427004640112086,0.394749034897562,21.4191328002177,0.392906977248616,0.035031755926589,NA,0.361853281989432,21.2614735682498,0.392906977248616,0.0440722090689345,NA,0.263166023265041,21.5092237899137,0.523875969664821,0.0305115293554162,0.0854009280224173,0.361853281989432,21.4191328002177,0.589360465872923,0.0316415859982094,0.0427004640112086,0.427644787805692,21.3515645579458,0.523875969664821,0.035031755926589,NA
"59",0.263166023265041,21.4416555476417,0.785813954497231,0.029381472712623,0.0854009280224173,0.164478764540651,21.2839963156738,0.523875969664821,0.0418120957833481,0.213502320056043,0.263166023265041,21.2164280734018,0.851298450705334,0.0395519824977617,0.0854009280224173,0.394749034897562,21.0587688414339,0.916782946913436,0.0429421524261413,0.0427004640112086,0.263166023265041,21.4416555476417,0.851298450705334,0.029381472712623,0.0427004640112086,0.394749034897562,21.3966100527937,0.392906977248616,0.0361618125693822,NA,0.394749034897562,21.2164280734018,0.458391473456718,0.0440722090689345,NA,0.230270270356911,21.4867010424897,0.589360465872923,0.0327716426410026,0.0427004640112086,0.328957529081301,21.3966100527937,0.523875969664821,0.0361618125693822,NA,0.427644787805692,21.3966100527937,0.392906977248616,0.0339016992837958,0.0427004640112086
"60",0.230270270356911,21.4867010424897,0.654844962081026,0.0305115293554162,0.0854009280224173,0.197374517448781,21.2839963156738,0.523875969664821,0.0406820391405549,0.213502320056043,0.296061776173171,21.2164280734018,0.785813954497231,0.0395519824977617,0.0854009280224173,0.328957529081301,21.0362460940099,0.916782946913436,0.0463323223545209,0.0427004640112086,0.296061776173171,21.4191328002177,0.785813954497231,0.0305115293554162,0.0427004640112086,0.361853281989432,21.3966100527937,0.327422481040513,0.0372918692121753,0.0427004640112086,0.427644787805692,21.2164280734018,0.392906977248616,0.0429421524261413,0.0427004640112086,0.230270270356911,21.4416555476417,0.654844962081026,0.0339016992837958,0.0427004640112086,0.328957529081301,21.3515645579458,0.523875969664821,0.0384219258549685,NA,0.427644787805692,21.3966100527937,0.392906977248616,0.0327716426410026,0.0854009280224173
