"","Early1.ALL","Late1.CLS","Late1.OPN","Mid1.CLS","Mid1.OPN","Early1.ALL.1","Late1.CLS.1","Late1.OPN.1","Mid1.CLS.1","Mid1.OPN.1","Early1.ALL.2","Late1.CLS.2","Late1.OPN.2","Mid1.CLS.2","Mid1.OPN.2","Early1.ALL.3","Late1.CLS.3","Late1.OPN.3","Mid1.CLS.3","Mid1.OPN.3","Early1.ALL.4","Late1.CLS.4","Late1.OPN.4","Mid1.CLS.4","Mid1.OPN.4","Early1.ALL.5","Late1.CLS.5","Late1.OPN.5","Mid1.CLS.5","Mid1.OPN.5","Early1.ALL.6","Late1.CLS.6","Late1.OPN.6","Mid1.CLS.6","Mid1.OPN.6","Early1.ALL.7","Late1.CLS.7","Late1.OPN.7","Mid1.CLS.7","Mid1.OPN.7","Early1.ALL.8","Late1.CLS.8","Late1.OPN.8","Mid1.CLS.8","Mid1.OPN.8","Early1.ALL.9","Late1.CLS.9","Late1.OPN.9","Mid1.CLS.9","Mid1.OPN.9"
"0",0.644106157914829,0.0704946317284633,0.101097610754394,0,0.0199294960529597,0.589288612560376,0.0791823504273937,0.106630315820555,0,0.0167548860622227,0.623549578406909,0.0749626013450561,0.100594637566561,0,0.0181658238358836,0.705775896438588,0.0779412477561179,0.0925470665612365,0,0.0164021516188075,0.630401771576215,0.07322505760527,0.101600583942227,0,0.0169312532839303,0.678367123761362,0.0717357343997391,0.101097610754394,0,0.017107620505638,0.630401771576215,0.0707428522627185,0.10562436944489,0,0.0178130893924684,0.678367123761362,0.0767001450848422,0.104618423069224,0,0.017107620505638,0.733184669115815,0.0727286165367597,0.0955649056882334,0,0.0202822304963749,0.609845192068295,0.0737214986737803,0.10562436944489,0,0.017107620505638
"1",0.548175453544536,0.0717357343997391,0.10210355713006,0,0.0190476599444216,0.555027646713842,0.079678791495904,0.106630315820555,0,0.0151675810668543,0.520766680867309,0.0774448066876076,0.101097610754394,0,0.0176367221707608,0.637253964745522,0.0811681147014349,0.0935530129369021,0,0.0149912138451467,0.513914487698002,0.0752108218793112,0.103109503505726,0,0.0153439482885619,0.568732033052456,0.0739697192080355,0.10210355713006,0,0.0164021516188075,0.507062294528696,0.0714875138654839,0.10562436944489,0,0.0185185582792988,0.534471067205922,0.0791823504273937,0.105121396257057,0,0.0169312532839303,0.623549578406909,0.0747143808108009,0.0960678788760662,0,0.0199294960529597,0.541323260375229,0.0762037040163318,0.106127342632722,0,0.0167548860622227
"2",0.486505715020775,0.07322505760527,0.104618423069224,0,0.0164021516188075,0.479653521851469,0.0814163352356901,0.108139235384054,0,0.0141093777366086,0.486505715020775,0.0786859093588834,0.102606530317893,0,0.0165785188405151,0.534471067205922,0.082905658441221,0.0955649056882334,0,0.0142857449583162,0.445392556004935,0.0789341298931385,0.103109503505726,0,0.0148148466234391,0.438540362835629,0.076451924550587,0.103612476693558,0,0.0156966827319771,0.363166237973255,0.0737214986737803,0.107133289008388,0,0.0185185582792988,0.417983783327709,0.0806716736329246,0.10562436944489,0,0.017107620505638,0.541323260375229,0.0767001450848422,0.096570852063899,0,0.0192240271661292,0.465949135512855,0.0776930272218628,0.109648154947552,0,0.0149912138451467
"3",0.411131590158402,0.0747143808108009,0.10562436944489,0,0.0156966827319771,0.383722817481175,0.0841467611124968,0.109145181759719,0,0.0134039088497782,0.417983783327709,0.0794305709616488,0.102606530317893,0,0.0155203155102695,0.459096942343549,0.0866289664550483,0.0960678788760662,0,0.0137566432931934,0.376870624311868,0.0809198941671798,0.103109503505726,0,0.0135802760714858,0.390575010650482,0.0781894682903731,0.104115449881391,0,0.0141093777366086,0.274087726772268,0.076451924550587,0.108139235384054,0,0.0174603549490532,0.363166237973255,0.0821609968384555,0.107133289008388,0,0.0169312532839303,0.445392556004935,0.0786859093588834,0.0975767984395646,0,0.0185185582792988,0.376870624311868,0.0789341298931385,0.111157074511051,0,0.0141093777366086
"4",0.370018431142562,0.0762037040163318,0.107133289008388,0,0.013933010514901,0.356314044803948,0.0866289664550483,0.111157074511051,0,0.0118166038544097,0.328905272126721,0.0806716736329246,0.102606530317893,0,0.0151675810668543,0.390575010650482,0.0888629512633447,0.0975767984395646,0,0.0128748071846554,0.294644306280188,0.0821609968384555,0.105121396257057,0,0.0126984399629478,0.315200885788108,0.0816645557699452,0.104618423069224,0,0.0134039088497782,0.232974567756428,0.0779412477561179,0.108139235384054,0,0.0153439482885619,0.308348692618801,0.0843949816467519,0.107636262196221,0,0.0164021516188075,0.390575010650482,0.0811681147014349,0.0985827448152302,0,0.0165785188405151,0.349461851634642,0.0811681147014349,0.112163020886716,0,0.012169338297825
"5",0.294644306280188,0.0784376888246282,0.107133289008388,0,0.0116402366327021,0.322053078957415,0.0886147307290895,0.113168967262382,0,0.0107584005241641,0.253531147264348,0.0834020995097313,0.102606530317893,0,0.0151675810668543,0.356314044803948,0.0901040539346205,0.0980797716273974,0,0.0107584005241641,0.232974567756428,0.0843949816467519,0.105121396257057,0,0.0126984399629478,0.274087726772268,0.0836503200439865,0.10562436944489,0,0.0132275416280706,0.185009215571281,0.0804234530986695,0.108642208571886,0,0.0141093777366086,0.274087726772268,0.0863807459207932,0.107133289008388,0,0.0151675810668543,0.328905272126721,0.0836503200439865,0.099085718003063,0,0.013933010514901,0.274087726772268,0.0843949816467519,0.112665994074549,0,0.0109347677458717
"6",0.246678954095041,0.0838985405782416,0.101097610754394,0,0.0114638694109945,0.253531147264348,0.0928344798114272,0.10562436944489,0,0.00987656441562605,0.205565795079201,0.0883665101948344,0.0985827448152302,0,0.0153439482885619,0.294644306280188,0.0968060083595096,0.0890262542464068,0,0.0100529316373337,0.178157022401974,0.0923380387429169,0.096570852063899,0,0.0116402366327021,0.239826760925734,0.0888629512633447,0.100594637566561,0,0.012169338297825,0.150748249724747,0.0883665101948344,0.0995886911908958,0,0.0134039088497782,0.219270181417814,0.0908487155373859,0.10210355713006,0,0.0135802760714858,0.260383340433655,0.0891111717975999,0.0920440933734037,0,0.0128748071846554,0.219270181417814,0.0915933771401514,0.105121396257057,0,0.0088183610853804
"7",0.164452636063361,0.0908487155373859,0.096570852063899,0,0.0104056660807489,0.219270181417814,0.101273977976102,0.0940559861247349,0,0.00864199386367279,0.185009215571281,0.095813126222489,0.0895292274342396,0,0.0141093777366086,0.274087726772268,0.101025757441847,0.0839965223680787,0,0.00934746275050322,0.137043863386134,0.0970542288937648,0.0920440933734037,0,0.0109347677458717,0.171304829232667,0.0948202440854684,0.0950619325004005,0,0.0119929710761173,0.123339477047521,0.0940755824827029,0.0935530129369021,0,0.0123457055195326,0.143896056555441,0.0987917726335509,0.0925470665612365,0,0.012169338297825,0.205565795079201,0.0945720235512132,0.0870143614950755,0,0.0123457055195326,0.164452636063361,0.0980471110307854,0.0985827448152302,0,0.00864199386367279
"8",0.143896056555441,0.095813126222489,0.0925470665612365,0,0.00917109552879562,0.185009215571281,0.107479491332481,0.0860084151194099,0,0.00758379053342714,0.130191670216827,0.101025757441847,0.0819846296167474,0,0.0105820333024565,0.178157022401974,0.107975932400992,0.0754459781749209,0,0.0088183610853804,0.1027828975396,0.10499728598993,0.0844994955559115,0,0.0088183610853804,0.164452636063361,0.100777536907592,0.0870143614950755,0,0.0111111349675793,0.116487283878214,0.0997846547705715,0.088523281058574,0,0.00987656441562605,0.130191670216827,0.104004403852909,0.0860084151194099,0,0.00970019719391844,0.185009215571281,0.0995364342363163,0.080475710053249,0,0.0111111349675793,0.137043863386134,0.10499728598993,0.0900322006220724,0,0.00828925942025758
"9",0.109635090708907,0.103507962784399,0.0809786832410818,0,0.00740742331171954,0.164452636063361,0.116167210031412,0.0744400317992553,0,0.00599648553805867,0.1027828975396,0.106983050263971,0.0754459781749209,0,0.0102292988590413,0.130191670216827,0.11368500468886,0.0714221926722585,0,0.00846562664196518,0.0890785112009871,0.111451019880564,0.0769548977384193,0,0.00670195442488911,0.130191670216827,0.106238388661205,0.0819846296167474,0,0.00934746275050322,0.0890785112009871,0.106486609195461,0.0799727368654162,0,0.00758379053342714,0.0753741248623737,0.108720594003757,0.0799727368654162,0,0.00846562664196518,0.116487283878214,0.105741947592695,0.0744400317992553,0,0.00917109552879562,0.1027828975396,0.111451019880564,0.0839965223680787,0,0.00758379053342714
"10",0.1027828975396,0.110706358277798,0.0709192194844257,0,0.00546738387293585,0.143896056555441,0.12187628231928,0.0684043535452617,0,0.00511464942952063,0.0822263180316804,0.112195681483329,0.0689073267330945,0,0.00740742331171954,0.0890785112009871,0.120138738579494,0.064883541230432,0,0.00758379053342714,0.0548175453544536,0.118649415373963,0.0668954339817632,0,0.00599648553805867,0.0753741248623737,0.113436784154605,0.0739370586114225,0,0.00687832164659671,0.0822263180316804,0.115918989497157,0.0668954339817632,0,0.00564375109464346,0.0616697385237603,0.11318856362035,0.0754459781749209,0,0.0065255872031815,0.1027828975396,0.110954578812053,0.0673984071695961,0,0.00776015775513475,0.1027828975396,0.119890518045239,0.0729311122357569,0,0.00582011831635107
"11",0.068521931693067,0.116663651099922,0.0638775948547664,0,0.00405644609927498,0.116487283878214,0.126344251935873,0.0628716484791008,0,0.00388007887756738,0.0753741248623737,0.116911871634177,0.0643805680425992,0,0.00423281332098259,0.0616697385237603,0.124854928730342,0.0583448897886056,0,0.00493828220781302,0.0548175453544536,0.124358487661832,0.0588478629764384,0,0.00299824276902934,0.0548175453544536,0.118649415373963,0.0689073267330945,0,0.00458554776439781,0.068521931693067,0.120635179648004,0.0608597557277696,0,0.00352734443415216,0.0479653521851469,0.119394076976729,0.0684043535452617,0,0.00405644609927498,0.0959307043702938,0.115422548428646,0.0638775948547664,0,0.00529101665122824,0.068521931693067,0.125847810867363,0.0679013803574288,0,0.00458554776439781
"12",0.0548175453544536,0.122620943922046,0.0608597557277696,0,0.00423281332098259,0.0959307043702938,0.130812221552466,0.0578419166007728,0,0.00335097721244455,0.0753741248623737,0.122372723387791,0.0578419166007728,0,0.00405644609927498,0.0616697385237603,0.131556883155231,0.0502973187832807,0,0.00423281332098259,0.0479653521851469,0.131308662620976,0.0508002919711135,0,0.00246914110390651,0.0411131590158402,0.124110267127577,0.0618657021034352,0,0.00458554776439781,0.068521931693067,0.126592472470128,0.0538181310981103,0,0.00264550832561412,0.0479653521851469,0.124358487661832,0.062368675291268,0,0.00299824276902934,0.0616697385237603,0.122620943922046,0.0568359702251072,0,0.00476191498610542,0.068521931693067,0.131805103689486,0.0608597557277696,0,0.00423281332098259
"13",0.0274087726772268,0.127585354607149,0.0543211042859432,0,0.00370371165585977,0.0753741248623737,0.138010617045865,0.0487883992197823,0,0.00352734443415216,0.068521931693067,0.125599590333108,0.0538181310981103,0,0.00388007887756738,0.0548175453544536,0.13825883758012,0.0427527209657887,0,0.00335097721244455,0.0411131590158402,0.135031970634803,0.0447646137171199,0,0.00246914110390651,0.0342609658465335,0.127833575141404,0.05733894341294,0,0.00423281332098259,0.068521931693067,0.130315780483955,0.0492913724076151,0,0.0021164066604913,0.0479653521851469,0.130564001018211,0.0553270506616088,0,0.00282187554732173,0.0616697385237603,0.1300675599497,0.0482854260319495,0,0.00405644609927498,0.068521931693067,0.136769514374589,0.0553270506616088,0,0.00335097721244455
"14",0.0205565795079201,0.133542647429272,0.0502973187832807,0,0.0022927738821989,0.0822263180316804,0.143967909867989,0.0417467745901231,0,0.00370371165585977,0.0822263180316804,0.132053324223742,0.0482854260319495,0,0.00335097721244455,0.0616697385237603,0.147691217881816,0.034202176772631,0,0.00299824276902934,0.0411131590158402,0.141733925059693,0.0422497477779559,0,0.0022927738821989,0.0411131590158402,0.134783750100548,0.0492913724076151,0,0.00370371165585977,0.068521931693067,0.136521293840334,0.0432556941536215,0,0.00194003943878369,0.0479653521851469,0.137017734908845,0.0487883992197823,0,0.0022927738821989,0.068521931693067,0.137514175977355,0.0397348818387918,0,0.00423281332098259,0.0548175453544536,0.142230366128203,0.0487883992197823,0,0.00352734443415216
"15",0.0274087726772268,0.139251719717141,0.0457705600927855,0,0.0022927738821989,0.0890785112009871,0.147939438416071,0.0387289354631262,0,0.00282187554732173,0.0753741248623737,0.136521293840334,0.0457705600927855,0,0.00317460999073694,0.0479653521851469,0.151662746429899,0.0301783912699685,0,0.00264550832561412,0.0342609658465335,0.147691217881816,0.0372200158996278,0,0.00176367221707608,0.0411131590158402,0.140492822388417,0.0432556941536215,0,0.00194003943878369,0.0616697385237603,0.143719689333734,0.034202176772631,0,0.00141093777366086,0.0479653521851469,0.142726807196713,0.0427527209657887,0,0.00194003943878369,0.068521931693067,0.141237483991182,0.034202176772631,0,0.00370371165585977,0.0548175453544536,0.147194776813306,0.0427527209657887,0,0.00352734443415216
"16",0.0411131590158402,0.143719689333734,0.0397348818387918,0,0.0021164066604913,0.068521931693067,0.155634274977981,0.0306813644578013,0,0.0022927738821989,0.068521931693067,0.144712571470754,0.0347051499604638,0,0.00264550832561412,0.0479653521851469,0.156627157115002,0.0226337934524764,0,0.00246914110390651,0.0411131590158402,0.15414495177245,0.0291724448943029,0,0.00158730499536847,0.0479653521851469,0.147691217881816,0.0321902840212997,0,0.00194003943878369,0.0616697385237603,0.150421643758623,0.0251486593916404,0,0.00141093777366086,0.0411131590158402,0.14595367414203,0.0377229890874606,0,0.00176367221707608,0.0753741248623737,0.146946556279051,0.0266575789551388,0,0.00317460999073694,0.0616697385237603,0.154393172306705,0.0336992035847981,0,0.00335097721244455
"17",0.0479653521851469,0.147939438416071,0.036717042711795,0,0.00158730499536847,0.0548175453544536,0.159854024060319,0.0301783912699685,0,0.00141093777366086,0.0616697385237603,0.147442997347561,0.0331962303969653,0,0.00176367221707608,0.0479653521851469,0.159109362457553,0.0211248738889779,0,0.0021164066604913,0.0479653521851469,0.158612921389043,0.0271605521429716,0,0.00158730499536847,0.0342609658465335,0.151166305361388,0.0306813644578013,0,0.00158730499536847,0.0548175453544536,0.15414495177245,0.023639739828142,0,0.00105820333024565,0.0274087726772268,0.148684100018837,0.0352081231482966,0,0.00158730499536847,0.0753741248623737,0.150421643758623,0.023639739828142,0,0.00282187554732173,0.0616697385237603,0.157123598183512,0.0321902840212997,0,0.00317460999073694
"18",0.0548175453544536,0.150669864292878,0.034202176772631,0,0.00123457055195326,0.0479653521851469,0.162584449937125,0.0281664985186373,0,0.00123457055195326,0.0753741248623737,0.150669864292878,0.0301783912699685,0,0.00158730499536847,0.0479653521851469,0.161343347265849,0.0206219007011451,0,0.00194003943878369,0.0479653521851469,0.161591567800105,0.026154605767306,0,0.00105820333024565,0.0342609658465335,0.155137833909471,0.0281664985186373,0,0.00141093777366086,0.0411131590158402,0.157371818717767,0.0211248738889779,0,0.00088183610853804,0.0342609658465335,0.154393172306705,0.0321902840212997,0,0.00141093777366086,0.068521931693067,0.153896731238195,0.0216278470768107,0,0.00299824276902934,0.0753741248623737,0.159109362457553,0.0301783912699685,0,0.00264550832561412
"19",0.0479653521851469,0.155386054443726,0.0316873108334669,0,0.00105820333024565,0.0479653521851469,0.164818434745421,0.026154605767306,0,0.00105820333024565,0.0822263180316804,0.15364851070394,0.0286694717064701,0,0.00141093777366086,0.0616697385237603,0.163825552608401,0.0196159543254795,0,0.00158730499536847,0.0548175453544536,0.163825552608401,0.0256516325794732,0,0.00105820333024565,0.0342609658465335,0.159109362457553,0.0246456862038076,0,0.00123457055195326,0.0548175453544536,0.159357582991808,0.0206219007011451,0,0.000705468886830432,0.0205565795079201,0.156627157115002,0.0296754180821357,0,0.00158730499536847,0.0822263180316804,0.155386054443726,0.0191129811376467,0,0.00282187554732173,0.0822263180316804,0.162088008868615,0.0291724448943029,0,0.00246914110390651
"20",0.0479653521851469,0.159605803526063,0.0296754180821357,0,0.00088183610853804,0.0548175453544536,0.167548860622228,0.0241427130159748,0,0.00123457055195326,0.0822263180316804,0.157868259786277,0.0256516325794732,0,0.00141093777366086,0.0616697385237603,0.166804199019462,0.0196159543254795,0,0.00088183610853804,0.0548175453544536,0.166555978485207,0.023639739828142,0,0.00088183610853804,0.0342609658465335,0.162088008868615,0.023639739828142,0,0.000705468886830432,0.0616697385237603,0.16332911153989,0.0191129811376467,0,0.00088183610853804,0.0137043863386134,0.161095126731594,0.0266575789551388,0,0.00141093777366086,0.068521931693067,0.160846906197339,0.0171010883863155,0,0.00264550832561412,0.0753741248623737,0.165563096348187,0.0251486593916404,0,0.0022927738821989
"21",0.068521931693067,0.16332911153989,0.0271605521429716,0,0.000705468886830432,0.0479653521851469,0.170775727567545,0.0231367666403092,0,0.000705468886830432,0.0890785112009871,0.163080891005635,0.0231367666403092,0,0.00141093777366086,0.0548175453544536,0.170031065964779,0.0196159543254795,0,0.000705468886830432,0.0616697385237603,0.1710239481018,0.0226337934524764,0,0.000705468886830432,0.0342609658465335,0.165811316882442,0.0206219007011451,0,0.000705468886830432,0.0616697385237603,0.166804199019462,0.0186100079498139,0,0.00088183610853804,0.0205565795079201,0.165563096348187,0.0231367666403092,0,0.00123457055195326,0.0616697385237603,0.164570214211166,0.0165981151984827,0,0.00194003943878369,0.068521931693067,0.170279286499034,0.0226337934524764,0,0.00176367221707608
"22",0.068521931693067,0.166804199019462,0.026154605767306,0,0.000352734443415216,0.0479653521851469,0.174002594512861,0.0201189275133123,0,0.00088183610853804,0.0753741248623737,0.167300640087973,0.0186100079498139,0,0.00088183610853804,0.0548175453544536,0.173009712375841,0.0165981151984827,0,0.000529101665122824,0.0548175453544536,0.173506153444351,0.0221308202646436,0,0.000705468886830432,0.0342609658465335,0.168045301690738,0.0196159543254795,0,0.000529101665122824,0.0548175453544536,0.169534624896269,0.0186100079498139,0,0.00088183610853804,0.0205565795079201,0.168045301690738,0.0231367666403092,0,0.00141093777366086,0.0753741248623737,0.167548860622228,0.0150891956349842,0,0.00141093777366086,0.0616697385237603,0.174002594512861,0.0196159543254795,0,0.00158730499536847
"23",0.0753741248623737,0.17152038917031,0.0231367666403092,0,0.000529101665122824,0.0479653521851469,0.176981240923923,0.0181070347619811,0,0.00105820333024565,0.0753741248623737,0.17152038917031,0.0160951420106499,0,0.000705468886830432,0.0753741248623737,0.176733020389668,0.0145862224471514,0,0.000529101665122824,0.0479653521851469,0.176981240923923,0.0216278470768107,0,0.000529101665122824,0.0342609658465335,0.17152038917031,0.0176040615741483,0,0.000176367221707608,0.0479653521851469,0.172265050773075,0.0171010883863155,0,0.00141093777366086,0.0205565795079201,0.170775727567545,0.0221308202646436,0,0.00105820333024565,0.0753741248623737,0.171272168636055,0.0145862224471514,0,0.00141093777366086,0.068521931693067,0.176981240923923,0.0181070347619811,0,0.00141093777366086
"24",0.0753741248623737,0.173754373978606,0.023639739828142,0,0.000352734443415216,0.0479653521851469,0.179215225732219,0.0165981151984827,0,0.00105820333024565,0.0616697385237603,0.174499035581372,0.0145862224471514,0,0.00088183610853804,0.068521931693067,0.182690313211791,0.0115683833201546,0,0.000529101665122824,0.0479653521851469,0.181945651609026,0.0191129811376467,0,0.000352734443415216,0.0274087726772268,0.174499035581372,0.0160951420106499,0,0.000176367221707608,0.0548175453544536,0.174250815047116,0.0160951420106499,0,0.00158730499536847,0.0274087726772268,0.175243697184137,0.0155921688228171,0,0.00088183610853804,0.0753741248623737,0.175491917718392,0.0120713565079874,0,0.00141093777366086,0.068521931693067,0.18070454893775,0.0155921688228171,0,0.00123457055195326
"25",0.068521931693067,0.177725902526688,0.0211248738889779,0,0.000529101665122824,0.068521931693067,0.18070454893775,0.0165981151984827,0,0.000705468886830432,0.0616697385237603,0.177974123060944,0.0125743296958202,0,0.000529101665122824,0.068521931693067,0.185172518554343,0.00955649056882335,0,0.000529101665122824,0.0548175453544536,0.184676077485832,0.0165981151984827,0,0.000352734443415216,0.0342609658465335,0.176981240923923,0.013077302883653,0,NA,0.0548175453544536,0.176981240923923,0.0140832492593186,0,0.00158730499536847,0.0342609658465335,0.178967005197964,0.0140832492593186,0,0.00088183610853804,0.068521931693067,0.17971166680073,0.00955649056882335,0,0.00141093777366086,0.068521931693067,0.182938533746046,0.0150891956349842,0,0.000705468886830432
"26",0.068521931693067,0.18120099000626,0.0186100079498139,0,0.000705468886830432,0.0753741248623737,0.184427856951577,0.0145862224471514,0,0.000529101665122824,0.0822263180316804,0.18120099000626,0.0110654101323218,0,0.000529101665122824,0.0753741248623737,0.188399385499659,0.00804757100532493,0,0.000352734443415216,0.0548175453544536,0.186413621225618,0.0160951420106499,0,0.000352734443415216,0.0342609658465335,0.17971166680073,0.0120713565079874,0,NA,0.0479653521851469,0.179215225732219,0.013077302883653,0,0.00176367221707608,0.0411131590158402,0.183186754280301,0.0125743296958202,0,0.000705468886830432,0.0548175453544536,0.182938533746046,0.0100594637566562,0,0.00105820333024565,0.0753741248623737,0.185420739088598,0.0135802760714858,0,0.000529101665122824
"27",0.0753741248623737,0.185172518554343,0.0165981151984827,0,0.000705468886830432,0.0753741248623737,0.187158282828384,0.0135802760714858,0,0.000529101665122824,0.0822263180316804,0.182690313211791,0.010562436944489,0,0.000705468886830432,0.0890785112009871,0.191129811376466,0.00804757100532493,0,0.000352734443415216,0.0479653521851469,0.188399385499659,0.0150891956349842,0,NA,0.0274087726772268,0.184676077485832,0.0110654101323218,0,0.000176367221707608,0.0548175453544536,0.182690313211791,0.0125743296958202,0,0.00141093777366086,0.0479653521851469,0.185420739088598,0.0120713565079874,0,0.000705468886830432,0.0548175453544536,0.185420739088598,0.0100594637566562,0,0.000705468886830432,0.0753741248623737,0.187406503362639,0.0135802760714858,0,0.000352734443415216
"28",0.0548175453544536,0.188399385499659,0.0140832492593186,0,0.000705468886830432,0.0753741248623737,0.18988870870519,0.0135802760714858,0,0.000529101665122824,0.0753741248623737,0.185420739088598,0.0100594637566562,0,0.000705468886830432,0.0890785112009871,0.192867355116252,0.00855054419315774,0,0.000529101665122824,0.0411131590158402,0.1903851497737,0.0150891956349842,0,NA,0.0342609658465335,0.18889582656817,0.0100594637566562,0,0.000176367221707608,0.0616697385237603,0.185172518554343,0.0120713565079874,0,0.00158730499536847,0.0479653521851469,0.189640488170935,0.00855054419315774,0,0.000529101665122824,0.0548175453544536,0.186413621225618,0.00905351738099055,0,0.00088183610853804,0.0753741248623737,0.190881590842211,0.0115683833201546,0,0.000529101665122824
"29",0.0479653521851469,0.191626252444976,0.013077302883653,0,0.00105820333024565,0.0822263180316804,0.193363796184762,0.0120713565079874,0,0.000529101665122824,0.0822263180316804,0.187406503362639,0.00905351738099055,0,0.000176367221707608,0.0822263180316804,0.196590663130079,0.00704162462965931,0,0.000705468886830432,0.0411131590158402,0.192619134581997,0.0150891956349842,0,NA,0.0342609658465335,0.191129811376466,0.00905351738099055,0,0.000176367221707608,0.0753741248623737,0.187902944431149,0.0110654101323218,0,0.00123457055195326,0.0616697385237603,0.193115575650507,0.00754459781749212,0,0.000529101665122824,0.0479653521851469,0.189144047102425,0.00855054419315774,0,0.000705468886830432,0.0548175453544536,0.193860237253272,0.010562436944489,0,0.00088183610853804
"30",0.0479653521851469,0.193115575650507,0.0125743296958202,0,0.00105820333024565,0.068521931693067,0.196590663130079,0.010562436944489,0,0.000529101665122824,0.0822263180316804,0.18988870870519,0.00855054419315774,0,0.000176367221707608,0.0822263180316804,0.198824647938375,0.0065386514418265,0,0.000529101665122824,0.0411131590158402,0.195101339924548,0.0150891956349842,0,NA,0.0274087726772268,0.194853119390293,0.00754459781749212,0,0.000176367221707608,0.0822263180316804,0.189640488170935,0.0100594637566562,0,0.00105820333024565,0.0616697385237603,0.195349560458803,0.0065386514418265,0,0.000529101665122824,0.0548175453544536,0.192122693513486,0.00804757100532493,0,0.000529101665122824,0.0479653521851469,0.196590663130079,0.0100594637566562,0,0.00123457055195326
"31",0.0342609658465335,0.196590663130079,0.0125743296958202,0,0.00088183610853804,0.0753741248623737,0.198328206869865,0.010562436944489,0,0.000529101665122824,0.068521931693067,0.192370914047741,0.00855054419315774,0,0.000352734443415216,0.0822263180316804,0.19956930954114,0.00754459781749212,0,0.000352734443415216,0.0274087726772268,0.197831765801355,0.013077302883653,0,0.000176367221707608,0.0274087726772268,0.196342442595824,0.00754459781749212,0,NA,0.068521931693067,0.194356678321783,0.00955649056882335,0,0.00141093777366086,0.0548175453544536,0.19956930954114,0.0065386514418265,0,0.000529101665122824,0.0411131590158402,0.195846001527313,0.00704162462965931,0,0.000529101665122824,0.0479653521851469,0.19807998633561,0.010562436944489,0,0.00123457055195326
"32",0.0411131590158402,0.198824647938375,0.0115683833201546,0,0.00088183610853804,0.0753741248623737,0.200810412212416,0.0100594637566562,0,0.000529101665122824,0.068521931693067,0.196838883664334,0.00754459781749212,0,0.000352734443415216,0.0822263180316804,0.201058632746671,0.00754459781749212,0,0.000352734443415216,0.0274087726772268,0.200562191678161,0.0125743296958202,0,NA,0.0342609658465335,0.19857642740412,0.00754459781749212,0,NA,0.068521931693067,0.197087104198589,0.00804757100532493,0,0.00141093777366086,0.0548175453544536,0.202547955952202,0.0065386514418265,0,0.000352734443415216,0.0479653521851469,0.198824647938375,0.0060356782539937,0,0.000529101665122824,0.0479653521851469,0.201555073815182,0.010562436944489,0,0.00105820333024565
"33",0.0411131590158402,0.200065750609651,0.0110654101323218,0,0.00105820333024565,0.0890785112009871,0.202547955952202,0.00955649056882335,0,0.000352734443415216,0.068521931693067,0.201555073815182,0.00754459781749212,0,0.000176367221707608,0.068521931693067,0.202051514883692,0.00754459781749212,0,0.000352734443415216,0.0342609658465335,0.203540838089223,0.0115683833201546,0,NA,0.0479653521851469,0.203044397020712,0.00704162462965931,0,NA,0.0822263180316804,0.198824647938375,0.00855054419315774,0,0.00105820333024565,0.0548175453544536,0.205526602363264,0.0060356782539937,0,0.000176367221707608,0.0342609658465335,0.201306853280926,0.0060356782539937,0,0.000529101665122824,0.0479653521851469,0.204037279157733,0.00955649056882335,0,0.00088183610853804
"34",0.0411131590158402,0.201306853280926,0.0115683833201546,0,0.00088183610853804,0.0890785112009871,0.204285499691988,0.0100594637566562,0,0.000352734443415216,0.068521931693067,0.204533720226243,0.0065386514418265,0,0.000352734443415216,0.0890785112009871,0.204037279157733,0.00704162462965931,0,0.000352734443415216,0.0342609658465335,0.206271263966029,0.010562436944489,0,0.000176367221707608,0.0616697385237603,0.205278381829009,0.0060356782539937,0,NA,0.0890785112009871,0.202051514883692,0.00855054419315774,0,0.00088183610853804,0.0548175453544536,0.208008807705815,0.0060356782539937,0,0.000176367221707608,0.0411131590158402,0.203292617554967,0.00553270506616089,0,0.000705468886830432,0.0753741248623737,0.205774822897519,0.00905351738099055,0,0.000529101665122824
"35",0.0411131590158402,0.205278381829009,0.0100594637566562,0,0.000705468886830432,0.0753741248623737,0.206767705034539,0.00855054419315774,0,0.000176367221707608,0.068521931693067,0.205526602363264,0.00754459781749212,0,0.000352734443415216,0.0959307043702938,0.206023043431774,0.0060356782539937,0,0.000352734443415216,0.0274087726772268,0.208753469308581,0.0100594637566562,0,0.000176367221707608,0.068521931693067,0.20776058717156,0.0060356782539937,0,NA,0.0959307043702938,0.205526602363264,0.00804757100532493,0,0.000705468886830432,0.0479653521851469,0.210491013048366,0.0060356782539937,0,0.000176367221707608,0.0616697385237603,0.205278381829009,0.00553270506616089,0,0.000529101665122824,0.0753741248623737,0.208505248774325,0.00855054419315774,0,0.000529101665122824
"36",0.0411131590158402,0.207512366637305,0.00955649056882335,0,0.000705468886830432,0.0959307043702938,0.20776058717156,0.00855054419315774,0,0.000176367221707608,0.0479653521851469,0.209498130911346,0.00754459781749212,0,0.000352734443415216,0.0822263180316804,0.208505248774325,0.0060356782539937,0,0.000529101665122824,0.0137043863386134,0.212476777322408,0.00955649056882335,0,0.000176367221707608,0.068521931693067,0.210242792514111,0.00502973187832808,0,NA,0.1027828975396,0.208753469308581,0.0065386514418265,0,0.000529101665122824,0.0479653521851469,0.212476777322408,0.00502973187832808,0,0.000176367221707608,0.0616697385237603,0.206519484500284,0.0060356782539937,0,0.000352734443415216,0.068521931693067,0.210242792514111,0.00754459781749212,0,0.000529101665122824
"37",0.0411131590158402,0.210491013048366,0.00955649056882335,0,0.000352734443415216,0.0959307043702938,0.210491013048366,0.00855054419315774,0,0.000176367221707608,0.0411131590158402,0.211483895185387,0.00704162462965931,0,0.000352734443415216,0.0753741248623737,0.209249910377091,0.0060356782539937,0,0.000529101665122824,0.0137043863386134,0.215455423733469,0.00804757100532493,0,0.000176367221707608,0.0753741248623737,0.212973218390918,0.00402378550266246,0,NA,0.116487283878214,0.211483895185387,0.00553270506616089,0,0.000529101665122824,0.0616697385237603,0.213717879993683,0.00502973187832808,0,NA,0.068521931693067,0.209249910377091,0.00553270506616089,0,0.000352734443415216,0.0753741248623737,0.214214321062194,0.00754459781749212,0,0.000352734443415216
"38",0.0616697385237603,0.216200085336235,0.00905351738099055,0,0.000352734443415216,0.1027828975396,0.214710762130704,0.0065386514418265,0,0.000176367221707608,0.0411131590158402,0.216696526404745,0.0065386514418265,0,0.000352734443415216,0.0753741248623737,0.213469659459428,0.0060356782539937,0,0.000529101665122824,0.0205565795079201,0.220419834418572,0.00754459781749212,0,0.000176367221707608,0.0753741248623737,0.218930511213041,0.00301783912699685,0,NA,0.123339477047521,0.21595186480198,0.00553270506616089,0,0.000529101665122824,0.0479653521851469,0.220171613884317,0.00452675869049527,0,NA,0.0616697385237603,0.213717879993683,0.00502973187832808,0,0.000352734443415216,0.0753741248623737,0.215455423733469,0.00804757100532493,0,0.000352734443415216
"39",0.0616697385237603,0.219178731747296,0.00905351738099055,0,0.000352734443415216,0.123339477047521,0.21644830587049,0.0065386514418265,0,0.000176367221707608,0.0274087726772268,0.218682290678786,0.0060356782539937,0,0.000176367221707608,0.0753741248623737,0.21644830587049,0.0065386514418265,0,0.000529101665122824,0.0274087726772268,0.222405598692613,0.00804757100532493,0,0.000176367221707608,0.0822263180316804,0.223894921898144,0.00352081231482966,0,NA,0.116487283878214,0.220916275487082,0.0060356782539937,0,0.000352734443415216,0.0411131590158402,0.224143142432399,0.00452675869049527,0,NA,0.0616697385237603,0.21644830587049,0.00553270506616089,0,0.000352734443415216,0.0959307043702938,0.218185849610276,0.00804757100532493,0,0.000176367221707608
"40",0.0548175453544536,0.221909157624103,0.00804757100532493,0,0.000352734443415216,0.137043863386134,0.220419834418572,0.00553270506616089,0,NA,0.0342609658465335,0.220916275487082,0.00502973187832808,0,0.000176367221707608,0.0822263180316804,0.219426952281551,0.0065386514418265,0,0.000352734443415216,0.0342609658465335,0.224391362966654,0.00855054419315774,0,0.000176367221707608,0.0890785112009871,0.225384245103675,0.00352081231482966,0,NA,0.123339477047521,0.223894921898144,0.0060356782539937,0,0.000529101665122824,0.0890785112009871,0.225384245103675,0.00402378550266246,0,NA,0.0616697385237603,0.219426952281551,0.00502973187832808,0,0.000352734443415216,0.0822263180316804,0.221660937089848,0.00754459781749212,0,0.000176367221707608
"41",0.0616697385237603,0.224143142432399,0.00855054419315774,0,0.000176367221707608,0.137043863386134,0.220916275487082,0.0065386514418265,0,0.000176367221707608,0.0479653521851469,0.223398480829634,0.00553270506616089,0,0.000176367221707608,0.0753741248623737,0.222157378158358,0.0060356782539937,0,0.000529101665122824,0.0411131590158402,0.22662534777495,0.00855054419315774,0,0.000352734443415216,0.0890785112009871,0.228114670980481,0.00301783912699685,0,NA,0.116487283878214,0.227121788843461,0.00553270506616089,0,0.000529101665122824,0.0959307043702938,0.227121788843461,0.00402378550266246,0,0.000176367221707608,0.0753741248623737,0.221909157624103,0.0060356782539937,0,NA,0.0822263180316804,0.223646701363889,0.00804757100532493,0,0.000176367221707608
"42",0.0753741248623737,0.225880686172185,0.00855054419315774,0,0.000176367221707608,0.130191670216827,0.222653819226868,0.0060356782539937,0,0.000352734443415216,0.0479653521851469,0.22563246563793,0.00553270506616089,0,0.000176367221707608,0.0822263180316804,0.223398480829634,0.0060356782539937,0,0.000529101665122824,0.0479653521851469,0.229107553117502,0.00905351738099055,0,0.000352734443415216,0.0959307043702938,0.230348655788777,0.00301783912699685,0,NA,0.109635090708907,0.229107553117502,0.00502973187832808,0,0.000705468886830432,0.1027828975396,0.228859332583247,0.00301783912699685,0,0.000352734443415216,0.0548175453544536,0.224143142432399,0.0065386514418265,0,0.000176367221707608,0.0822263180316804,0.22612890670644,0.0060356782539937,0,0.000176367221707608
"43",0.068521931693067,0.228114670980481,0.00804757100532493,0,NA,0.123339477047521,0.224887804035164,0.0060356782539937,0,0.000529101665122824,0.0548175453544536,0.228114670980481,0.00502973187832808,0,NA,0.0822263180316804,0.22513602456942,0.0060356782539937,0,0.000529101665122824,0.0548175453544536,0.230596876323033,0.00955649056882335,0,0.000176367221707608,0.109635090708907,0.230596876323033,0.00301783912699685,0,NA,0.0822263180316804,0.231093317391543,0.00452675869049527,0,0.000352734443415216,0.109635090708907,0.230100435254522,0.00301783912699685,0,0.000352734443415216,0.068521931693067,0.22513602456942,0.00704162462965931,0,0.000176367221707608,0.0822263180316804,0.229107553117502,0.00553270506616089,0,0.000176367221707608
"44",0.0616697385237603,0.230845096857288,0.00704162462965931,0,NA,0.116487283878214,0.22612890670644,0.0060356782539937,0,0.000529101665122824,0.068521931693067,0.228859332583247,0.00553270506616089,0,NA,0.0890785112009871,0.225384245103675,0.0065386514418265,0,0.000176367221707608,0.0548175453544536,0.232582640597074,0.00905351738099055,0,0.000176367221707608,0.0890785112009871,0.232582640597074,0.00352081231482966,0,0.000176367221707608,0.0753741248623737,0.231837978994308,0.00402378550266246,0,0.000352734443415216,0.1027828975396,0.232582640597074,0.00352081231482966,0,0.000352734443415216,0.0616697385237603,0.228362891514736,0.0065386514418265,0,0.000176367221707608,0.0616697385237603,0.230596876323033,0.00502973187832808,0,0.000176367221707608
"45",0.0616697385237603,0.232582640597074,0.00754459781749212,0,NA,0.109635090708907,0.228362891514736,0.0060356782539937,0,0.000705468886830432,0.068521931693067,0.230596876323033,0.00553270506616089,0,NA,0.0890785112009871,0.227618229911971,0.00704162462965931,0,0.000176367221707608,0.0753741248623737,0.23432018433686,0.00754459781749212,0,0.000176367221707608,0.0890785112009871,0.233575522734094,0.00352081231482966,0,0.000176367221707608,0.068521931693067,0.232830861131329,0.00452675869049527,0,0.000352734443415216,0.109635090708907,0.233575522734094,0.00352081231482966,0,0.000352734443415216,0.0411131590158402,0.230596876323033,0.0065386514418265,0,0.000176367221707608,0.0548175453544536,0.232830861131329,0.00402378550266246,0,0.000176367221707608
"46",0.068521931693067,0.233079081665584,0.00754459781749212,0,NA,0.0822263180316804,0.230348655788777,0.00502973187832808,0,0.000529101665122824,0.0753741248623737,0.231837978994308,0.00553270506616089,0,NA,0.0753741248623737,0.230348655788777,0.0060356782539937,0,0.000176367221707608,0.0822263180316804,0.234568404871115,0.00754459781749212,0,0.000176367221707608,0.0890785112009871,0.233575522734094,0.00352081231482966,0,0.000176367221707608,0.0753741248623737,0.233079081665584,0.00452675869049527,0,0.000352734443415216,0.1027828975396,0.234568404871115,0.00402378550266246,0,0.000352734443415216,0.0479653521851469,0.231837978994308,0.0065386514418265,0,0.000176367221707608,0.0548175453544536,0.233823743268349,0.00402378550266246,0,0.000176367221707608
"47",0.068521931693067,0.233327302199839,0.00804757100532493,0,NA,0.0959307043702938,0.230100435254522,0.00553270506616089,0,0.000529101665122824,0.0890785112009871,0.233327302199839,0.00502973187832808,0,NA,0.0753741248623737,0.232582640597074,0.00553270506616089,0,0.000176367221707608,0.0890785112009871,0.23531306647388,0.00704162462965931,0,0.000176367221707608,0.0890785112009871,0.23531306647388,0.00402378550266246,0,0.000352734443415216,0.068521931693067,0.233823743268349,0.00352081231482966,0,NA,0.123339477047521,0.23531306647388,0.00502973187832808,0,0.000352734443415216,0.0548175453544536,0.232334420062819,0.00754459781749212,0,0.000176367221707608,0.0548175453544536,0.233823743268349,0.00402378550266246,0,0.000176367221707608
"48",0.0548175453544536,0.23432018433686,0.00804757100532493,0,NA,0.0959307043702938,0.230845096857288,0.0060356782539937,0,0.000529101665122824,0.0959307043702938,0.233327302199839,0.00553270506616089,0,NA,0.0822263180316804,0.233575522734094,0.00553270506616089,0,0.000176367221707608,0.0959307043702938,0.236057728076646,0.00754459781749212,0,NA,0.0959307043702938,0.236305948610901,0.00452675869049527,0,0.000352734443415216,0.068521931693067,0.23481662540537,0.00251486593916404,0,NA,0.123339477047521,0.23580950754239,0.00502973187832808,0,0.000176367221707608,0.0548175453544536,0.233327302199839,0.00754459781749212,0,0.000176367221707608,0.0548175453544536,0.234568404871115,0.00452675869049527,0,0.000176367221707608
"49",0.0548175453544536,0.23481662540537,0.00804757100532493,0,NA,0.0822263180316804,0.231837978994308,0.00553270506616089,0,0.000529101665122824,0.116487283878214,0.233079081665584,0.00502973187832808,0,NA,0.0959307043702938,0.233327302199839,0.0060356782539937,0,0.000176367221707608,0.0890785112009871,0.236057728076646,0.00804757100532493,0,NA,0.0822263180316804,0.236057728076646,0.00452675869049527,0,0.000529101665122824,0.0753741248623737,0.235064845939625,0.00251486593916404,0,NA,0.109635090708907,0.236305948610901,0.00452675869049527,0,0.000529101665122824,0.068521931693067,0.234071963802605,0.0065386514418265,0,0.000352734443415216,0.0411131590158402,0.235561287008135,0.00452675869049527,0,0.000352734443415216
"50",0.0479653521851469,0.235561287008135,0.00754459781749212,0,0.000352734443415216,0.0616697385237603,0.232582640597074,0.00502973187832808,0,0.000705468886830432,0.1027828975396,0.23432018433686,0.00452675869049527,0,0.000176367221707608,0.0890785112009871,0.233079081665584,0.0060356782539937,0,0.000352734443415216,0.0890785112009871,0.236554169145156,0.00754459781749212,0,0.000176367221707608,0.0822263180316804,0.236554169145156,0.00402378550266246,0,0.000529101665122824,0.0616697385237603,0.23481662540537,0.00301783912699685,0,0.000176367221707608,0.0890785112009871,0.236057728076646,0.00452675869049527,0,0.000529101665122824,0.0753741248623737,0.23432018433686,0.00704162462965931,0,0.000352734443415216,0.0411131590158402,0.235561287008135,0.00452675869049527,0,0.000352734443415216
"51",0.0411131590158402,0.236554169145156,0.00754459781749212,0,0.000352734443415216,0.0548175453544536,0.232830861131329,0.00502973187832808,0,0.00088183610853804,0.0890785112009871,0.234071963802605,0.00452675869049527,0,0.000176367221707608,0.1027828975396,0.232830861131329,0.00553270506616089,0,0.000352734443415216,0.0959307043702938,0.236554169145156,0.0065386514418265,0,0.000176367221707608,0.0822263180316804,0.237050610213666,0.00352081231482966,0,0.000352734443415216,0.0753741248623737,0.23432018433686,0.00301783912699685,0,NA,0.0822263180316804,0.23580950754239,0.00452675869049527,0,0.000529101665122824,0.0753741248623737,0.234568404871115,0.0060356782539937,0,0.000176367221707608,0.0342609658465335,0.235561287008135,0.00452675869049527,0,0.000352734443415216
"52",0.0274087726772268,0.236802389679411,0.00704162462965931,0,0.000352734443415216,0.0616697385237603,0.232582640597074,0.00452675869049527,0,0.00088183610853804,0.0890785112009871,0.23432018433686,0.00402378550266246,0,0.000176367221707608,0.0890785112009871,0.233079081665584,0.00553270506616089,0,0.000176367221707608,0.0890785112009871,0.23580950754239,0.00754459781749212,0,0.000352734443415216,0.0753741248623737,0.237050610213666,0.00352081231482966,0,0.000352734443415216,0.0753741248623737,0.234568404871115,0.00301783912699685,0,NA,0.0616697385237603,0.23531306647388,0.00553270506616089,0,0.00088183610853804,0.0822263180316804,0.23432018433686,0.0065386514418265,0,0.000176367221707608,0.0411131590158402,0.23531306647388,0.00553270506616089,0,0.000176367221707608
"53",0.0274087726772268,0.236305948610901,0.00754459781749212,0,0.000352734443415216,0.0616697385237603,0.232830861131329,0.00502973187832808,0,0.00088183610853804,0.0890785112009871,0.23432018433686,0.00452675869049527,0,0.000176367221707608,0.0822263180316804,0.234071963802605,0.00502973187832808,0,0.000176367221707608,0.0753741248623737,0.23580950754239,0.00754459781749212,0,0.000529101665122824,0.0616697385237603,0.237050610213666,0.00301783912699685,0,0.000352734443415216,0.0753741248623737,0.23481662540537,0.00251486593916404,0,NA,0.0616697385237603,0.23531306647388,0.00553270506616089,0,0.000705468886830432,0.068521931693067,0.23432018433686,0.0065386514418265,0,0.000352734443415216,0.0548175453544536,0.235064845939625,0.00502973187832808,0,0.000176367221707608
"54",0.0274087726772268,0.236802389679411,0.0065386514418265,0,0.000352734443415216,0.068521931693067,0.233327302199839,0.00502973187832808,0,0.000705468886830432,0.0890785112009871,0.234071963802605,0.00502973187832808,0,NA,0.068521931693067,0.234071963802605,0.00553270506616089,0,0.000176367221707608,0.0753741248623737,0.236554169145156,0.0065386514418265,0,0.000529101665122824,0.068521931693067,0.237547051282176,0.00251486593916404,0,NA,0.068521931693067,0.23531306647388,0.00251486593916404,0,NA,0.0548175453544536,0.235561287008135,0.00553270506616089,0,0.00088183610853804,0.0753741248623737,0.23432018433686,0.0060356782539937,0,0.000352734443415216,0.0548175453544536,0.235561287008135,0.00502973187832808,0,0.000176367221707608
"55",0.0342609658465335,0.236802389679411,0.0065386514418265,0,0.000352734443415216,0.0548175453544536,0.233327302199839,0.00502973187832808,0,0.000705468886830432,0.0959307043702938,0.233823743268349,0.00502973187832808,0,NA,0.0822263180316804,0.233327302199839,0.00553270506616089,0,NA,0.0548175453544536,0.236554169145156,0.0065386514418265,0,0.000529101665122824,0.068521931693067,0.237298830747921,0.00251486593916404,0,NA,0.0616697385237603,0.236057728076646,0.00251486593916404,0,NA,0.0548175453544536,0.236057728076646,0.00553270506616089,0,0.00088183610853804,0.0753741248623737,0.234568404871115,0.0060356782539937,0,0.000352734443415216,0.0548175453544536,0.236057728076646,0.00452675869049527,0,0.000176367221707608
"56",0.0411131590158402,0.236802389679411,0.0060356782539937,0,0.000352734443415216,0.0616697385237603,0.233327302199839,0.00502973187832808,0,0.000352734443415216,0.0890785112009871,0.233575522734094,0.00553270506616089,0,0.000176367221707608,0.0890785112009871,0.232830861131329,0.00553270506616089,0,0.000176367221707608,0.0548175453544536,0.236802389679411,0.0060356782539937,0,0.000352734443415216,0.068521931693067,0.237298830747921,0.00251486593916404,0,NA,0.0548175453544536,0.235561287008135,0.00301783912699685,0,NA,0.0548175453544536,0.236554169145156,0.00553270506616089,0,0.00088183610853804,0.0822263180316804,0.23481662540537,0.0060356782539937,0,0.000352734443415216,0.068521931693067,0.23531306647388,0.00452675869049527,0,0.000176367221707608
"57",0.0548175453544536,0.236554169145156,0.0060356782539937,0,0.000176367221707608,0.0548175453544536,0.233079081665584,0.00553270506616089,0,0.000352734443415216,0.068521931693067,0.233327302199839,0.00553270506616089,0,0.000352734443415216,0.0959307043702938,0.232582640597074,0.00553270506616089,0,0.000176367221707608,0.0616697385237603,0.236305948610901,0.0060356782539937,0,0.000176367221707608,0.068521931693067,0.237050610213666,0.00251486593916404,0,NA,0.0616697385237603,0.235064845939625,0.00301783912699685,0,NA,0.0479653521851469,0.236802389679411,0.00502973187832808,0,0.000352734443415216,0.0753741248623737,0.23580950754239,0.00502973187832808,0,0.000176367221707608,0.0890785112009871,0.235064845939625,0.00402378550266246,0,NA
"58",0.0548175453544536,0.236305948610901,0.0060356782539937,0,0.000352734443415216,0.0548175453544536,0.234071963802605,0.00452675869049527,0,0.000352734443415216,0.068521931693067,0.233079081665584,0.0065386514418265,0,0.000352734443415216,0.0959307043702938,0.231837978994308,0.0065386514418265,0,0.000176367221707608,0.0548175453544536,0.236057728076646,0.0065386514418265,0,0.000176367221707608,0.0822263180316804,0.236057728076646,0.00301783912699685,0,NA,0.0753741248623737,0.23432018433686,0.00301783912699685,0,NA,0.0548175453544536,0.237050610213666,0.00402378550266246,0,0.000352734443415216,0.0753741248623737,0.236057728076646,0.00452675869049527,0,0.000176367221707608,0.0890785112009871,0.23531306647388,0.00402378550266246,0,NA
"59",0.0548175453544536,0.236305948610901,0.0060356782539937,0,0.000352734443415216,0.0342609658465335,0.234568404871115,0.00402378550266246,0,0.00088183610853804,0.0548175453544536,0.233823743268349,0.0065386514418265,0,0.000352734443415216,0.0822263180316804,0.232086199528563,0.00704162462965931,0,0.000176367221707608,0.0548175453544536,0.236305948610901,0.0065386514418265,0,0.000176367221707608,0.0822263180316804,0.23580950754239,0.00301783912699685,0,NA,0.0822263180316804,0.233823743268349,0.00352081231482966,0,NA,0.0479653521851469,0.236802389679411,0.00452675869049527,0,0.000176367221707608,0.068521931693067,0.23580950754239,0.00402378550266246,0,NA,0.0890785112009871,0.23580950754239,0.00301783912699685,0,0.000176367221707608
"60",0.0479653521851469,0.236802389679411,0.00502973187832808,0,0.000352734443415216,0.0411131590158402,0.234568404871115,0.00402378550266246,0,0.00088183610853804,0.0616697385237603,0.233823743268349,0.0060356782539937,0,0.000352734443415216,0.068521931693067,0.231837978994308,0.00704162462965931,0,0.000176367221707608,0.0616697385237603,0.236057728076646,0.0060356782539937,0,0.000176367221707608,0.0753741248623737,0.23580950754239,0.00251486593916404,0,0.000176367221707608,0.0890785112009871,0.233823743268349,0.00301783912699685,0,0.000176367221707608,0.0479653521851469,0.236305948610901,0.00502973187832808,0,0.000176367221707608,0.068521931693067,0.23531306647388,0.00402378550266246,0,NA,0.0890785112009871,0.23580950754239,0.00301783912699685,0,0.000352734443415216
