"","Early1.ALL","Late1.CLS","Late1.OPN","Mid1.CLS","Mid1.OPN","Early1.ALL.1","Late1.CLS.1","Late1.OPN.1","Mid1.CLS.1","Mid1.OPN.1","Early1.ALL.2","Late1.CLS.2","Late1.OPN.2","Mid1.CLS.2","Mid1.OPN.2","Early1.ALL.3","Late1.CLS.3","Late1.OPN.3","Mid1.CLS.3","Mid1.OPN.3","Early1.ALL.4","Late1.CLS.4","Late1.OPN.4","Mid1.CLS.4","Mid1.OPN.4","Early1.ALL.5","Late1.CLS.5","Late1.OPN.5","Mid1.CLS.5","Mid1.OPN.5","Early1.ALL.6","Late1.CLS.6","Late1.OPN.6","Mid1.CLS.6","Mid1.OPN.6","Early1.ALL.7","Late1.CLS.7","Late1.OPN.7","Mid1.CLS.7","Mid1.OPN.7","Early1.ALL.8","Late1.CLS.8","Late1.OPN.8","Mid1.CLS.8","Mid1.OPN.8","Early1.ALL.9","Late1.CLS.9","Late1.OPN.9","Mid1.CLS.9","Mid1.OPN.9"
"0",0,0.0556536566277342,0.149676982155856,0,0.00959568328475835,0,0.0625123819163634,0.157868259786277,0,0.00806716736329243,0,0.0591810010618864,0.148932320553091,0,0.00874650777283284,0,0.0615325640179878,0.137017734908844,0,0.00789733226090733,0,0.0578092560041605,0.150421643758622,0,0.00815208491448498,0,0.0566334745261098,0.149676982155856,0,0.00823700246567753,0,0.0558496202074093,0.156378936580746,0,0.00857667267044774,0,0.0605527461196122,0.154889613375215,0,0.00823700246567753,0,0.0574173288448103,0.141485704525436,0,0.00976551838714346,0,0.0582011831635108,0.156378936580746,0,0.00823700246567753
"1",0,0.0566334745261098,0.151166305361387,0,0.0091710955287956,0,0.0629043090757137,0.157868259786277,0,0.00730290940255947,0,0.0611406368586376,0.149676982155856,0,0.00849175511925519,0,0.0640800905537644,0.138507058114375,0,0.00721799185136692,0,0.0593769646415615,0.152655628566918,0,0.00738782695375202,0,0.0583971467431859,0.151166305361387,0,0.00789733226090733,0,0.0564375109464347,0.156378936580746,0,0.00891634287521794,0,0.0625123819163634,0.15563427497798,0,0.00815208491448498,0,0.0589850374822112,0.142230366128202,0,0.00959568328475835,0,0.060160818960262,0.157123598183511,0,0.00806716736329243
"2",0,0.0578092560041605,0.154889613375215,0,0.00789733226090733,0,0.0642760541334395,0.160102244594573,0,0.00679340409540416,0,0.0621204547570132,0.151910966964153,0,0.00798224981209988,0,0.0654518356114903,0.141485704525436,0,0.00687832164659671,0,0.0623164183366883,0.152655628566918,0,0.00713307430017437,0,0.0603567825399371,0.153400290169684,0,0.00755766205613712,0,0.0582011831635108,0.158612921389042,0,0.00891634287521794,0,0.0636881633944142,0.156378936580746,0,0.00823700246567753,0,0.0605527461196122,0.142975027730967,0,0.00925601307998815,0,0.0613366004383127,0.162336229402869,0,0.00721799185136692
"3",0,0.0589850374822112,0.156378936580746,0,0.00755766205613712,0,0.0664316535098659,0.161591567800104,0,0.00645373389063395,0,0.0627083454960386,0.151910966964153,0,0.00747274450494457,0,0.0683912893066171,0.142230366128202,0,0.00662356899301906,0,0.0638841269740893,0.152655628566918,0,0.0065386514418265,0,0.0617285275976629,0.154144951772449,0,0.00679340409540416,0,0.0603567825399371,0.160102244594573,0,0.00840683756806263,0,0.0648639448724649,0.158612921389042,0,0.00815208491448498,0,0.0621204547570132,0.144464350936498,0,0.00891634287521794,0,0.0623164183366883,0.164570214211166,0,0.00679340409540416
"4",0,0.060160818960262,0.158612921389042,0,0.00670848654421161,0,0.0683912893066171,0.164570214211166,0,0.00568947592990098,0,0.0636881633944142,0.151910966964153,0,0.00730290940255947,0,0.0701549615236932,0.144464350936498,0,0.0061989812370563,0,0.0648639448724649,0.15563427497798,0,0.00611406368586374,0,0.0644720177131147,0.154889613375215,0,0.00645373389063395,0,0.0615325640179878,0.160102244594573,0,0.00738782695375202,0,0.066627617089541,0.159357582991807,0,0.00789733226090733,0,0.0640800905537644,0.145953674142029,0,0.00798224981209988,0,0.0640800905537644,0.166059537416697,0,0.00585931103228609
"5",0,0.0619244911773381,0.158612921389042,0,0.00560455837870843,0,0.0699589979440181,0.167548860622228,0,0.00517997062274567,0,0.0658437627708405,0.151910966964153,0,0.00730290940255947,0,0.0711347794220688,0.145209012539264,0,0.00517997062274567,0,0.066627617089541,0.15563427497798,0,0.00611406368586374,0,0.0660397263505156,0.156378936580746,0,0.0063688163394414,0,0.063492199814739,0.160846906197338,0,0.00679340409540416,0,0.068195325726942,0.158612921389042,0,0.00730290940255947,0,0.0660397263505156,0.146698335744795,0,0.00670848654421161,0,0.066627617089541,0.166804199019462,0,0.00526488817393822
"6",0,0.0662356899301907,0.149676982155856,0,0.00551964082751588,0,0.0732903787984951,0.156378936580746,0,0.00475538286678291,0,0.0697630343643429,0.145953674142029,0,0.00738782695375202,0,0.0764257960732971,0.131805103689485,0,0.00484030041797546,0,0.0728984516391449,0.142975027730967,0,0.00560455837870843,0,0.0701549615236932,0.148932320553091,0,0.00585931103228609,0,0.0697630343643429,0.14744299734756,0,0.00645373389063395,0,0.0717226701610942,0.151166305361387,0,0.0065386514418265,0,0.0703509251033683,0.136273073306078,0,0.0061989812370563,0,0.0723105609001195,0.15563427497798,0,0.0042458775596276
"7",0,0.0717226701610942,0.142975027730967,0,0.00501013552036057,0,0.0799531405074493,0.13925171971714,0,0.00416096000843505,0,0.0756419417545966,0.132549765292251,0,0.00679340409540416,0,0.0797571769277741,0.124358487661831,0,0.00450063021320526,0,0.0766217596529722,0.136273073306078,0,0.00526488817393822,0,0.0748580874358961,0.140741042922671,0,0.00577439348109354,0,0.0742701966968707,0.138507058114375,0,0.00594422858347864,0,0.0779935047106981,0.137017734908844,0,0.00585931103228609,0,0.074662123856221,0.128826457278424,0,0.00594422858347864,0,0.0774056139716727,0.145953674142029,0,0.00416096000843505
"8",0,0.0756419417545966,0.137017734908844,0,0.0044157126620127,0,0.0848522299993273,0.127337134072893,0,0.00365145470127974,0,0.0797571769277741,0.121379841250769,0,0.00509505307155312,0,0.0852441571586776,0.111699240414818,0,0.0042458775596276,0,0.0828925942025761,0.125103149264596,0,0.0042458775596276,0,0.079561213348099,0.128826457278424,0,0.00534980572513078,0,0.0787773590293985,0.13106044208672,0,0.00475538286678291,0,0.0821087398838756,0.127337134072893,0,0.00467046531559036,0,0.0785813954497234,0.119145856442473,0,0.00534980572513078,0,0.0828925942025761,0.133294426895016,0,0.00399112490604994
"9",0,0.0817168127245254,0.119890518045238,0,0.00356653715008718,0,0.0917109552879566,0.110209917209287,0,0.00288719674054677,0,0.0844603028399771,0.111699240414818,0,0.00492521796916802,0,0.0897513194912054,0.105741947592694,0,0.0040760424572425,0,0.0879876472741293,0.113933225223114,0,0.00322686694531698,0,0.0838724121009517,0.121379841250769,0,0.00450063021320526,0,0.0840683756806268,0.118401194839707,0,0.00365145470127974,0,0.0858320478977029,0.118401194839707,0,0.0040760424572425,0,0.0834804849416015,0.110209917209287,0,0.0044157126620127,0,0.0879876472741293,0.124358487661831,0,0.00365145470127974
"10",0,0.0873997565351039,0.104997285989929,0,0.00263244408696911,0,0.0962181176204844,0.101273977976102,0,0.00246260898458401,0,0.0885755380131546,0.102018639578867,0,0.00356653715008718,0,0.0948463725627585,0.0960613467567435,0,0.00365145470127974,0,0.0936705910847078,0.0990399931678053,0,0.00288719674054677,0,0.0895553559115302,0.109465255606522,0,0.00331178449650953,0,0.0915149917082815,0.0990399931678053,0,0.00271736163816166,0,0.0893593923318551,0.111699240414818,0,0.00314194939412442,0,0.087595720114779,0.0997846547705708,0,0.00373637225247229,0,0.0946504089830834,0.107975932400991,0,0.00280227918935422
"11",0,0.0921028824473068,0.0945720235512126,0,0.0019531036774287,0,0.0997454620546366,0.0930827003456817,0,0.00186818612623614,0,0.0922988460269819,0.0953166851539781,0,0.00203802122862125,0,0.0985696805765858,0.0863807459207927,0,0.00237769143339146,0,0.0981777534172356,0.0871254075235581,0,0.00144359837027338,0,0.0936705910847078,0.102018639578867,0,0.00220785633100635,0,0.0952382997221088,0.0901040539346199,0,0.00169835102385104,0,0.0942584818237332,0.101273977976102,0,0.0019531036774287,0,0.0911230645489312,0.0945720235512126,0,0.00254752653577656,0,0.0993535348952863,0.100529316373336,0,0.00220785633100635
"12",0,0.0968060083595097,0.0901040539346199,0,0.00203802122862125,0,0.103272806488789,0.0856360843180272,0,0.00161343347265849,0,0.0966100447798346,0.0856360843180272,0,0.0019531036774287,0,0.103860697227814,0.0744661602765455,0,0.00203802122862125,0,0.103664733648139,0.0752108218793109,0,0.00118884571669573,0,0.0979817898375605,0.0915933771401508,0,0.00220785633100635,0,0.0999414256343117,0.0796787914959036,0,0.00127376326788828,0,0.0981777534172356,0.0923380387429163,0,0.00144359837027338,0,0.0968060083595097,0.0841467611124963,0,0.0022927738821989,0,0.104056660807489,0.0901040539346199,0,0.00203802122862125
"13",0,0.100725279953012,0.0804234530986691,0,0.00178326857504359,0,0.108955750299367,0.0722321754682491,0,0.00169835102385104,0,0.0991575713156112,0.0796787914959036,0,0.00186818612623614,0,0.109151713879042,0.0632962362350637,0,0.00161343347265849,0,0.106604187343266,0.0662748826461255,0,0.00118884571669573,0,0.100921243532687,0.0848914227152618,0,0.00203802122862125,0,0.102880879329439,0.0729768370710146,0,0.00101901061431062,0,0.103076842909114,0.0819127763042,0,0.00135868081908083,0,0.102684915749763,0.0714875138654837,0,0.0019531036774287,0,0.107975932400992,0.0819127763042,0,0.00161343347265849
"14",0,0.105428405865215,0.0744661602765455,0,0.00110392816550318,0,0.11365887621157,0.0618069130295328,0,0.00178326857504359,0,0.104252624387164,0.0714875138654837,0,0.00161343347265849,0,0.116598329906697,0.050636988988051,0,0.00144359837027338,0,0.111895203994494,0.0625515746322983,0,0.00110392816550318,0,0.106408223763591,0.0729768370710146,0,0.00178326857504359,0,0.107779968821317,0.0640408978378292,0,0.000934093063118072,0,0.108171895980667,0.0722321754682491,0,0.00110392816550318,0,0.108563823140017,0.058828266618471,0,0.00203802122862125,0,0.112287131153844,0.0722321754682491,0,0.00169835102385104
"15",0,0.109935568197743,0.0677642058516564,0,0.00110392816550318,0,0.116794293486372,0.0573389434129401,0,0.00135868081908083,0,0.107779968821317,0.0677642058516564,0,0.00152851592146594,0,0.119733747181499,0.0446796961659274,0,0.00127376326788828,0,0.116598329906697,0.0551049586046438,0,0.00084917551192552,0,0.110915386096119,0.0640408978378292,0,0.000934093063118072,0,0.113462912631895,0.050636988988051,0,0.000679340409540416,0,0.112679058313195,0.0632962362350637,0,0.000934093063118072,0,0.111503276835144,0.050636988988051,0,0.00178326857504359,0,0.116206402747347,0.0632962362350637,0,0.00169835102385104
"16",0,0.113462912631895,0.058828266618471,0,0.00101901061431062,0,0.122869164456301,0.0454243577686928,0,0.00110392816550318,0,0.114246766950596,0.0513816505908165,0,0.00127376326788828,0,0.123653018775001,0.0335097721244455,0,0.00118884571669573,0,0.12169338297825,0.0431903729603965,0,0.000764257960732968,0,0.116598329906697,0.0476583425769892,0,0.000934093063118072,0,0.118753929283123,0.0372330801382728,0,0.000679340409540416,0,0.115226584848971,0.0558496202074092,0,0.00084917551192552,0,0.116010439167672,0.0394670649465692,0,0.00152851592146594,0,0.121889346557925,0.0498923273852856,0,0.00161343347265849
"17",0,0.116794293486372,0.0543602970018783,0,0.000764257960732968,0,0.126200545310778,0.0446796961659274,0,0.000679340409540416,0,0.116402366327022,0.0491476657825201,0,0.00084917551192552,0,0.125612654571752,0.0312757873161492,0,0.00101901061431062,0,0.125220727412402,0.0402117265493346,0,0.000764257960732968,0,0.119341820022149,0.0454243577686928,0,0.000764257960732968,0,0.12169338297825,0.0349990953299764,0,0.000509505307155312,0,0.117382184225398,0.0521263121935819,0,0.000764257960732968,0,0.118753929283123,0.0349990953299764,0,0.00135868081908083,0,0.124044945934352,0.0476583425769892,0,0.00152851592146594
"18",0,0.118949892862799,0.050636988988051,0,0.000594422858347864,0,0.128356144687204,0.0417010497548655,0,0.000594422858347864,0,0.118949892862799,0.0446796961659274,0,0.000764257960732968,0,0.127376326788828,0.0305311257133837,0,0.000934093063118072,0,0.127572290368504,0.0387224033438037,0,0.000509505307155312,0,0.122477237296951,0.0417010497548655,0,0.000679340409540416,0,0.124240909514027,0.0312757873161492,0,0.00042458775596276,0,0.121889346557925,0.0476583425769892,0,0.000679340409540416,0,0.121497419398575,0.0320204489189146,0,0.00144359837027338,0,0.125612654571752,0.0446796961659274,0,0.00127376326788828
"19",0,0.122673200876626,0.0469136809742237,0,0.000509505307155312,0,0.13011981690428,0.0387224033438037,0,0.000509505307155312,0,0.1213014558189,0.042445711357631,0,0.000679340409540416,0,0.12933596258558,0.0290418025078528,0,0.000764257960732968,0,0.12933596258558,0.0379777417410383,0,0.000509505307155312,0,0.125612654571752,0.0364884185355073,0,0.000594422858347864,0,0.125808618151428,0.0305311257133837,0,0.000339670204770208,0,0.123653018775001,0.0439350345631619,0,0.000764257960732968,0,0.122673200876626,0.0282971409050873,0,0.00135868081908083,0,0.127964217527854,0.0431903729603965,0,0.00118884571669573
"20",0,0.126004581731103,0.0439350345631619,0,0.00042458775596276,0,0.132275416280706,0.0357437569327419,0,0.000594422858347864,0,0.124632836673377,0.0379777417410383,0,0.000679340409540416,0,0.131687525541681,0.0290418025078528,0,0.00042458775596276,0,0.131491561962006,0.0349990953299764,0,0.00042458775596276,0,0.127964217527854,0.0349990953299764,0,0.000339670204770208,0,0.128944035426229,0.0282971409050873,0,0.00042458775596276,0,0.127180363209153,0.0394670649465692,0,0.000679340409540416,0,0.126984399629478,0.0253184944940255,0,0.00127376326788828,0,0.130707707643305,0.0372330801382728,0,0.00110392816550318
"21",0,0.128944035426229,0.0402117265493346,0,0.000339670204770208,0,0.134822942816483,0.034254433727211,0,0.000339670204770208,0,0.128748071846554,0.034254433727211,0,0.000679340409540416,0,0.134235052077457,0.0290418025078528,0,0.000339670204770208,0,0.135018906396158,0.0335097721244455,0,0.000339670204770208,0,0.13090367122298,0.0305311257133837,0,0.000339670204770208,0,0.131687525541681,0.0275524793023219,0,0.00042458775596276,0,0.130707707643305,0.034254433727211,0,0.000594422858347864,0,0.129923853324605,0.0245738328912601,0,0.000934093063118072,0,0.134431015657132,0.0335097721244455,0,0.00084917551192552
"22",0,0.131687525541681,0.0387224033438037,0,0.000169835102385104,0,0.137370469352259,0.0297864641106182,0,0.00042458775596276,0,0.132079452701031,0.0275524793023219,0,0.00042458775596276,0,0.136586615033559,0.0245738328912601,0,0.000254752653577656,0,0.136978542192909,0.0327651105216801,0,0.000339670204770208,0,0.132667343440056,0.0290418025078528,0,0.000254752653577656,0,0.133843124918107,0.0275524793023219,0,0.00042458775596276,0,0.132667343440056,0.034254433727211,0,0.000679340409540416,0,0.132275416280706,0.0223398480829637,0,0.000679340409540416,0,0.137370469352259,0.0290418025078528,0,0.000764257960732968
"23",0,0.135410833555508,0.034254433727211,0,0.000254752653577656,0,0.13972203230836,0.0268078176995564,0,0.000509505307155312,0,0.135410833555508,0.0238291712884946,0,0.000339670204770208,0,0.139526068728685,0.0215951864801982,0,0.000254752653577656,0,0.13972203230836,0.0320204489189146,0,0.000254752653577656,0,0.135410833555508,0.026063156096791,0,8.4917551192552e-05,0,0.135998724294533,0.0253184944940255,0,0.000679340409540416,0,0.134822942816483,0.0327651105216801,0,0.000509505307155312,0,0.135214869975833,0.0215951864801982,0,0.000679340409540416,0,0.13972203230836,0.0268078176995564,0,0.000679340409540416
"24",0,0.137174505772584,0.0349990953299764,0,0.000169835102385104,0,0.141485704525436,0.0245738328912601,0,0.000509505307155312,0,0.137762396511609,0.0215951864801982,0,0.00042458775596276,0,0.144229194640888,0.0171272168636055,0,0.000254752653577656,0,0.143641303901862,0.0282971409050873,0,0.000169835102385104,0,0.137762396511609,0.0238291712884946,0,8.4917551192552e-05,0,0.137566432931934,0.0238291712884946,0,0.000764257960732968,0,0.138350287250635,0.0230845096857291,0,0.00042458775596276,0,0.13854625083031,0.0178718784663709,0,0.000679340409540416,0,0.142661486003487,0.0230845096857291,0,0.000594422858347864
"25",0,0.140309923047386,0.0312757873161492,0,0.000254752653577656,0,0.142661486003487,0.0245738328912601,0,0.000339670204770208,0,0.140505886627061,0.0186165400691364,0,0.000254752653577656,0,0.146188830437639,0.0141485704525437,0,0.000254752653577656,0,0.145796903278289,0.0245738328912601,0,0.000169835102385104,0,0.13972203230836,0.0193612016719019,0,NA,0,0.13972203230836,0.0208505248774328,0,0.000764257960732968,0,0.141289740945761,0.0208505248774328,0,0.00042458775596276,0,0.141877631684786,0.0141485704525437,0,0.000679340409540416,0,0.144425158220563,0.0223398480829637,0,0.000339670204770208
"26",0,0.143053413162837,0.0275524793023219,0,0.000339670204770208,0,0.145600939698613,0.0215951864801982,0,0.000254752653577656,0,0.143053413162837,0.01638255526084,0,0.000254752653577656,0,0.148736356973415,0.0119145856442473,0,0.000169835102385104,0,0.147168648336014,0.0238291712884946,0,0.000169835102385104,0,0.141877631684786,0.0178718784663709,0,NA,0,0.141485704525436,0.0193612016719019,0,0.00084917551192552,0,0.144621121800238,0.0186165400691364,0,0.000339670204770208,0,0.144425158220563,0.0148932320553091,0,0.000509505307155312,0,0.146384794017314,0.0201058632746673,0,0.000254752653577656
"27",0,0.146188830437639,0.0245738328912601,0,0.000339670204770208,0,0.14775653907504,0.0201058632746673,0,0.000254752653577656,0,0.144229194640888,0.0156378936580746,0,0.000339670204770208,0,0.150891956349841,0.0119145856442473,0,0.000169835102385104,0,0.148736356973415,0.0223398480829637,0,NA,0,0.145796903278289,0.01638255526084,0,8.4917551192552e-05,0,0.144229194640888,0.0186165400691364,0,0.000679340409540416,0,0.146384794017314,0.0178718784663709,0,0.000339670204770208,0,0.146384794017314,0.0148932320553091,0,0.000339670204770208,0,0.147952502654715,0.0201058632746673,0,0.000169835102385104
"28",0,0.148736356973415,0.0208505248774328,0,0.000339670204770208,0,0.149912138451466,0.0201058632746673,0,0.000254752653577656,0,0.146384794017314,0.0148932320553091,0,0.000339670204770208,0,0.152263701407567,0.0126592472470128,0,0.000254752653577656,0,0.150304065610816,0.0223398480829637,0,NA,0,0.149128284132765,0.0148932320553091,0,8.4917551192552e-05,0,0.146188830437639,0.0178718784663709,0,0.000764257960732968,0,0.149716174871791,0.0126592472470128,0,0.000254752653577656,0,0.147168648336014,0.0134039088497782,0,0.00042458775596276,0,0.150695992770166,0.0171272168636055,0,0.000254752653577656
"29",0,0.151283883509192,0.0193612016719019,0,0.000509505307155312,0,0.152655628566917,0.0178718784663709,0,0.000254752653577656,0,0.147952502654715,0.0134039088497782,0,8.4917551192552e-05,0,0.155203155102694,0.0104252624387164,0,0.000339670204770208,0,0.152067737827892,0.0223398480829637,0,NA,0,0.150891956349841,0.0134039088497782,0,8.4917551192552e-05,0,0.148344429814065,0.01638255526084,0,0.000594422858347864,0,0.152459664987242,0.0111699240414818,0,0.000254752653577656,0,0.149324247712441,0.0126592472470128,0,0.000339670204770208,0,0.153047555726268,0.0156378936580746,0,0.00042458775596276
"30",0,0.152459664987242,0.0186165400691364,0,0.000509505307155312,0,0.155203155102694,0.0156378936580746,0,0.000254752653577656,0,0.149912138451466,0.0126592472470128,0,8.4917551192552e-05,0,0.15696682731977,0.00968060083595093,0,0.000254752653577656,0,0.154027373624643,0.0223398480829637,0,NA,0,0.153831410044968,0.0111699240414818,0,8.4917551192552e-05,0,0.149716174871791,0.0148932320553091,0,0.000509505307155312,0,0.154223337204318,0.00968060083595093,0,0.000254752653577656,0,0.151675810668542,0.0119145856442473,0,0.000254752653577656,0,0.155203155102694,0.0148932320553091,0,0.000594422858347864
"31",0,0.155203155102694,0.0186165400691364,0,0.00042458775596276,0,0.15657490016042,0.0156378936580746,0,0.000254752653577656,0,0.151871774248217,0.0126592472470128,0,0.000169835102385104,0,0.157554718058795,0.0111699240414818,0,0.000169835102385104,0,0.156182973001069,0.0193612016719019,0,8.4917551192552e-05,0,0.155007191523019,0.0111699240414818,0,NA,0,0.153439482885618,0.0141485704525437,0,0.000679340409540416,0,0.157554718058795,0.00968060083595093,0,0.000254752653577656,0,0.154615264363668,0.0104252624387164,0,0.000254752653577656,0,0.156378936580744,0.0156378936580746,0,0.000594422858347864
"32",0,0.15696682731977,0.0171272168636055,0,0.00042458775596276,0,0.158534535957171,0.0148932320553091,0,0.000254752653577656,0,0.155399118682369,0.0111699240414818,0,0.000169835102385104,0,0.158730499536846,0.0111699240414818,0,0.000169835102385104,0,0.158338572377496,0.0186165400691364,0,NA,0,0.156770863740095,0.0111699240414818,0,NA,0,0.155595082262044,0.0119145856442473,0,0.000679340409540416,0,0.159906281014896,0.00968060083595093,0,0.000169835102385104,0,0.15696682731977,0.00893593923318547,0,0.000254752653577656,0,0.159122426696196,0.0156378936580746,0,0.000509505307155312
"33",0,0.157946645218145,0.01638255526084,0,0.000509505307155312,0,0.159906281014896,0.0141485704525437,0,0.000169835102385104,0,0.159122426696196,0.0111699240414818,0,8.4917551192552e-05,0,0.159514353855546,0.0111699240414818,0,0.000169835102385104,0,0.160690135333597,0.0171272168636055,0,NA,0,0.160298208174247,0.0104252624387164,0,NA,0,0.15696682731977,0.0126592472470128,0,0.000509505307155312,0,0.162257843970998,0.00893593923318547,0,8.4917551192552e-05,0,0.158926463116521,0.00893593923318547,0,0.000254752653577656,0,0.161082062492947,0.0141485704525437,0,0.00042458775596276
"34",0,0.158926463116521,0.0171272168636055,0,0.00042458775596276,0,0.161278026072622,0.0148932320553091,0,0.000169835102385104,0,0.161473989652297,0.00968060083595093,0,0.000169835102385104,0,0.161082062492947,0.0104252624387164,0,0.000169835102385104,0,0.162845734710023,0.0156378936580746,0,8.4917551192552e-05,0,0.162061880391323,0.00893593923318547,0,NA,0,0.159514353855546,0.0126592472470128,0,0.00042458775596276,0,0.164217479767749,0.00893593923318547,0,8.4917551192552e-05,0,0.160494171753922,0.00819127763042002,0,0.000339670204770208,0,0.162453807550673,0.0134039088497782,0,0.000254752653577656
"35",0,0.162061880391323,0.0148932320553091,0,0.000339670204770208,0,0.163237661869373,0.0126592472470128,0,8.4917551192552e-05,0,0.162257843970998,0.0111699240414818,0,0.000169835102385104,0,0.162649771130348,0.00893593923318547,0,0.000169835102385104,0,0.164805370506774,0.0148932320553091,0,8.4917551192552e-05,0,0.164021516188074,0.00893593923318547,0,NA,0,0.162257843970998,0.0119145856442473,0,0.000339670204770208,0,0.1661771155645,0.00893593923318547,0,8.4917551192552e-05,0,0.162061880391323,0.00819127763042002,0,0.000254752653577656,0,0.164609406927099,0.0126592472470128,0,0.000254752653577656
"36",0,0.163825552608399,0.0141485704525437,0,0.000339670204770208,0,0.164021516188074,0.0126592472470128,0,8.4917551192552e-05,0,0.165393261245799,0.0111699240414818,0,0.000169835102385104,0,0.164609406927099,0.00893593923318547,0,0.000254752653577656,0,0.167744824201901,0.0141485704525437,0,8.4917551192552e-05,0,0.165981151984825,0.00744661602765456,0,NA,0,0.164805370506774,0.00968060083595093,0,0.000254752653577656,0,0.167744824201901,0.00744661602765456,0,8.4917551192552e-05,0,0.163041698289698,0.00893593923318547,0,0.000169835102385104,0,0.165981151984825,0.0111699240414818,0,0.000254752653577656
"37",0,0.1661771155645,0.0141485704525437,0,0.000169835102385104,0,0.1661771155645,0.0126592472470128,0,8.4917551192552e-05,0,0.1669609698832,0.0104252624387164,0,0.000169835102385104,0,0.165197297666124,0.00893593923318547,0,0.000254752653577656,0,0.170096387158002,0.0119145856442473,0,8.4917551192552e-05,0,0.168136751361251,0.00595729282212365,0,NA,0,0.1669609698832,0.00819127763042002,0,0.000254752653577656,0,0.168724642100276,0.00744661602765456,0,NA,0,0.165197297666124,0.00819127763042002,0,0.000169835102385104,0,0.169116569259626,0.0111699240414818,0,0.000169835102385104
"38",0,0.170684277897027,0.0134039088497782,0,0.000169835102385104,0,0.169508496418977,0.00968060083595093,0,8.4917551192552e-05,0,0.171076205056378,0.00968060083595093,0,0.000169835102385104,0,0.168528678520601,0.00893593923318547,0,0.000254752653577656,0,0.174015658751504,0.0111699240414818,0,8.4917551192552e-05,0,0.172839877273454,0.00446796961659274,0,NA,0,0.170488314317352,0.00819127763042002,0,0.000254752653577656,0,0.173819695171829,0.0067019544248891,0,NA,0,0.168724642100276,0.00744661602765456,0,0.000169835102385104,0,0.170096387158002,0.0119145856442473,0,0.000169835102385104
"39",0,0.173035840853129,0.0134039088497782,0,0.000169835102385104,0,0.170880241476702,0.00968060083595093,0,8.4917551192552e-05,0,0.172643913693778,0.00893593923318547,0,8.4917551192552e-05,0,0.170880241476702,0.00968060083595093,0,0.000254752653577656,0,0.175583367388905,0.0119145856442473,0,8.4917551192552e-05,0,0.176759148866956,0.00521263121935819,0,NA,0,0.174407585910854,0.00893593923318547,0,0.000169835102385104,0,0.176955112446631,0.0067019544248891,0,NA,0,0.170880241476702,0.00819127763042002,0,0.000169835102385104,0,0.172251986534428,0.0119145856442473,0,8.4917551192552e-05
"40",0,0.175191440229555,0.0119145856442473,0,0.000169835102385104,0,0.174015658751504,0.00819127763042002,0,NA,0,0.174407585910854,0.00744661602765456,0,8.4917551192552e-05,0,0.173231804432804,0.00968060083595093,0,0.000169835102385104,0,0.177151076026306,0.0126592472470128,0,8.4917551192552e-05,0,0.177934930345006,0.00521263121935819,0,NA,0,0.176759148866956,0.00893593923318547,0,0.000254752653577656,0,0.177934930345006,0.00595729282212365,0,NA,0,0.173231804432804,0.00744661602765456,0,0.000169835102385104,0,0.17499547664988,0.0111699240414818,0,8.4917551192552e-05
"41",0,0.176955112446631,0.0126592472470128,0,8.4917551192552e-05,0,0.174407585910854,0.00968060083595093,0,8.4917551192552e-05,0,0.176367221707605,0.00819127763042002,0,8.4917551192552e-05,0,0.17538740380923,0.00893593923318547,0,0.000254752653577656,0,0.178914748243382,0.0126592472470128,0,0.000169835102385104,0,0.180090529721433,0.00446796961659274,0,NA,0,0.179306675402732,0.00819127763042002,0,0.000254752653577656,0,0.179306675402732,0.00595729282212365,0,8.4917551192552e-05,0,0.175191440229555,0.00893593923318547,0,NA,0,0.176563185287281,0.0119145856442473,0,8.4917551192552e-05
"42",0,0.178326857504357,0.0126592472470128,0,8.4917551192552e-05,0,0.17577933096858,0.00893593923318547,0,0.000169835102385104,0,0.178130893924681,0.00819127763042002,0,8.4917551192552e-05,0,0.176367221707605,0.00893593923318547,0,0.000254752653577656,0,0.180874384040133,0.0134039088497782,0,0.000169835102385104,0,0.181854201938508,0.00446796961659274,0,NA,0,0.180874384040133,0.00744661602765456,0,0.000339670204770208,0,0.180678420460458,0.00446796961659274,0,0.000169835102385104,0,0.176955112446631,0.00968060083595093,0,8.4917551192552e-05,0,0.178522821084032,0.00893593923318547,0,8.4917551192552e-05
"43",0,0.180090529721433,0.0119145856442473,0,NA,0,0.177543003185656,0.00893593923318547,0,0.000254752653577656,0,0.180090529721433,0.00744661602765456,0,NA,0,0.177738966765331,0.00893593923318547,0,0.000254752653577656,0,0.182050165518184,0.0141485704525437,0,8.4917551192552e-05,0,0.182050165518184,0.00446796961659274,0,NA,0,0.182442092677534,0.0067019544248891,0,0.000169835102385104,0,0.181658238358833,0.00446796961659274,0,0.000169835102385104,0,0.177738966765331,0.0104252624387164,0,8.4917551192552e-05,0,0.180874384040133,0.00819127763042002,0,8.4917551192552e-05
"44",0,0.182246129097859,0.0104252624387164,0,NA,0,0.178522821084032,0.00893593923318547,0,0.000254752653577656,0,0.180678420460458,0.00819127763042002,0,NA,0,0.177934930345006,0.00968060083595093,0,8.4917551192552e-05,0,0.183617874155584,0.0134039088497782,0,8.4917551192552e-05,0,0.183617874155584,0.00521263121935819,0,8.4917551192552e-05,0,0.183029983416559,0.00595729282212365,0,0.000169835102385104,0,0.183617874155584,0.00521263121935819,0,0.000169835102385104,0,0.180286493301108,0.00968060083595093,0,8.4917551192552e-05,0,0.182050165518184,0.00744661602765456,0,8.4917551192552e-05
"45",0,0.183617874155584,0.0111699240414818,0,NA,0,0.180286493301108,0.00893593923318547,0,0.000339670204770208,0,0.182050165518184,0.00819127763042002,0,NA,0,0.179698602562082,0.0104252624387164,0,8.4917551192552e-05,0,0.18498961921331,0.0111699240414818,0,8.4917551192552e-05,0,0.184401728474285,0.00521263121935819,0,8.4917551192552e-05,0,0.18381383773526,0.0067019544248891,0,0.000169835102385104,0,0.184401728474285,0.00521263121935819,0,0.000169835102385104,0,0.182050165518184,0.00968060083595093,0,8.4917551192552e-05,0,0.18381383773526,0.00595729282212365,0,8.4917551192552e-05
"46",0,0.184009801314935,0.0111699240414818,0,NA,0,0.181854201938508,0.00744661602765456,0,0.000254752653577656,0,0.183029983416559,0.00819127763042002,0,NA,0,0.181854201938508,0.00893593923318547,0,8.4917551192552e-05,0,0.185185582792985,0.0111699240414818,0,8.4917551192552e-05,0,0.184401728474285,0.00521263121935819,0,8.4917551192552e-05,0,0.184009801314935,0.0067019544248891,0,0.000169835102385104,0,0.185185582792985,0.00595729282212365,0,0.000169835102385104,0,0.183029983416559,0.00968060083595093,0,8.4917551192552e-05,0,0.18459769205396,0.00595729282212365,0,8.4917551192552e-05
"47",0,0.18420576489461,0.0119145856442473,0,NA,0,0.181658238358833,0.00819127763042002,0,0.000254752653577656,0,0.18420576489461,0.00744661602765456,0,NA,0,0.183617874155584,0.00819127763042002,0,8.4917551192552e-05,0,0.185773473532011,0.0104252624387164,0,8.4917551192552e-05,0,0.185773473532011,0.00595729282212365,0,0.000169835102385104,0,0.18459769205396,0.00521263121935819,0,NA,0,0.185773473532011,0.00744661602765456,0,0.000169835102385104,0,0.183421910575909,0.0111699240414818,0,8.4917551192552e-05,0,0.18459769205396,0.00595729282212365,0,8.4917551192552e-05
"48",0,0.18498961921331,0.0119145856442473,0,NA,0,0.182246129097859,0.00893593923318547,0,0.000254752653577656,0,0.18420576489461,0.00819127763042002,0,NA,0,0.184401728474285,0.00819127763042002,0,8.4917551192552e-05,0,0.186361364271036,0.0111699240414818,0,NA,0,0.186557327850711,0.0067019544248891,0,0.000169835102385104,0,0.18538154637266,0.00372330801382728,0,NA,0,0.186165400691361,0.00744661602765456,0,8.4917551192552e-05,0,0.18420576489461,0.0111699240414818,0,8.4917551192552e-05,0,0.185185582792985,0.0067019544248891,0,8.4917551192552e-05
"49",0,0.18538154637266,0.0119145856442473,0,NA,0,0.183029983416559,0.00819127763042002,0,0.000254752653577656,0,0.184009801314935,0.00744661602765456,0,NA,0,0.18420576489461,0.00893593923318547,0,8.4917551192552e-05,0,0.186361364271036,0.0119145856442473,0,NA,0,0.186361364271036,0.0067019544248891,0,0.000254752653577656,0,0.185577509952336,0.00372330801382728,0,NA,0,0.186557327850711,0.0067019544248891,0,0.000254752653577656,0,0.184793655633635,0.00968060083595093,0,0.000169835102385104,0,0.185969437111686,0.0067019544248891,0,0.000169835102385104
"50",0,0.185969437111686,0.0111699240414818,0,0.000169835102385104,0,0.183617874155584,0.00744661602765456,0,0.000339670204770208,0,0.18498961921331,0.0067019544248891,0,8.4917551192552e-05,0,0.184009801314935,0.00893593923318547,0,0.000169835102385104,0,0.186753291430386,0.0111699240414818,0,8.4917551192552e-05,0,0.186753291430386,0.00595729282212365,0,0.000254752653577656,0,0.18538154637266,0.00446796961659274,0,8.4917551192552e-05,0,0.186361364271036,0.0067019544248891,0,0.000254752653577656,0,0.18498961921331,0.0104252624387164,0,0.000169835102385104,0,0.185969437111686,0.0067019544248891,0,0.000169835102385104
"51",0,0.186753291430386,0.0111699240414818,0,0.000169835102385104,0,0.18381383773526,0.00744661602765456,0,0.00042458775596276,0,0.184793655633635,0.0067019544248891,0,8.4917551192552e-05,0,0.18381383773526,0.00819127763042002,0,0.000169835102385104,0,0.186753291430386,0.00968060083595093,0,8.4917551192552e-05,0,0.187145218589736,0.00521263121935819,0,0.000169835102385104,0,0.18498961921331,0.00446796961659274,0,NA,0,0.186165400691361,0.0067019544248891,0,0.000254752653577656,0,0.185185582792985,0.00893593923318547,0,8.4917551192552e-05,0,0.185969437111686,0.0067019544248891,0,0.000169835102385104
"52",0,0.186949255010061,0.0104252624387164,0,0.000169835102385104,0,0.183617874155584,0.0067019544248891,0,0.00042458775596276,0,0.18498961921331,0.00595729282212365,0,8.4917551192552e-05,0,0.184009801314935,0.00819127763042002,0,8.4917551192552e-05,0,0.186165400691361,0.0111699240414818,0,0.000169835102385104,0,0.187145218589736,0.00521263121935819,0,0.000169835102385104,0,0.185185582792985,0.00446796961659274,0,NA,0,0.185773473532011,0.00819127763042002,0,0.00042458775596276,0,0.18498961921331,0.00968060083595093,0,8.4917551192552e-05,0,0.185773473532011,0.00819127763042002,0,8.4917551192552e-05
"53",0,0.186557327850711,0.0111699240414818,0,0.000169835102385104,0,0.18381383773526,0.00744661602765456,0,0.00042458775596276,0,0.18498961921331,0.0067019544248891,0,8.4917551192552e-05,0,0.184793655633635,0.00744661602765456,0,8.4917551192552e-05,0,0.186165400691361,0.0111699240414818,0,0.000254752653577656,0,0.187145218589736,0.00446796961659274,0,0.000169835102385104,0,0.18538154637266,0.00372330801382728,0,NA,0,0.185773473532011,0.00819127763042002,0,0.000339670204770208,0,0.18498961921331,0.00968060083595093,0,0.000169835102385104,0,0.185577509952336,0.00744661602765456,0,8.4917551192552e-05
"54",0,0.186949255010061,0.00968060083595093,0,0.000169835102385104,0,0.18420576489461,0.00744661602765456,0,0.000339670204770208,0,0.184793655633635,0.00744661602765456,0,NA,0,0.184793655633635,0.00819127763042002,0,8.4917551192552e-05,0,0.186753291430386,0.00968060083595093,0,0.000254752653577656,0,0.187537145749087,0.00372330801382728,0,NA,0,0.185773473532011,0.00372330801382728,0,NA,0,0.185969437111686,0.00819127763042002,0,0.00042458775596276,0,0.18498961921331,0.00893593923318547,0,0.000169835102385104,0,0.185969437111686,0.00744661602765456,0,8.4917551192552e-05
"55",0,0.186949255010061,0.00968060083595093,0,0.000169835102385104,0,0.18420576489461,0.00744661602765456,0,0.000339670204770208,0,0.18459769205396,0.00744661602765456,0,NA,0,0.18420576489461,0.00819127763042002,0,NA,0,0.186753291430386,0.00968060083595093,0,0.000254752653577656,0,0.187341182169412,0.00372330801382728,0,NA,0,0.186361364271036,0.00372330801382728,0,NA,0,0.186361364271036,0.00819127763042002,0,0.00042458775596276,0,0.185185582792985,0.00893593923318547,0,0.000169835102385104,0,0.186361364271036,0.0067019544248891,0,8.4917551192552e-05
"56",0,0.186949255010061,0.00893593923318547,0,0.000169835102385104,0,0.18420576489461,0.00744661602765456,0,0.000169835102385104,0,0.184401728474285,0.00819127763042002,0,8.4917551192552e-05,0,0.18381383773526,0.00819127763042002,0,8.4917551192552e-05,0,0.186949255010061,0.00893593923318547,0,0.000169835102385104,0,0.187341182169412,0.00372330801382728,0,NA,0,0.185969437111686,0.00446796961659274,0,NA,0,0.186753291430386,0.00819127763042002,0,0.00042458775596276,0,0.18538154637266,0.00893593923318547,0,0.000169835102385104,0,0.185773473532011,0.0067019544248891,0,8.4917551192552e-05
"57",0,0.186753291430386,0.00893593923318547,0,8.4917551192552e-05,0,0.184009801314935,0.00819127763042002,0,0.000169835102385104,0,0.18420576489461,0.00819127763042002,0,0.000169835102385104,0,0.183617874155584,0.00819127763042002,0,8.4917551192552e-05,0,0.186557327850711,0.00893593923318547,0,8.4917551192552e-05,0,0.187145218589736,0.00372330801382728,0,NA,0,0.185577509952336,0.00446796961659274,0,NA,0,0.186949255010061,0.00744661602765456,0,0.000169835102385104,0,0.186165400691361,0.00744661602765456,0,8.4917551192552e-05,0,0.185577509952336,0.00595729282212365,0,NA
"58",0,0.186557327850711,0.00893593923318547,0,0.000169835102385104,0,0.184793655633635,0.0067019544248891,0,0.000169835102385104,0,0.184009801314935,0.00968060083595093,0,0.000169835102385104,0,0.183029983416559,0.00968060083595093,0,8.4917551192552e-05,0,0.186361364271036,0.00968060083595093,0,8.4917551192552e-05,0,0.186361364271036,0.00446796961659274,0,NA,0,0.18498961921331,0.00446796961659274,0,NA,0,0.187145218589736,0.00595729282212365,0,0.000169835102385104,0,0.186361364271036,0.0067019544248891,0,8.4917551192552e-05,0,0.185773473532011,0.00595729282212365,0,NA
"59",0,0.186557327850711,0.00893593923318547,0,0.000169835102385104,0,0.185185582792985,0.00595729282212365,0,0.00042458775596276,0,0.18459769205396,0.00968060083595093,0,0.000169835102385104,0,0.183225946996234,0.0104252624387164,0,8.4917551192552e-05,0,0.186557327850711,0.00968060083595093,0,8.4917551192552e-05,0,0.186165400691361,0.00446796961659274,0,NA,0,0.18459769205396,0.00521263121935819,0,NA,0,0.186949255010061,0.0067019544248891,0,8.4917551192552e-05,0,0.186165400691361,0.00595729282212365,0,NA,0,0.186165400691361,0.00446796961659274,0,8.4917551192552e-05
"60",0,0.186949255010061,0.00744661602765456,0,0.000169835102385104,0,0.185185582792985,0.00595729282212365,0,0.00042458775596276,0,0.18459769205396,0.00893593923318547,0,0.000169835102385104,0,0.183029983416559,0.0104252624387164,0,8.4917551192552e-05,0,0.186361364271036,0.00893593923318547,0,8.4917551192552e-05,0,0.186165400691361,0.00372330801382728,0,8.4917551192552e-05,0,0.18459769205396,0.00446796961659274,0,8.4917551192552e-05,0,0.186557327850711,0.00744661602765456,0,8.4917551192552e-05,0,0.185773473532011,0.00595729282212365,0,NA,0,0.186165400691361,0.00446796961659274,0,0.000169835102385104
