"","Early1.ALL","Late1.CLS","Late1.OPN","Mid1.CLS","Mid1.OPN","Early1.ALL.1","Late1.CLS.1","Late1.OPN.1","Mid1.CLS.1","Mid1.OPN.1","Early1.ALL.2","Late1.CLS.2","Late1.OPN.2","Mid1.CLS.2","Mid1.OPN.2","Early1.ALL.3","Late1.CLS.3","Late1.OPN.3","Mid1.CLS.3","Mid1.OPN.3","Early1.ALL.4","Late1.CLS.4","Late1.OPN.4","Mid1.CLS.4","Mid1.OPN.4","Early1.ALL.5","Late1.CLS.5","Late1.OPN.5","Mid1.CLS.5","Mid1.OPN.5","Early1.ALL.6","Late1.CLS.6","Late1.OPN.6","Mid1.CLS.6","Mid1.OPN.6","Early1.ALL.7","Late1.CLS.7","Late1.OPN.7","Mid1.CLS.7","Mid1.OPN.7","Early1.ALL.8","Late1.CLS.8","Late1.OPN.8","Mid1.CLS.8","Mid1.OPN.8","Early1.ALL.9","Late1.CLS.9","Late1.OPN.9","Mid1.CLS.9","Mid1.OPN.9"
"0",0,0,0.0105036478705864,0,0,0,0,0.0110784743709668,0,0,0,0,0.0104513909160064,0,0,0,0,0.00961527964272587,0,0,0,0,0.0105559048251665,0,0,0,0,0.0105036478705864,0,0,0,0,0.0109739604618067,0,0,0,0,0.0108694465526466,0,0,0,0,0.00992882137020606,0,0,0,0,0.0109739604618067,0,0
"1",0,0,0.0106081617797465,0,0,0,0,0.0110784743709668,0,0,0,0,0.0105036478705864,0,0,0,0,0.00971979355188593,0,0,0,0,0.0107126756889065,0,0,0,0,0.0106081617797465,0,0,0,0,0.0109739604618067,0,0,0,0,0.0109217035072267,0,0,0,0,0.00998107832478609,0,0,0,0,0.0110262174163867,0,0
"2",0,0,0.0108694465526466,0,0,0,0,0.0112352452347069,0,0,0,0,0.0106604187343265,0,0,0,0,0.00992882137020606,0,0,0,0,0.0107126756889065,0,0,0,0,0.0107649326434866,0,0,0,0,0.0111307313255468,0,0,0,0,0.0109739604618067,0,0,0,0,0.0100333352793661,0,0,0,0,0.011392016098447,0,0
"3",0,0,0.0109739604618067,0,0,0,0,0.0113397591438669,0,0,0,0,0.0106604187343265,0,0,0,0,0.00998107832478609,0,0,0,0,0.0107126756889065,0,0,0,0,0.0108171895980666,0,0,0,0,0.0112352452347069,0,0,0,0,0.0111307313255468,0,0,0,0,0.0101378491885262,0,0,0,0,0.0115487869621871,0,0
"4",0,0,0.0111307313255468,0,0,0,0,0.0115487869621871,0,0,0,0,0.0106604187343265,0,0,0,0,0.0101378491885262,0,0,0,0,0.0109217035072267,0,0,0,0,0.0108694465526466,0,0,0,0,0.0112352452347069,0,0,0,0,0.0111829882801268,0,0,0,0,0.0102423630976863,0,0,0,0,0.0116533008713471,0,0
"5",0,0,0.0111307313255468,0,0,0,0,0.0117578147805072,0,0,0,0,0.0106604187343265,0,0,0,0,0.0101901061431062,0,0,0,0,0.0109217035072267,0,0,0,0,0.0109739604618067,0,0,0,0,0.0112875021892869,0,0,0,0,0.0111307313255468,0,0,0,0,0.0102946200522663,0,0,0,0,0.0117055578259272,0,0
"6",0,0,0.0105036478705864,0,0,0,0,0.0109739604618067,0,0,0,0,0.0102423630976863,0,0,0,0,0.00924948096066564,0,0,0,0,0.0100333352793661,0,0,0,0,0.0104513909160064,0,0,0,0,0.0103468770068463,0,0,0,0,0.0106081617797465,0,0,0,0,0.00956302268814583,0,0,0,0,0.0109217035072267,0,0
"7",0,0,0.0100333352793661,0,0,0,0,0.00977205050646596,0,0,0,0,0.00930173791524567,0,0,0,0,0.00872691141486531,0,0,0,0,0.00956302268814583,0,0,0,0,0.00987656441562603,0,0,0,0,0.00971979355188593,0,0,0,0,0.00961527964272587,0,0,0,0,0.00904045314234551,0,0,0,0,0.0102423630976863,0,0
"8",0,0,0.00961527964272587,0,0,0,0,0.00893593923318545,0,0,0,0,0.00851788359654519,0,0,0,0,0.00783854318700477,0,0,0,0,0.00877916836944535,0,0,0,0,0.00904045314234551,0,0,0,0,0.00919722400608561,0,0,0,0,0.00893593923318545,0,0,0,0,0.00836111273280509,0,0,0,0,0.0093539948698257,0,0
"9",0,0,0.00841336968738512,0,0,0,0,0.00773402927784471,0,0,0,0,0.00783854318700477,0,0,0,0,0.00742048755036452,0,0,0,0,0.00799531405074486,0,0,0,0,0.00851788359654519,0,0,0,0,0.00830885577822505,0,0,0,0,0.00830885577822505,0,0,0,0,0.00773402927784471,0,0,0,0,0.00872691141486531,0,0
"10",0,0,0.00736823059578449,0,0,0,0,0.00710694582288433,0,0,0,0,0.00715920277746436,0,0,0,0,0.00674114714082411,0,0,0,0,0.00695017495914423,0,0,0,0,0.00768177232326467,0,0,0,0,0.00695017495914423,0,0,0,0,0.00783854318700477,0,0,0,0,0.00700243191372426,0,0,0,0,0.00757725841410461,0,0
"11",0,0,0.00663663323166404,0,0,0,0,0.00653211932250398,0,0,0,0,0.00668889018624408,0,0,0,0,0.0060618067312837,0,0,0,0,0.00611406368586373,0,0,0,0,0.00715920277746436,0,0,0,0,0.00632309150418385,0,0,0,0,0.00710694582288433,0,0,0,0,0.00663663323166404,0,0,0,0,0.0070546888683043,0,0
"12",0,0,0.00632309150418385,0,0,0,0,0.00600954977670366,0,0,0,0,0.00600954977670366,0,0,0,0,0.00522569545800319,0,0,0,0,0.00527795241258322,0,0,0,0,0.00642760541334392,0,0,0,0,0.00559149414006341,0,0,0,0,0.00647986236792395,0,0,0,0,0.0059050358675436,0,0,0,0,0.00632309150418385,0,0
"13",0,0,0.00564375109464344,0,0,0,0,0.0050689245942631,0,0,0,0,0.00559149414006341,0,0,0,0,0.00444184113930272,0,0,0,0,0.00465086895762284,0,0,0,0,0.00595729282212363,0,0,0,0,0.00512118154884313,0,0,0,0,0.00574826500380351,0,0,0,0,0.00501666763968307,0,0,0,0,0.00574826500380351,0,0
"14",0,0,0.00522569545800319,0,0,0,0,0.00433732723014266,0,0,0,0,0.00501666763968307,0,0,0,0,0.00355347291144218,0,0,0,0,0.00438958418472269,0,0,0,0,0.00512118154884313,0,0,0,0,0.00449409809388275,0,0,0,0,0.0050689245942631,0,0,0,0,0.00412829941182253,0,0,0,0,0.0050689245942631,0,0
"15",0,0,0.00475538286678291,0,0,0,0,0.00402378550266246,0,0,0,0,0.00475538286678291,0,0,0,0,0.00313541727480192,0,0,0,0,0.00386701463892237,0,0,0,0,0.00449409809388275,0,0,0,0,0.00355347291144218,0,0,0,0,0.00444184113930272,0,0,0,0,0.00355347291144218,0,0,0,0,0.00444184113930272,0,0
"16",0,0,0.00412829941182253,0,0,0,0,0.00318767422938195,0,0,0,0,0.00360572986602221,0,0,0,0,0.00235156295610144,0,0,0,0,0.00303090336564186,0,0,0,0,0.00334444509312205,0,0,0,0,0.0026128477290016,0,0,0,0,0.0039192715935024,0,0,0,0,0.0027696185927417,0,0,0,0,0.00350121595686214,0,0
"17",0,0,0.00381475768434234,0,0,0,0,0.00313541727480192,0,0,0,0,0.00344895900228211,0,0,0,0,0.00219479209236134,0,0,0,0,0.00282187554732173,0,0,0,0,0.00318767422938195,0,0,0,0,0.0024560768652615,0,0,0,0,0.00365798682060224,0,0,0,0,0.0024560768652615,0,0,0,0,0.00334444509312205,0,0
"18",0,0,0.00355347291144218,0,0,0,0,0.00292638945648179,0,0,0,0,0.00313541727480192,0,0,0,0,0.00214253513778131,0,0,0,0,0.00271736163816166,0,0,0,0,0.00292638945648179,0,0,0,0,0.00219479209236134,0,0,0,0,0.00334444509312205,0,0,0,0,0.00224704904694138,0,0,0,0,0.00313541727480192,0,0
"19",0,0,0.00329218813854202,0,0,0,0,0.00271736163816166,0,0,0,0,0.00297864641106182,0,0,0,0,0.00203802122862125,0,0,0,0,0.00266510468358163,0,0,0,0,0.00256059077442157,0,0,0,0,0.00214253513778131,0,0,0,0,0.00308316032022189,0,0,0,0,0.00198576427404122,0,0,0,0,0.00303090336564186,0,0
"20",0,0,0.00308316032022189,0,0,0,0,0.00250833381984154,0,0,0,0,0.00266510468358163,0,0,0,0,0.00203802122862125,0,0,0,0,0.0024560768652615,0,0,0,0,0.0024560768652615,0,0,0,0,0.00198576427404122,0,0,0,0,0.0027696185927417,0,0,0,0,0.00177673645572109,0,0,0,0,0.0026128477290016,0,0
"21",0,0,0.00282187554732173,0,0,0,0,0.00240381991068147,0,0,0,0,0.00240381991068147,0,0,0,0,0.00203802122862125,0,0,0,0,0.00235156295610144,0,0,0,0,0.00214253513778131,0,0,0,0,0.00193350731946118,0,0,0,0,0.00240381991068147,0,0,0,0,0.00172447950114106,0,0,0,0,0.00235156295610144,0,0
"22",0,0,0.00271736163816166,0,0,0,0,0.00209027818320128,0,0,0,0,0.00193350731946118,0,0,0,0,0.00172447950114106,0,0,0,0,0.00229930600152141,0,0,0,0,0.00203802122862125,0,0,0,0,0.00193350731946118,0,0,0,0,0.00240381991068147,0,0,0,0,0.00156770863740096,0,0,0,0,0.00203802122862125,0,0
"23",0,0,0.00240381991068147,0,0,0,0,0.00188125036488115,0,0,0,0,0.00167222254656102,0,0,0,0,0.00151545168282093,0,0,0,0,0.00224704904694138,0,0,0,0,0.00182899341030112,0,0,0,0,0.00177673645572109,0,0,0,0,0.00229930600152141,0,0,0,0,0.00151545168282093,0,0,0,0,0.00188125036488115,0,0
"24",0,0,0.0024560768652615,0,0,0,0,0.00172447950114106,0,0,0,0,0.00151545168282093,0,0,0,0,0.00120190995534074,0,0,0,0,0.00198576427404122,0,0,0,0,0.00167222254656102,0,0,0,0,0.00167222254656102,0,0,0,0,0.00161996559198099,0,0,0,0,0.00125416690992077,0,0,0,0,0.00161996559198099,0,0
"25",0,0,0.00219479209236134,0,0,0,0,0.00172447950114106,0,0,0,0,0.0013064238645008,0,0,0,0,0.000992882137020608,0,0,0,0,0.00172447950114106,0,0,0,0,0.00135868081908083,0,NA,0,0,0.0014631947282409,0,0,0,0,0.0014631947282409,0,0,0,0,0.000992882137020608,0,0,0,0,0.00156770863740096,0,0
"26",0,0,0.00193350731946118,0,0,0,0,0.00151545168282093,0,0,0,0,0.0011496530007607,0,0,0,0,0.000836111273280512,0,0,0,0,0.00167222254656102,0,0,0,0,0.00125416690992077,0,NA,0,0,0.00135868081908083,0,0,0,0,0.0013064238645008,0,0,0,0,0.00104513909160064,0,0,0,0,0.00141093777366086,0,0
"27",0,0,0.00172447950114106,0,0,0,0,0.00141093777366086,0,0,0,0,0.00109739604618067,0,0,0,0,0.000836111273280512,0,0,0,0,0.00156770863740096,0,NA,0,0,0.0011496530007607,0,0,0,0,0.0013064238645008,0,0,0,0,0.00125416690992077,0,0,0,0,0.00104513909160064,0,0,0,0,0.00141093777366086,0,0
"28",0,0,0.0014631947282409,0,0,0,0,0.00141093777366086,0,0,0,0,0.00104513909160064,0,0,0,0,0.000888368227860544,0,0,0,0,0.00156770863740096,0,NA,0,0,0.00104513909160064,0,0,0,0,0.00125416690992077,0,0,0,0,0.000888368227860544,0,0,0,0,0.000940625182440576,0,0,0,0,0.00120190995534074,0,0
"29",0,0,0.00135868081908083,0,0,0,0,0.00125416690992077,0,0,0,0,0.000940625182440576,0,0,0,0,0.000731597364120448,0,0,0,0,0.00156770863740096,0,NA,0,0,0.000940625182440576,0,0,0,0,0.0011496530007607,0,0,0,0,0.00078385431870048,0,0,0,0,0.000888368227860544,0,0,0,0,0.00109739604618067,0,0
"30",0,0,0.0013064238645008,0,0,0,0,0.00109739604618067,0,0,0,0,0.000888368227860544,0,0,0,0,0.000679340409540416,0,0,0,0,0.00156770863740096,0,NA,0,0,0.00078385431870048,0,0,0,0,0.00104513909160064,0,0,0,0,0.000679340409540416,0,0,0,0,0.000836111273280512,0,0,0,0,0.00104513909160064,0,0
"31",0,0,0.0013064238645008,0,0,0,0,0.00109739604618067,0,0,0,0,0.000888368227860544,0,0,0,0,0.00078385431870048,0,0,0,0,0.00135868081908083,0,0,0,0,0.00078385431870048,0,NA,0,0,0.000992882137020608,0,0,0,0,0.000679340409540416,0,0,0,0,0.000731597364120448,0,0,0,0,0.00109739604618067,0,0
"32",0,0,0.00120190995534074,0,0,0,0,0.00104513909160064,0,0,0,0,0.00078385431870048,0,0,0,0,0.00078385431870048,0,0,0,0,0.0013064238645008,0,NA,0,0,0.00078385431870048,0,NA,0,0,0.000836111273280512,0,0,0,0,0.000679340409540416,0,0,0,0,0.000627083454960384,0,0,0,0,0.00109739604618067,0,0
"33",0,0,0.0011496530007607,0,0,0,0,0.000992882137020608,0,0,0,0,0.00078385431870048,0,0,0,0,0.00078385431870048,0,0,0,0,0.00120190995534074,0,NA,0,0,0.000731597364120448,0,NA,0,0,0.000888368227860544,0,0,0,0,0.000627083454960384,0,0,0,0,0.000627083454960384,0,0,0,0,0.000992882137020608,0,0
"34",0,0,0.00120190995534074,0,0,0,0,0.00104513909160064,0,0,0,0,0.000679340409540416,0,0,0,0,0.000731597364120448,0,0,0,0,0.00109739604618067,0,0,0,0,0.000627083454960384,0,NA,0,0,0.000888368227860544,0,0,0,0,0.000627083454960384,0,0,0,0,0.000574826500380352,0,0,0,0,0.000940625182440576,0,0
"35",0,0,0.00104513909160064,0,0,0,0,0.000888368227860544,0,0,0,0,0.00078385431870048,0,0,0,0,0.000627083454960384,0,0,0,0,0.00104513909160064,0,0,0,0,0.000627083454960384,0,NA,0,0,0.000836111273280512,0,0,0,0,0.000627083454960384,0,0,0,0,0.000574826500380352,0,0,0,0,0.000888368227860544,0,0
"36",0,0,0.000992882137020608,0,0,0,0,0.000888368227860544,0,0,0,0,0.00078385431870048,0,0,0,0,0.000627083454960384,0,0,0,0,0.000992882137020608,0,0,0,0,0.00052256954580032,0,NA,0,0,0.000679340409540416,0,0,0,0,0.00052256954580032,0,0,0,0,0.000627083454960384,0,0,0,0,0.00078385431870048,0,0
"37",0,0,0.000992882137020608,0,0,0,0,0.000888368227860544,0,0,0,0,0.000731597364120448,0,0,0,0,0.000627083454960384,0,0,0,0,0.000836111273280512,0,0,0,0,0.000418055636640256,0,NA,0,0,0.000574826500380352,0,0,0,0,0.00052256954580032,0,NA,0,0,0.000574826500380352,0,0,0,0,0.00078385431870048,0,0
"38",0,0,0.000940625182440576,0,0,0,0,0.000679340409540416,0,0,0,0,0.000679340409540416,0,0,0,0,0.000627083454960384,0,0,0,0,0.00078385431870048,0,0,0,0,0.000313541727480192,0,NA,0,0,0.000574826500380352,0,0,0,0,0.000470312591220288,0,NA,0,0,0.00052256954580032,0,0,0,0,0.000836111273280512,0,0
"39",0,0,0.000940625182440576,0,0,0,0,0.000679340409540416,0,0,0,0,0.000627083454960384,0,0,0,0,0.000679340409540416,0,0,0,0,0.000836111273280512,0,0,0,0,0.000365798682060224,0,NA,0,0,0.000627083454960384,0,0,0,0,0.000470312591220288,0,NA,0,0,0.000574826500380352,0,0,0,0,0.000836111273280512,0,0
"40",0,0,0.000836111273280512,0,0,0,0,0.000574826500380352,0,NA,0,0,0.00052256954580032,0,0,0,0,0.000679340409540416,0,0,0,0,0.000888368227860544,0,0,0,0,0.000365798682060224,0,NA,0,0,0.000627083454960384,0,0,0,0,0.000418055636640256,0,NA,0,0,0.00052256954580032,0,0,0,0,0.00078385431870048,0,0
"41",0,0,0.000888368227860544,0,0,0,0,0.000679340409540416,0,0,0,0,0.000574826500380352,0,0,0,0,0.000627083454960384,0,0,0,0,0.000888368227860544,0,0,0,0,0.000313541727480192,0,NA,0,0,0.000574826500380352,0,0,0,0,0.000418055636640256,0,0,0,0,0.000627083454960384,0,NA,0,0,0.000836111273280512,0,0
"42",0,0,0.000888368227860544,0,0,0,0,0.000627083454960384,0,0,0,0,0.000574826500380352,0,0,0,0,0.000627083454960384,0,0,0,0,0.000940625182440576,0,0,0,0,0.000313541727480192,0,NA,0,0,0.00052256954580032,0,0,0,0,0.000313541727480192,0,0,0,0,0.000679340409540416,0,0,0,0,0.000627083454960384,0,0
"43",0,0,0.000836111273280512,0,NA,0,0,0.000627083454960384,0,0,0,0,0.00052256954580032,0,NA,0,0,0.000627083454960384,0,0,0,0,0.000992882137020608,0,0,0,0,0.000313541727480192,0,NA,0,0,0.000470312591220288,0,0,0,0,0.000313541727480192,0,0,0,0,0.000731597364120448,0,0,0,0,0.000574826500380352,0,0
"44",0,0,0.000731597364120448,0,NA,0,0,0.000627083454960384,0,0,0,0,0.000574826500380352,0,NA,0,0,0.000679340409540416,0,0,0,0,0.000940625182440576,0,0,0,0,0.000365798682060224,0,0,0,0,0.000418055636640256,0,0,0,0,0.000365798682060224,0,0,0,0,0.000679340409540416,0,0,0,0,0.00052256954580032,0,0
"45",0,0,0.00078385431870048,0,NA,0,0,0.000627083454960384,0,0,0,0,0.000574826500380352,0,NA,0,0,0.000731597364120448,0,0,0,0,0.00078385431870048,0,0,0,0,0.000365798682060224,0,0,0,0,0.000470312591220288,0,0,0,0,0.000365798682060224,0,0,0,0,0.000679340409540416,0,0,0,0,0.000418055636640256,0,0
"46",0,0,0.00078385431870048,0,NA,0,0,0.00052256954580032,0,0,0,0,0.000574826500380352,0,NA,0,0,0.000627083454960384,0,0,0,0,0.00078385431870048,0,0,0,0,0.000365798682060224,0,0,0,0,0.000470312591220288,0,0,0,0,0.000418055636640256,0,0,0,0,0.000679340409540416,0,0,0,0,0.000418055636640256,0,0
"47",0,0,0.000836111273280512,0,NA,0,0,0.000574826500380352,0,0,0,0,0.00052256954580032,0,NA,0,0,0.000574826500380352,0,0,0,0,0.000731597364120448,0,0,0,0,0.000418055636640256,0,0,0,0,0.000365798682060224,0,NA,0,0,0.00052256954580032,0,0,0,0,0.00078385431870048,0,0,0,0,0.000418055636640256,0,0
"48",0,0,0.000836111273280512,0,NA,0,0,0.000627083454960384,0,0,0,0,0.000574826500380352,0,NA,0,0,0.000574826500380352,0,0,0,0,0.00078385431870048,0,NA,0,0,0.000470312591220288,0,0,0,0,0.00026128477290016,0,NA,0,0,0.00052256954580032,0,0,0,0,0.00078385431870048,0,0,0,0,0.000470312591220288,0,0
"49",0,0,0.000836111273280512,0,NA,0,0,0.000574826500380352,0,0,0,0,0.00052256954580032,0,NA,0,0,0.000627083454960384,0,0,0,0,0.000836111273280512,0,NA,0,0,0.000470312591220288,0,0,0,0,0.00026128477290016,0,NA,0,0,0.000470312591220288,0,0,0,0,0.000679340409540416,0,0,0,0,0.000470312591220288,0,0
"50",0,0,0.00078385431870048,0,0,0,0,0.00052256954580032,0,0,0,0,0.000470312591220288,0,0,0,0,0.000627083454960384,0,0,0,0,0.00078385431870048,0,0,0,0,0.000418055636640256,0,0,0,0,0.000313541727480192,0,0,0,0,0.000470312591220288,0,0,0,0,0.000731597364120448,0,0,0,0,0.000470312591220288,0,0
"51",0,0,0.00078385431870048,0,0,0,0,0.00052256954580032,0,0,0,0,0.000470312591220288,0,0,0,0,0.000574826500380352,0,0,0,0,0.000679340409540416,0,0,0,0,0.000365798682060224,0,0,0,0,0.000313541727480192,0,NA,0,0,0.000470312591220288,0,0,0,0,0.000627083454960384,0,0,0,0,0.000470312591220288,0,0
"52",0,0,0.000731597364120448,0,0,0,0,0.000470312591220288,0,0,0,0,0.000418055636640256,0,0,0,0,0.000574826500380352,0,0,0,0,0.00078385431870048,0,0,0,0,0.000365798682060224,0,0,0,0,0.000313541727480192,0,NA,0,0,0.000574826500380352,0,0,0,0,0.000679340409540416,0,0,0,0,0.000574826500380352,0,0
"53",0,0,0.00078385431870048,0,0,0,0,0.00052256954580032,0,0,0,0,0.000470312591220288,0,0,0,0,0.00052256954580032,0,0,0,0,0.00078385431870048,0,0,0,0,0.000313541727480192,0,0,0,0,0.00026128477290016,0,NA,0,0,0.000574826500380352,0,0,0,0,0.000679340409540416,0,0,0,0,0.00052256954580032,0,0
"54",0,0,0.000679340409540416,0,0,0,0,0.00052256954580032,0,0,0,0,0.00052256954580032,0,NA,0,0,0.000574826500380352,0,0,0,0,0.000679340409540416,0,0,0,0,0.00026128477290016,0,NA,0,0,0.00026128477290016,0,NA,0,0,0.000574826500380352,0,0,0,0,0.000627083454960384,0,0,0,0,0.00052256954580032,0,0
"55",0,0,0.000679340409540416,0,0,0,0,0.00052256954580032,0,0,0,0,0.00052256954580032,0,NA,0,0,0.000574826500380352,0,NA,0,0,0.000679340409540416,0,0,0,0,0.00026128477290016,0,NA,0,0,0.00026128477290016,0,NA,0,0,0.000574826500380352,0,0,0,0,0.000627083454960384,0,0,0,0,0.000470312591220288,0,0
"56",0,0,0.000627083454960384,0,0,0,0,0.00052256954580032,0,0,0,0,0.000574826500380352,0,0,0,0,0.000574826500380352,0,0,0,0,0.000627083454960384,0,0,0,0,0.00026128477290016,0,NA,0,0,0.000313541727480192,0,NA,0,0,0.000574826500380352,0,0,0,0,0.000627083454960384,0,0,0,0,0.000470312591220288,0,0
"57",0,0,0.000627083454960384,0,0,0,0,0.000574826500380352,0,0,0,0,0.000574826500380352,0,0,0,0,0.000574826500380352,0,0,0,0,0.000627083454960384,0,0,0,0,0.00026128477290016,0,NA,0,0,0.000313541727480192,0,NA,0,0,0.00052256954580032,0,0,0,0,0.00052256954580032,0,0,0,0,0.000418055636640256,0,NA
"58",0,0,0.000627083454960384,0,0,0,0,0.000470312591220288,0,0,0,0,0.000679340409540416,0,0,0,0,0.000679340409540416,0,0,0,0,0.000679340409540416,0,0,0,0,0.000313541727480192,0,NA,0,0,0.000313541727480192,0,NA,0,0,0.000418055636640256,0,0,0,0,0.000470312591220288,0,0,0,0,0.000418055636640256,0,NA
"59",0,0,0.000627083454960384,0,0,0,0,0.000418055636640256,0,0,0,0,0.000679340409540416,0,0,0,0,0.000731597364120448,0,0,0,0,0.000679340409540416,0,0,0,0,0.000313541727480192,0,NA,0,0,0.000365798682060224,0,NA,0,0,0.000470312591220288,0,0,0,0,0.000418055636640256,0,NA,0,0,0.000313541727480192,0,0
"60",0,0,0.00052256954580032,0,0,0,0,0.000418055636640256,0,0,0,0,0.000627083454960384,0,0,0,0,0.000731597364120448,0,0,0,0,0.000627083454960384,0,0,0,0,0.00026128477290016,0,0,0,0,0.000313541727480192,0,0,0,0,0.00052256954580032,0,0,0,0,0.000418055636640256,0,NA,0,0,0.000313541727480192,0,0
