"","Early1.ALL","Late1.CLS","Late1.OPN","Mid1.CLS","Mid1.OPN","Early1.ALL.1","Late1.CLS.1","Late1.OPN.1","Mid1.CLS.1","Mid1.OPN.1","Early1.ALL.2","Late1.CLS.2","Late1.OPN.2","Mid1.CLS.2","Mid1.OPN.2","Early1.ALL.3","Late1.CLS.3","Late1.OPN.3","Mid1.CLS.3","Mid1.OPN.3","Early1.ALL.4","Late1.CLS.4","Late1.OPN.4","Mid1.CLS.4","Mid1.OPN.4","Early1.ALL.5","Late1.CLS.5","Late1.OPN.5","Mid1.CLS.5","Mid1.OPN.5","Early1.ALL.6","Late1.CLS.6","Late1.OPN.6","Mid1.CLS.6","Mid1.OPN.6","Early1.ALL.7","Late1.CLS.7","Late1.OPN.7","Mid1.CLS.7","Mid1.OPN.7","Early1.ALL.8","Late1.CLS.8","Late1.OPN.8","Mid1.CLS.8","Mid1.OPN.8","Early1.ALL.9","Late1.CLS.9","Late1.OPN.9","Mid1.CLS.9","Mid1.OPN.9"
"0",0.013971878,1.785427644,2.15820923999999,0.386604837000001,0.343946018,0.015904159,1.791224487,1.883528064,0.386604837000001,0.398049886000001,0.016498707,1.808615016,1.952198358,0.37456524,0.378727076000001,0.013971878,1.646303412,2.03067869399999,0.409346298000001,0.421237258000001,0.015606885,1.762240272,2.00124856799999,0.410684031000001,0.30916496,0.013080056,1.750646586,2.07972890399999,0.403995366000001,0.370997952000001,0.017687803,1.762240272,1.883528064,0.382591638000001,0.382591638000001,0.01635007,1.605725511,2.05029877799999,0.393293502000001,0.425101820000001,0.013823241,1.750646586,1.854097938,0.430750026000001,0.363268828,0.015606885,1.791224487,1.932578274,0.367876575,0.440560068000001
"1",0.012782782,1.83759923100001,2.15820923999999,0.387942570000001,0.336216894,0.014120515,1.84919291700001,1.893338106,0.390618036000001,0.390320762000001,0.015606885,1.83759923100001,1.952198358,0.377240706,0.374862514000001,0.012039597,1.692678156,2.06991886199999,0.421385895000001,0.390320762000001,0.012931419,1.808615016,2.02086865199999,0.420048162000001,0.313029522,0.011296412,1.79702133,2.10915902999999,0.406670832000001,0.367133390000001,0.0148637,1.820208702,1.883528064,0.398644434000001,0.370997952000001,0.014566426,1.68108447,2.05029877799999,0.403995366000001,0.390320762000001,0.011445049,1.802818173,1.873718022,0.450816021000002,0.324623208,0.013080056,1.814411859,1.942388316,0.394631235000001,0.409643572000001
"2",0.011742323,1.88397397500001,2.18763936599999,0.399982167000001,0.285977588,0.011742323,1.87238028900001,1.932578274,0.405333099000001,0.378727076000001,0.012634145,1.90716134700001,1.99143852599999,0.378578439,0.386456200000001,0.01040459,1.733256057,2.09934898799999,0.429412293000001,0.370997952000001,0.011445049,1.83180238800001,2.03067869399999,0.432087759000001,0.297571274,0.008769583,1.85498976000001,2.12877911399999,0.420048162000001,0.34781058,0.012039597,1.85498976000001,1.91295819,0.413359497000001,0.367133390000001,0.011742323,1.715865528,2.08953894599999,0.422723628000001,0.370997952000001,0.009810042,1.85498976000001,1.903148148,0.452153754000002,0.316894084,0.011296412,1.83180238800001,1.97181844199999,0.414697230000001,0.374862514000001
"3",0.009512768,1.94194240500001,2.18763936599999,0.410684031000001,0.274383902,0.009215494,1.90716134700001,1.97181844199999,0.416034963000001,0.374862514000001,0.01040459,1.95933293400001,2.03067869399999,0.395968968000001,0.343946018,0.008323672,1.779630801,2.10915902999999,0.440114157000002,0.359404266,0.01040459,1.88977081800001,2.05029877799999,0.428074560000001,0.28984215,0.008323672,1.92455187600001,2.12877911399999,0.420048162000001,0.313029522,0.009958679,1.87817713200001,1.952198358,0.428074560000001,0.34781058,0.010107316,1.744849743,2.11896907199999,0.437438691000001,0.340081456,0.008472309,1.91875503300001,1.91295819,0.457504686000002,0.28984215,0.009215494,1.87238028900001,1.99143852599999,0.432087759000001,0.343946018
"4",0.00817503499999999,1.97092662000001,2.22687953399999,0.414697230000001,0.262790216,0.00817503499999999,1.94194240500001,2.00124856799999,0.416034963000001,0.367133390000001,0.00802639799999999,2.01730136400001,2.05029877799999,0.410684031000001,0.316894084,0.006985939,1.802818173,2.10915902999999,0.454829220000002,0.336216894,0.008769583,1.94773924800001,2.06010881999999,0.428074560000001,0.28984215,0.005796843,1.94194240500001,2.13858915599999,0.446802822000002,0.285977588,0.007580487,1.91295819000001,1.952198358,0.440114157000002,0.351675142,0.008620946,1.820208702,2.13858915599999,0.432087759000001,0.336216894,0.00594548,2.01150452100001,1.942388316,0.469544283000002,0.247331968,0.008472309,1.91875503300001,2.01105860999999,0.433425492000001,0.320758646
"5",0.007580487,2.01150452100001,2.23668957599999,0.420048162000001,0.23187372,0.006688665,1.99991083500001,2.02086865199999,0.422723628000001,0.340081456,0.007283213,2.04048873600001,2.06010881999999,0.420048162000001,0.28984215,0.005202295,1.83759923100001,2.11896907199999,0.454829220000002,0.355539704,0.007283213,1.97672346300001,2.08953894599999,0.441451890000002,0.258925654,0.005202295,1.98252030600001,2.15820923999999,0.449478288000002,0.258925654,0.006837302,1.95353609100001,1.98162848399999,0.450816021000002,0.301435836,0.006985939,1.89556766100001,2.14839919799999,0.433425492000001,0.320758646,0.004905021,2.06367610800001,1.96200839999999,0.473557482000002,0.220280034,0.00743185,1.94194240500001,2.02086865199999,0.446802822000002,0.28984215
"6",0.00594548,2.17961296800001,2.07972890399999,0.422723628000001,0.216415472,0.004905021,2.13323822400001,1.932578274,0.432087759000001,0.305300398,0.005499569,2.16222243900001,1.922768232,0.434763225000001,0.266654778,0.004607747,1.93034871900001,2.05029877799999,0.460180152000002,0.320758646,0.006837302,2.11005085200001,2.02086865199999,0.436100958000001,0.224144596,0.004161836,2.13323822400001,2.03067869399999,0.452153754000002,0.228009158,0.005202295,2.07526979400001,1.824667812,0.464193351000002,0.285977588,0.006094117,2.05787926500001,1.932578274,0.440114157000002,0.301435836,0.003567288,2.24337824100001,1.824667812,0.468206550000002,0.204821786,0.005350932,2.04628557900001,1.91295819,0.454829220000002,0.293706712
"7",0.004310473,2.33033088600001,1.96200839999999,0.424061361000001,0.200957224,0.004013199,2.28975298500001,1.775617602,0.433425492000001,0.282113026,0.004013199,2.28395614200001,1.844287896,0.437438691000001,0.247331968,0.003567288,2.04048873600001,1.942388316,0.464193351000002,0.305300398,0.005350932,2.26076877000001,1.834477854,0.434763225000001,0.239602844,0.00297274,2.27815929900001,1.883528064,0.456166953000002,0.208686348,0.003270014,2.23758139800001,1.687327224,0.469544283000002,0.266654778,0.005350932,2.20280034000001,1.775617602,0.448140555000002,0.262790216,0.00297274,2.34192457200001,1.76580756,0.466868817000002,0.181634414,0.005350932,2.16801928200001,1.795237686,0.460180152000002,0.243467406
"8",0.00445911,2.44047090300002,1.854097938,0.422723628000001,0.170040728,0.003567288,2.41728353100001,1.657897098,0.438776424000001,0.239602844,0.002675466,2.44047090300002,1.687327224,0.449478288000002,0.204821786,0.002675466,2.22598771200001,1.76580756,0.474895215000002,0.243467406,0.00445911,2.38250247300001,1.706947308,0.437438691000001,0.224144596,0.002526829,2.39409615900001,1.755997518,0.465531084000002,0.166176166,0.002824103,2.36511194400001,1.589226804,0.472219749000002,0.224144596,0.004905021,2.34772141500001,1.61865693,0.446802822000002,0.243467406,0.002229555,2.46945511800002,1.66770714,0.465531084000002,0.158447042,0.004161836,2.31294035700001,1.697137266,0.465531084000002,0.200957224
"9",0.003567288,2.62017303600002,1.638277014,0.420048162000001,0.166176166,0.003121377,2.56220460600002,1.481316342,0.446802822000002,0.200957224,0.002526829,2.56800144900002,1.559796678,0.456166953000002,0.15458248,0.002229555,2.42308037400001,1.599036846,0.468206550000002,0.208686348,0.003418651,2.50423617600002,1.608846888,0.434763225000001,0.216415472,0.001932281,2.53901723400002,1.589226804,0.466868817000002,0.146853356,0.002229555,2.53322039100002,1.442076174,0.466868817000002,0.200957224,0.004161836,2.51582986200002,1.432266132,0.450816021000002,0.21255091,0.001932281,2.60278250700002,1.56960672,0.457504686000002,0.139124232,0.003567288,2.41728353100001,1.638277014,0.470882016000002,0.15458248
"10",0.003121377,2.76509411100002,1.461696258,0.421385895000001,0.146853356,0.002378192,2.70132883800002,1.334165712,0.449478288000002,0.177769852,0.002378192,2.67814146600002,1.42245609,0.469544283000002,0.100478612,0.002080918,2.55061092000002,1.442076174,0.473557482000002,0.17390529,0.002675466,2.66075093700002,1.461696258,0.437438691000001,0.181634414,0.00148637,2.65495409400002,1.500936426,0.464193351000002,0.123665984,0.001783644,2.68393830900002,1.255685376,0.481583880000002,0.142988794,0.003418651,2.63176672200002,1.304735586,0.457504686000002,0.185498976,0.001635007,2.76509411100002,1.402836006,0.457504686000002,0.104343174,0.003121377,2.53322039100002,1.56960672,0.468206550000002,0.123665984
"11",0.002080918,2.88682781400002,1.314545628,0.429412293000001,0.127530546,0.001932281,2.78828148300002,1.27530546,0.464193351000002,0.112072298,0.001932281,2.80567201200002,1.314545628,0.476232948000002,0.050239306,0.001932281,2.69553199500002,1.334165712,0.482921613000002,0.09661405,0.002229555,2.76509411100002,1.363595838,0.452153754000002,0.119801422,0.001635007,2.79987516900002,1.353785796,0.466868817000002,0.073426678,0.000743185,2.79987516900002,1.157584956,0.488272545000002,0.112072298,0.001932281,2.73610989600002,1.22625525,0.477570681000002,0.127530546,0.001635007,2.89842150000002,1.265495418,0.462855618000002,0.054103868,0.002080918,2.68393830900002,1.481316342,0.465531084000002,0.092749488
"12",0.002080918,3.01435836000002,1.206635166,0.424061361000001,0.100478612,0.001337733,2.92160887200002,1.17720504,0.456166953000002,0.100478612,0.001189096,2.92740571500002,1.167394998,0.469544283000002,0.065697554,0.00148637,2.88103097100002,1.157584956,0.472219749000002,0.085020364,0.001635007,2.89262465700002,1.187015082,0.452153754000002,0.119801422,0.001635007,2.95638993000002,1.157584956,0.461517885000002,0.061832992,0.000891822,2.90421834300002,1.069294578,0.478908414000002,0.100478612,0.001635007,2.89262465700002,1.118344788,0.465531084000002,0.108207736,0.001337733,3.04334257500002,1.118344788,0.449478288000002,0.061832992,0.001635007,2.78828148300002,1.383215922,0.464193351000002,0.07729124
"13",0.001635007,3.14188890600003,1.07910462,0.420048162000001,0.088884926,0.001337733,3.03174888900003,1.07910462,0.452153754000002,0.07729124,0.000743185,3.04913941800003,1.049674494,0.464193351000002,0.05796843,0.001337733,3.04334257500002,0.990814242000002,0.460180152000002,0.081155802,0.001783644,3.06073310400003,1.000624284,0.444127356000002,0.100478612,0.001040459,3.13609206300003,0.990814242000002,0.449478288000002,0.05796843,0.001040459,3.00856151700002,0.981004200000002,0.469544283000002,0.088884926,0.001783644,3.02595204600002,0.981004200000002,0.454829220000002,0.100478612,0.001040459,3.18826365000003,0.971194158000002,0.438776424000001,0.061832992,0.001189096,2.95638993000002,1.245875334,0.448140555000002,0.07729124
"14",0.00148637,3.23463839400003,1.000624284,0.413359497000001,0.081155802,0.001040459,3.15348259200003,0.941764032000001,0.446802822000002,0.073426678,0.000594548,3.16507627800003,0.941764032000001,0.458842419000002,0.042510182,0.001337733,3.14188890600003,0.892713822000001,0.454829220000002,0.069562116,0.001635007,3.19406049300003,0.892713822000001,0.430750026000001,0.09661405,0.001040459,3.25782576600003,0.902523864000001,0.436100958000001,0.050239306,0.001040459,3.10710784800003,0.863283696000001,0.465531084000002,0.081155802,0.001783644,3.12449837700003,0.863283696000001,0.457504686000002,0.073426678,0.001189096,3.26941945200003,0.892713822000001,0.429412293000001,0.061832992,0.001189096,3.11870153400003,1.108534746,0.438776424000001,0.050239306
"15",0.001337733,3.34477841100003,0.902523864000001,0.403995366000001,0.07729124,0.000891822,3.26362260900003,0.853473654000001,0.437438691000001,0.065697554,0.000743185,3.28101313800003,0.843663612000001,0.448140555000002,0.030916496,0.001189096,3.26941945200003,0.745563192000001,0.449478288000002,0.061832992,0.001337733,3.29840366700003,0.774993318000001,0.436100958000001,0.065697554,0.001337733,3.34477841100003,0.843663612000001,0.422723628000001,0.046374744,0.00148637,3.25782576600003,0.755373234000001,0.445465089000002,0.069562116,0.001635007,3.22304470800003,0.774993318000001,0.449478288000002,0.069562116,0.001189096,3.40274684100003,0.765183276000001,0.420048162000001,0.050239306,0.001337733,3.25782576600003,0.951574074000001,0.429412293000001,0.042510182
"16",0.00148637,3.45491842800003,0.784803360000001,0.398644434000001,0.061832992,0.001337733,3.40274684100003,0.706323024,0.425399094000001,0.054103868,0.000743185,3.43752789900003,0.68670294,0.434763225000001,0.027051934,0.000594548,3.37955946900003,0.63765273,0.441451890000002,0.069562116,0.001040459,3.44332474200003,0.63765273,0.424061361000001,0.065697554,0.001337733,3.54766791600003,0.58860252,0.412021764000001,0.042510182,0.00148637,3.39694999800003,0.618032646,0.437438691000001,0.054103868,0.001783644,3.36796578300003,0.657272814,0.440114157000002,0.042510182,0.001189096,3.55346475900003,0.63765273,0.409346298000001,0.030916496,0.00148637,3.39694999800003,0.784803360000001,0.418710429000001,0.042510182
"17",0.001635007,3.59983950300003,0.716133066,0.373227507,0.061832992,0.00148637,3.46651211400003,0.667082856,0.416034963000001,0.050239306,0.000743185,3.48969948600003,0.657272814,0.428074560000001,0.023187372,0.000594548,3.49549632900003,0.578792478,0.422723628000001,0.069562116,0.000743185,3.52448054400003,0.598412562,0.417372696000001,0.054103868,0.001783644,3.57665213100003,0.578792478,0.402657633000001,0.042510182,0.00148637,3.44912158500003,0.598412562,0.429412293000001,0.050239306,0.001635007,3.45491842800003,0.627842688,0.426736827000001,0.03864562,0.000891822,3.62302687500003,0.618032646,0.401319900000001,0.023187372,0.001337733,3.47810580000003,0.735753150000001,0.409346298000001,0.03864562
"18",0.001337733,3.68679214800004,0.657272814,0.363863376,0.061832992,0.00148637,3.53027738700003,0.618032646,0.413359497000001,0.034781058,0.001040459,3.54766791600003,0.618032646,0.420048162000001,0.015458248,0.000445911,3.55926160200003,0.529742268,0.418710429000001,0.061832992,0.000891822,3.64621424700003,0.549362352,0.395968968000001,0.050239306,0.00148637,3.66360477600004,0.53955231,0.390618036000001,0.042510182,0.00148637,3.55346475900003,0.58860252,0.408008565000001,0.046374744,0.00148637,3.55346475900003,0.598412562,0.409346298000001,0.03864562,0.000594548,3.66940161900004,0.598412562,0.395968968000001,0.023187372,0.001635007,3.56505844500003,0.676892898,0.397306701000001,0.030916496
"19",0.001189096,3.73316689200004,0.618032646,0.367876575,0.03864562,0.00148637,3.58824581700003,0.568982436,0.406670832000001,0.034781058,0.001635007,3.61723003200003,0.529742268,0.412021764000001,0.011593686,0.000297274,3.61143318900003,0.510122184,0.410684031000001,0.061832992,0.001189096,3.71577636300004,0.500312142,0.386604837000001,0.042510182,0.00148637,3.76215110700004,0.500312142,0.377240706,0.030916496,0.001635007,3.62302687500003,0.510122184,0.403995366000001,0.03864562,0.001189096,3.70418267700004,0.480692058,0.387942570000001,0.054103868,0.000743185,3.75635426400004,0.58860252,0.378578439,0.015458248,0.001635007,3.64041740400003,0.657272814,0.382591638000001,0.030916496
"20",0.001337733,3.80852585100004,0.578792478,0.357174711,0.030916496,0.001635007,3.65780793300004,0.559172394,0.394631235000001,0.023187372,0.001783644,3.69258899100004,0.470882016,0.402657633000001,0.007729124,0.000148637,3.72157320600004,0.431641848,0.401319900000001,0.050239306,0.001040459,3.77954163600004,0.480692058,0.377240706,0.03864562,0.001337733,3.87808796700004,0.431641848,0.362525643,0.027051934,0.001635007,3.68679214800004,0.480692058,0.395968968000001,0.030916496,0.001040459,3.77374479300004,0.470882016,0.37456524,0.054103868,0.001040459,3.84910375200004,0.568982436,0.359850177,0.007729124,0.00148637,3.73896373500004,0.578792478,0.370552041,0.034781058
"21",0.001040459,3.86069743800004,0.568982436,0.353161512,0.01932281,0.00148637,3.75055742100004,0.4905021,0.385267104000001,0.01932281,0.001783644,3.75635426400004,0.451261932,0.390618036000001,0.007729124,0.000148637,3.79113532200004,0.421831806,0.389280303000001,0.042510182,0.000743185,3.86069743800004,0.39240168,0.373227507,0.03864562,0.00148637,3.93025955400004,0.412021764,0.351823779,0.027051934,0.00148637,3.79113532200004,0.451261932,0.37456524,0.03864562,0.001189096,3.83171322300004,0.451261932,0.365201109,0.046374744,0.000891822,3.95344692600004,0.500312142,0.345135114,0.011593686,0.00148637,3.87808796700004,0.4905021,0.350486046,0.034781058
"22",0.001040459,3.95924376900004,0.510122184,0.338446449,0.01932281,0.001635007,3.82591638000004,0.461071974,0.371889774,0.015458248,0.002080918,3.83171322300004,0.412021764,0.37456524,0.011593686,0.000148637,3.87808796700004,0.402211722,0.375902973,0.030916496,0.000743185,3.93605639700004,0.362971554,0.36118791,0.034781058,0.001635007,4.01721219900004,0.353161512,0.339784182,0.023187372,0.001337733,3.86649428100004,0.412021764,0.363863376,0.03864562,0.001337733,3.94185324000004,0.382591638,0.350486046,0.03864562,0.001040459,4.00561851300004,0.510122184,0.330420051,0.011593686,0.00148637,3.94185324000004,0.4905021,0.339784182,0.023187372
"23",0.000891822,4.03460272800004,0.461071974,0.329082318,0.01932281,0.001635007,3.88388481000004,0.44145189,0.362525643,0.011593686,0.002378192,3.93025955400004,0.362971554,0.355836978,0.011593686,0.000445911,4.00561851300004,0.362971554,0.350486046,0.027051934,0.000891822,3.99402482700004,0.353161512,0.349148313,0.030916496,0.00148637,4.12155537300004,0.313921344,0.318380453999999,0.034781058,0.00148637,3.93605639700004,0.39240168,0.350486046,0.034781058,0.001337733,4.03460272800004,0.34335147,0.337108716,0.030916496,0.000891822,4.09836800100004,0.431641848,0.319718186999999,0.015458248,0.001337733,4.00561851300004,0.470882016,0.330420051,0.01932281
"24",0.001189096,4.09257115800004,0.44145189,0.315704987999999,0.01932281,0.001337733,3.97663429800004,0.382591638,0.353161512,0.007729124,0.002378192,3.97663429800004,0.353161512,0.346472847,0.011593686,0.000445911,4.06358694300004,0.362971554,0.337108716,0.027051934,0.001040459,4.08097747200004,0.333541428,0.330420051,0.030916496,0.001635007,4.22589854700004,0.235441008,0.306340856999999,0.027051934,0.001635007,3.98822798400004,0.372781596,0.338446449,0.03864562,0.00148637,4.11575853000004,0.333541428,0.32105592,0.023187372,0.000743185,4.15053958800004,0.421831806,0.309016322999999,0.01932281,0.00148637,4.06938378600004,0.44145189,0.317042720999999,0.023187372
"25",0.001040459,4.18532064600004,0.421831806,0.300989924999999,0.011593686,0.001337733,4.08677431500004,0.34335147,0.331757784,0.011593686,0.002378192,4.04039957100004,0.323731386,0.337108716,0.007729124,0.000743185,4.13894590200004,0.34335147,0.319718186999999,0.027051934,0.001189096,4.15053958800004,0.264871134,0.32105592,0.034781058,0.00148637,4.27227329100005,0.235441008,0.296976725999999,0.027051934,0.00148637,4.07518062900004,0.372781596,0.318380453999999,0.042510182,0.001337733,4.16793011700004,0.323731386,0.313029521999999,0.01932281,0.000743185,4.20850801800004,0.39240168,0.300989924999999,0.015458248,0.001337733,4.15053958800004,0.421831806,0.300989924999999,0.027051934
"26",0.00148637,4.26067960500005,0.372781596,0.284937128999999,0.015458248,0.000891822,4.16213327400004,0.313921344,0.322393653,0.011593686,0.002080918,4.13314905900004,0.284491218,0.322393653,0.011593686,0.001337733,4.18532064600004,0.323731386,0.310354055999999,0.015458248,0.001783644,4.23169539000004,0.235441008,0.305003123999999,0.023187372,0.001635007,4.33603856400005,0.215820924,0.283599395999999,0.027051934,0.00148637,4.15053958800004,0.313921344,0.310354055999999,0.03864562,0.001337733,4.27227329100005,0.284491218,0.295638992999999,0.015458248,0.000743185,4.29546066300005,0.34335147,0.286274861999999,0.01932281,0.001189096,4.25488276200004,0.372781596,0.286274861999999,0.023187372
"27",0.001337733,4.30705434900005,0.34335147,0.280923929999999,0.011593686,0.000891822,4.25488276200004,0.264871134,0.309016322999999,0.007729124,0.002080918,4.18532064600004,0.284491218,0.310354055999999,0.011593686,0.001635007,4.27807013400005,0.29430126,0.290288060999999,0.015458248,0.001635007,4.30705434900005,0.206010882,0.292963526999999,0.023187372,0.001040459,4.41139752300005,0.186390798,0.276910730999999,0.023187372,0.001189096,4.19111748900004,0.313921344,0.305003123999999,0.034781058,0.001189096,4.36502277900005,0.206010882,0.283599395999999,0.023187372,0.000891822,4.37661646500005,0.29430126,0.271559798999999,0.023187372,0.001189096,4.30705434900005,0.353161512,0.276910730999999,0.023187372
"28",0.001189096,4.36502277900005,0.34335147,0.266208866999999,0.01932281,0.001189096,4.35342909300005,0.206010882,0.291625793999999,0.007729124,0.001932281,4.27227329100005,0.255061092,0.295638992999999,0.011593686,0.001783644,4.34183540700005,0.284491218,0.275572997999999,0.015458248,0.00148637,4.37081962200005,0.206010882,0.280923929999999,0.01932281,0.001189096,4.48095963900005,0.156960672,0.264871133999999,0.01932281,0.001040459,4.28966382000005,0.29430126,0.287612594999999,0.030916496,0.001040459,4.39980383700005,0.19620084,0.279586196999999,0.01932281,0.001040459,4.45197542400005,0.264871134,0.256844735999999,0.023187372,0.000743185,4.34763225000005,0.353161512,0.270222065999999,0.027051934
"29",0.001189096,4.41139752300005,0.333541428,0.256844735999999,0.01932281,0.001189096,4.41719436600005,0.206010882,0.278248463999999,0.003864562,0.001635007,4.31285119200005,0.235441008,0.290288060999999,0.015458248,0.002080918,4.41719436600005,0.255061092,0.260857934999999,0.011593686,0.00148637,4.44617858100005,0.176580756,0.268884332999999,0.015458248,0.001040459,4.55631859800005,0.137340588,0.250156070999999,0.023187372,0.001337733,4.34763225000005,0.264871134,0.276910730999999,0.027051934,0.001040459,4.47516279600005,0.156960672,0.267546599999999,0.01932281,0.001189096,4.53892806900005,0.225630966,0.239454207,0.027051934,0.000743185,4.41719436600005,0.34335147,0.255507002999999,0.027051934
"30",0.001040459,4.50414701100005,0.29430126,0.242129672999999,0.01932281,0.001040459,4.46356911000005,0.206010882,0.266208866999999,0.011593686,0.001635007,4.37661646500005,0.215820924,0.278248463999999,0.015458248,0.002080918,4.50414701100005,0.235441008,0.244805138999999,0.007729124,0.001337733,4.53313122600005,0.176580756,0.251493803999999,0.011593686,0.001337733,4.60849018500005,0.107910462,0.24079194,0.01932281,0.001337733,4.39980383700005,0.274681176,0.266208866999999,0.01932281,0.001189096,4.52153754000005,0.156960672,0.254169269999999,0.023187372,0.001189096,4.59689649900005,0.215820924,0.230090076,0.01932281,0.000743185,4.50994385400005,0.284491218,0.242129672999999,0.027051934
"31",0.001189096,4.57950597000005,0.24525105,0.230090076,0.01932281,0.001189096,4.56211544100005,0.19620084,0.243467405999999,0.011593686,0.001932281,4.41719436600005,0.206010882,0.268884332999999,0.011593686,0.002080918,4.55631859800005,0.235441008,0.234103275,0.003864562,0.001337733,4.59109965600005,0.156960672,0.24079194,0.011593686,0.001040459,4.65486492900005,0.117720504,0.231427809,0.01932281,0.00148637,4.46356911000005,0.235441008,0.255507002999999,0.01932281,0.001337733,4.56791228400005,0.117720504,0.247480604999999,0.023187372,0.001189096,4.64906808600005,0.206010882,0.220725945,0.015458248,0.000594548,4.56211544100005,0.274681176,0.235441008,0.01932281
"32",0.001189096,4.63747440000005,0.235441008,0.219388212,0.015458248,0.001189096,4.61428702800005,0.156960672,0.236778741,0.011593686,0.001337733,4.46936595300005,0.19620084,0.262195667999999,0.015458248,0.002229555,4.62588071400005,0.186390798,0.224739144,NA,0.00148637,4.67805230100005,0.127530546,0.223401411,0.011593686,0.001189096,4.70703651600005,0.137340588,0.218050479,0.011593686,0.00148637,4.52733438300005,0.235441008,0.239454207,0.023187372,0.001337733,4.62008387100005,0.117720504,0.235441008,0.023187372,0.001040459,4.69544283000005,0.176580756,0.215375013,0.015458248,0.000594548,4.63747440000005,0.24525105,0.220725945,0.023187372
"33",0.001189096,4.70123967300005,0.176580756,0.21403728,0.011593686,0.00148637,4.66645861500005,0.14715063,0.223401411,0.011593686,0.00148637,4.54472491200005,0.206010882,0.242129672999999,0.015458248,0.002080918,4.67225545800005,0.186390798,0.215375013,NA,0.001337733,4.70703651600005,0.137340588,0.216712746,0.011593686,0.001337733,4.79398916100005,0.137340588,0.197984484,0.007729124,0.001189096,4.56211544100005,0.235441008,0.236778741,0.015458248,0.001189096,4.67805230100005,0.117720504,0.223401411,0.023187372,0.001040459,4.78239547500005,0.176580756,0.195309018,0.015458248,0.000594548,4.70123967300005,0.215820924,0.210024081,0.023187372
"34",0.00148637,4.78239547500005,0.127530546,0.20065995,0.007729124,0.00148637,4.74181757400005,0.117720504,0.208686348,0.015458248,0.001635007,4.60269334200005,0.186390798,0.228752343,0.01932281,0.001932281,4.74181757400005,0.156960672,0.203335416,0.003864562,0.001337733,4.78239547500005,0.127530546,0.20065995,0.011593686,0.001189096,4.85775443400005,0.127530546,0.185944887,0.007729124,0.001337733,4.58530281300005,0.215820924,0.234103275,0.011593686,0.001189096,4.73022388800005,0.127530546,0.210024081,0.023187372,0.000891822,4.84036390500005,0.166770714,0.185944887,0.011593686,0.000445911,4.79398916100005,0.166770714,0.196646751,0.023187372
"35",0.00148637,4.82877021900005,0.117720504,0.191295819,0.007729124,0.00148637,4.79978600400005,0.117720504,0.197984484,0.007729124,0.001337733,4.65486492900005,0.186390798,0.218050479,0.023187372,0.00148637,4.78239547500005,0.14715063,0.197984484,0.007729124,0.001189096,4.80558284700005,0.137340588,0.196646751,0.007729124,0.001040459,4.89253549200006,0.117720504,0.181931688,0.003864562,0.001040459,4.62588071400005,0.206010882,0.228752343,0.011593686,0.001189096,4.79398916100005,0.117720504,0.196646751,0.023187372,0.001040459,4.88673864900006,0.14715063,0.176580756,0.011593686,0.000594548,4.81137969000005,0.166770714,0.193971285,0.015458248
"36",0.001040459,4.92151970700006,0.107910462,0.172567557,0.015458248,0.001635007,4.85195759100005,0.088290378,0.188620353,0.007729124,0.00148637,4.71863020200005,0.186390798,0.201997683,0.023187372,0.000891822,4.85775443400005,0.127530546,0.188620353,0.007729124,0.000594548,4.84616074800006,0.14715063,0.189958086,0.011593686,0.001189096,4.95630076500006,0.117720504,0.165878892,0.003864562,0.000891822,4.71283335900005,0.206010882,0.208686348,0.015458248,0.000743185,4.81717653300005,0.117720504,0.193971285,0.027051934,0.001189096,4.96209760800006,0.137340588,0.159190227,0.011593686,0.000445911,4.88094180600006,0.166770714,0.181931688,0.007729124
"37",0.00148637,4.96209760800006,0.117720504,0.157852494,0.015458248,0.001635007,4.88673864900006,0.09810042,0.179256222,0.007729124,0.001635007,4.77659863200005,0.186390798,0.18728262,0.023187372,0.000594548,4.94470707900006,0.117720504,0.172567557,0.007729124,0.000891822,4.87514496300006,0.14715063,0.180593955,0.011593686,0.00148637,4.99108182300006,0.107910462,0.156514761,0.003864562,0.001040459,4.74761441700005,0.215820924,0.199322217,0.011593686,0.000743185,4.85775443400005,0.117720504,0.184607154,0.027051934,0.001189096,5.02006603800006,0.127530546,0.14715063,0.011593686,0.000743185,4.91572286400006,0.166770714,0.169892091,0.011593686
"38",0.001337733,5.03745656700006,0.137340588,0.139124232,0.015458248,0.00148637,4.96209760800006,0.107910462,0.163203426,0.003864562,0.001783644,4.85775443400005,0.215820924,0.164541159,0.01932281,0.000594548,5.08962815400006,0.09810042,0.141799698,0.007729124,0.000891822,5.00267550900006,0.137340588,0.152501562,0.011593686,0.001189096,5.09542499700006,0.09810042,0.135111033,0.007729124,0.001040459,4.87514496300006,0.215820924,0.168554358,0.015458248,0.001040459,4.95050392200006,0.107910462,0.163203426,0.023187372,0.001040459,5.13600289800006,0.127530546,0.121733703,0.011593686,0.000891822,5.00847235200006,0.166770714,0.148488363,0.007729124
"39",0.001337733,5.08383131100006,0.127530546,0.129760101,0.015458248,0.00148637,5.05484709600006,0.107910462,0.141799698,0.003864562,0.001635007,4.93311339300006,0.225630966,0.14715063,0.01932281,0.000743185,5.14759658400006,0.088290378,0.129760101,0.003864562,0.000743185,5.11281552600006,0.127530546,0.129760101,0.011593686,0.001337733,5.19976817100005,0.078480336,0.112369572,0.007729124,0.001040459,5.00267550900006,0.186390798,0.144475164,0.011593686,0.001189096,5.03745656700006,0.107910462,0.143137431,0.01932281,0.001337733,5.16498711300005,0.117720504,0.113707305,0.011593686,0.001040459,5.08962815400006,0.137340588,0.132435567,0.007729124
"40",0.00148637,5.13600289800006,0.137340588,0.116382771,0.011593686,0.00148637,5.14179974100006,0.117720504,0.12039597,0.003864562,0.001783644,5.02586288100006,0.255061092,0.121733703,0.015458248,0.001040459,5.21136185700005,0.117720504,0.108356373,0.003864562,0.000743185,5.14759658400006,0.127530546,0.123071436,0.007729124,0.001337733,5.26353344400005,0.068670294,0.0989922420000001,0.007729124,0.001189096,5.07803446800006,0.186390798,0.128422368,0.003864562,0.001040459,5.13020605500006,0.117720504,0.125746902,0.007729124,0.001040459,5.24614291500005,0.107910462,0.0989922420000001,0.011593686,0.001040459,5.17078395600005,0.127530546,0.116382771,0.003864562
"41",0.00148637,5.21715870000005,0.09810042,0.105680907,0.003864562,0.00148637,5.19976817100005,0.117720504,0.105680907,0.007729124,0.001337733,5.13020605500006,0.255061092,0.103005441,0.011593686,0.001189096,5.28092397300005,0.09810042,0.092303577,0.007729124,0.001189096,5.17658079900005,0.127530546,0.113707305,0.003864562,0.001337733,5.30990818800004,0.058860252,0.089628111,0.007729124,0.001040459,5.18237764200005,0.19620084,0.104343174,0.003864562,0.001040459,5.18817448500005,0.107910462,0.113707305,0.007729124,0.001040459,5.35048608900004,0.107910462,0.074913048,0.011593686,0.001040459,5.23454922900005,0.107910462,0.104343174,0.003864562
"42",0.00148637,5.26353344400005,0.088290378,0.094979043,0.007729124,0.001337733,5.26933028700005,0.117720504,0.092303577,0.003864562,0.00148637,5.15919027000005,0.255061092,0.094979043,0.011593686,0.001337733,5.33889240300004,0.088290378,0.078926247,0.007729124,0.001337733,5.24034607200005,0.09810042,0.101667708,0.003864562,0.001189096,5.39106399000004,0.04905021,0.074913048,0.003864562,0.001040459,5.22295554300005,0.19620084,0.094979043,0.003864562,0.000891822,5.25193975800005,0.107910462,0.100329975,0.007729124,0.001040459,5.40845451900003,0.09810042,0.065548917,0.003864562,0.000891822,5.29251765900004,0.107910462,0.09364131,NA
"43",0.002080918,5.27512713000005,0.09810042,0.086952645,0.003864562,0.001189096,5.34468924600004,0.107910462,0.078926247,NA,0.001189096,5.22875238600005,0.24525105,0.084277179,0.007729124,0.001337733,5.40265767600004,0.088290378,0.064211184,0.007729124,0.001635007,5.29251765900004,0.09810042,0.088290378,NA,0.001189096,5.40845451900003,0.058860252,0.069562116,0.003864562,0.001040459,5.27512713000005,0.19620084,0.082939446,0.003864562,0.000891822,5.32150187400004,0.107910462,0.082939446,0.011593686,0.001189096,5.44323557700003,0.09810042,0.056184786,0.003864562,0.000891822,5.35628293200004,0.088290378,0.081601713,NA
"44",0.002080918,5.34468924600004,0.088290378,0.072237582,0.003864562,0.001189096,5.39106399000004,0.107910462,0.068224383,NA,0.001040459,5.29831450200004,0.235441008,0.070899849,0.007729124,0.001337733,5.43164189100003,0.088290378,0.058860252,0.003864562,0.001783644,5.32729871700004,0.088290378,0.08026398,NA,0.001337733,5.43164189100003,0.058860252,0.062873451,0.003864562,0.001040459,5.33889240300004,0.206010882,0.06688665,0.003864562,0.000891822,5.35628293200004,0.107910462,0.074913048,0.011593686,0.001337733,5.48381347800003,0.078480336,0.049496121,NA,0.000891822,5.40845451900003,0.068670294,0.072237582,NA
"45",0.002378192,5.35628293200004,0.09810042,0.065548917,0.003864562,0.00148637,5.39106399000004,0.117720504,0.062873451,0.003864562,0.001337733,5.35628293200004,0.206010882,0.061535718,NA,0.001337733,5.48381347800003,0.088290378,0.048158388,NA,0.001635007,5.38526714700004,0.09810042,0.06688665,NA,0.001337733,5.49540716400003,0.058860252,0.046820655,0.007729124,0.00148637,5.36787661800004,0.206010882,0.057522519,NA,0.000891822,5.39106399000004,0.107910462,0.06688665,0.011593686,0.001635007,5.49540716400003,0.088290378,0.042807456,NA,0.001040459,5.43743873400003,0.078480336,0.061535718,0.003864562
"46",0.002526829,5.37367346100004,0.09810042,0.060197985,0.003864562,0.001189096,5.42584504800003,0.107910462,0.058860252,0.003864562,0.001189096,5.36207977500004,0.225630966,0.058860252,NA,0.001337733,5.52439137900003,0.078480336,0.04013199,NA,0.001783644,5.40265767600004,0.088290378,0.062873451,NA,0.001337733,5.51279769300003,0.039240168,0.045482922,0.007729124,0.00148637,5.39686083300004,0.19620084,0.052171587,NA,0.000891822,5.42004820500003,0.127530546,0.057522519,0.011593686,0.001932281,5.50120400700003,0.078480336,0.04013199,NA,0.001635007,5.43743873400003,0.078480336,0.056184786,0.003864562
"47",0.002526829,5.37367346100004,0.127530546,0.056184786,0.003864562,0.001040459,5.44323557700003,0.117720504,0.054847053,0.003864562,0.001337733,5.36207977500004,0.215820924,0.058860252,NA,0.001337733,5.52439137900003,0.088290378,0.038794257,NA,0.00148637,5.46642294900003,0.088290378,0.050833854,NA,0.001040459,5.54178190800002,0.029430126,0.042807456,0.007729124,0.00148637,5.43743873400003,0.166770714,0.046820655,NA,0.000891822,5.44323557700003,0.137340588,0.052171587,0.007729124,0.001783644,5.52439137900003,0.068670294,0.037456524,NA,0.001337733,5.47221979200003,0.088290378,0.049496121,0.003864562
"48",0.002378192,5.42584504800003,0.127530546,0.045482922,0.003864562,0.00148637,5.46642294900003,0.117720504,0.045482922,0.003864562,0.001189096,5.37947030400004,0.215820924,0.056184786,NA,0.00148637,5.51859453600003,0.088290378,0.038794257,NA,0.00148637,5.50120400700003,0.078480336,0.044145189,NA,0.001337733,5.53598506500002,0.029430126,0.04013199,0.011593686,0.001635007,5.46642294900003,0.166770714,0.037456524,0.003864562,0.000743185,5.49540716400003,0.14715063,0.041469723,0.003864562,0.002229555,5.51279769300003,0.068670294,0.036118791,NA,0.001783644,5.50120400700003,0.078480336,0.04013199,0.003864562
"49",0.002526829,5.43743873400003,0.117720504,0.042807456,0.003864562,0.002080918,5.44903242000003,0.117720504,0.044145189,0.003864562,0.00148637,5.38526714700004,0.206010882,0.05350932,NA,0.001783644,5.51279769300003,0.088290378,0.037456524,NA,0.00148637,5.50700085000003,0.088290378,0.041469723,NA,0.001337733,5.53598506500002,0.029430126,0.041469723,0.007729124,0.00148637,5.47801663500003,0.156960672,0.037456524,0.003864562,0.000743185,5.50700085000003,0.127530546,0.041469723,0.003864562,0.001932281,5.51279769300003,0.088290378,0.034781058,0.003864562,0.00148637,5.51279769300003,0.078480336,0.04013199,0.003864562
"50",0.002378192,5.44323557700003,0.117720504,0.042807456,0.003864562,0.002080918,5.47801663500003,0.09810042,0.04013199,0.003864562,0.001932281,5.40265767600004,0.186390798,0.046820655,0.003864562,0.001783644,5.50120400700003,0.09810042,0.037456524,0.003864562,0.00148637,5.53018822200003,0.078480336,0.037456524,NA,0.00148637,5.55337559400002,0.019620084,0.037456524,0.007729124,0.001635007,5.46642294900003,0.166770714,0.037456524,0.003864562,0.000891822,5.50700085000003,0.127530546,0.038794257,0.007729124,0.002378192,5.50700085000003,0.088290378,0.032105592,0.003864562,0.00148637,5.52439137900003,0.068670294,0.037456524,0.007729124
"51",0.002675466,5.44903242000003,0.107910462,0.04013199,0.003864562,0.002229555,5.48961032100003,0.107910462,0.034781058,0.003864562,0.002378192,5.40845451900003,0.176580756,0.042807456,0.003864562,0.00148637,5.51279769300003,0.09810042,0.037456524,0.003864562,0.00148637,5.50700085000003,0.088290378,0.04013199,0.003864562,0.00148637,5.55337559400002,0.029430126,0.037456524,0.003864562,0.001635007,5.46642294900003,0.156960672,0.038794257,0.003864562,0.000743185,5.50700085000003,0.127530546,0.041469723,0.003864562,0.002378192,5.51279769300003,0.088290378,0.030767859,0.003864562,0.00148637,5.54757875100002,0.068670294,0.033443325,0.003864562
"52",0.002675466,5.44903242000003,0.117720504,0.038794257,0.003864562,0.002675466,5.47801663500003,0.09810042,0.034781058,0.003864562,0.002378192,5.39686083300004,0.186390798,0.044145189,0.003864562,0.001337733,5.50700085000003,0.107910462,0.037456524,0.007729124,0.00148637,5.49540716400003,0.117720504,0.038794257,0.003864562,0.00148637,5.54757875100002,0.029430126,0.038794257,0.003864562,0.00148637,5.47801663500003,0.137340588,0.038794257,0.007729124,0.000743185,5.50700085000003,0.137340588,0.04013199,0.003864562,0.002378192,5.50700085000003,0.09810042,0.030767859,0.003864562,0.001635007,5.54757875100002,0.058860252,0.033443325,0.003864562
"53",0.002229555,5.45482926300003,0.107910462,0.042807456,0.003864562,0.002378192,5.47801663500003,0.107910462,0.033443325,0.011593686,0.002378192,5.40265767600004,0.186390798,0.042807456,0.003864562,0.001635007,5.51279769300003,0.09810042,0.034781058,0.007729124,0.001635007,5.50120400700003,0.117720504,0.036118791,0.003864562,0.001337733,5.54757875100002,0.029430126,0.04013199,0.003864562,0.001635007,5.47801663500003,0.137340588,0.037456524,0.007729124,0.000743185,5.51859453600003,0.127530546,0.038794257,0.003864562,0.002080918,5.50700085000003,0.09810042,0.032105592,0.007729124,0.001783644,5.54757875100002,0.058860252,0.030767859,0.007729124
"54",0.002378192,5.43743873400003,0.117720504,0.044145189,0.003864562,0.002526829,5.46642294900003,0.117720504,0.034781058,0.007729124,0.002675466,5.41425136200003,0.156960672,0.042807456,NA,0.001635007,5.52439137900003,0.09810042,0.032105592,0.007729124,0.001635007,5.50700085000003,0.117720504,0.034781058,0.003864562,0.00148637,5.54178190800002,0.029430126,0.04013199,0.003864562,0.00148637,5.48961032100003,0.127530546,0.037456524,0.007729124,0.000891822,5.51859453600003,0.127530546,0.036118791,0.007729124,0.001932281,5.50120400700003,0.107910462,0.032105592,0.011593686,0.001932281,5.54178190800002,0.068670294,0.029430126,0.007729124
"55",0.002080918,5.44323557700003,0.117720504,0.044145189,0.007729124,0.002526829,5.47221979200003,0.107910462,0.034781058,0.007729124,0.002526829,5.42584504800003,0.127530546,0.045482922,NA,0.001635007,5.54178190800002,0.078480336,0.032105592,0.003864562,0.001635007,5.50120400700003,0.117720504,0.033443325,0.011593686,0.00148637,5.55337559400002,0.039240168,0.036118791,0.003864562,0.001040459,5.49540716400003,0.127530546,0.04013199,0.007729124,0.000891822,5.52439137900003,0.117720504,0.036118791,0.007729124,0.001783644,5.50120400700003,0.107910462,0.033443325,0.011593686,0.001932281,5.53018822200003,0.078480336,0.030767859,0.007729124
"56",0.001932281,5.45482926300003,0.107910462,0.045482922,0.003864562,0.002526829,5.47801663500003,0.107910462,0.033443325,0.007729124,0.002526829,5.43164189100003,0.117720504,0.045482922,NA,0.001783644,5.54178190800002,0.068670294,0.032105592,0.003864562,0.001635007,5.50120400700003,0.107910462,0.034781058,0.011593686,0.001337733,5.54757875100002,0.039240168,0.037456524,0.007729124,0.001040459,5.50120400700003,0.117720504,0.04013199,0.007729124,0.000891822,5.53598506500002,0.117720504,0.033443325,0.007729124,0.001932281,5.50120400700003,0.09810042,0.033443325,0.011593686,0.001932281,5.51279769300003,0.088290378,0.033443325,0.007729124
"57",0.001783644,5.44903242000003,0.107910462,0.048158388,0.003864562,0.002378192,5.47801663500003,0.09810042,0.034781058,0.011593686,0.002378192,5.42584504800003,0.127530546,0.046820655,NA,0.001783644,5.54178190800002,0.088290378,0.029430126,0.003864562,0.001783644,5.49540716400003,0.107910462,0.036118791,0.007729124,0.001189096,5.54757875100002,0.039240168,0.037456524,0.011593686,0.000891822,5.50120400700003,0.117720504,0.041469723,0.007729124,0.001040459,5.54178190800002,0.117720504,0.032105592,0.003864562,0.002229555,5.47801663500003,0.117720504,0.033443325,0.011593686,0.002675466,5.48961032100003,0.09810042,0.030767859,0.007729124
"58",0.001783644,5.46642294900003,0.09810042,0.044145189,0.007729124,0.002080918,5.47801663500003,0.09810042,0.037456524,0.011593686,0.002378192,5.43164189100003,0.117720504,0.046820655,NA,0.001932281,5.53598506500002,0.088290378,0.029430126,0.003864562,0.001932281,5.48961032100003,0.107910462,0.036118791,0.007729124,0.001040459,5.55337559400002,0.039240168,0.037456524,0.011593686,0.000594548,5.50700085000003,0.107910462,0.042807456,0.011593686,0.001040459,5.54757875100002,0.117720504,0.030767859,0.003864562,0.001635007,5.49540716400003,0.09810042,0.033443325,0.023187372,0.002229555,5.48381347800003,0.09810042,0.034781058,0.011593686
"59",0.001635007,5.46062610600003,0.09810042,0.046820655,0.007729124,0.001783644,5.47221979200003,0.09810042,0.041469723,0.011593686,0.002080918,5.43743873400003,0.09810042,0.049496121,0.003864562,0.001783644,5.53598506500002,0.088290378,0.030767859,0.003864562,0.001932281,5.48381347800003,0.117720504,0.036118791,0.007729124,0.001189096,5.54757875100002,0.039240168,0.038794257,0.007729124,0.000445911,5.53598506500002,0.088290378,0.04013199,0.011593686,0.001040459,5.54757875100002,0.107910462,0.032105592,0.003864562,0.001932281,5.48381347800003,0.09810042,0.034781058,0.01932281,0.002378192,5.48381347800003,0.09810042,0.033443325,0.011593686
"60",0.001783644,5.46062610600003,0.088290378,0.048158388,0.003864562,0.001783644,5.46062610600003,0.117720504,0.042807456,0.007729124,0.001783644,5.43743873400003,0.09810042,0.05350932,NA,0.001337733,5.53598506500002,0.088290378,0.032105592,0.011593686,0.002080918,5.48961032100003,0.107910462,0.034781058,0.007729124,0.001040459,5.54757875100002,0.039240168,0.041469723,0.003864562,0.000594548,5.52439137900003,0.088290378,0.04013199,0.015458248,0.000891822,5.55917243700002,0.088290378,0.033443325,0.003864562,0.00148637,5.48961032100003,0.088290378,0.038794257,0.01932281,0.002824103,5.47221979200003,0.088290378,0.032105592,0.015458248
