"","Totals (means)","CI","95 Confidence Interval-Low","95 Confidence Interval-High"
"Reticulated Flatwoods Salamander",4.45316907792192,0.0012303731054323,4.45193870481648,4.45439945102735
"pineland bogbutton",3.09087910796598,0.00125832423311199,3.08962078373287,3.09213743219909
"Red-Cockaded Woodpecker",26478.0849243036,5.51330180179417,26472.5716225018,26483.5982261054
"Gulf Coast redflower pitcherplant",216.01475416711,0.0423489074419436,215.972405259668,216.057103074552
"Panhandle lily",15.5882273458236,0.00625679009771024,15.5819705557259,15.5944841359213
"Harper's yellow-eyed grass",6.30418926407856,0.000306618767885722,6.30388264531067,6.30449588284644
"Pond Rush",0.0021890360403225,2.38615413697472e-05,0.00216517449895275,0.00221289758169224
"Curtiss' sandgrass",40.8365132848089,0.00429241028622321,40.8322208745226,40.8408056950951
"Panhandle meadowbeauty",4.65802144166284,0.00726145643772185,4.65075998522512,4.66528289810056
"West's flax",9.319397735908,0.00470448321587717,9.31469325269213,9.32410221912388
"pinewoods bluestem",0.0178250077569118,0.000194301122582227,0.0176307066343295,0.018019308879494
"pine barrens tree frog",414.805772234636,0.144466049085804,414.661306185551,414.950238283722
"Florida pine snake",370.843369999378,0.145828890834188,370.697541108544,370.989198890212
"smallflowered meadow-beauty",2.28569526877054,0.00320348946590376,2.28249177930463,2.28889875823644
