"","Early1.ALL","Late1.CLS","Late1.OPN","Mid1.CLS","Mid1.OPN","Early1.ALL.1","Late1.CLS.1","Late1.OPN.1","Mid1.CLS.1","Mid1.OPN.1","Early1.ALL.2","Late1.CLS.2","Late1.OPN.2","Mid1.CLS.2","Mid1.OPN.2","Early1.ALL.3","Late1.CLS.3","Late1.OPN.3","Mid1.CLS.3","Mid1.OPN.3","Early1.ALL.4","Late1.CLS.4","Late1.OPN.4","Mid1.CLS.4","Mid1.OPN.4","Early1.ALL.5","Late1.CLS.5","Late1.OPN.5","Mid1.CLS.5","Mid1.OPN.5","Early1.ALL.6","Late1.CLS.6","Late1.OPN.6","Mid1.CLS.6","Mid1.OPN.6","Early1.ALL.7","Late1.CLS.7","Late1.OPN.7","Mid1.CLS.7","Mid1.OPN.7","Early1.ALL.8","Late1.CLS.8","Late1.OPN.8","Mid1.CLS.8","Mid1.OPN.8","Early1.ALL.9","Late1.CLS.9","Late1.OPN.9","Mid1.CLS.9","Mid1.OPN.9"
"0",4.40114157000001,80.7104855480002,72.1038086999998,32.3459380290001,1.997532643,5.00981008500001,80.9725325790002,62.9269603199998,32.3459380290001,2.311751261,5.19709270500001,81.7586736720002,65.2211724149998,31.33862508,2.199530326,4.40114157000001,74.4213568040001,67.8431290949998,34.2486402660001,2.446416383,4.91616877500001,79.6622974240002,66.8598953399998,34.3605639270001,1.79553496,4.12021764000001,79.1382033620002,69.4818520199998,33.8009456220001,2.154641952,5.57165794500001,79.6622974240002,62.9269603199998,32.010167046,2.221974513,5.15027205000001,72.5870275870001,68.4986182649998,32.9055563340001,2.46886057,4.35432091500001,79.1382033620002,61.9437265649999,36.0394188420001,2.109753578,4.91616877500001,80.9725325790002,64.5656832449998,30.779006775,2.558637318
"1",4.02657633,83.0689088270002,72.1038086999998,32.4578616900001,1.952644269,4.44796222500001,83.5930028890002,63.2547049049998,32.6817090120001,2.266862887,4.91616877500001,83.0689088270002,65.2211724149998,31.562472402,2.177086139,3.792473055,76.5177330520001,69.1541074349998,35.2559532150001,2.266862887,4.073396985,81.7586736720002,67.5153845099998,35.1440295540001,1.817979147,3.55836978,81.2345796100002,70.4650857749998,34.0247929440001,2.132197765,4.68206550000001,82.2827677340002,62.9269603199998,33.3532509780001,2.154641952,4.58842419000001,75.9936389900001,68.4986182649998,33.8009456220001,2.266862887,3.605190435,81.4966266410002,62.5992157349998,37.7182737570001,1.885311708,4.12021764000001,82.0207207030002,64.8934278299998,33.0174799950001,2.379083822
"2",3.698831745,85.1652850750003,73.0870424549998,33.4651746390001,1.660869838,3.698831745,84.6411910130003,64.5656832449998,33.9128692830001,2.199530326,3.979755675,86.2134731990003,66.5321507549998,31.674396063,2.2444187,3.27744585,78.3520622690002,70.1373411899998,35.9274951810001,2.154641952,3.605190435,82.8068617960002,67.8431290949998,36.1513425030001,1.728202399,2.762418645,83.8550499200003,71.1205749449998,35.1440295540001,2.01997683,3.792473055,83.8550499200003,63.9101940749998,34.5844112490001,2.132197765,3.698831745,77.5659211760001,69.8095966049998,35.3678768760001,2.154641952,3.09016323,83.8550499200003,63.5824494899998,37.8301974180001,1.840423334,3.55836978,82.8068617960002,65.8766615849998,34.6963349100001,2.177086139
"3",2.99652192,87.7857553850003,73.0870424549998,34.3605639270001,1.593537277,2.90288061,86.2134731990003,65.8766615849998,34.8082585710001,2.177086139,3.27744585,88.5718964780003,67.8431290949998,33.1294036560001,1.997532643,2.62195668,80.4484385170002,70.4650857749998,36.8228844690001,2.087309391,3.27744585,85.4273321060003,68.4986182649998,35.8155715200001,1.683314025,2.62195668,86.9996142920003,71.1205749449998,35.1440295540001,1.817979147,3.136983885,84.9032380440003,65.2211724149998,35.8155715200001,2.01997683,3.18380454,78.8761563310002,70.7928303599998,36.5990371470001,1.975088456,2.668777335,86.7375672610003,63.9101940749998,38.2778920620001,1.683314025,2.90288061,84.6411910130003,66.5321507549998,36.1513425030001,1.997532643
"4",2.575136025,89.0959905400003,74.3980207949998,34.6963349100001,1.526204716,2.575136025,87.7857553850003,66.8598953399998,34.8082585710001,2.132197765,2.52831537,91.1923667880004,68.4986182649998,34.3605639270001,1.840423334,2.200570785,81.4966266410002,70.4650857749998,38.0540447400001,1.952644269,2.762418645,88.0478024160003,68.8263628499998,35.8155715200001,1.683314025,1.826005545,87.7857553850003,71.4483195299998,37.3825027740001,1.660869838,2.387853405,86.4755202300003,65.2211724149998,36.8228844690001,2.042421017,2.71559799,82.2827677340002,71.4483195299998,36.1513425030001,1.952644269,1.8728262,90.9303197570004,64.8934278299998,39.2852050110002,1.436427968,2.668777335,86.7375672610003,67.1876399249998,36.2632661640001,1.862867521
"5",2.387853405,90.9303197570004,74.7257653799998,35.1440295540001,1.34665122,2.106929475,90.4062256950004,67.5153845099998,35.3678768760001,1.975088456,2.294212095,92.2405549120004,68.8263628499998,35.1440295540001,1.683314025,1.638722925,83.0689088270002,70.7928303599998,38.0540447400001,2.064865204,2.294212095,89.3580375710003,69.8095966049998,36.9348081300001,1.503760529,1.638722925,89.6200846020003,72.1038086999998,37.6063500960001,1.503760529,2.15375013,88.3098494470003,66.2044061699998,37.7182737570001,1.750646586,2.200570785,85.6893791370003,71.7760641149998,36.2632661640001,1.862867521,1.545081615,93.2887430360004,65.5489169999998,39.6209759940002,1.279318659,2.34103275,87.7857553850003,67.5153845099998,37.3825027740001,1.683314025
"6",1.8728262,98.5296836560005,69.4818520199998,35.3678768760001,1.256874472,1.545081615,96.4333074080005,64.5656832449998,36.1513425030001,1.773090773,1.732364235,97.7435425630005,64.2379386599998,36.3751898250001,1.548648903,1.451440305,87.2616613230003,68.4986182649998,38.5017393840002,1.862867521,2.15375013,95.3851192840004,67.5153845099998,36.4871134860001,1.301762846,1.31097834,96.4333074080005,67.8431290949998,37.8301974180001,1.324207033,1.638722925,93.8128370980004,60.9604928099999,38.8375103670002,1.660869838,1.919646855,93.0266960050004,64.5656832449998,36.8228844690001,1.750646586,1.12369572,101.412200997001,60.9604928099999,39.1732813500002,1.189541911,1.68554358,92.5026019430004,63.9101940749998,38.0540447400001,1.705758212
"7",1.357798995,105.342906462001,65.5489169999998,35.4798005370001,1.167097724,1.264157685,103.508577245001,59.3217698849999,36.2632661640001,1.638425651,1.264157685,103.246530214001,61.6159819799999,36.5990371470001,1.436427968,1.12369572,92.2405549120004,64.8934278299998,38.8375103670002,1.773090773,1.68554358,102.198342090001,61.2882373949999,36.3751898250001,1.391539594,0.9364131,102.984483183001,62.9269603199998,38.1659684010001,1.211986098,1.03005441,101.150153966001,56.3720686199999,39.2852050110002,1.548648903,1.68554358,99.5778717800005,59.3217698849999,37.4944264350001,1.526204716,0.9364131,105.867000524001,58.9940252999999,39.0613576890002,1.054876789,1.68554358,98.0055895940005,59.9772590549999,38.5017393840002,1.413983781
"8",1.40461965,110.321800051001,61.9437265649999,35.3678768760001,0.987544228,1.12369572,109.273611927001,55.3888348649999,36.7109608080001,1.391539594,0.84277179,110.321800051001,56.3720686199999,37.6063500960001,1.189541911,0.84277179,100.626059904001,58.9940252999999,39.7328996550002,1.413983781,1.40461965,107.701329741001,57.0275577899999,36.5990371470001,1.301762846,0.795951135,108.225423803001,58.6662807149999,38.9494340280002,0.965100041,0.889592445,106.915188648001,53.0946227699999,39.5090523330002,1.301762846,1.545081615,106.129047555001,54.0778565249999,37.3825027740001,1.413983781,0.702309825,111.632035206001,55.7165794499999,38.9494340280002,0.920211667,1.31097834,104.556765369001,56.6998132049999,38.9494340280002,1.167097724
"9",1.12369572,118.445258012001,54.7333456949999,35.1440295540001,0.965100041,0.983233755,115.824787702001,49.489432335,37.3825027740001,1.167097724,0.795951135,116.086834733001,52.1113890149999,38.1659684010001,0.89776748,0.702309825,109.535658958001,53.4223673549999,39.1732813500002,1.211986098,1.076875065,113.204317392001,53.7501119399999,36.3751898250001,1.256874472,0.608668515,114.776599578001,53.0946227699999,39.0613576890002,0.852879106,0.702309825,114.514552547001,48.178453995,39.0613576890002,1.167097724,1.31097834,113.728411454001,47.85070941,37.7182737570001,1.234430285,0.608668515,117.659116919001,52.4391335999999,38.2778920620001,0.807990732,1.12369572,109.273611927001,54.7333456949999,39.3971286720002,0.89776748
"10",0.983233755,124.996433787001,48.833943165,35.2559532150001,0.852879106,0.74913048,122.113916446001,44.57326356,37.6063500960001,1.032432602,0.74913048,121.065728322001,47.522964825,39.2852050110002,0.583548862,0.65548917,115.300693640001,48.178453995,39.6209759940002,1.009988415,0.84277179,120.279587229001,48.833943165,36.5990371470001,1.054876789,0.46820655,120.017540198001,50.1449215049999,38.8375103670002,0.718213984,0.56184786,121.327775353001,41.95130688,40.2925179600002,0.830434919,1.076875065,118.969352074001,43.590029805,38.2778920620001,1.077320976,0.515027205,124.996433787001,46.867475655,38.2778920620001,0.605993049,0.983233755,114.514552547001,52.4391335999999,39.1732813500002,0.718213984
"11",0.65548917,130.499421438001,43.91777439,35.9274951810001,0.740658171,0.608668515,126.044621911001,42.60679605,38.8375103670002,0.650881423,0.608668515,126.830763004001,43.91777439,39.8448233160002,0.291774431,0.608668515,121.851869415001,44.57326356,40.4044416210002,0.561104675,0.702309825,124.996433787001,45.556497315,37.8301974180001,0.695769797,0.515027205,126.568715973001,45.22875273,39.0613576890002,0.426439553,0.234103275,126.568715973001,38.67386103,40.8521362650002,0.650881423,0.608668515,123.686198632001,40.968073125,39.9567469770002,0.740658171,0.515027205,131.023515500001,42.279051465,38.7255867060002,0.314218618,0.65548917,121.327775353001,49.489432335,38.9494340280002,0.538660488
"12",0.65548917,136.264456120001,40.312583955,35.4798005370001,0.583548862,0.421385895,132.071703624001,39.3293502,38.1659684010001,0.583548862,0.37456524,132.333750655001,39.001605615,39.2852050110002,0.381551179,0.46820655,130.237374407001,38.67386103,39.5090523330002,0.493772114,0.515027205,130.761468469001,39.657094785,37.8301974180001,0.695769797,0.515027205,133.643985810001,38.67386103,38.6136630450002,0.359106992,0.28092393,131.285562531001,35.7241597650001,40.0686706380002,0.583548862,0.515027205,130.761468469001,37.36288269,38.9494340280002,0.628437236,0.421385895,137.574691275001,37.36288269,37.6063500960001,0.359106992,0.515027205,126.044621911001,46.211986485,38.8375103670002,0.44888374
"13",0.515027205,142.029490802001,36.0519043500001,35.1440295540001,0.516216301,0.421385895,137.050597213001,36.0519043500001,37.8301974180001,0.44888374,0.234103275,137.836738306001,35.0686705950001,38.8375103670002,0.336662805,0.421385895,137.574691275001,33.102203085,38.5017393840002,0.471327927,0.56184786,138.360832368001,33.4299476700001,37.1586554520001,0.583548862,0.327744585,141.767443771001,33.102203085,37.6063500960001,0.336662805,0.327744585,136.002409089001,32.7744585000001,39.2852050110002,0.516216301,0.56184786,136.788550182001,32.7744585000001,38.0540447400001,0.583548862,0.327744585,144.125867050001,32.446713915,36.7109608080001,0.359106992,0.37456524,133.643985810001,41.623562295,37.4944264350001,0.44888374
"14",0.46820655,146.222243298001,33.4299476700001,34.5844112490001,0.471327927,0.327744585,142.553584864001,31.46348016,37.3825027740001,0.426439553,0.18728262,143.077678926001,31.46348016,38.3898157230001,0.246886057,0.421385895,142.029490802001,29.824757235,38.0540447400001,0.403995366,0.515027205,144.387914081001,29.824757235,36.0394188420001,0.561104675,0.327744585,147.270431422001,30.15250182,36.4871134860001,0.291774431,0.327744585,140.457208616001,28.84152348,38.9494340280002,0.471327927,0.56184786,141.243349709001,28.84152348,38.2778920620001,0.426439553,0.37456524,147.794525484001,29.824757235,35.9274951810001,0.359106992,0.37456524,140.981302678001,37.0351381050001,36.7109608080001,0.291774431
"15",0.421385895,151.201136887001,30.15250182,33.8009456220001,0.44888374,0.28092393,147.532478453001,28.513778895,36.5990371470001,0.381551179,0.234103275,148.318619546001,28.18603431,37.4944264350001,0.179553496,0.37456524,147.794525484001,24.90858846,37.6063500960001,0.359106992,0.421385895,149.104760639001,25.891822215,36.4871134860001,0.381551179,0.421385895,151.201136887001,28.18603431,35.3678768760001,0.269330244,0.46820655,147.270431422001,25.236333045,37.2705791130001,0.403995366,0.515027205,145.698149236001,25.891822215,37.6063500960001,0.403995366,0.37456524,153.821607197001,25.56407763,35.1440295540001,0.291774431,0.421385895,147.270431422001,31.791224745,35.9274951810001,0.246886057
"16",0.46820655,156.180030476001,26.2195668,33.3532509780001,0.359106992,0.421385895,153.821607197001,23.59761012,35.5917241980001,0.314218618,0.234103275,155.393889383001,22.94212095,36.3751898250001,0.157109309,0.18728262,152.773419073001,21.303398025,36.9348081300001,0.403995366,0.327744585,155.655936414001,21.303398025,35.4798005370001,0.381551179,0.421385895,160.372782972002,19.6646751,34.4724875880001,0.246886057,0.46820655,153.559560166001,20.647908855,36.5990371470001,0.314218618,0.56184786,152.249325011001,21.958887195,36.8228844690001,0.246886057,0.37456524,160.634830003002,21.303398025,34.2486402660001,0.179553496,0.46820655,153.559560166001,26.2195668,35.0321058930001,0.246886057
"17",0.515027205,162.731206251002,23.925354705,31.226701419,0.359106992,0.46820655,156.704124538001,22.28663178,34.8082585710001,0.291774431,0.234103275,157.752312662001,21.958887195,35.8155715200001,0.134665122,0.18728262,158.014359693001,19.336930515,35.3678768760001,0.403995366,0.234103275,159.324594848001,19.992419685,34.9201822320001,0.314218618,0.56184786,161.683018127002,19.336930515,33.6890219610001,0.246886057,0.46820655,155.917983445001,19.992419685,35.9274951810001,0.291774431,0.515027205,156.180030476001,20.97565344,35.7036478590001,0.22444187,0.28092393,163.779394375002,20.647908855,33.5770983000001,0.134665122,0.421385895,157.228218600001,24.580843875,34.2486402660001,0.22444187
"18",0.421385895,166.661911716002,21.958887195,30.443235792,0.359106992,0.46820655,159.586641879001,20.647908855,34.5844112490001,0.201997683,0.327744585,160.372782972002,20.647908855,35.1440295540001,0.089776748,0.140461965,160.896877034002,17.69820759,35.0321058930001,0.359106992,0.28092393,164.827582499002,18.35369676,33.1294036560001,0.291774431,0.46820655,165.613723592002,18.025952175,32.6817090120001,0.246886057,0.46820655,160.634830003002,19.6646751,34.1367166050001,0.269330244,0.46820655,160.634830003002,19.992419685,34.2486402660001,0.22444187,0.18728262,165.875770623002,19.992419685,33.1294036560001,0.134665122,0.515027205,161.158924065002,22.614376365,33.2413273170001,0.179553496
"19",0.37456524,168.758287964002,20.647908855,30.779006775,0.22444187,0.46820655,162.207112189002,19.00918593,34.0247929440001,0.201997683,0.515027205,163.517347344002,17.69820759,34.4724875880001,0.067332561,0.09364131,163.255300313002,17.04271842,34.3605639270001,0.359106992,0.37456524,167.972146871002,16.714973835,32.3459380290001,0.246886057,0.46820655,170.068523119002,16.714973835,31.562472402,0.179553496,0.515027205,163.779394375002,17.04271842,33.8009456220001,0.22444187,0.37456524,167.448052809002,16.059484665,32.4578616900001,0.314218618,0.234103275,169.806476088002,19.6646751,31.674396063,0.089776748,0.515027205,164.565535468002,21.958887195,32.010167046,0.179553496
"20",0.421385895,172.164899367002,19.336930515,29.883617487,0.179553496,0.515027205,165.351676561002,18.681441345,33.0174799950001,0.134665122,0.56184786,166.923958747002,15.73174008,33.6890219610001,0.044888374,0.046820655,168.234193902002,14.42076174,33.5770983000001,0.291774431,0.327744585,170.854664212002,16.059484665,31.562472402,0.22444187,0.421385895,175.309463739002,14.42076174,30.331312131,0.157109309,0.515027205,166.661911716002,16.059484665,33.1294036560001,0.179553496,0.327744585,170.592617181002,15.73174008,31.33862508,0.314218618,0.327744585,173.999228584002,19.00918593,30.107464809,0.044888374,0.46820655,169.020334995002,19.336930515,31.002854097,0.201997683
"21",0.327744585,174.523322646002,19.00918593,29.547846504,0.112220935,0.46820655,169.544429057002,16.38722925,32.234014368,0.112220935,0.56184786,169.806476088002,15.07625091,32.6817090120001,0.044888374,0.046820655,171.378758274002,14.093017155,32.569785351,0.246886057,0.234103275,174.523322646002,13.1097834,31.226701419,0.22444187,0.46820655,177.667887018002,13.76527257,29.435922843,0.157109309,0.46820655,171.378758274002,15.07625091,31.33862508,0.22444187,0.37456524,173.213087491002,15.07625091,30.555159453,0.269330244,0.28092393,178.716075142002,16.714973835,28.876304538,0.067332561,0.46820655,175.309463739002,16.38722925,29.323999182,0.201997683
"22",0.327744585,178.978122173002,17.04271842,28.316686233,0.112220935,0.515027205,172.951040460002,15.403995495,31.114777758,0.089776748,0.65548917,173.213087491002,13.76527257,31.33862508,0.067332561,0.046820655,175.309463739002,13.437527985,31.450548741,0.179553496,0.234103275,177.929934049002,12.126549645,30.21938847,0.201997683,0.515027205,181.598592483002,11.79880506,28.428609894,0.134665122,0.421385895,174.785369677002,13.76527257,30.443235792,0.22444187,0.421385895,178.191981080002,12.782038815,29.323999182,0.22444187,0.327744585,181.074498421002,17.04271842,27.645144267,0.067332561,0.46820655,178.191981080002,16.38722925,28.428609894,0.134665122
"23",0.28092393,182.384733576002,15.403995495,27.533220606,0.112220935,0.515027205,175.571510770002,14.748506325,30.331312131,0.067332561,0.74913048,177.667887018002,12.126549645,29.771693826,0.067332561,0.140461965,181.074498421002,12.126549645,29.323999182,0.157109309,0.28092393,180.550404359002,11.79880506,29.212075521,0.179553496,0.46820655,186.315439041002,10.48782672,26.637831318,0.201997683,0.46820655,177.929934049002,13.1097834,29.323999182,0.201997683,0.421385895,182.384733576002,11.471060475,28.204762572,0.179553496,0.28092393,185.267250917002,14.42076174,26.749754979,0.089776748,0.421385895,181.074498421002,15.73174008,27.645144267,0.112220935
"24",0.37456524,185.005203886002,14.748506325,26.413983996,0.112220935,0.421385895,179.764263266002,12.782038815,29.547846504,0.044888374,0.74913048,179.764263266002,11.79880506,28.988228199,0.067332561,0.140461965,183.694968731002,12.126549645,28.204762572,0.157109309,0.327744585,184.481109824002,11.14331589,27.645144267,0.179553496,0.515027205,191.032285599002,7.86587004,25.6305183689999,0.157109309,0.515027205,180.288357328002,12.45429423,28.316686233,0.22444187,0.46820655,186.053392010002,11.14331589,26.86167864,0.134665122,0.234103275,187.625674196002,14.093017155,25.8543656909999,0.112220935,0.46820655,183.957015762002,14.748506325,26.525907657,0.134665122
"25",0.327744585,189.197956382002,14.093017155,25.1828237249999,0.067332561,0.421385895,184.743156855002,11.471060475,27.757067928,0.067332561,0.74913048,182.646780607002,10.815571305,28.204762572,0.044888374,0.234103275,187.101580134002,11.471060475,26.749754979,0.157109309,0.37456524,187.625674196002,8.849103795,26.86167864,0.201997683,0.46820655,193.128661847002,7.86587004,24.8470527419999,0.157109309,0.46820655,184.219062793002,12.45429423,26.637831318,0.246886057,0.421385895,188.411815289002,10.815571305,26.1901366739999,0.112220935,0.234103275,190.246144506002,13.1097834,25.1828237249999,0.089776748,0.421385895,187.625674196002,14.093017155,25.1828237249999,0.157109309
"26",0.46820655,192.604567785002,12.45429423,23.8397397929999,0.089776748,0.28092393,188.149768258002,10.48782672,26.973602301,0.067332561,0.65548917,186.839533103002,9.504592965,26.973602301,0.067332561,0.421385895,189.197956382002,10.815571305,25.9662893519999,0.089776748,0.56184786,191.294332630002,7.86587004,25.5185947079999,0.134665122,0.515027205,196.011179188002,7.21038087,23.7278161319999,0.157109309,0.46820655,187.625674196002,10.48782672,25.9662893519999,0.22444187,0.421385895,193.128661847002,9.504592965,24.7351290809999,0.089776748,0.234103275,194.176849971002,11.471060475,23.9516634539999,0.112220935,0.37456524,192.342520754002,12.45429423,23.9516634539999,0.134665122
"27",0.421385895,194.700944033002,11.471060475,23.5039688099999,0.067332561,0.28092393,192.342520754002,8.849103795,25.8543656909999,0.044888374,0.65548917,189.197956382002,9.504592965,25.9662893519999,0.067332561,0.515027205,193.390708878002,9.83233755,24.2874344369999,0.089776748,0.515027205,194.700944033002,6.882636285,24.5112817589999,0.134665122,0.327744585,199.417790591002,6.227147115,23.1681978269999,0.134665122,0.37456524,189.460003413002,10.48782672,25.5185947079999,0.201997683,0.37456524,197.321414343002,6.882636285,23.7278161319999,0.134665122,0.28092393,197.845508405002,9.83233755,22.7205031829999,0.134665122,0.37456524,194.700944033002,11.79880506,23.1681978269999,0.134665122
"28",0.37456524,197.321414343002,11.471060475,22.2728085389999,0.112220935,0.37456524,196.797320281002,6.882636285,24.3993580979999,0.044888374,0.608668515,193.128661847002,8.52135921,24.7351290809999,0.067332561,0.56184786,196.273226219002,9.504592965,23.0562741659999,0.089776748,0.46820655,197.583461374002,6.882636285,23.5039688099999,0.112220935,0.37456524,202.562354963002,5.24391336,22.1608848779999,0.112220935,0.327744585,193.914802940002,9.83233755,24.0635871149999,0.179553496,0.327744585,198.893696529002,6.5548917,23.3920451489999,0.112220935,0.327744585,201.252119808002,8.849103795,21.4893429119999,0.134665122,0.234103275,196.535273250002,11.79880506,22.6085795219999,0.157109309
"29",0.37456524,199.417790591002,11.14331589,21.4893429119999,0.112220935,0.37456524,199.679837622002,6.882636285,23.2801214879999,0.022444187,0.515027205,194.962991064002,7.86587004,24.2874344369999,0.089776748,0.65548917,199.679837622002,8.52135921,21.8251138949999,0.067332561,0.46820655,200.990072777002,5.89940253,22.4966558609999,0.089776748,0.327744585,205.968966366002,4.58842419,20.929724607,0.134665122,0.421385895,196.535273250002,8.849103795,23.1681978269999,0.157109309,0.327744585,202.300307932002,5.24391336,22.3847321999999,0.112220935,0.37456524,205.182825273002,7.538125455,20.034335319,0.157109309,0.234103275,199.679837622002,11.471060475,21.3774192509999,0.157109309
"30",0.327744585,203.610543087002,9.83233755,20.258182641,0.112220935,0.327744585,201.776213870002,6.882636285,22.2728085389999,0.067332561,0.515027205,197.845508405002,7.21038087,23.2801214879999,0.089776748,0.65548917,203.610543087002,7.86587004,20.482029963,0.044888374,0.421385895,204.920778242002,5.89940253,21.0416482679999,0.067332561,0.421385895,208.327389645002,3.605190435,20.14625898,0.112220935,0.421385895,198.893696529002,9.17684838,22.2728085389999,0.112220935,0.37456524,204.396684180002,5.24391336,21.26549559,0.134665122,0.37456524,207.803295583002,7.21038087,19.250869692,0.112220935,0.234103275,203.872590118002,9.504592965,20.258182641,0.157109309
"31",0.37456524,207.017154490002,8.193614625,19.250869692,0.112220935,0.37456524,206.231013397002,6.5548917,20.370106302,0.067332561,0.608668515,199.679837622002,6.882636285,22.4966558609999,0.067332561,0.65548917,205.968966366002,7.86587004,19.586640675,0.022444187,0.421385895,207.541248552002,5.24391336,20.14625898,0.067332561,0.327744585,210.423765893002,3.93293502,19.362793353,0.112220935,0.46820655,201.776213870002,7.86587004,21.3774192509999,0.112220935,0.421385895,206.493060428002,3.93293502,20.705877285,0.134665122,0.37456524,210.161718862002,6.882636285,18.467404065,0.089776748,0.18728262,206.231013397002,9.17684838,19.698564336,0.112220935
"32",0.37456524,209.637624800002,7.86587004,18.355480404,0.089776748,0.37456524,208.589436676002,5.24391336,19.810487997,0.067332561,0.421385895,202.038260901002,6.5548917,21.9370375559999,0.089776748,0.702309825,209.113530738002,6.227147115,18.803175048,NA,0.46820655,211.471954017002,4.260679605,18.691251387,0.067332561,0.37456524,212.782189172002,4.58842419,18.243556743,0.067332561,0.46820655,204.658731211002,7.86587004,20.034335319,0.134665122,0.421385895,208.851483707002,3.93293502,19.698564336,0.134665122,0.327744585,212.258095110002,5.89940253,18.019709421,0.089776748,0.18728262,209.637624800002,8.193614625,18.467404065,0.134665122
"33",0.37456524,212.520142141002,5.89940253,17.90778576,0.067332561,0.46820655,210.947859955002,4.916168775,18.691251387,0.067332561,0.46820655,205.444872304002,6.882636285,20.258182641,0.089776748,0.65548917,211.209906986002,6.227147115,18.019709421,NA,0.421385895,212.782189172002,4.58842419,18.131633082,0.067332561,0.421385895,216.712894637002,4.58842419,16.564701828,0.044888374,0.37456524,206.231013397002,7.86587004,19.810487997,0.089776748,0.37456524,211.471954017002,3.93293502,18.691251387,0.134665122,0.327744585,216.188800575002,5.89940253,16.340854506,0.089776748,0.18728262,212.520142141002,7.21038087,17.572014777,0.134665122
"34",0.46820655,216.188800575002,4.260679605,16.78854915,0.044888374,0.46820655,214.354471358002,3.93293502,17.460091116,0.089776748,0.515027205,208.065342614002,6.227147115,19.138946031,0.112220935,0.608668515,214.354471358002,5.24391336,17.012396472,0.022444187,0.421385895,216.188800575002,4.260679605,16.78854915,0.067332561,0.37456524,219.595411978002,4.260679605,15.557388879,0.044888374,0.421385895,207.279201521002,7.21038087,19.586640675,0.067332561,0.37456524,213.830377296002,4.260679605,17.572014777,0.134665122,0.28092393,218.809270885002,5.571657945,15.557388879,0.067332561,0.140461965,216.712894637002,5.571657945,16.452778167,0.134665122
"35",0.46820655,218.285176823002,3.93293502,16.005083523,0.044888374,0.46820655,216.974941668002,3.93293502,16.564701828,0.044888374,0.421385895,210.423765893002,6.227147115,18.243556743,0.134665122,0.46820655,216.188800575002,4.916168775,16.564701828,0.044888374,0.37456524,217.236988699002,4.58842419,16.452778167,0.044888374,0.327744585,221.167694164003,3.93293502,15.221617896,0.022444187,0.327744585,209.113530738002,6.882636285,19.138946031,0.067332561,0.37456524,216.712894637002,3.93293502,16.452778167,0.134665122,0.327744585,220.905647133003,4.916168775,14.773923252,0.067332561,0.18728262,217.499035730002,5.571657945,16.228930845,0.089776748
"36",0.327744585,222.477929319003,3.605190435,14.438152269,0.089776748,0.515027205,219.333364947002,2.949701265,15.781236201,0.044888374,0.46820655,213.306283234002,6.227147115,16.900472811,0.134665122,0.28092393,219.595411978002,4.260679605,15.781236201,0.044888374,0.18728262,219.071317916002,4.916168775,15.893159862,0.067332561,0.37456524,224.050211505003,3.93293502,13.878533964,0.022444187,0.28092393,213.044236203002,6.882636285,17.460091116,0.089776748,0.234103275,217.761082761002,3.93293502,16.228930845,0.157109309,0.37456524,224.312258536003,4.58842419,13.318915659,0.067332561,0.140461965,220.643600102002,5.571657945,15.221617896,0.044888374
"37",0.46820655,224.312258536003,3.93293502,13.206991998,0.089776748,0.515027205,220.905647133003,3.27744585,14.997770574,0.044888374,0.515027205,215.926753544002,6.227147115,15.66931254,0.134665122,0.18728262,223.526117443003,3.93293502,14.438152269,0.044888374,0.28092393,220.381553071002,4.916168775,15.109694235,0.067332561,0.46820655,225.622493691003,3.605190435,13.095068337,0.022444187,0.327744585,214.616518389002,7.21038087,16.676625489,0.067332561,0.234103275,219.595411978002,3.93293502,15.445465218,0.157109309,0.37456524,226.932728846003,4.260679605,12.31160271,0.067332561,0.234103275,222.215882288003,5.571657945,14.214304947,0.067332561
"38",0.421385895,227.718869939003,4.58842419,11.640060744,0.089776748,0.46820655,224.312258536003,3.605190435,13.654686642,0.022444187,0.56184786,219.595411978002,7.21038087,13.766610303,0.112220935,0.18728262,230.077293218003,3.27744585,11.863908066,0.044888374,0.28092393,226.146587753003,4.58842419,12.759297354,0.067332561,0.37456524,230.339340249003,3.27744585,11.304289761,0.044888374,0.327744585,220.381553071002,7.21038087,14.102381286,0.089776748,0.327744585,223.788164474003,3.605190435,13.654686642,0.134665122,0.327744585,232.173669466003,4.260679605,10.185053151,0.067332561,0.28092393,226.408634784003,5.571657945,12.423526371,0.044888374
"39",0.421385895,229.815246187003,4.260679605,10.856595117,0.089776748,0.46820655,228.505011032003,3.605190435,11.863908066,0.022444187,0.515027205,223.002023381003,7.538125455,12.31160271,0.112220935,0.234103275,232.697763528003,2.949701265,10.856595117,0.022444187,0.234103275,231.125481342003,4.260679605,10.856595117,0.067332561,0.421385895,235.056186807002,2.62195668,9.40158752400001,0.044888374,0.327744585,226.146587753003,6.227147115,12.087755388,0.067332561,0.37456524,227.718869939003,3.605190435,11.975831727,0.112220935,0.421385895,233.483904621002,3.93293502,9.51351118500001,0.067332561,0.327744585,230.077293218003,4.58842419,11.080442439,0.044888374
"40",0.46820655,232.173669466003,4.58842419,9.73735850700001,0.067332561,0.46820655,232.435716497003,3.93293502,10.07312949,0.022444187,0.56184786,227.194775877003,8.52135921,10.185053151,0.089776748,0.327744585,235.580280869002,3.93293502,9.06581654100001,0.022444187,0.234103275,232.697763528003,4.260679605,10.296976812,0.044888374,0.421385895,237.938704148002,2.294212095,8.282350914,0.044888374,0.37456524,229.553199156003,6.227147115,10.744671456,0.022444187,0.327744585,231.911622435003,3.93293502,10.520824134,0.044888374,0.327744585,237.152563055002,3.605190435,8.282350914,0.067332561,0.327744585,233.745951652002,4.260679605,9.73735850700001,0.022444187
"41",0.46820655,235.842327900002,3.27744585,8.84196921900001,0.022444187,0.46820655,235.056186807002,3.93293502,8.84196921900001,0.044888374,0.421385895,231.911622435003,8.52135921,8.61812189700001,0.067332561,0.37456524,238.724845241002,3.27744585,7.722732609,0.044888374,0.37456524,234.007998683002,4.260679605,9.51351118500001,0.022444187,0.421385895,240.035080396002,1.96646751,7.498885287,0.044888374,0.327744585,234.270045714002,6.5548917,8.73004555800001,0.022444187,0.327744585,234.532092745002,3.605190435,9.51351118500001,0.044888374,0.327744585,241.869409613002,3.605190435,6.267725016,0.067332561,0.327744585,236.628468993002,3.605190435,8.73004555800001,0.022444187
"42",0.46820655,237.938704148002,2.949701265,7.946579931,0.044888374,0.421385895,238.200751179002,3.93293502,7.722732609,0.022444187,0.46820655,233.221857590003,8.52135921,7.946579931,0.067332561,0.421385895,241.345315551002,2.949701265,6.603495999,0.044888374,0.421385895,236.890516024002,3.27744585,8.506198236,0.022444187,0.37456524,243.703738830002,1.638722925,6.267725016,0.022444187,0.327744585,236.104374931002,6.5548917,7.946579931,0.022444187,0.28092393,237.414610086002,3.605190435,8.394274575,0.044888374,0.327744585,244.489879923002,3.27744585,5.484259389,0.022444187,0.28092393,239.248939303002,3.605190435,7.83465627,NA
"43",0.65548917,238.462798210002,3.27744585,7.275037965,0.022444187,0.37456524,241.607362582002,3.605190435,6.603495999,NA,0.37456524,236.366421962002,8.193614625,7.051190643,0.044888374,0.421385895,244.227832892002,2.949701265,5.372335728,0.044888374,0.515027205,239.248939303002,3.27744585,7.386961626,NA,0.37456524,244.489879923002,1.96646751,5.820030372,0.022444187,0.327744585,238.462798210002,6.5548917,6.939266982,0.022444187,0.28092393,240.559174458002,3.605190435,6.939266982,0.067332561,0.37456524,246.062162109001,3.27744585,4.700793762,0.022444187,0.28092393,242.131456644002,2.949701265,6.827343321,NA
"44",0.65548917,241.607362582002,2.949701265,6.043877694,0.022444187,0.37456524,243.703738830002,3.605190435,5.708106711,NA,0.327744585,239.510986334002,7.86587004,5.931954033,0.044888374,0.421385895,245.538068047002,2.949701265,4.924641084,0.022444187,0.56184786,240.821221489002,2.949701265,6.71541966,NA,0.421385895,245.538068047002,1.96646751,5.260412067,0.022444187,0.327744585,241.345315551002,6.882636285,5.59618305,0.022444187,0.28092393,242.131456644002,3.605190435,6.267725016,0.067332561,0.421385895,247.896491326001,2.62195668,4.141175457,NA,0.28092393,244.489879923002,2.294212095,6.043877694,NA
"45",0.74913048,242.131456644002,3.27744585,5.484259389,0.022444187,0.46820655,243.703738830002,3.93293502,5.260412067,0.022444187,0.421385895,242.131456644002,6.882636285,5.148488406,NA,0.421385895,247.896491326001,2.949701265,4.029251796,NA,0.515027205,243.441691799002,3.27744585,5.59618305,NA,0.421385895,248.420585388001,1.96646751,3.917328135,0.044888374,0.46820655,242.655550706002,6.882636285,4.812717423,NA,0.28092393,243.703738830002,3.605190435,5.59618305,0.067332561,0.515027205,248.420585388001,2.949701265,3.581557152,NA,0.327744585,245.800115078001,2.62195668,5.148488406,0.022444187
"46",0.795951135,242.917597737002,3.27744585,5.036564745,0.022444187,0.37456524,245.276021016002,3.605190435,4.924641084,0.022444187,0.37456524,242.393503675002,7.538125455,4.924641084,NA,0.421385895,249.730820543001,2.62195668,3.35770983,NA,0.56184786,244.227832892002,2.949701265,5.260412067,NA,0.421385895,249.206726481001,1.31097834,3.805404474,0.044888374,0.46820655,243.965785861002,6.5548917,4.365022779,NA,0.28092393,245.013973985002,4.260679605,4.812717423,0.067332561,0.608668515,248.682632419001,2.62195668,3.35770983,NA,0.515027205,245.800115078001,2.62195668,4.700793762,0.022444187
"47",0.795951135,242.917597737002,4.260679605,4.700793762,0.022444187,0.327744585,246.062162109001,3.93293502,4.588870101,0.022444187,0.421385895,242.393503675002,7.21038087,4.924641084,NA,0.421385895,249.730820543001,2.949701265,3.245786169,NA,0.46820655,247.110350233001,2.949701265,4.253099118,NA,0.327744585,250.516961636001,0.983233755,3.581557152,0.044888374,0.46820655,245.800115078001,5.571657945,3.917328135,NA,0.28092393,246.062162109001,4.58842419,4.365022779,0.044888374,0.56184786,249.730820543001,2.294212095,3.133862508,NA,0.421385895,247.372397264001,2.949701265,4.141175457,0.022444187
"48",0.74913048,245.276021016002,4.260679605,3.805404474,0.022444187,0.46820655,247.110350233001,3.93293502,3.805404474,0.022444187,0.37456524,243.179644768002,7.21038087,4.700793762,NA,0.46820655,249.468773512001,2.949701265,3.245786169,NA,0.46820655,248.682632419001,2.62195668,3.693480813,NA,0.421385895,250.254914605001,0.983233755,3.35770983,0.067332561,0.515027205,247.110350233001,5.571657945,3.133862508,0.022444187,0.234103275,248.420585388001,4.916168775,3.469633491,0.022444187,0.702309825,249.206726481001,2.294212095,3.021938847,NA,0.56184786,248.682632419001,2.62195668,3.35770983,0.022444187
"49",0.795951135,245.800115078001,3.93293502,3.581557152,0.022444187,0.65548917,246.324209140001,3.93293502,3.693480813,0.022444187,0.46820655,243.441691799002,6.882636285,4.47694644,NA,0.56184786,249.206726481001,2.949701265,3.133862508,NA,0.46820655,248.944679450001,2.949701265,3.469633491,NA,0.421385895,250.254914605001,0.983233755,3.469633491,0.044888374,0.46820655,247.634444295001,5.24391336,3.133862508,0.022444187,0.234103275,248.944679450001,4.260679605,3.469633491,0.022444187,0.608668515,249.206726481001,2.949701265,2.910015186,0.022444187,0.46820655,249.206726481001,2.62195668,3.35770983,0.022444187
"50",0.74913048,246.062162109001,3.93293502,3.581557152,0.022444187,0.65548917,247.634444295001,3.27744585,3.35770983,0.022444187,0.608668515,244.227832892002,6.227147115,3.917328135,0.022444187,0.56184786,248.682632419001,3.27744585,3.133862508,0.022444187,0.46820655,249.992867574001,2.62195668,3.133862508,NA,0.46820655,251.041055698001,0.65548917,3.133862508,0.044888374,0.515027205,247.110350233001,5.571657945,3.133862508,0.022444187,0.28092393,248.944679450001,4.260679605,3.245786169,0.044888374,0.74913048,248.944679450001,2.949701265,2.686167864,0.022444187,0.46820655,249.730820543001,2.294212095,3.133862508,0.044888374
"51",0.84277179,246.324209140001,3.605190435,3.35770983,0.022444187,0.702309825,248.158538357001,3.605190435,2.910015186,0.022444187,0.74913048,244.489879923002,5.89940253,3.581557152,0.022444187,0.46820655,249.206726481001,3.27744585,3.133862508,0.022444187,0.46820655,248.944679450001,2.949701265,3.35770983,0.022444187,0.46820655,251.041055698001,0.983233755,3.133862508,0.022444187,0.515027205,247.110350233001,5.24391336,3.245786169,0.022444187,0.234103275,248.944679450001,4.260679605,3.469633491,0.022444187,0.74913048,249.206726481001,2.949701265,2.574244203,0.022444187,0.46820655,250.779008667001,2.294212095,2.798091525,0.022444187
"52",0.84277179,246.324209140001,3.93293502,3.245786169,0.022444187,0.84277179,247.634444295001,3.27744585,2.910015186,0.022444187,0.74913048,243.965785861002,6.227147115,3.693480813,0.022444187,0.421385895,248.944679450001,3.605190435,3.133862508,0.044888374,0.46820655,248.420585388001,3.93293502,3.245786169,0.022444187,0.46820655,250.779008667001,0.983233755,3.245786169,0.022444187,0.46820655,247.634444295001,4.58842419,3.245786169,0.044888374,0.234103275,248.944679450001,4.58842419,3.35770983,0.022444187,0.74913048,248.944679450001,3.27744585,2.574244203,0.022444187,0.515027205,250.779008667001,1.96646751,2.798091525,0.022444187
"53",0.702309825,246.586256171001,3.605190435,3.581557152,0.022444187,0.74913048,247.634444295001,3.605190435,2.798091525,0.067332561,0.74913048,244.227832892002,6.227147115,3.581557152,0.022444187,0.515027205,249.206726481001,3.27744585,2.910015186,0.044888374,0.515027205,248.682632419001,3.93293502,3.021938847,0.022444187,0.421385895,250.779008667001,0.983233755,3.35770983,0.022444187,0.515027205,247.634444295001,4.58842419,3.133862508,0.044888374,0.234103275,249.468773512001,4.260679605,3.245786169,0.022444187,0.65548917,248.944679450001,3.27744585,2.686167864,0.044888374,0.56184786,250.779008667001,1.96646751,2.574244203,0.044888374
"54",0.74913048,245.800115078001,3.93293502,3.693480813,0.022444187,0.795951135,247.110350233001,3.93293502,2.910015186,0.044888374,0.84277179,244.751926954002,5.24391336,3.581557152,NA,0.515027205,249.730820543001,3.27744585,2.686167864,0.044888374,0.515027205,248.944679450001,3.93293502,2.910015186,0.022444187,0.46820655,250.516961636001,0.983233755,3.35770983,0.022444187,0.46820655,248.158538357001,4.260679605,3.133862508,0.044888374,0.28092393,249.468773512001,4.260679605,3.021938847,0.044888374,0.608668515,248.682632419001,3.605190435,2.686167864,0.067332561,0.608668515,250.516961636001,2.294212095,2.462320542,0.044888374
"55",0.65548917,246.062162109001,3.93293502,3.693480813,0.044888374,0.795951135,247.372397264001,3.605190435,2.910015186,0.044888374,0.795951135,245.276021016002,4.260679605,3.805404474,NA,0.515027205,250.516961636001,2.62195668,2.686167864,0.022444187,0.515027205,248.682632419001,3.93293502,2.798091525,0.067332561,0.46820655,251.041055698001,1.31097834,3.021938847,0.022444187,0.327744585,248.420585388001,4.260679605,3.35770983,0.044888374,0.28092393,249.730820543001,3.93293502,3.021938847,0.044888374,0.56184786,248.682632419001,3.605190435,2.798091525,0.067332561,0.608668515,249.992867574001,2.62195668,2.574244203,0.044888374
"56",0.608668515,246.586256171001,3.605190435,3.805404474,0.022444187,0.795951135,247.634444295001,3.605190435,2.798091525,0.044888374,0.795951135,245.538068047002,3.93293502,3.805404474,NA,0.56184786,250.516961636001,2.294212095,2.686167864,0.022444187,0.515027205,248.682632419001,3.605190435,2.910015186,0.067332561,0.421385895,250.779008667001,1.31097834,3.133862508,0.044888374,0.327744585,248.682632419001,3.93293502,3.35770983,0.044888374,0.28092393,250.254914605001,3.93293502,2.798091525,0.044888374,0.608668515,248.682632419001,3.27744585,2.798091525,0.067332561,0.608668515,249.206726481001,2.949701265,2.798091525,0.044888374
"57",0.56184786,246.324209140001,3.605190435,4.029251796,0.022444187,0.74913048,247.634444295001,3.27744585,2.910015186,0.067332561,0.74913048,245.276021016002,4.260679605,3.917328135,NA,0.56184786,250.516961636001,2.949701265,2.462320542,0.022444187,0.56184786,248.420585388001,3.605190435,3.021938847,0.044888374,0.37456524,250.779008667001,1.31097834,3.133862508,0.067332561,0.28092393,248.682632419001,3.93293502,3.469633491,0.044888374,0.327744585,250.516961636001,3.93293502,2.686167864,0.022444187,0.702309825,247.634444295001,3.93293502,2.798091525,0.067332561,0.84277179,248.158538357001,3.27744585,2.574244203,0.044888374
"58",0.56184786,247.110350233001,3.27744585,3.693480813,0.044888374,0.65548917,247.634444295001,3.27744585,3.133862508,0.067332561,0.74913048,245.538068047002,3.93293502,3.917328135,NA,0.608668515,250.254914605001,2.949701265,2.462320542,0.022444187,0.608668515,248.158538357001,3.605190435,3.021938847,0.044888374,0.327744585,251.041055698001,1.31097834,3.133862508,0.067332561,0.18728262,248.944679450001,3.605190435,3.581557152,0.067332561,0.327744585,250.779008667001,3.93293502,2.574244203,0.022444187,0.515027205,248.420585388001,3.27744585,2.798091525,0.134665122,0.702309825,247.896491326001,3.27744585,2.910015186,0.067332561
"59",0.515027205,246.848303202001,3.27744585,3.917328135,0.044888374,0.56184786,247.372397264001,3.27744585,3.469633491,0.067332561,0.65548917,245.800115078001,3.27744585,4.141175457,0.022444187,0.56184786,250.254914605001,2.949701265,2.574244203,0.022444187,0.608668515,247.896491326001,3.93293502,3.021938847,0.044888374,0.37456524,250.779008667001,1.31097834,3.245786169,0.044888374,0.140461965,250.254914605001,2.949701265,3.35770983,0.067332561,0.327744585,250.779008667001,3.605190435,2.686167864,0.022444187,0.608668515,247.896491326001,3.27744585,2.910015186,0.112220935,0.74913048,247.896491326001,3.27744585,2.798091525,0.067332561
"60",0.56184786,246.848303202001,2.949701265,4.029251796,0.022444187,0.56184786,246.848303202001,3.93293502,3.581557152,0.044888374,0.56184786,245.800115078001,3.27744585,4.47694644,NA,0.421385895,250.254914605001,2.949701265,2.686167864,0.067332561,0.65548917,248.158538357001,3.605190435,2.910015186,0.044888374,0.327744585,250.779008667001,1.31097834,3.469633491,0.022444187,0.18728262,249.730820543001,2.949701265,3.35770983,0.089776748,0.28092393,251.303102729001,2.949701265,2.798091525,0.022444187,0.46820655,248.158538357001,2.949701265,3.245786169,0.112220935,0.889592445,247.372397264001,2.949701265,2.686167864,0.089776748
