"","Early1.ALL","Late1.CLS","Late1.OPN","Mid1.CLS","Mid1.OPN","Early1.ALL.1","Late1.CLS.1","Late1.OPN.1","Mid1.CLS.1","Mid1.OPN.1","Early1.ALL.2","Late1.CLS.2","Late1.OPN.2","Mid1.CLS.2","Mid1.OPN.2","Early1.ALL.3","Late1.CLS.3","Late1.OPN.3","Mid1.CLS.3","Mid1.OPN.3","Early1.ALL.4","Late1.CLS.4","Late1.OPN.4","Mid1.CLS.4","Mid1.OPN.4","Early1.ALL.5","Late1.CLS.5","Late1.OPN.5","Mid1.CLS.5","Mid1.OPN.5","Early1.ALL.6","Late1.CLS.6","Late1.OPN.6","Mid1.CLS.6","Mid1.OPN.6","Early1.ALL.7","Late1.CLS.7","Late1.OPN.7","Mid1.CLS.7","Mid1.OPN.7","Early1.ALL.8","Late1.CLS.8","Late1.OPN.8","Mid1.CLS.8","Mid1.OPN.8","Early1.ALL.9","Late1.CLS.9","Late1.OPN.9","Mid1.CLS.9","Mid1.OPN.9"
"0",4180.53958825801,9762.58101680402,16456.8686572399,3948.26633200201,4203.139398197,4758.69931854901,9794.27770841702,14362.358100864,3948.26633200201,4864.30739341901,4936.59462017701,9889.36778325603,14885.985739958,3825.30994104,4628.17596655401,4180.53958825801,9001.86041809201,15484.417327494,4180.51729270801,5147.66510565701,4669.75166773501,9635.79425035202,15260.005482168,4194.17911392601,3778.10282984,3913.696635816,9572.40086712602,15858.437069704,4125.87000783601,4533.72339580801,5292.38522343301,9635.79425035202,14362.358100864,3907.28086834801,4675.40225192701,4892.12079477001,8779.98357680101,15634.025224378,4016.57543809201,5194.89139103001,4136.06576285101,9572.40086712602,14137.946255538,4399.10643219601,4439.27082506201,4669.75166773501,9794.27770841702,14736.377843074,3757.00083495,5383.79653252201
"1",3824.748985002,10047.851241321,16456.8686572399,3961.92815322001,4108.686827451,4225.01341366501,10111.244624547,14437.162049306,3989.25179565601,4769.85482267301,4669.75166773501,10047.851241321,14885.985739958,3852.633583476,4580.94968118101,3602.379857967,9255.43395099602,15783.633121262,4303.47368367001,4769.85482267301,3869.222810409,9889.36778325603,15409.613379052,4289.81186245201,3825.329115213,3380.010730932,9825.97440003003,16082.84891503,4153.19365027201,4486.49711043501,4447.38254070001,9952.76116648203,14362.358100864,4071.22272296401,4533.72339580801,4358.43488988601,9192.04056777001,15634.025224378,4125.87000783601,4769.85482267301,3424.484556339,9857.67109164303,14287.554152422,4604.03375046602,3967.007971332,3913.696635816,9921.06447486903,14811.181791516,4030.23725931001,5005.98624953801
"2",3513.432207153,10301.424774225,16681.280502566,4084.88454418201,3494.745117602,3513.432207153,10238.031390999,14736.377843074,4139.53182905401,4628.17596655401,3780.275159595,10428.211540677,15185.201533726,3866.295404694,4722.62853730001,3113.16777849,9477.31079228702,16008.044966588,4385.44461097801,4533.72339580801,3424.484556339,10016.154549708,15484.417327494,4412.76825341401,3636.423973721,2623.955699013,10142.94131616,16232.4568119139,4289.81186245201,4250.36568357,3602.379857967,10142.94131616,14586.76994619,4221.50275636201,4486.49711043501,3513.432207153,9382.22071744802,15933.241018146,4317.13550488801,4533.72339580801,2935.272476862,10142.94131616,14511.965997748,4617.69557168402,3872.555400586,3380.010730932,10016.154549708,15035.593636842,4235.16457758001,4580.94968118101
"3",2846.324826048,10618.391690355,16681.280502566,4194.17911392601,3353.066261483,2757.377175234,10428.211540677,15035.593636842,4248.82639879801,4580.94968118101,3113.16777849,10713.481765194,15484.417327494,4043.89908052801,4203.139398197,2490.534222792,9730.88432519102,16082.84891503,4494.73918072201,4392.04453968901,3113.16777849,10333.121465838,15634.025224378,4371.78278976001,3541.971402975,2490.534222792,10523.301615516,16232.4568119139,4289.81186245201,3825.329115213,2979.746302269,10269.728082612,14885.985739958,4371.78278976001,4250.36568357,3024.220127676,9540.70417551302,16157.652863472,4467.41553828601,4155.913112824,2535.008048199,10491.604923903,14586.76994619,4672.34285655602,3541.971402975,2757.377175234,10238.031390999,15185.201533726,4412.76825341401,4203.139398197
"4",2446.060397385,10776.87514842,16980.496296334,4235.16457758001,3211.387405364,2446.060397385,10618.391690355,15260.005482168,4248.82639879801,4486.49711043501,2401.586571978,11030.448681324,15634.025224378,4194.17911392601,3872.555400586,2090.269794129,9857.67109164303,16082.84891503,4645.01921412002,4108.686827451,2623.955699013,10650.088381968,15708.82917282,4371.78278976001,3541.971402975,1734.479190873,10618.391690355,16307.2607603559,4563.04828681202,3494.745117602,2268.165095757,10459.90823229,14885.985739958,4494.73918072201,4297.591968943,2579.481873606,9952.76116648203,16307.2607603559,4412.76825341401,4108.686827451,1778.95301628,10998.751989711,14811.181791516,4795.29924751802,3022.482263872,2535.008048199,10491.604923903,15334.80943061,4426.43007463201,3919.781685959
"5",2268.165095757,10998.751989711,17055.300244776,4289.81186245201,2833.57712238,2001.322143315,10935.358606485,15409.613379052,4317.13550488801,4155.913112824,2179.217444943,11157.235447776,15708.82917282,4289.81186245201,3541.971402975,1556.583889245,10047.851241321,16157.652863472,4645.01921412002,4344.81825431601,2179.217444943,10808.571840033,15933.241018146,4508.40100194001,3164.161119991,1556.583889245,10840.268531646,16456.8686572399,4590.37192924802,3164.161119991,2045.795968722,10681.785073581,15110.397585284,4604.03375046602,3683.650259094,2090.269794129,10364.818157451,16382.0647087979,4426.43007463201,3919.781685959,1467.636238431,11284.022214228,14960.7896884,4836.28471117202,2691.898266261,2223.69127035,10618.391690355,15409.613379052,4563.04828681202,3541.971402975
"6",1778.95301628,11917.9560464881,15858.437069704,4317.13550488801,2644.671980888,1467.636238431,11664.3825135841,14736.377843074,4412.76825341401,3730.876544467,1645.531540059,11822.8659716491,14661.573894632,4440.09189585001,3258.613690737,1378.688587617,10554.998307129,15634.025224378,4699.66649899202,3919.781685959,2045.795968722,11537.5957471321,15409.613379052,4453.75371706801,2739.124551634,1245.267111396,11664.3825135841,15484.417327494,4617.69557168402,2786.350837007,1556.583889245,11347.415597454,13913.534410212,4740.65196264602,3494.745117602,1823.426841687,11252.325522615,14736.377843074,4494.73918072201,3683.650259094,1067.371809768,12266.6196542311,13913.534410212,4781.63742630002,2502.993124769,1601.057714652,11188.932139389,14586.76994619,4645.01921412002,3589.197688348
"7",1289.740936803,12742.0700284261,14960.7896884,4330.79732610601,2455.766839396,1200.793285989,12520.1931871351,13539.514668002,4426.43007463201,3447.518832229,1200.793285989,12488.4964955221,14063.142307096,4467.41553828601,3022.482263872,1067.371809768,11157.235447776,14811.181791516,4740.65196264602,3730.876544467,1601.057714652,12361.7097290701,13988.338358654,4440.09189585001,2928.029693126,889.47650814,12456.7998039091,14362.358100864,4658.68103533802,2550.219410142,978.424158954,12234.9229626181,12866.279132024,4795.29924751802,3258.613690737,1601.057714652,12044.7428129401,13539.514668002,4576.71010803002,3211.387405364,889.47650814,12805.4634116521,13464.71071956,4767.97560508202,2219.635412531,1601.057714652,11854.5626632621,13689.122564886,4699.66649899202,2975.255978499
"8",1334.21476221,13344.3071690731,14137.946255538,4317.13550488801,2077.956556412,1067.371809768,13217.5204026211,12641.867286698,4481.07735950401,2928.029693126,800.528857326,13344.3071690731,12866.279132024,4590.37192924802,2502.993124769,800.528857326,12171.5295793921,13464.71071956,4849.94653239002,2975.255978499,1334.21476221,13027.3402529431,13015.887028908,4467.41553828601,2739.124551634,756.055031919,13090.7336361691,13389.906771118,4754.31378386402,2030.730271039,845.002682733,12932.2501781041,12118.239647604,4822.62288995402,2739.124551634,1467.636238431,12837.1601032651,12342.65149293,4563.04828681202,2975.255978499,667.107381105,13502.7906271381,12716.67123514,4754.31378386402,1936.277700293,1245.267111396,12646.9799535871,12941.083080466,4754.31378386402,2455.766839396
"9",1067.371809768,14326.9046090761,12492.259389814,4289.81186245201,2030.730271039,933.950333547,14009.9376929461,11295.396214742,4563.04828681202,2455.766839396,756.055031919,14041.6343845591,11893.827802278,4658.68103533802,1889.05141492,667.107381105,13249.2170942341,12193.043596046,4781.63742630002,2550.219410142,1022.897984361,13692.9707768161,12267.847544488,4440.09189585001,2644.671980888,578.159730291,13883.1509264941,12118.239647604,4767.97560508202,1794.598844174,667.107381105,13851.4542348811,10996.180420974,4767.97560508202,2455.766839396,1245.267111396,13756.3641600421,10921.376472532,4604.03375046602,2597.445695515,578.159730291,14231.8145342371,11968.63175072,4672.34285655602,1700.146273428,1067.371809768,13217.5204026211,12492.259389814,4808.96106873602,1889.05141492
"10",933.950333547,15119.3218994011,11145.788317858,4303.47368367001,1794.598844174,711.581206512,14770.6582916581,10173.336988112,4590.37192924802,2172.409127158,711.581206512,14643.8715252061,10846.57252409,4795.29924751802,1227.883419698,622.633555698,13946.5443097201,10996.180420974,4836.28471117202,2125.182841785,800.528857326,14548.7814503671,11145.788317858,4467.41553828601,2219.635412531,444.73825407,14517.0847587541,11445.004111626,4740.65196264602,1511.241131936,533.685904884,14675.5682168191,9574.905400576,4918.25563848002,1747.372558801,1022.897984361,14390.2979923021,9948.925142786,4672.34285655602,2266.861697904,489.212079477,15119.3218994011,10696.964627206,4672.34285655602,1275.109705071,933.950333547,13851.4542348811,11968.63175072,4781.63742630002,1511.241131936
"11",622.633555698,15784.9524232741,10023.729091228,4385.44461097801,1558.467417309,578.159730291,15246.1086658531,9724.51329746,4740.65196264602,1369.562275817,578.159730291,15341.1987406921,10023.729091228,4863.60835360802,613.941709849,578.159730291,14738.9616000451,10173.336988112,4931.91745969802,1180.657134325,667.107381105,15119.3218994011,10397.748833438,4617.69557168402,1464.014846563,489.212079477,15309.5020490791,10322.944884996,4767.97560508202,897.299422087,222.369127035,15309.5020490791,8826.86591615601,4986.56474457002,1369.562275817,578.159730291,14960.8384413361,9350.49355525,4877.27017482602,1558.467417309,489.212079477,15848.3458065001,9649.709349018,4726.99014142802,661.167995222,622.633555698,14675.5682168191,11295.396214742,4754.31378386402,1133.430848952
"12",622.633555698,16482.2796387601,9200.88565836601,4330.79732610601,1227.883419698,400.264428663,15975.1325729521,8976.47381304001,4658.68103533802,1227.883419698,355.790603256,16006.8292645651,8901.66986459801,4795.29924751802,802.846851341,444.73825407,15753.2557316611,8826.86591615601,4822.62288995402,1038.978278206,489.212079477,15816.6491148871,9051.27776148201,4617.69557168402,1464.014846563,489.212079477,16165.3127226301,8826.86591615601,4713.32832021002,755.620565968,266.842952442,15880.0424981131,8153.63038017801,4890.93199604402,1227.883419698,489.212079477,15816.6491148871,8527.65012238801,4754.31378386402,1322.335990444,400.264428663,16640.7630968251,8527.65012238801,4590.37192924802,755.620565968,489.212079477,15246.1086658531,10547.356730322,4740.65196264602,944.52570746
"13",489.212079477,17179.6068542461,8228.43432862001,4289.81186245201,1086.204563579,400.264428663,16577.3697135991,8228.43432862001,4617.69557168402,944.52570746,222.369127035,16672.4597884381,8004.02248329401,4740.65196264602,708.394280595,400.264428663,16640.7630968251,7555.19879264201,4699.66649899202,991.751992833,533.685904884,16735.8531716641,7630.00274108401,4535.72464437602,1227.883419698,311.316777849,17147.9101626331,7555.19879264201,4590.37192924802,708.394280595,311.316777849,16450.5829471471,7480.39484420001,4795.29924751802,1086.204563579,533.685904884,16545.6730219861,7480.39484420001,4645.01921412002,1227.883419698,311.316777849,17433.1803871502,7405.59089575801,4481.07735950401,755.620565968,355.790603256,16165.3127226301,9500.101452134,4576.71010803002,944.52570746
"14",444.73825407,17686.7539200542,7630.00274108401,4221.50275636201,991.751992833,311.316777849,17243.0002374721,7181.17905043201,4563.04828681202,897.299422087,177.895301628,17306.3936206981,7181.17905043201,4686.00467777402,519.489139103,400.264428663,17179.6068542461,6807.15930822201,4645.01921412002,850.073136714,489.212079477,17464.8770787632,6807.15930822201,4399.10643219601,1180.657134325,311.316777849,17813.5406865062,6881.96325666401,4453.75371706801,613.941709849,311.316777849,16989.4267045681,6582.74746289601,4754.31378386402,991.751992833,533.685904884,17084.5167794071,6582.74746289601,4672.34285655602,897.299422087,355.790603256,17876.9340697322,6807.15930822201,4385.44461097801,755.620565968,355.790603256,17052.8200877941,8452.84617394601,4481.07735950401,613.941709849
"15",400.264428663,18288.9910607012,6881.96325666401,4125.87000783601,944.52570746,266.842952442,17845.2373781192,6507.94351445401,4467.41553828601,802.846851341,222.369127035,17940.3274529582,6433.13956601201,4576.71010803002,377.810282984,355.790603256,17876.9340697322,5685.100081592,4590.37192924802,755.620565968,400.264428663,18035.4175277972,5909.511926918,4453.75371706801,802.846851341,400.264428663,18288.9910607012,6433.13956601201,4317.13550488801,566.715424476,444.73825407,17813.5406865062,5759.904030034,4549.38646559402,850.073136714,489.212079477,17623.3605368282,5909.511926918,4590.37192924802,850.073136714,355.790603256,18605.9579768312,5834.707978476,4289.81186245201,613.941709849,400.264428663,17813.5406865062,7255.98299887401,4385.44461097801,519.489139103
"16",444.73825407,18891.2282013482,5984.31587536,4071.22272296401,755.620565968,400.264428663,18605.9579768312,5385.884287824,4344.45914732401,661.167995222,222.369127035,18796.1381265092,5236.27639094,4440.09189585001,330.583997611,177.895301628,18479.1712103792,4862.25664873,4508.40100194001,850.073136714,311.316777849,18827.8348181222,4862.25664873,4330.79732610601,802.846851341,400.264428663,19398.3752671562,4488.23690652,4207.84093514401,519.489139103,444.73825407,18574.2612852182,4712.648751846,4467.41553828601,661.167995222,533.685904884,18415.7778271532,5011.864545614,4494.73918072201,519.489139103,355.790603256,19430.0719587692,4862.25664873,4180.51729270801,377.810282984,444.73825407,18574.2612852182,5984.31587536,4276.15004123401,519.489139103
"17",489.212079477,19683.6454916732,5460.688236266,3811.648119822,755.620565968,444.73825407,18954.6215845742,5086.668494056,4248.82639879801,613.941709849,222.369127035,19081.4083510262,5011.864545614,4371.78278976001,283.357712238,177.895301628,19113.1050426392,4413.432958078,4317.13550488801,850.073136714,222.369127035,19271.5885007042,4563.040854962,4262.48822001601,661.167995222,533.685904884,19556.8587252212,4413.432958078,4112.20818661801,519.489139103,444.73825407,18859.5315097352,4563.040854962,4385.44461097801,613.941709849,489.212079477,18891.2282013482,4787.452700288,4358.12096854201,472.26285373,266.842952442,19810.4322581252,4712.648751846,4098.54636540001,283.357712238,400.264428663,19018.0149678002,5610.29613315,4180.51729270801,472.26285373
"18",400.264428663,20159.0958658682,5011.864545614,3716.015371296,755.620565968,444.73825407,19303.2851923172,4712.648751846,4221.50275636201,425.036568357,311.316777849,19398.3752671562,4712.648751846,4289.81186245201,188.905141492,133.421476221,19461.7686503822,4039.413215868,4276.15004123401,755.620565968,266.842952442,19937.2190245772,4189.021112752,4043.89908052801,613.941709849,444.73825407,20032.3090994162,4114.21716431,3989.25179565601,519.489139103,444.73825407,19430.0719587692,4488.23690652,4166.85547149001,566.715424476,444.73825407,19430.0719587692,4563.040854962,4180.51729270801,472.26285373,177.895301628,20064.0057910292,4563.040854962,4043.89908052801,283.357712238,489.212079477,19493.4653419952,5161.472442498,4057.56090174601,377.810282984
"19",355.790603256,20412.6693987722,4712.648751846,3757.00083495,472.26285373,444.73825407,19620.2521084472,4338.629009636,4153.19365027201,425.036568357,489.212079477,19778.7355665122,4039.413215868,4207.84093514401,141.678856119,88.947650814,19747.0388748992,3889.805318984,4194.17911392601,755.620565968,355.790603256,20317.5793239332,3815.001370542,3948.26633200201,519.489139103,444.73825407,20571.1528568372,3815.001370542,3852.633583476,377.810282984,489.212079477,19810.4322581252,3889.805318984,4125.87000783601,472.26285373,355.790603256,20254.1859407072,3665.393473658,3961.92815322001,661.167995222,222.369127035,20539.4561652242,4488.23690652,3866.295404694,188.905141492,489.212079477,19905.5223329642,5011.864545614,3907.28086834801,377.810282984
"20",400.264428663,20824.7263897412,4413.432958078,3647.706265206,377.810282984,489.212079477,20000.6124078032,4263.825061194,4030.23725931001,283.357712238,533.685904884,20190.7925574812,3590.589525216,4112.20818661801,94.452570746,44.473825407,20349.2760155462,3291.373731448,4098.54636540001,613.941709849,311.316777849,20666.2429316762,3665.393473658,3852.633583476,472.26285373,400.264428663,21205.0866890972,3291.373731448,3702.353550078,330.583997611,489.212079477,20159.0958658682,3665.393473658,4043.89908052801,377.810282984,311.316777849,20634.5462400632,3590.589525216,3825.30994104,661.167995222,311.316777849,21046.6032310322,4338.629009636,3675.029907642,94.452570746,444.73825407,20444.3660903852,4413.432958078,3784.324477386,425.036568357
"21",311.316777849,21109.9966142582,4338.629009636,3606.720801552,236.131426865,444.73825407,20507.7594736112,3740.1974221,3934.60451078401,236.131426865,533.685904884,20539.4561652242,3440.981628332,3989.25179565601,94.452570746,44.473825407,20729.6363149022,3216.569783006,3975.58997443801,519.489139103,222.369127035,21109.9966142582,2992.15793768,3811.648119822,472.26285373,444.73825407,21490.3569136142,3141.765834564,3593.058980334,330.583997611,444.73825407,20729.6363149022,3440.981628332,3825.30994104,472.26285373,355.790603256,20951.5131561932,3440.981628332,3729.677192514,566.715424476,266.842952442,21617.1436800662,3815.001370542,3524.749874244,141.678856119,444.73825407,21205.0866890972,3740.1974221,3579.397159116,425.036568357
"22",311.316777849,21648.8403716792,3889.805318984,3456.440768154,236.131426865,489.212079477,20919.8164645802,3515.785576774,3797.986298604,188.905141492,622.633555698,20951.5131561932,3141.765834564,3825.30994104,141.678856119,44.473825407,21205.0866890972,3066.961886122,3838.971762258,377.810282984,222.369127035,21522.0536052272,2767.746092354,3688.69172886,425.036568357,489.212079477,21965.8072878092,2692.942143912,3470.102589372,283.357712238,400.264428663,21141.6933058712,3141.765834564,3716.015371296,472.26285373,400.264428663,21553.7502968402,2917.353989238,3579.397159116,472.26285373,311.316777849,21902.4139045832,3889.805318984,3374.469840846,141.678856119,444.73825407,21553.7502968402,3740.1974221,3470.102589372,283.357712238
"23",266.842952442,22060.8973626482,3515.785576774,3360.808019628,236.131426865,489.212079477,21236.7833807102,3366.17767989,3702.353550078,141.678856119,711.581206512,21490.3569136142,2767.746092354,3634.044443988,141.678856119,133.421476221,21902.4139045832,2767.746092354,3579.397159116,330.583997611,266.842952442,21839.0205213572,2692.942143912,3565.735337898,377.810282984,444.73825407,22536.3477368432,2393.726350144,3251.51344988399,425.036568357,444.73825407,21522.0536052272,2992.15793768,3579.397159116,425.036568357,400.264428663,22060.8973626482,2618.13819547,3442.778946936,377.810282984,266.842952442,22409.5609703912,3291.373731448,3265.17527110199,188.905141492,400.264428663,21902.4139045832,3590.589525216,3374.469840846,236.131426865
"24",355.790603256,22377.8642787782,3366.17767989,3224.18980744799,236.131426865,400.264428663,21743.9304465182,2917.353989238,3606.720801552,94.452570746,711.581206512,21743.9304465182,2692.942143912,3538.411695462,141.678856119,133.421476221,22219.3808207132,2767.746092354,3442.778946936,330.583997611,311.316777849,22314.4708955522,2543.334247028,3374.469840846,377.810282984,489.212079477,23106.8881858772,1795.294762608,3128.55705892199,330.583997611,489.212079477,21807.3238297442,2842.550040796,3456.440768154,472.26285373,444.73825407,22504.6510452302,2543.334247028,3278.83709232,283.357712238,222.369127035,22694.8311949082,3216.569783006,3155.88070135799,236.131426865,444.73825407,22251.0775123262,3366.17767989,3237.85162866599,283.357712238
"25",311.316777849,22885.0113445862,3216.569783006,3073.90977404999,141.678856119,400.264428663,22346.1675871652,2618.13819547,3388.131662064,141.678856119,711.581206512,22092.5940542612,2468.530298586,3442.778946936,94.452570746,222.369127035,22631.4378116822,2618.13819547,3265.17527110199,330.583997611,355.790603256,22694.8311949082,2019.706607934,3278.83709232,425.036568357,444.73825407,23360.4617187812,1795.294762608,3032.92431039599,330.583997611,444.73825407,22282.7742039392,2842.550040796,3251.51344988399,519.489139103,400.264428663,22789.9212697472,2468.530298586,3196.86616501199,236.131426865,222.369127035,23011.7981110382,2992.15793768,3073.90977404999,188.905141492,400.264428663,22694.8311949082,3216.569783006,3073.90977404999,330.583997611
"26",444.73825407,23297.0683355552,2842.550040796,2909.96791943399,188.905141492,266.842952442,22758.2245781342,2393.726350144,3292.498913538,141.678856119,622.633555698,22599.7411200692,2169.314504818,3292.498913538,141.678856119,400.264428663,22885.0113445862,2468.530298586,3169.54252257599,188.905141492,533.685904884,23138.5848774902,1795.294762608,3114.89523770399,283.357712238,489.212079477,23709.1253265243,1645.686865724,2896.30609821599,330.583997611,444.73825407,22694.8311949082,2393.726350144,3169.54252257599,472.26285373,400.264428663,23360.4617187812,2169.314504818,3019.26248917799,188.905141492,222.369127035,23487.2484852332,2618.13819547,2923.62974065199,236.131426865,355.790603256,23265.3716439422,2842.550040796,2923.62974065199,283.357712238
"27",400.264428663,23550.6418684592,2618.13819547,2868.98245577999,141.678856119,266.842952442,23265.3716439422,2019.706607934,3155.88070135799,94.452570746,622.633555698,22885.0113445862,2169.314504818,3169.54252257599,141.678856119,489.212079477,23392.1584103942,2244.11845326,2964.61520430599,188.905141492,489.212079477,23550.6418684592,1570.882917282,2991.93884674199,283.357712238,311.316777849,24121.1823174933,1421.275020398,2827.99699212599,283.357712238,355.790603256,22916.7080361992,2393.726350144,3114.89523770399,425.036568357,355.790603256,23867.6087845893,1570.882917282,2896.30609821599,283.357712238,266.842952442,23931.0021678153,2244.11845326,2773.34970725399,283.357712238,355.790603256,23550.6418684592,2692.942143912,2827.99699212599,283.357712238
"28",355.790603256,23867.6087845893,2618.13819547,2718.70242238199,236.131426865,355.790603256,23804.2154013633,1570.882917282,2978.27702552399,94.452570746,578.159730291,23360.4617187812,1944.902659492,3019.26248917799,141.678856119,533.685904884,23740.8220181373,2169.314504818,2814.33517090799,188.905141492,444.73825407,23899.3054762023,1570.882917282,2868.98245577999,236.131426865,355.790603256,24501.5426168493,1196.863175072,2705.04060116399,236.131426865,311.316777849,23455.5517936202,2244.11845326,2937.29156186999,377.810282984,311.316777849,24057.7889342673,1496.07896884,2855.32063456199,236.131426865,311.316777849,24343.0591587843,2019.706607934,2623.06967385599,283.357712238,222.369127035,23772.5187097503,2692.942143912,2759.68788603599,330.583997611
"29",355.790603256,24121.1823174933,2543.334247028,2623.06967385599,236.131426865,355.790603256,24152.8790091063,1570.882917282,2841.65881334399,47.226285373,489.212079477,23582.3385600723,1795.294762608,2964.61520430599,188.905141492,622.633555698,24152.8790091063,1944.902659492,2664.05513750999,141.678856119,444.73825407,24311.3624671713,1346.471071956,2746.02606481799,188.905141492,311.316777849,24913.5996078183,1047.255278188,2554.76056776599,283.357712238,400.264428663,23772.5187097503,2019.706607934,2827.99699212599,330.583997611,311.316777849,24469.8459252363,1196.863175072,2732.36424359999,236.131426865,355.790603256,24818.5095329793,1720.490814166,2445.46599802199,330.583997611,222.369127035,24152.8790091063,2618.13819547,2609.40785263799,330.583997611
"30",311.316777849,24628.3293833013,2244.11845326,2472.78964045799,236.131426865,311.316777849,24406.4525420103,1570.882917282,2718.70242238199,141.678856119,489.212079477,23931.0021678153,1645.686865724,2841.65881334399,188.905141492,622.633555698,24628.3293833013,1795.294762608,2500.11328289399,94.452570746,400.264428663,24786.8128413663,1346.471071956,2568.42238898399,141.678856119,400.264428663,25198.8698323353,822.843432862,2459.12781924,236.131426865,400.264428663,24057.7889342673,2094.510556376,2718.70242238199,236.131426865,355.790603256,24723.4194581403,1196.863175072,2595.74603141999,283.357712238,355.790603256,25135.4764491093,1645.686865724,2349.833249496,236.131426865,222.369127035,24660.0260749143,2169.314504818,2472.78964045799,330.583997611
"31",355.790603256,25040.3863742703,1870.09871105,2349.833249496,236.131426865,355.790603256,24945.2962994313,1496.07896884,2486.45146167599,141.678856119,578.159730291,24152.8790091063,1570.882917282,2746.02606481799,141.678856119,622.633555698,24913.5996078183,1795.294762608,2390.81871315,47.226285373,400.264428663,25103.7797574963,1196.863175072,2459.12781924,141.678856119,311.316777849,25452.4433652393,897.647381304,2363.495070714,236.131426865,444.73825407,24406.4525420103,1795.294762608,2609.40785263799,236.131426865,400.264428663,24976.9929910443,897.647381304,2527.43692532999,283.357712238,355.790603256,25420.7466736263,1570.882917282,2254.20050097,188.905141492,177.895301628,24945.2962994313,2094.510556376,2404.480534368,236.131426865
"32",355.790603256,25357.3532904003,1795.294762608,2240.538679752,188.905141492,355.790603256,25230.5665239483,1196.863175072,2418.142355586,141.678856119,400.264428663,24438.1492336233,1496.07896884,2677.71695872799,188.905141492,667.107381105,25293.9599071743,1421.275020398,2295.185964624,NA,444.73825407,25579.2301316913,972.451329746,2281.524143406,141.678856119,355.790603256,25737.7135897563,1047.255278188,2226.876858534,141.678856119,444.73825407,24755.1161497533,1795.294762608,2445.46599802199,283.357712238,400.264428663,25262.2632155613,897.647381304,2404.480534368,283.357712238,311.316777849,25674.3202065303,1346.471071956,2199.553216098,188.905141492,177.895301628,25357.3532904003,1870.09871105,2254.20050097,283.357712238
"33",355.790603256,25706.0168981433,1346.471071956,2185.89139488,141.678856119,444.73825407,25515.8367484653,1122.05922663,2281.524143406,141.678856119,444.73825407,24850.2062245923,1570.882917282,2472.78964045799,188.905141492,622.633555698,25547.5334400783,1421.275020398,2199.553216098,NA,400.264428663,25737.7135897563,1047.255278188,2213.215037316,141.678856119,400.264428663,26213.1639639513,1047.255278188,2021.949540264,94.452570746,355.790603256,24945.2962994313,1795.294762608,2418.142355586,188.905141492,355.790603256,25579.2301316913,897.647381304,2281.524143406,283.357712238,311.316777849,26149.7705807253,1346.471071956,1994.625897828,188.905141492,177.895301628,25706.0168981433,1645.686865724,2144.905931226,283.357712238
"34",444.73825407,26149.7705807253,972.451329746,2049.2731827,94.452570746,444.73825407,25927.8937394343,897.647381304,2131.244110008,188.905141492,489.212079477,25167.1731407223,1421.275020398,2336.171428278,236.131426865,578.159730291,25927.8937394343,1196.863175072,2076.596825136,47.226285373,400.264428663,26149.7705807253,972.451329746,2049.2731827,141.678856119,355.790603256,26561.8275716943,972.451329746,1898.993149302,94.452570746,400.264428663,25072.0830658833,1645.686865724,2390.81871315,141.678856119,355.790603256,25864.5003562083,972.451329746,2144.905931226,283.357712238,266.842952442,26466.7374968553,1271.667123514,1898.993149302,141.678856119,133.421476221,26213.1639639513,1271.667123514,2008.287719046,283.357712238
"35",444.73825407,26403.3441136293,897.647381304,1953.640434174,94.452570746,444.73825407,26244.8606555643,897.647381304,2021.949540264,94.452570746,400.264428663,25452.4433652393,1421.275020398,2226.876858534,283.357712238,444.73825407,26149.7705807253,1122.05922663,2021.949540264,94.452570746,355.790603256,26276.5573471773,1047.255278188,2008.287719046,94.452570746,311.316777849,26752.0077213723,897.647381304,1858.007685648,47.226285373,311.316777849,25293.9599071743,1570.882917282,2336.171428278,141.678856119,355.790603256,26213.1639639513,897.647381304,2008.287719046,283.357712238,311.316777849,26720.3110297593,1122.05922663,1803.360400776,141.678856119,177.895301628,26308.2540387903,1271.667123514,1980.96407661,188.905141492
"36",311.316777849,26910.4911794373,822.843432862,1762.374937122,188.905141492,489.212079477,26530.1308800813,673.235535978,1926.316791738,94.452570746,444.73825407,25801.1069729823,1421.275020398,2062.935003918,283.357712238,266.842952442,26561.8275716943,972.451329746,1926.316791738,94.452570746,177.895301628,26498.4341884683,1122.05922663,1939.978612956,141.678856119,355.790603256,27100.6713291153,897.647381304,1694.065831032,47.226285373,266.842952442,25769.4102813693,1570.882917282,2131.244110008,188.905141492,222.369127035,26339.9507304033,897.647381304,1980.96407661,330.583997611,355.790603256,27132.3680207283,1047.255278188,1625.756724942,141.678856119,133.421476221,26688.6143381463,1271.667123514,1858.007685648,94.452570746
"37",444.73825407,27132.3680207283,897.647381304,1612.094903724,188.905141492,489.212079477,26720.3110297593,748.03948442,1830.684043212,94.452570746,489.212079477,26118.0738891123,1421.275020398,1912.65497052,283.357712238,177.895301628,27037.2779458893,897.647381304,1762.374937122,94.452570746,266.842952442,26656.9176465333,1122.05922663,1844.34586443,141.678856119,444.73825407,27290.8514787933,822.843432862,1598.433082506,47.226285373,311.316777849,25959.5904310473,1645.686865724,2035.611361482,141.678856119,222.369127035,26561.8275716943,897.647381304,1885.331328084,330.583997611,355.790603256,27449.3349368583,972.451329746,1502.80033398,141.678856119,222.369127035,26878.7944878243,1271.667123514,1735.051294686,141.678856119
"38",400.264428663,27544.4250116973,1047.255278188,1420.829406672,188.905141492,444.73825407,27132.3680207283,822.843432862,1666.742188596,47.226285373,533.685904884,26561.8275716943,1645.686865724,1680.404009814,236.131426865,177.895301628,27829.6952362143,748.03948442,1448.153049108,94.452570746,266.842952442,27354.2448620193,1047.255278188,1557.447618852,141.678856119,355.790603256,27861.3919278273,748.03948442,1379.843943018,94.452570746,311.316777849,26656.9176465333,1645.686865724,1721.389473468,188.905141492,311.316777849,27068.9746375023,822.843432862,1666.742188596,283.357712238,311.316777849,28083.2687691183,972.451329746,1243.225730838,141.678856119,266.842952442,27385.9415536323,1271.667123514,1516.462155198,94.452570746
"39",400.264428663,27797.9985446013,972.451329746,1325.196658146,188.905141492,444.73825407,27639.5150865363,822.843432862,1448.153049108,47.226285373,489.212079477,26973.8845626633,1720.490814166,1502.80033398,236.131426865,222.369127035,28146.6621523443,673.235535978,1325.196658146,47.226285373,222.369127035,27956.4820026663,972.451329746,1325.196658146,141.678856119,400.264428663,28431.9323768613,598.431587536,1147.592982312,94.452570746,311.316777849,27354.2448620193,1421.275020398,1475.476691544,141.678856119,355.790603256,27544.4250116973,822.843432862,1461.814870326,236.131426865,400.264428663,28241.7522271833,897.647381304,1161.25480353,141.678856119,311.316777849,27829.6952362143,1047.255278188,1352.520300582,94.452570746
"40",444.73825407,28083.2687691183,1047.255278188,1188.578445966,141.678856119,444.73825407,28114.9654607313,897.647381304,1229.56390962,47.226285373,533.685904884,27481.0316284713,1944.902659492,1243.225730838,188.905141492,311.316777849,28495.3257600873,897.647381304,1106.607518658,47.226285373,222.369127035,28146.6621523443,972.451329746,1256.887552056,94.452570746,400.264428663,28780.5959846043,523.627639094,1010.974770132,94.452570746,355.790603256,27766.3018529883,1421.275020398,1311.534836928,47.226285373,311.316777849,28051.5720775053,897.647381304,1284.211194492,94.452570746,311.316777849,28685.5059097653,822.843432862,1010.974770132,141.678856119,311.316777849,28273.4489187963,972.451329746,1188.578445966,47.226285373
"41",444.73825407,28527.0224517003,748.03948442,1079.283876222,47.226285373,444.73825407,28431.9323768613,897.647381304,1079.283876222,94.452570746,400.264428663,28051.5720775053,1944.902659492,1051.960233786,141.678856119,355.790603256,28875.6860594432,748.03948442,942.665664042,94.452570746,355.790603256,28305.1456104093,972.451329746,1161.25480353,47.226285373,400.264428663,29034.1695175082,448.823690652,915.342021606,94.452570746,311.316777849,28336.8423020223,1496.07896884,1065.622055004,47.226285373,311.316777849,28368.5389936353,822.843432862,1161.25480353,94.452570746,311.316777849,29256.0463587992,822.843432862,765.061988208,141.678856119,311.316777849,28622.1125265393,822.843432862,1065.622055004,47.226285373
"42",444.73825407,28780.5959846043,673.235535978,969.989306478,94.452570746,400.264428663,28812.2926762173,897.647381304,942.665664042,47.226285373,444.73825407,28210.0555355703,1944.902659492,969.989306478,141.678856119,400.264428663,29192.6529755732,673.235535978,806.047451862,94.452570746,400.264428663,28653.8092181523,748.03948442,1038.298412568,47.226285373,355.790603256,29477.9232000902,374.01974221,765.061988208,47.226285373,311.316777849,28558.7191433133,1496.07896884,969.989306478,47.226285373,266.842952442,28717.2026013783,822.843432862,1024.63659135,94.452570746,311.316777849,29573.0132749292,748.03948442,669.429239682,47.226285373,266.842952442,28939.0794426692,822.843432862,956.32748526,NA
"43",622.633555698,28843.9893678303,748.03948442,888.01837917,47.226285373,355.790603256,29224.3496671862,822.843432862,806.047451862,NA,355.790603256,28590.4158349263,1870.09871105,860.694736734,94.452570746,400.264428663,29541.3165833162,673.235535978,655.767418464,94.452570746,489.212079477,28939.0794426692,748.03948442,901.680200388,NA,355.790603256,29573.0132749292,448.823690652,710.414703336,47.226285373,311.316777849,28843.9893678303,1496.07896884,847.032915516,47.226285373,266.842952442,29097.5629007342,822.843432862,847.032915516,141.678856119,355.790603256,29763.1934246072,748.03948442,573.796491156,47.226285373,266.842952442,29287.7430504122,673.235535978,833.371094298,NA
"44",622.633555698,29224.3496671862,673.235535978,737.738345771999,47.226285373,355.790603256,29477.9232000902,822.843432862,696.752882118,NA,311.316777849,28970.7761342822,1795.294762608,724.076524554,94.452570746,400.264428663,29699.8000413812,673.235535978,601.120133592,47.226285373,533.685904884,29129.2595923472,673.235535978,819.70927308,NA,400.264428663,29699.8000413812,448.823690652,642.105597246,47.226285373,311.316777849,29192.6529755732,1570.882917282,683.0910609,47.226285373,266.842952442,29287.7430504122,822.843432862,765.061988208,141.678856119,400.264428663,29985.0702658982,598.431587536,505.487385066,NA,266.842952442,29573.0132749292,523.627639094,737.738345771999,NA
"45",711.581206512,29287.7430504122,748.03948442,669.429239682,47.226285373,444.73825407,29477.9232000902,897.647381304,642.105597246,47.226285373,400.264428663,29287.7430504122,1570.882917282,628.443776028,NA,400.264428663,29985.0702658982,673.235535978,491.825563848,NA,489.212079477,29446.2265084772,748.03948442,683.0910609,NA,400.264428663,30048.4636491242,448.823690652,478.16374263,94.452570746,444.73825407,29351.1364336382,1570.882917282,587.458312374,NA,266.842952442,29477.9232000902,822.843432862,683.0910609,141.678856119,489.212079477,30048.4636491242,673.235535978,437.178278976,NA,311.316777849,29731.4967329942,598.431587536,628.443776028,47.226285373
"46",756.055031919,29382.8331252512,748.03948442,614.78195481,47.226285373,355.790603256,29668.1033497682,822.843432862,601.120133592,47.226285373,355.790603256,29319.4397420252,1720.490814166,601.120133592,NA,400.264428663,30206.9471071891,598.431587536,409.85463654,NA,533.685904884,29541.3165833162,673.235535978,642.105597246,NA,400.264428663,30143.5537239631,299.215793768,464.501921412,94.452570746,444.73825407,29509.6198917032,1496.07896884,532.811027502,NA,266.842952442,29636.4066581552,972.451329746,587.458312374,141.678856119,578.159730291,30080.1603407372,598.431587536,409.85463654,NA,489.212079477,29731.4967329942,598.431587536,573.796491156,47.226285373
"47",756.055031919,29382.8331252512,972.451329746,573.796491156,47.226285373,311.316777849,29763.1934246072,897.647381304,560.134669938,47.226285373,400.264428663,29319.4397420252,1645.686865724,601.120133592,NA,400.264428663,30206.9471071891,673.235535978,396.192815322,NA,444.73825407,29889.9801910592,673.235535978,519.149206284,NA,311.316777849,30302.0371820281,224.411845326,437.178278976,94.452570746,444.73825407,29731.4967329942,1271.667123514,478.16374263,NA,266.842952442,29763.1934246072,1047.255278188,532.811027502,94.452570746,533.685904884,30206.9471071891,523.627639094,382.530994104,NA,400.264428663,29921.6768826722,673.235535978,505.487385066,47.226285373
"48",711.581206512,29668.1033497682,972.451329746,464.501921412,47.226285373,444.73825407,29889.9801910592,897.647381304,464.501921412,47.226285373,355.790603256,29414.5298168642,1645.686865724,573.796491156,NA,444.73825407,30175.2504155761,673.235535978,396.192815322,NA,444.73825407,30080.1603407372,598.431587536,450.840100194,NA,400.264428663,30270.3404904151,224.411845326,409.85463654,141.678856119,489.212079477,29889.9801910592,1271.667123514,382.530994104,47.226285373,222.369127035,30048.4636491242,1122.05922663,423.516457758,47.226285373,667.107381105,30143.5537239631,523.627639094,368.869172886,NA,533.685904884,30080.1603407372,598.431587536,409.85463654,47.226285373
"49",756.055031919,29731.4967329942,897.647381304,437.178278976,47.226285373,622.633555698,29794.8901162202,897.647381304,450.840100194,47.226285373,444.73825407,29446.2265084772,1570.882917282,546.47284872,NA,533.685904884,30143.5537239631,673.235535978,382.530994104,NA,444.73825407,30111.8570323501,673.235535978,423.516457758,NA,400.264428663,30270.3404904151,224.411845326,423.516457758,94.452570746,444.73825407,29953.3735742852,1196.863175072,382.530994104,47.226285373,222.369127035,30111.8570323501,972.451329746,423.516457758,47.226285373,578.159730291,30143.5537239631,673.235535978,355.207351668,47.226285373,444.73825407,30143.5537239631,598.431587536,409.85463654,47.226285373
"50",711.581206512,29763.1934246072,897.647381304,437.178278976,47.226285373,622.633555698,29953.3735742852,748.03948442,409.85463654,47.226285373,578.159730291,29541.3165833162,1421.275020398,478.16374263,47.226285373,533.685904884,30080.1603407372,748.03948442,382.530994104,47.226285373,444.73825407,30238.6437988021,598.431587536,382.530994104,NA,444.73825407,30365.4305652541,149.607896884,382.530994104,94.452570746,489.212079477,29889.9801910592,1271.667123514,382.530994104,47.226285373,266.842952442,30111.8570323501,972.451329746,396.192815322,94.452570746,711.581206512,30111.8570323501,673.235535978,327.883709232,47.226285373,444.73825407,30206.9471071891,523.627639094,382.530994104,94.452570746
"51",800.528857326,29794.8901162202,822.843432862,409.85463654,47.226285373,667.107381105,30016.7669575112,822.843432862,355.207351668,47.226285373,711.581206512,29573.0132749292,1346.471071956,437.178278976,47.226285373,444.73825407,30143.5537239631,748.03948442,382.530994104,47.226285373,444.73825407,30111.8570323501,673.235535978,409.85463654,47.226285373,444.73825407,30365.4305652541,224.411845326,382.530994104,47.226285373,489.212079477,29889.9801910592,1196.863175072,396.192815322,47.226285373,222.369127035,30111.8570323501,972.451329746,423.516457758,47.226285373,711.581206512,30143.5537239631,673.235535978,314.221888014,47.226285373,444.73825407,30333.7338736411,523.627639094,341.54553045,47.226285373
"52",800.528857326,29794.8901162202,897.647381304,396.192815322,47.226285373,800.528857326,29953.3735742852,748.03948442,355.207351668,47.226285373,711.581206512,29509.6198917032,1421.275020398,450.840100194,47.226285373,400.264428663,30111.8570323501,822.843432862,382.530994104,94.452570746,444.73825407,30048.4636491242,897.647381304,396.192815322,47.226285373,444.73825407,30333.7338736411,224.411845326,396.192815322,47.226285373,444.73825407,29953.3735742852,1047.255278188,396.192815322,94.452570746,222.369127035,30111.8570323501,1047.255278188,409.85463654,47.226285373,711.581206512,30111.8570323501,748.03948442,314.221888014,47.226285373,489.212079477,30333.7338736411,448.823690652,341.54553045,47.226285373
"53",667.107381105,29826.5868078332,822.843432862,437.178278976,47.226285373,711.581206512,29953.3735742852,822.843432862,341.54553045,141.678856119,711.581206512,29541.3165833162,1421.275020398,437.178278976,47.226285373,489.212079477,30143.5537239631,748.03948442,355.207351668,94.452570746,489.212079477,30080.1603407372,897.647381304,368.869172886,47.226285373,400.264428663,30333.7338736411,224.411845326,409.85463654,47.226285373,489.212079477,29953.3735742852,1047.255278188,382.530994104,94.452570746,222.369127035,30175.2504155761,972.451329746,396.192815322,47.226285373,622.633555698,30111.8570323501,748.03948442,327.883709232,94.452570746,533.685904884,30333.7338736411,448.823690652,314.221888014,94.452570746
"54",711.581206512,29731.4967329942,897.647381304,450.840100194,47.226285373,756.055031919,29889.9801910592,897.647381304,355.207351668,94.452570746,800.528857326,29604.7099665422,1196.863175072,437.178278976,NA,489.212079477,30206.9471071891,748.03948442,327.883709232,94.452570746,489.212079477,30111.8570323501,897.647381304,355.207351668,47.226285373,444.73825407,30302.0371820281,224.411845326,409.85463654,47.226285373,444.73825407,30016.7669575112,972.451329746,382.530994104,94.452570746,266.842952442,30175.2504155761,972.451329746,368.869172886,94.452570746,578.159730291,30080.1603407372,822.843432862,327.883709232,141.678856119,578.159730291,30302.0371820281,523.627639094,300.560066796,94.452570746
"55",622.633555698,29763.1934246072,897.647381304,450.840100194,94.452570746,756.055031919,29921.6768826722,822.843432862,355.207351668,94.452570746,756.055031919,29668.1033497682,972.451329746,464.501921412,NA,489.212079477,30302.0371820281,598.431587536,327.883709232,47.226285373,489.212079477,30080.1603407372,897.647381304,341.54553045,141.678856119,444.73825407,30365.4305652541,299.215793768,368.869172886,47.226285373,311.316777849,30048.4636491242,972.451329746,409.85463654,94.452570746,266.842952442,30206.9471071891,897.647381304,368.869172886,94.452570746,533.685904884,30080.1603407372,822.843432862,341.54553045,141.678856119,578.159730291,30238.6437988021,598.431587536,314.221888014,94.452570746
"56",578.159730291,29826.5868078332,822.843432862,464.501921412,47.226285373,756.055031919,29953.3735742852,822.843432862,341.54553045,94.452570746,756.055031919,29699.8000413812,897.647381304,464.501921412,NA,533.685904884,30302.0371820281,523.627639094,327.883709232,47.226285373,489.212079477,30080.1603407372,822.843432862,355.207351668,141.678856119,400.264428663,30333.7338736411,299.215793768,382.530994104,94.452570746,311.316777849,30080.1603407372,897.647381304,409.85463654,94.452570746,266.842952442,30270.3404904151,897.647381304,341.54553045,94.452570746,578.159730291,30080.1603407372,748.03948442,341.54553045,141.678856119,578.159730291,30143.5537239631,673.235535978,341.54553045,94.452570746
"57",533.685904884,29794.8901162202,822.843432862,491.825563848,47.226285373,711.581206512,29953.3735742852,748.03948442,355.207351668,141.678856119,711.581206512,29668.1033497682,972.451329746,478.16374263,NA,533.685904884,30302.0371820281,673.235535978,300.560066796,47.226285373,533.685904884,30048.4636491242,822.843432862,368.869172886,94.452570746,355.790603256,30333.7338736411,299.215793768,382.530994104,141.678856119,266.842952442,30080.1603407372,897.647381304,423.516457758,94.452570746,311.316777849,30302.0371820281,897.647381304,327.883709232,47.226285373,667.107381105,29953.3735742852,897.647381304,341.54553045,141.678856119,800.528857326,30016.7669575112,748.03948442,314.221888014,94.452570746
"58",533.685904884,29889.9801910592,748.03948442,450.840100194,94.452570746,622.633555698,29953.3735742852,748.03948442,382.530994104,141.678856119,711.581206512,29699.8000413812,897.647381304,478.16374263,NA,578.159730291,30270.3404904151,673.235535978,300.560066796,47.226285373,578.159730291,30016.7669575112,822.843432862,368.869172886,94.452570746,311.316777849,30365.4305652541,299.215793768,382.530994104,141.678856119,177.895301628,30111.8570323501,822.843432862,437.178278976,141.678856119,311.316777849,30333.7338736411,897.647381304,314.221888014,47.226285373,489.212079477,30048.4636491242,748.03948442,341.54553045,283.357712238,667.107381105,29985.0702658982,748.03948442,355.207351668,141.678856119
"59",489.212079477,29858.2834994462,748.03948442,478.16374263,94.452570746,533.685904884,29921.6768826722,748.03948442,423.516457758,141.678856119,622.633555698,29731.4967329942,748.03948442,505.487385066,47.226285373,533.685904884,30270.3404904151,673.235535978,314.221888014,47.226285373,578.159730291,29985.0702658982,897.647381304,368.869172886,94.452570746,355.790603256,30333.7338736411,299.215793768,396.192815322,94.452570746,133.421476221,30270.3404904151,673.235535978,409.85463654,141.678856119,311.316777849,30333.7338736411,822.843432862,327.883709232,47.226285373,578.159730291,29985.0702658982,748.03948442,355.207351668,236.131426865,711.581206512,29985.0702658982,748.03948442,341.54553045,141.678856119
"60",533.685904884,29858.2834994462,673.235535978,491.825563848,47.226285373,533.685904884,29858.2834994462,897.647381304,437.178278976,94.452570746,533.685904884,29731.4967329942,748.03948442,546.47284872,NA,400.264428663,30270.3404904151,673.235535978,327.883709232,141.678856119,622.633555698,30016.7669575112,822.843432862,355.207351668,94.452570746,311.316777849,30333.7338736411,299.215793768,423.516457758,47.226285373,177.895301628,30206.9471071891,673.235535978,409.85463654,188.905141492,266.842952442,30397.1272568671,673.235535978,341.54553045,47.226285373,444.73825407,30016.7669575112,673.235535978,396.192815322,236.131426865,845.002682733,29921.6768826722,673.235535978,327.883709232,188.905141492
