"","Early1.ALL","Late1.CLS","Late1.OPN","Mid1.CLS","Mid1.OPN","Early1.ALL.1","Late1.CLS.1","Late1.OPN.1","Mid1.CLS.1","Mid1.OPN.1","Early1.ALL.2","Late1.CLS.2","Late1.OPN.2","Mid1.CLS.2","Mid1.OPN.2","Early1.ALL.3","Late1.CLS.3","Late1.OPN.3","Mid1.CLS.3","Mid1.OPN.3","Early1.ALL.4","Late1.CLS.4","Late1.OPN.4","Mid1.CLS.4","Mid1.OPN.4","Early1.ALL.5","Late1.CLS.5","Late1.OPN.5","Mid1.CLS.5","Mid1.OPN.5","Early1.ALL.6","Late1.CLS.6","Late1.OPN.6","Mid1.CLS.6","Mid1.OPN.6","Early1.ALL.7","Late1.CLS.7","Late1.OPN.7","Mid1.CLS.7","Mid1.OPN.7","Early1.ALL.8","Late1.CLS.8","Late1.OPN.8","Mid1.CLS.8","Mid1.OPN.8","Early1.ALL.9","Late1.CLS.9","Late1.OPN.9","Mid1.CLS.9","Mid1.OPN.9"
"0",19.461934232,111.725081968,785.275282475006,1.054282241,182.668332972,30.689973212,110.18758084,776.334766925006,1.105710643,174.89521242,33.68411694,106.087577832,773.354595075006,1.054282241,182.668332972,28.444365416,101.475074448,809.116657275007,1.079996442,173.923572351,27.695829484,119.412587608,758.453735825006,1.079996442,173.923572351,38.923868464,112.75008272,774.844681000006,0.694283427,175.866852489,30.689973212,113.262583096,788.255454325006,0.899997035,169.065372006,32.187045076,116.337585352,786.765368400006,1.105710643,154.490770971,35.181188804,106.087577832,771.864509150006,0.925711236,186.554893248,26.19875762,116.337585352,762.923993600006,1.182853246,174.89521242
"1",17.964862368,104.550076704,813.586915050007,1.337138452,169.065372006,27.695829484,105.06257708,798.686055800007,1.568566261,156.434051109,29.192901348,103.525075952,795.705883950007,1.671423065,155.46241104,28.444365416,93.2750684319998,838.918375775007,1.439995256,156.434051109,26.947293552,111.212581592,786.765368400006,1.388566854,160.320611385,32.935581008,107.112578584,795.705883950007,1.054282241,167.122091868,25.450221688,106.087577832,813.586915050007,1.079996442,166.150451799,24.701685756,107.112578584,819.547258750007,1.28571005,153.519130902,29.192901348,98.9125725679998,801.666227650007,1.157139045,179.753412765,23.953149824,109.675080464,789.745540250006,1.619994663,156.434051109
"2",17.964862368,97.3750714399998,847.858891325007,1.645708864,148.660930557,25.450221688,98.9125725679998,822.527430600007,1.825708271,145.74601035,26.19875762,101.987574824,816.567086900007,1.722851467,146.717650419,24.701685756,89.6875657999998,855.309320950008,1.671423065,148.660930557,23.204613892,104.037576328,818.057172825007,1.439995256,156.434051109,30.689973212,98.9125725679998,828.487774300007,1.234281648,157.405691178,23.953149824,97.3750714399998,841.898547625007,1.182853246,162.263891523,17.964862368,101.987574824,841.898547625007,1.54285206,147.689290488,21.707542028,95.3250699359998,825.507602450007,1.414281055,171.008652144,20.210470164,103.012575576,815.077000975007,1.979993477,143.802730212
"3",16.467790504,91.7375673039998,868.720094275008,1.748565668,143.802730212,17.964862368,93.2750684319998,853.819235025008,1.825708271,145.74601035,26.19875762,98.9125725679998,835.938203925007,1.79999407,137.001249729,22.45607796,87.1250639199999,882.130867600008,1.645708864,139.916169936,24.701685756,99.9375733199998,829.977860225007,1.465709457,153.519130902,26.947293552,91.7375673039998,859.779578725008,1.414281055,148.660930557,20.959006096,89.6875657999998,874.680437975008,1.28571005,155.46241104,16.467790504,98.9125725679998,856.799406875008,1.619994663,142.831090143,18.7133983,89.6875657999998,847.858891325007,1.54285206,166.150451799,17.964862368,98.9125725679998,834.448118000007,1.928565075,143.802730212
"4",14.97071864,88.1500646719998,889.581297225008,1.79999407,137.001249729,13.473646776,90.7125665519998,873.190352050008,1.877136673,141.859450074,23.953149824,93.7875688079998,849.348977250007,1.774279869,141.859450074,18.7133983,80.4625590319999,911.932586100009,1.671423065,137.001249729,24.701685756,94.3000691839998,847.858891325007,1.568566261,148.660930557,25.450221688,89.1750654239998,873.190352050008,1.414281055,146.717650419,18.7133983,78.9250579039999,908.952414250008,1.439995256,150.604210695,14.222182708,92.7625680559998,880.640781675008,1.619994663,141.859450074,20.210470164,83.0250609119999,885.111039450008,1.337138452,160.320611385,15.719254572,90.7125665519998,868.720094275008,1.928565075,139.916169936
"5",14.97071864,82.5125605359999,914.912757950009,1.748565668,133.114689453,12.725110844,84.5625620399999,894.051555000008,1.851422472,141.859450074,20.210470164,89.1750654239998,868.720094275008,1.722851467,144.774370281,17.216326436,75.850055648,931.303703125009,1.722851467,133.114689453,20.959006096,93.2750684319998,867.230008350008,1.439995256,147.689290488,23.953149824,82.5125605359999,898.521812775008,1.337138452,147.689290488,15.719254572,74.31255452,928.323531275009,1.517137859,147.689290488,16.467790504,90.2000661759998,885.111039450008,1.517137859,144.774370281,17.964862368,76.3625560239999,910.442500175008,1.388566854,157.405691178,12.725110844,83.5375612879999,894.051555000008,1.79999407,145.74601035
"6",15.719254572,89.1750654239998,900.011898700008,1.79999407,127.284849039,13.473646776,80.9750594079999,905.972242400008,1.697137266,145.74601035,18.7133983,87.6375642959999,882.130867600008,1.491423658,149.632570626,14.222182708,76.8750563999999,937.264046825009,1.722851467,131.171409315,18.7133983,92.7625680559998,877.660609825008,1.439995256,144.774370281,22.45607796,82.0000601599999,907.462328325008,1.337138452,144.774370281,15.719254572,72.262553016,946.204562375009,1.311424251,147.689290488,14.97071864,90.2000661759998,892.561469075008,1.388566854,146.717650419,17.216326436,74.31255452,922.363187575009,1.337138452,156.434051109,13.473646776,86.1000631679999,898.521812775008,1.671423065,141.859450074
"7",14.222182708,89.6875657999998,904.482156475008,1.697137266,129.228129177,13.473646776,84.5625620399999,905.972242400008,1.465709457,147.689290488,16.467790504,91.7375673039998,879.150695750008,1.388566854,150.604210695,11.976574912,75.850055648,950.674820150009,1.645708864,130.199769246,13.473646776,91.2250669279998,892.561469075008,1.337138452,148.660930557,19.461934232,80.4625590319999,919.383015725009,1.234281648,147.689290488,14.97071864,70.725051888,950.674820150009,1.182853246,153.519130902,14.97071864,88.1500646719998,898.521812775008,1.337138452,148.660930557,14.222182708,74.31255452,931.303703125009,1.28571005,156.434051109,14.222182708,87.6375642959999,901.501984625008,1.568566261,139.916169936
"8",14.222182708,88.6625650479998,917.892929800009,1.619994663,125.341568901,11.22803898,80.4625590319999,923.853273500009,1.362852653,150.604210695,14.97071864,90.7125665519998,889.581297225008,1.208567447,154.490770971,10.479503048,72.775053392,964.085593475009,1.362852653,139.916169936,13.473646776,86.6125635439999,914.912757950009,1.28571005,144.774370281,18.7133983,80.9750594079999,923.853273500009,1.182853246,146.717650419,11.976574912,69.18755076,965.575679400009,1.079996442,154.490770971,14.222182708,89.1750654239998,902.992070550008,1.208567447,149.632570626,13.473646776,69.700051136,955.145077925009,1.259995849,151.575850764,11.976574912,84.0500616639999,919.383015725009,1.362852653,145.74601035
"9",11.22803898,87.1250639199999,934.283874975009,1.362852653,131.171409315,11.22803898,77.9000571519999,938.754132750009,1.259995849,149.632570626,15.719254572,85.5875627919999,907.462328325008,1.054282241,157.405691178,9.730967116,68.162550008,984.94679642501,1.234281648,140.887810005,11.976574912,80.9750594079999,937.264046825009,1.234281648,144.774370281,14.97071864,76.8750563999999,938.754132750009,1.131424844,151.575850764,12.725110844,63.550046624,989.41705420001,1.105710643,147.689290488,11.976574912,84.5625620399999,919.383015725009,1.182853246,151.575850764,9.730967116,67.137549256,976.00628087501,1.182853246,150.604210695,11.22803898,78.9250579039999,944.714476450009,1.182853246,146.717650419
"10",9.730967116,81.4875597839999,958.125249775009,1.362852653,128.256489108,9.730967116,75.3375552719999,956.635163850009,1.105710643,150.604210695,14.222182708,82.5125605359999,923.853273500009,0.874282834,161.292251454,8.982431184,66.112548504,995.37739790001,1.131424844,142.831090143,9.730967116,75.3375552719999,965.575679400009,1.28571005,137.972889798,14.97071864,73.800054144,955.145077925009,1.054282241,149.632570626,12.725110844,59.9625439920001,1004.31791345001,0.951425437,150.604210695,11.22803898,80.4625590319999,932.793789050009,1.182853246,151.575850764,8.233895252,65.600048128,989.41705420001,1.054282241,151.575850764,14.222182708,75.3375552719999,958.125249775009,1.105710643,143.802730212
"11",8.233895252,75.850055648,978.98645272501,1.28571005,130.199769246,7.48535932,71.237552264,978.98645272501,1.157139045,144.774370281,13.473646776,79.9500586559999,940.244218675009,0.77142603,160.320611385,8.233895252,61.5000451200001,1011.76834307501,1.054282241,144.774370281,9.730967116,71.75005264,981.96662457501,1.311424251,133.114689453,11.976574912,73.800054144,964.085593475009,0.951425437,151.575850764,12.725110844,59.4500436160001,1016.23860085001,0.899997035,145.74601035,11.22803898,76.8750563999999,950.674820150009,1.182853246,146.717650419,7.48535932,63.037546248,1007.29808530001,1.182853246,140.887810005,13.473646776,72.775053392,980.47653865001,0.977139638,139.916169936
"12",6.736823388,71.75005264,1005.80799937501,1.208567447,125.341568901,6.736823388,69.18755076,990.90714012501,1.079996442,144.774370281,12.725110844,73.800054144,967.065765325009,0.719997628,157.405691178,8.233895252,54.8375402320001,1034.11963195001,1.002853839,144.774370281,9.730967116,64.062547,1013.25842900001,1.079996442,136.02960966,10.479503048,71.75005264,974.51619495001,0.848568633,154.490770971,10.479503048,56.3750413600001,1038.58988972501,0.745711829,145.74601035,10.479503048,71.75005264,970.045937175009,1.182853246,144.774370281,5.988287456,59.4500436160001,1023.68903047501,1.182853246,138.944529867,14.222182708,69.18755076,996.86748382501,0.822854432,140.887810005
"13",5.988287456,67.137549256,1022.19894455001,1.157139045,126.31320897,5.988287456,65.087547752,1005.80799937501,1.208567447,138.944529867,11.22803898,69.700051136,987.92696827501,0.668569226,155.46241104,7.48535932,52.7875387280001,1049.02049120001,1.02856804,138.944529867,8.982431184,57.4000421120001,1035.60971787501,1.079996442,135.057969591,9.730967116,67.650049632,989.41705420001,0.822854432,154.490770971,7.48535932,53.8125394800001,1052.00066305001,0.822854432,142.831090143,10.479503048,69.18755076,980.47653865001,1.234281648,140.887810005,5.239751524,55.3500406080001,1043.06014750001,1.131424844,137.001249729,13.473646776,64.575047376,1014.74851492501,0.745711829,141.859450074
"14",5.988287456,63.550046624,1047.53040527501,1.02856804,121.455008625,5.988287456,64.062547,1017.72868677501,1.208567447,133.114689453,10.479503048,63.550046624,1011.76834307501,0.694283427,151.575850764,8.233895252,48.6875357200001,1071.37178007501,0.874282834,137.001249729,8.982431184,52.2750383520001,1062.43126452501,1.002853839,130.199769246,7.48535932,63.550046624,1011.76834307501,0.642855025,157.405691178,8.233895252,49.7125364720001,1075.84203785001,0.745711829,137.001249729,11.22803898,66.112548504,995.37739790001,1.182853246,137.972889798,6.736823388,48.6875357200001,1068.39160822501,1.079996442,133.114689453,13.473646776,60.4750443680001,1037.09980380001,0.719997628,136.02960966
"15",5.239751524,58.4250428640001,1071.37178007501,1.054282241,115.625168211,6.736823388,58.4250428640001,1041.57006157501,1.157139045,129.228129177,9.730967116,52.2750383520001,1049.02049120001,0.642855025,151.575850764,8.233895252,44.587532712,1099.68341265001,0.822854432,128.256489108,6.736823388,46.6375342160001,1080.31229562501,0.899997035,136.02960966,8.233895252,56.8875417360001,1038.58988972501,0.617140824,152.547490833,8.233895252,44.587532712,1102.66358450001,0.745711829,129.228129177,11.976574912,60.4750443680001,1023.68903047501,1.002853839,136.02960966,7.48535932,43.56253196,1084.78255340001,0.977139638,135.057969591,13.473646776,55.8625409840001,1065.41143637501,0.694283427,127.284849039
"16",5.239751524,53.8125394800001,1099.68341265001,0.951425437,109.795327797,6.736823388,54.3250398560001,1059.45109267501,1.079996442,128.256489108,7.48535932,48.6875357200001,1065.41143637501,0.565712422,153.519130902,8.982431184,38.950028576,1126.50495930001,0.797140231,121.455008625,5.239751524,42.537531208,1099.68341265001,0.822854432,136.02960966,8.233895252,49.2000360960001,1065.41143637501,0.539998221,152.547490833,6.736823388,43.050031584,1117.56444375001,0.668569226,127.284849039,11.976574912,58.4250428640001,1029.64937417501,0.925711236,138.944529867,5.988287456,42.537531208,1092.23298302501,0.951425437,135.057969591,13.473646776,53.3000391040001,1080.31229562501,0.617140824,125.341568901
"17",4.491215592,53.8125394800001,1102.66358450001,0.899997035,110.766967866,6.736823388,51.2500376000001,1071.37178007501,0.925711236,132.143049384,5.239751524,46.1250338400001,1083.29246747501,0.488569819,152.547490833,8.982431184,35.87502632,1141.40581855001,0.77142603,118.540088418,5.239751524,41.00003008,1119.05452967501,0.694283427,131.171409315,8.233895252,45.6125334640001,1084.78255340001,0.488569819,148.660930557,6.736823388,41.512530456,1126.50495930001,0.745711829,121.455008625,9.730967116,52.2750383520001,1056.47092082501,0.77142603,141.859450074,6.736823388,38.4375282,1108.62392820001,0.745711829,138.944529867,12.725110844,51.7625379760001,1089.25281117501,0.488569819,128.256489108
"18",3.74267966,48.1750353440001,1130.97521707501,0.822854432,106.88040759,5.988287456,44.075032336,1101.17349857501,0.899997035,128.256489108,5.239751524,44.587532712,1099.68341265001,0.565712422,141.859450074,8.982431184,33.31252444,1156.30667780001,0.719997628,115.625168211,5.988287456,41.00003008,1122.03470152501,0.591426623,132.143049384,7.48535932,41.512530456,1102.66358450001,0.411427216,148.660930557,5.239751524,38.4375282,1147.36616225001,0.668569226,118.540088418,9.730967116,48.6875357200001,1081.80238155001,0.77142603,132.143049384,7.48535932,34.850025568,1123.52478745001,0.642855025,138.944529867,10.479503048,48.1750353440001,1104.15367042501,0.539998221,126.31320897
"19",4.491215592,44.075032336,1147.36616225001,0.745711829,105.908767521,6.736823388,41.512530456,1111.60410005001,0.822854432,128.256489108,5.239751524,37.412527448,1125.01487337501,0.488569819,141.859450074,8.982431184,34.850025568,1154.81659187501,0.694283427,114.653528142,7.48535932,35.87502632,1139.91573262501,0.539998221,130.199769246,8.233895252,37.412527448,1119.05452967501,0.437141417,143.802730212,5.988287456,37.412527448,1154.81659187501,0.668569226,114.653528142,8.233895252,42.025030832,1107.13384227501,0.642855025,135.057969591,7.48535932,31.262522936,1141.40581855001,0.642855025,134.086329522,8.982431184,46.6375342160001,1119.05452967501,0.385713015,127.284849039
"20",5.239751524,40.487529704,1163.75710742501,0.539998221,108.823687728,5.988287456,37.925027824,1129.48513115001,0.77142603,126.31320897,5.239751524,29.725021808,1154.81659187501,0.539998221,135.057969591,8.233895252,31.775023312,1168.22736520001,0.617140824,115.625168211,7.48535932,32.800024064,1162.26702150001,0.488569819,123.398288763,7.48535932,33.825024816,1135.44547485001,0.462855618,139.916169936,5.988287456,31.775023312,1174.18770890001,0.617140824,114.653528142,8.233895252,38.4375282,1119.05452967501,0.642855025,134.086329522,8.233895252,23.575017296,1169.71745112501,0.565712422,132.143049384,9.730967116,39.975029328,1144.38599040001,0.359998814,123.398288763
