"","Early1.ALL","Late1.CLS","Late1.OPN","Mid1.CLS","Mid1.OPN","Early1.ALL.1","Late1.CLS.1","Late1.OPN.1","Mid1.CLS.1","Mid1.OPN.1","Early1.ALL.2","Late1.CLS.2","Late1.OPN.2","Mid1.CLS.2","Mid1.OPN.2","Early1.ALL.3","Late1.CLS.3","Late1.OPN.3","Mid1.CLS.3","Mid1.OPN.3","Early1.ALL.4","Late1.CLS.4","Late1.OPN.4","Mid1.CLS.4","Mid1.OPN.4","Early1.ALL.5","Late1.CLS.5","Late1.OPN.5","Mid1.CLS.5","Mid1.OPN.5","Early1.ALL.6","Late1.CLS.6","Late1.OPN.6","Mid1.CLS.6","Mid1.OPN.6","Early1.ALL.7","Late1.CLS.7","Late1.OPN.7","Mid1.CLS.7","Mid1.OPN.7","Early1.ALL.8","Late1.CLS.8","Late1.OPN.8","Mid1.CLS.8","Mid1.OPN.8","Early1.ALL.9","Late1.CLS.9","Late1.OPN.9","Mid1.CLS.9","Mid1.OPN.9"
"0",4.053925538,1.231308908,6.03154082300005,0,0.754481411999998,6.392728733,1.21436429,5.96287052900005,0,0.722375819999998,7.016409585,1.169178642,5.93998043100005,0,0.754481411999998,5.924968094,1.118344788,6.21466160700005,0,0.718362620999998,5.769047881,1.316031998,5.82552994100005,0,0.718362620999998,8.107851076,1.24260532,5.95142548000005,0,0.726389018999998,6.392728733,1.248253526,6.05443092100005,0,0.698296625999999,6.704569159,1.282142762,6.04298587200005,0,0.638098640999999,7.328250011,1.169178642,5.92853538200005,0,0.770534207999998,5.457207455,1.282142762,5.85986508800005,0,0.722375819999998
"1",3.742085112,1.152234024,6.24899675400005,0,0.698296625999999,5.769047881,1.15788223,6.13454626400005,0,0.646125038999999,6.080888307,1.140937612,6.11165616600005,0,0.642111839999999,5.924968094,1.027973492,6.44356258700006,0,0.646125038999999,5.613127668,1.225660702,6.04298587200005,0,0.662177834999999,6.860489372,1.180475054,6.11165616600005,0,0.690270227999999,5.301287242,1.169178642,6.24899675400005,0,0.686257028999999,5.145367029,1.180475054,6.29477695000005,0,0.634085441999999,6.080888307,1.090103758,6.15743636200005,0,0.742441814999998,4.989446816,1.208716084,6.06587597000005,0,0.646125038999999
"2",3.742085112,1.07315914,6.51223288100006,0,0.614019446999999,5.301287242,1.090103758,6.31766704800005,0,0.601979849999999,5.457207455,1.123992994,6.27188685200005,0,0.605993048999999,5.145367029,0.988436049999998,6.56945812600006,0,0.614019446999999,4.833526603,1.146585818,6.28333190100005,0,0.646125038999999,6.392728733,1.090103758,6.36344724400006,0,0.650138237999999,4.989446816,1.07315914,6.46645268500006,0,0.670204232999999,3.742085112,1.123992994,6.46645268500006,0,0.610006247999999,4.521686177,1.050566316,6.34055714600006,0,0.706323023999999,4.209845751,1.135289406,6.26044180300005,0,0.593953451999999
"3",3.430244686,1.011028874,6.67246356700006,0,0.593953451999999,3.742085112,1.027973492,6.55801307700006,0,0.601979849999999,5.457207455,1.090103758,6.42067248900006,0,0.565861059,4.67760639,0.960195019999998,6.77546900800006,0,0.577900656,5.145367029,1.10140017,6.37489229300006,0,0.634085441999999,5.613127668,1.011028874,6.60379327300006,0,0.614019446999999,4.365765964,0.988436049999998,6.71824376300006,0,0.642111839999999,3.430244686,1.090103758,6.58090317500006,0,0.589940253,3.898005325,0.988436049999998,6.51223288100006,0,0.686257028999999,3.742085112,1.090103758,6.40922744000006,0,0.593953451999999
"4",3.11840426,0.971491431999998,6.83269425300006,0,0.565861059,2.806563834,0.999732461999998,6.70679871400006,0,0.585927054,4.989446816,1.033621698,6.52367793000006,0,0.585927054,3.898005325,0.886768341999999,7.00436998800007,0,0.565861059,5.145367029,1.039269904,6.51223288100006,0,0.614019446999999,5.301287242,0.982787843999998,6.70679871400006,0,0.605993048999999,3.898005325,0.869823723999999,6.98147989000007,0,0.622045844999999,2.962484047,1.022325286,6.76402395900006,0,0.585927054,4.209845751,0.915009371999999,6.79835910600006,0,0.662177834999999,3.274324473,0.999732461999998,6.67246356700006,0,0.577900656
"5",3.11840426,0.909361165999999,7.02726008600007,0,0.549808263,2.650643621,0.931953989999999,6.86702940000006,0,0.585927054,4.209845751,0.982787843999998,6.67246356700006,0,0.597966650999999,3.586164899,0.835934487999999,7.15315562500007,0,0.549808263,4.365765964,1.027973492,6.66101851800006,0,0.610006247999999,4.989446816,0.909361165999999,6.90136454700006,0,0.610006247999999,3.274324473,0.81898987,7.13026552700007,0,0.610006247999999,3.430244686,0.994084255999998,6.79835910600006,0,0.597966650999999,3.742085112,0.841582693999999,6.99292493900007,0,0.650138237999999,2.650643621,0.920657577999999,6.86702940000006,0,0.601979849999999
"6",3.274324473,0.982787843999998,6.91280959600006,0,0.525729069,2.806563834,0.892416547999999,6.95858979200007,0,0.601979849999999,3.898005325,0.965843225999998,6.77546900800006,0,0.618032645999999,2.962484047,0.847230899999999,7.19893582100007,0,0.541781865,3.898005325,1.022325286,6.74113386100006,0,0.597966650999999,4.67760639,0.903712959999999,6.97003484100007,0,0.597966650999999,3.274324473,0.796397046,7.26760611500007,0,0.610006247999999,3.11840426,0.994084255999998,6.85558435100006,0,0.605993048999999,3.586164899,0.81898987,7.08448533100007,0,0.646125038999999,2.806563834,0.948898607999998,6.90136454700006,0,0.585927054
"7",2.962484047,0.988436049999998,6.94714474300006,0,0.533755467,2.806563834,0.931953989999999,6.95858979200007,0,0.610006247999999,3.430244686,1.011028874,6.75257891000006,0,0.622045844999999,2.494723408,0.835934487999999,7.30194126200007,0,0.537768666,2.806563834,1.005380668,6.85558435100006,0,0.614019446999999,4.053925538,0.886768341999999,7.06159523300007,0,0.610006247999999,3.11840426,0.779452428,7.30194126200007,0,0.634085441999999,3.11840426,0.971491431999998,6.90136454700006,0,0.614019446999999,2.962484047,0.81898987,7.15315562500007,0,0.646125038999999,2.962484047,0.965843225999998,6.92425464500006,0,0.577900656
"8",2.962484047,0.977139637999998,7.05015018400007,0,0.517702671,2.338803195,0.886768341999999,7.09593038000007,0,0.622045844999999,3.11840426,0.999732461999998,6.83269425300006,0,0.638098640999999,2.182882982,0.802045252,7.40494670300007,0,0.577900656,2.806563834,0.954546813999999,7.02726008600007,0,0.597966650999999,3.898005325,0.892416547999999,7.09593038000007,0,0.605993048999999,2.494723408,0.76250781,7.41639175200007,0,0.638098640999999,2.962484047,0.982787843999998,6.93569969400007,0,0.618032645999999,2.806563834,0.768156016,7.33627640900007,0,0.626059043999999,2.494723408,0.926305783999999,7.06159523300007,0,0.601979849999999
"9",2.338803195,0.960195019999998,7.17604572300007,0,0.541781865,2.338803195,0.858527311999999,7.21038087000007,0,0.618032645999999,3.274324473,0.943250401999999,6.97003484100007,0,0.650138237999999,2.026962769,0.751211398,7.56517738900008,0,0.581913855,2.494723408,0.892416547999999,7.19893582100007,0,0.597966650999999,3.11840426,0.847230899999999,7.21038087000007,0,0.626059043999999,2.650643621,0.700377544000001,7.59951253600008,0,0.610006247999999,2.494723408,0.931953989999999,7.06159523300007,0,0.626059043999999,2.026962769,0.739914986,7.49650709500007,0,0.622045844999999,2.338803195,0.869823723999999,7.25616106600007,0,0.605993048999999
"10",2.026962769,0.898064753999999,7.35916650700007,0,0.529742268,2.026962769,0.830286281999999,7.34772145800007,0,0.622045844999999,2.962484047,0.909361165999999,7.09593038000007,0,0.666191033999999,1.871042556,0.728618574,7.64529273200008,0,0.589940253,2.026962769,0.830286281999999,7.41639175200007,0,0.569874258,3.11840426,0.813341664,7.33627640900007,0,0.618032645999999,2.650643621,0.660840102000001,7.71396302600008,0,0.622045844999999,2.338803195,0.886768341999999,7.16460067400007,0,0.626059043999999,1.715122343,0.722970368,7.59951253600008,0,0.626059043999999,2.962484047,0.830286281999999,7.35916650700007,0,0.593953451999999
"11",1.715122343,0.835934487999999,7.51939719300007,0,0.537768666,1.55920213,0.785100634,7.51939719300007,0,0.597966650999999,2.806563834,0.881120135999999,7.22182591900007,0,0.662177834999999,1.715122343,0.677784720000001,7.77118827100008,0,0.597966650999999,2.026962769,0.79074884,7.54228729100007,0,0.549808263,2.494723408,0.813341664,7.40494670300007,0,0.626059043999999,2.650643621,0.655191896000001,7.80552341800008,0,0.601979849999999,2.338803195,0.847230899999999,7.30194126200007,0,0.605993048999999,1.55920213,0.694729338000001,7.73685312400008,0,0.581913855,2.806563834,0.802045252,7.53084224200007,0,0.577900656
"12",1.403281917,0.79074884,7.72540807500008,0,0.517702671,1.403281917,0.76250781,7.61095758500008,0,0.597966650999999,2.650643621,0.813341664,7.42783680100007,0,0.650138237999999,1.715122343,0.604358042000001,7.94286400600008,0,0.597966650999999,2.026962769,0.70602575,7.78263332000008,0,0.56184786,2.182882982,0.79074884,7.48506204600007,0,0.638098640999999,2.182882982,0.621302660000001,7.97719915300008,0,0.601979849999999,2.182882982,0.79074884,7.45072689900007,0,0.597966650999999,1.247361704,0.655191896000001,7.86274866300008,0,0.573887457,2.962484047,0.76250781,7.65673778100008,0,0.581913855
"13",1.247361704,0.739914986,7.85130361400008,0,0.52171587,1.247361704,0.717322162,7.72540807500008,0,0.573887457,2.338803195,0.768156016,7.58806748700008,0,0.642111839999999,1.55920213,0.581765218000001,8.05731449600008,0,0.573887457,1.871042556,0.632599072000001,7.95430905500008,0,0.557834661,2.026962769,0.745563192,7.59951253600008,0,0.638098640999999,1.55920213,0.593061630000001,8.08020459400008,0,0.589940253,2.182882982,0.76250781,7.53084224200007,0,0.581913855,1.091441491,0.610006248000001,8.01153430000008,0,0.565861059,2.806563834,0.711673956,7.79407836900008,0,0.585927054
"14",1.247361704,0.700377544000001,8.04586944700008,0,0.501649875,1.247361704,0.70602575,7.81696846700008,0,0.549808263,2.182882982,0.700377544000001,7.77118827100008,0,0.626059043999999,1.715122343,0.536579570000001,8.22899023100009,0,0.565861059,1.871042556,0.576117012000001,8.16031993700009,0,0.537768666,1.55920213,0.700377544000001,7.77118827100008,0,0.650138237999999,1.715122343,0.547875982000001,8.26332537800009,0,0.565861059,2.338803195,0.728618574,7.64529273200008,0,0.569874258,1.403281917,0.536579570000001,8.20610013300009,0,0.549808263,2.806563834,0.666488308000001,7.96575410400008,0,0.56184786
"15",1.091441491,0.643895484000001,8.22899023100009,0,0.477570681,1.403281917,0.643895484000001,8.00008925100008,0,0.533755467,2.026962769,0.576117012000001,8.05731449600008,0,0.626059043999999,1.715122343,0.491393922000001,8.44644616200009,0,0.529742268,1.403281917,0.513986746000001,8.29766052500009,0,0.56184786,1.715122343,0.626950866000001,7.97719915300008,0,0.630072242999999,1.715122343,0.491393922000001,8.46933626000009,0,0.533755467,2.494723408,0.666488308000001,7.86274866300008,0,0.56184786,1.55920213,0.480097510000001,8.33199567200009,0,0.557834661,2.806563834,0.615654454000001,8.18321003500009,0,0.525729069
"16",1.091441491,0.593061630000001,8.44644616200009,0,0.453491487000001,1.403281917,0.598709836000001,8.13742983900008,0,0.529742268,1.55920213,0.536579570000001,8.18321003500009,0,0.634085441999999,1.871042556,0.429263656,8.65245704400009,0,0.501649875,1.091441491,0.468801098,8.44644616200009,0,0.56184786,1.715122343,0.542227776000001,8.18321003500009,0,0.630072242999999,1.403281917,0.474449304000001,8.58378675000009,0,0.525729069,2.494723408,0.643895484000001,7.90852885900008,0,0.573887457,1.247361704,0.468801098,8.38922091700009,0,0.557834661,2.806563834,0.587413424000001,8.29766052500009,0,0.517702671
"17",0.935521278,0.593061630000001,8.46933626000009,0,0.457504686000001,1.403281917,0.564820600000001,8.22899023100009,0,0.545795064,1.091441491,0.508338540000001,8.32055062300009,0,0.630072242999999,1.871042556,0.39537442,8.7669075340001,0,0.489610278,1.091441491,0.45185648,8.59523179900009,0,0.541781865,1.715122343,0.502690334000001,8.33199567200009,0,0.614019446999999,1.403281917,0.457504686,8.65245704400009,0,0.501649875,2.026962769,0.576117012000001,8.11453974100009,0,0.585927054,1.403281917,0.42361545,8.51511645600009,0,0.573887457,2.650643621,0.570468806000001,8.36633081900009,0,0.529742268
"18",0.779601065,0.530931364000001,8.68679219100009,0,0.441451890000001,1.247361704,0.485745716000001,8.45789121100009,0,0.529742268,1.091441491,0.491393922000001,8.44644616200009,0,0.585927054,1.871042556,0.36713339,8.8813580240001,0,0.477570681,1.247361704,0.45185648,8.61812189700009,0,0.545795064,1.55920213,0.457504686,8.46933626000009,0,0.614019446999999,1.091441491,0.42361545,8.8126877300001,0,0.489610278,2.026962769,0.536579570000001,8.30910557400009,0,0.545795064,1.55920213,0.384078008,8.62956694600009,0,0.573887457,2.182882982,0.530931364000001,8.48078130900009,0,0.52171587
"19",0.935521278,0.485745716000001,8.8126877300001,0,0.437438691000001,1.403281917,0.457504686,8.53800655400009,0,0.529742268,1.091441491,0.412319038,8.64101199500009,0,0.585927054,1.871042556,0.384078008,8.8699129750001,0,0.473557482000001,1.55920213,0.39537442,8.75546248500009,0,0.537768666,1.715122343,0.412319038,8.59523179900009,0,0.593953451999999,1.247361704,0.412319038,8.8699129750001,0,0.473557482000001,1.715122343,0.463152892,8.50367140700009,0,0.557834661,1.55920213,0.344540566,8.7669075340001,0,0.553821462,1.871042556,0.513986746000001,8.59523179900009,0,0.525729069
"20",1.091441491,0.446208274,8.9385832690001,0,0.449478288000001,1.247361704,0.417967244,8.67534714200009,0,0.52171587,1.091441491,0.327595948,8.8699129750001,0,0.557834661,1.715122343,0.350188772,8.9729184160001,0,0.477570681,1.55920213,0.361485184,8.9271382200001,0,0.509676273,1.55920213,0.372781596,8.72112733800009,0,0.577900656,1.247361704,0.350188772,9.0186986120001,0,0.473557482000001,1.715122343,0.42361545,8.59523179900009,0,0.553821462,1.715122343,0.259817476,8.9843634650001,0,0.545795064,2.026962769,0.440560068,8.7897976320001,0,0.509676273
