"","Early1.ALL","Late1.CLS","Late1.OPN","Mid1.CLS","Mid1.OPN","Early1.ALL.1","Late1.CLS.1","Late1.OPN.1","Mid1.CLS.1","Mid1.OPN.1","Early1.ALL.2","Late1.CLS.2","Late1.OPN.2","Mid1.CLS.2","Mid1.OPN.2","Early1.ALL.3","Late1.CLS.3","Late1.OPN.3","Mid1.CLS.3","Mid1.OPN.3","Early1.ALL.4","Late1.CLS.4","Late1.OPN.4","Mid1.CLS.4","Mid1.OPN.4","Early1.ALL.5","Late1.CLS.5","Late1.OPN.5","Mid1.CLS.5","Mid1.OPN.5","Early1.ALL.6","Late1.CLS.6","Late1.OPN.6","Mid1.CLS.6","Mid1.OPN.6","Early1.ALL.7","Late1.CLS.7","Late1.OPN.7","Mid1.CLS.7","Mid1.OPN.7","Early1.ALL.8","Late1.CLS.8","Late1.OPN.8","Mid1.CLS.8","Mid1.OPN.8","Early1.ALL.9","Late1.CLS.9","Late1.OPN.9","Mid1.CLS.9","Mid1.OPN.9"
"0",1.68108447,0.615654453999998,5.40488723100004,0,1.872231652,2.650940895,0.607182144999998,5.34335151300004,0,1.79256222,2.909569275,0.584589320999998,5.32283960700004,0,1.872231652,2.45696961,0.559172393999999,5.56898247900005,0,1.782603541,2.392312515,0.658015998999999,5.22028007700004,0,1.782603541,3.36216894,0.621302659999998,5.33309556000004,0,1.802520899,2.650940895,0.624126762999998,5.42539913700004,0,1.732810146,2.780255085,0.641071380999998,5.41514318400005,0,1.583429961,3.038883465,0.584589320999998,5.31258365400004,0,1.912066368,2.262998325,0.641071380999998,5.25104793600004,0,1.79256222
"1",1.55177028,0.576117011999998,5.59975033800005,0,1.732810146,2.392312515,0.578941114999998,5.49719080800005,0,1.603347319,2.521626705,0.570468805999998,5.47667890200005,0,1.59338864,2.45696961,0.513986745999999,5.77410153900005,0,1.603347319,2.32765542,0.612830350999998,5.41514318400005,0,1.643182035,2.84491218,0.590237526999998,5.47667890200005,0,1.712892788,2.19834123,0.584589320999998,5.59975033800005,0,1.702934109,2.133684135,0.590237526999998,5.64077415000005,0,1.573471282,2.521626705,0.545051878999999,5.51770271400005,0,1.842355615,2.06902704,0.604358041999998,5.43565509000005,0,1.603347319
"2",1.55177028,0.536579569999999,5.83563725700005,0,1.523677887,2.19834123,0.545051878999999,5.66128605600005,0,1.49380185,2.262998325,0.561996496999999,5.62026224400005,0,1.503760529,2.133684135,0.494218024999999,5.88691702200005,0,1.523677887,2.004369945,0.573292908999999,5.63051819700005,0,1.603347319,2.650940895,0.545051878999999,5.70230986800005,0,1.613305998,2.06902704,0.536579569999999,5.79461344500005,0,1.663099393,1.55177028,0.561996496999999,5.79461344500005,0,1.513719208,1.875055755,0.525283157999999,5.68179796200005,0,1.752727504,1.745741565,0.567644702999998,5.61000629100005,0,1.473884492
"3",1.42245609,0.505514436999999,5.97922059900005,0,1.473884492,1.55177028,0.513986745999999,5.87666106900005,0,1.49380185,2.262998325,0.545051878999999,5.75358963300005,0,1.404173739,1.93971285,0.480097509999999,6.07152417600006,0,1.434049776,2.133684135,0.550700084999999,5.71256582100005,0,1.573471282,2.32765542,0.505514436999999,5.91768488100005,0,1.523677887,1.81039866,0.494218024999999,6.02024441100005,0,1.59338864,1.42245609,0.545051878999999,5.89717297500005,0,1.463925813,1.616427375,0.494218024999999,5.83563725700005,0,1.702934109,1.55177028,0.545051878999999,5.74333368000005,0,1.473884492
"4",1.2931419,0.485745715999999,6.12280394100006,0,1.404173739,1.16382771,0.499866230999999,6.00998845800005,0,1.453967134,2.06902704,0.516810848999999,5.84589321000005,0,1.453967134,1.616427375,0.443384170999999,6.27664323600006,0,1.404173739,2.133684135,0.519634951999999,5.83563725700005,0,1.523677887,2.19834123,0.491393921999999,6.00998845800005,0,1.503760529,1.616427375,0.434911862,6.25613133000006,0,1.543595245,1.228484805,0.511162642999999,6.06126822300005,0,1.453967134,1.745741565,0.457504685999999,6.09203608200006,0,1.643182035,1.357798995,0.499866230999999,5.97922059900005,0,1.434049776
"5",1.2931419,0.454680582999999,6.29715514200006,0,1.364339023,1.099170615,0.465976994999999,6.15357180000006,0,1.453967134,1.745741565,0.491393921999999,5.97922059900005,0,1.483843171,1.487113185,0.417967244,6.40997062500006,0,1.364339023,1.81039866,0.513986745999999,5.96896464600005,0,1.513719208,2.06902704,0.454680582999999,6.18433965900006,0,1.513719208,1.357798995,0.409494935,6.38945871900006,0,1.513719208,1.42245609,0.497042127999999,6.09203608200006,0,1.483843171,1.55177028,0.420791347,6.26638728300006,0,1.613305998,1.099170615,0.460328788999999,6.15357180000006,0,1.49380185
"6",1.357798995,0.491393921999999,6.19459561200006,0,1.304586949,1.16382771,0.446208273999999,6.23561942400006,0,1.49380185,1.616427375,0.482921612999999,6.07152417600006,0,1.533636566,1.228484805,0.42361545,6.45099443700006,0,1.344421665,1.616427375,0.511162642999999,6.04075631700005,0,1.483843171,1.93971285,0.451856479999999,6.24587537700006,0,1.483843171,1.357798995,0.398198523,6.51253015500006,0,1.513719208,1.2931419,0.497042127999999,6.14331584700006,0,1.503760529,1.487113185,0.409494935,6.34843490700006,0,1.603347319,1.16382771,0.474449303999999,6.18433965900006,0,1.453967134
"7",1.228484805,0.494218024999999,6.22536347100006,0,1.324504307,1.16382771,0.465976994999999,6.23561942400006,0,1.513719208,1.42245609,0.505514436999999,6.05101227000006,0,1.543595245,1.03451352,0.417967244,6.54329801400006,0,1.334462986,1.16382771,0.502690333999999,6.14331584700006,0,1.523677887,1.68108447,0.443384170999999,6.32792300100006,0,1.513719208,1.2931419,0.389726214,6.54329801400006,0,1.573471282,1.2931419,0.485745715999999,6.18433965900006,0,1.523677887,1.228484805,0.409494935,6.40997062500006,0,1.603347319,1.228484805,0.482921612999999,6.20485156500006,0,1.434049776
"8",1.228484805,0.488569818999999,6.31766704800006,0,1.284669591,0.969856425,0.443384170999999,6.35869086000006,0,1.543595245,1.2931419,0.499866230999999,6.12280394100006,0,1.583429961,0.90519933,0.401022626,6.63560159100006,0,1.434049776,1.16382771,0.477273406999999,6.29715514200006,0,1.483843171,1.616427375,0.446208273999999,6.35869086000006,0,1.503760529,1.03451352,0.381253905,6.64585754400006,0,1.583429961,1.228484805,0.491393921999999,6.21510751800006,0,1.533636566,1.16382771,0.384078008,6.57406587300006,0,1.553553924,1.03451352,0.463152891999999,6.32792300100006,0,1.49380185
"9",0.969856425,0.480097509999999,6.43048253100006,0,1.344421665,0.969856425,0.429263656,6.46125039000006,0,1.533636566,1.357798995,0.471625200999999,6.24587537700006,0,1.613305998,0.840542235,0.375605699,6.77918493300007,0,1.444008455,1.03451352,0.446208273999999,6.45099443700006,0,1.483843171,1.2931419,0.42361545,6.46125039000006,0,1.553553924,1.099170615,0.350188772,6.80995279200007,0,1.513719208,1.03451352,0.465976994999999,6.32792300100006,0,1.553553924,0.840542235,0.369957493,6.71764921500007,0,1.543595245,0.969856425,0.434911862,6.50227420200006,0,1.503760529
"10",0.840542235,0.449032376999999,6.59457777900006,0,1.314545628,0.840542235,0.415143141,6.58432182600006,0,1.543595245,1.228484805,0.454680582999999,6.35869086000006,0,1.653140714,0.77588514,0.364309287,6.85097660400007,0,1.463925813,0.840542235,0.415143141,6.64585754400006,0,1.414132418,1.2931419,0.406670832,6.57406587300006,0,1.533636566,1.099170615,0.330420051,6.91251232200007,0,1.543595245,0.969856425,0.443384170999999,6.42022657800006,0,1.553553924,0.711228045,0.361485184,6.80995279200007,0,1.553553924,1.228484805,0.415143141,6.59457777900006,0,1.473884492
"11",0.711228045,0.417967244,6.73816112100007,0,1.334462986,0.64657095,0.392550317,6.73816112100007,0,1.483843171,1.16382771,0.440560068,6.47150634300006,0,1.643182035,0.711228045,0.33889236,6.96379208700007,0,1.483843171,0.840542235,0.39537442,6.75867302700007,0,1.364339023,1.03451352,0.406670832,6.63560159100006,0,1.553553924,1.099170615,0.327595948,6.99455994600007,0,1.49380185,0.969856425,0.42361545,6.54329801400006,0,1.503760529,0.64657095,0.347364669,6.93302422800007,0,1.444008455,1.16382771,0.401022626,6.74841707400007,0,1.434049776
"12",0.581913855,0.39537442,6.92276827500007,0,1.284669591,0.581913855,0.381253905,6.82020874500007,0,1.483843171,1.099170615,0.406670832,6.65611349700006,0,1.613305998,0.711228045,0.302179021000001,7.11763138200007,0,1.483843171,0.840542235,0.353012875,6.97404804000007,0,1.39421506,0.90519933,0.39537442,6.70739326200007,0,1.583429961,0.90519933,0.310651330000001,7.14839924100007,0,1.49380185,0.90519933,0.39537442,6.67662540300006,0,1.483843171,0.51725676,0.327595948,7.04583971100007,0,1.424091097,1.228484805,0.381253905,6.86123255700007,0,1.444008455
"13",0.51725676,0.369957493,7.03558375800007,0,1.29462827,0.51725676,0.358661081,6.92276827500007,0,1.424091097,0.969856425,0.384078008,6.79969683900007,0,1.59338864,0.64657095,0.290882609,7.22019091200007,0,1.424091097,0.77588514,0.316299536,7.12788733500007,0,1.384256381,0.840542235,0.372781596,6.80995279200007,0,1.583429961,0.64657095,0.296530815000001,7.24070281800007,0,1.463925813,0.90519933,0.381253905,6.74841707400007,0,1.444008455,0.452599665,0.305003124000001,7.17916710000007,0,1.404173739,1.16382771,0.355836978,6.98430399300007,0,1.453967134
"14",0.51725676,0.350188772,7.20993495900007,0,1.244834875,0.51725676,0.353012875,7.00481589900007,0,1.364339023,0.90519933,0.350188772,6.96379208700007,0,1.553553924,0.711228045,0.268289785,7.37403020700008,0,1.404173739,0.77588514,0.288058506,7.31249448900008,0,1.334462986,0.64657095,0.350188772,6.96379208700007,0,1.613305998,0.711228045,0.273937991,7.40479806600008,0,1.404173739,0.969856425,0.364309287,6.85097660400007,0,1.414132418,0.581913855,0.268289785,7.35351830100008,0,1.364339023,1.16382771,0.333244154,7.13814328800007,0,1.39421506
"15",0.452599665,0.321947742,7.37403020700008,0,1.185082801,0.581913855,0.321947742,7.16891114700007,0,1.324504307,0.840542235,0.288058506,7.22019091200007,0,1.553553924,0.711228045,0.245696961,7.56889331400008,0,1.314545628,0.581913855,0.256993373,7.43556592500008,0,1.39421506,0.711228045,0.313475433000001,7.14839924100007,0,1.563512603,0.711228045,0.245696961,7.58940522000008,0,1.324504307,1.03451352,0.333244154,7.04583971100007,0,1.39421506,0.64657095,0.240048755,7.46633378400008,0,1.384256381,1.16382771,0.307827227000001,7.33300639500008,0,1.304586949
"16",0.452599665,0.296530815000001,7.56889331400008,0,1.125330727,0.581913855,0.299354918000001,7.29198258300008,0,1.314545628,0.64657095,0.268289785,7.33300639500008,0,1.573471282,0.77588514,0.214631828,7.75350046800008,0,1.244834875,0.452599665,0.234400549,7.56889331400008,0,1.39421506,0.711228045,0.271113888,7.33300639500008,0,1.563512603,0.581913855,0.237224652,7.69196475000008,0,1.304586949,1.03451352,0.321947742,7.08686352300007,0,1.424091097,0.51725676,0.234400549,7.51761354900008,0,1.384256381,1.16382771,0.293706712,7.43556592500008,0,1.284669591
"17",0.38794257,0.296530815000001,7.58940522000008,0,1.135289406,0.581913855,0.2824103,7.37403020700008,0,1.354380344,0.452599665,0.25416927,7.45607783100008,0,1.563512603,0.77588514,0.19768721,7.85605999800008,0,1.214958838,0.452599665,0.22592824,7.70222070300008,0,1.344421665,0.711228045,0.251345167,7.46633378400008,0,1.523677887,0.581913855,0.228752343,7.75350046800008,0,1.244834875,0.840542235,0.288058506,7.27147067700008,0,1.453967134,0.581913855,0.211807725,7.63042903200008,0,1.424091097,1.099170615,0.285234403,7.49710164300008,0,1.314545628
"18",0.323285475,0.265465682,7.78426832700008,0,1.09545469,0.51725676,0.242872858,7.57914926700008,0,1.314545628,0.452599665,0.245696961,7.56889331400008,0,1.453967134,0.77588514,0.183566695,7.95861952800009,0,1.185082801,0.51725676,0.22592824,7.72273260900008,0,1.354380344,0.64657095,0.228752343,7.58940522000008,0,1.523677887,0.452599665,0.211807725,7.89708381000009,0,1.214958838,0.840542235,0.268289785,7.44582187800008,0,1.354380344,0.64657095,0.192039004,7.73298856200008,0,1.424091097,0.90519933,0.265465682,7.59966117300008,0,1.29462827
"19",0.38794257,0.242872858,7.89708381000009,0,1.085496011,0.581913855,0.228752343,7.65094093800008,0,1.314545628,0.452599665,0.206159519,7.74324451500008,0,1.453967134,0.77588514,0.192039004,7.94836357500009,0,1.175124122,0.64657095,0.19768721,7.84580404500008,0,1.334462986,0.711228045,0.206159519,7.70222070300008,0,1.473884492,0.51725676,0.206159519,7.94836357500009,0,1.175124122,0.711228045,0.231576446,7.62017307900008,0,1.384256381,0.64657095,0.172270283,7.85605999800008,0,1.374297702,0.77588514,0.256993373,7.70222070300008,0,1.304586949
"20",0.452599665,0.223104137,8.00989929300009,0,1.115372048,0.51725676,0.208983622,7.77401237400008,0,1.29462827,0.452599665,0.163797974,7.94836357500009,0,1.384256381,0.711228045,0.175094386,8.04066715200009,0,1.185082801,0.64657095,0.180742592,7.99964334000009,0,1.264752233,0.64657095,0.186390798,7.81503618600008,0,1.434049776,0.51725676,0.175094386,8.08169096400009,0,1.175124122,0.711228045,0.211807725,7.70222070300008,0,1.374297702,0.711228045,0.129908738,8.05092310500009,0,1.354380344,0.840542235,0.220280034,7.87657190400008,0,1.264752233
