"","Early1.ALL","Late1.CLS","Late1.OPN","Mid1.CLS","Mid1.OPN","Early1.ALL.1","Late1.CLS.1","Late1.OPN.1","Mid1.CLS.1","Mid1.OPN.1","Early1.ALL.2","Late1.CLS.2","Late1.OPN.2","Mid1.CLS.2","Mid1.OPN.2","Early1.ALL.3","Late1.CLS.3","Late1.OPN.3","Mid1.CLS.3","Mid1.OPN.3","Early1.ALL.4","Late1.CLS.4","Late1.OPN.4","Mid1.CLS.4","Mid1.OPN.4","Early1.ALL.5","Late1.CLS.5","Late1.OPN.5","Mid1.CLS.5","Mid1.OPN.5","Early1.ALL.6","Late1.CLS.6","Late1.OPN.6","Mid1.CLS.6","Mid1.OPN.6","Early1.ALL.7","Late1.CLS.7","Late1.OPN.7","Mid1.CLS.7","Mid1.OPN.7","Early1.ALL.8","Late1.CLS.8","Late1.OPN.8","Mid1.CLS.8","Mid1.OPN.8","Early1.ALL.9","Late1.CLS.9","Late1.OPN.9","Mid1.CLS.9","Mid1.OPN.9"
"0",0.20943845122,1.85135112624,3.87790960259999,2.02151373658,0.35466125933,0.23840334341,1.85736200652,3.38435747135999,2.02151373658,0.410450670910001,0.24731561793,1.87539464736,3.50774550416999,1.9585600216,0.390525881060001,0.20943845122,1.70708999952,3.64876039880999,2.14042630932,0.434360418730001,0.23394720615,1.82730760512,3.59587981331999,2.14742116654001,0.3187966376,0.19607003944,1.81528584456,3.73689470795999,2.11244688044,0.382555965120001,0.26514016697,1.82730760512,3.38435747135999,2.00052916492,0.394510839030001,0.2450875493,1.66501383756,3.68401412246999,2.05648802268,0.438345376700001,0.20721038259,1.81528584456,3.33147688586999,2.25234402484001,0.37458604918,0.23394720615,1.85736200652,3.47249178050999,1.9235857355,0.454285208580001
"1",0.19161390218,1.90544904876001,3.87790960259999,2.0285085938,0.34669134339,0.21166651985,1.91747080932001,3.40198433318999,2.04249830824,0.402480754970001,0.23394720615,1.90544904876001,3.50774550416999,1.97254973604,0.386540923090001,0.18047355903,1.75517704176,3.71926784612999,2.20338002430001,0.402480754970001,0.19384197081,1.87539464736,3.63113353697999,2.19638516708001,0.32278159557,0.16933321588,1.8633728868,3.78977529344999,2.12643659488,0.378571007150001,0.222806863,1.88741640792001,3.38435747135999,2.08446745156,0.382555965120001,0.21835072574,1.7431552812,3.68401412246999,2.11244688044,0.402480754970001,0.17156128451,1.86938376708,3.36673060952999,2.35726688314001,0.33473646948,0.19607003944,1.88140552764001,3.49011864233999,2.0634828799,0.422405544820001
"2",0.17601742177,1.95353609100001,3.93079018808999,2.09146230878,0.29488688978,0.17601742177,1.94151433044001,3.47249178050999,2.11944173766,0.390525881060001,0.18938583355,1.97757961212001,3.57825295148999,1.97954459326,0.398495797000001,0.1559648041,1.79725320372,3.77214843161999,2.24534916762001,0.382555965120001,0.17156128451,1.89943816848001,3.64876039880999,2.25933888206001,0.30684176369,0.13145604917,1.92348168960001,3.82502901710999,2.19638516708001,0.3586462173,0.18047355903,1.92348168960001,3.43723805684999,2.16141088098001,0.378571007150001,0.17601742177,1.77922056288,3.75452156978999,2.21037488152001,0.382555965120001,0.14705252958,1.92348168960001,3.41961119501999,2.36426174036001,0.32676655354,0.16933321588,1.89943816848001,3.54299922782999,2.16840573820001,0.386540923090001
"3",0.14259639232,2.01364489380001,3.93079018808999,2.14742116654001,0.28293201587,0.13814025506,1.97757961212001,3.54299922782999,2.17540059542001,0.386540923090001,0.1559648041,2.03167753464001,3.64876039880999,2.07047773712,0.35466125933,0.12477184328,1.84534024596,3.78977529344999,2.30130802538001,0.37060109121,0.1559648041,1.95954697128001,3.68401412246999,2.23835431040001,0.29887184775,0.12477184328,1.99561225296001,3.82502901710999,2.19638516708001,0.32278159557,0.14928059821,1.94752521072001,3.50774550416999,2.23835431040001,0.3586462173,0.15150866684,1.80927496428,3.80740215527999,2.28731831094001,0.35067630136,0.12699991191,1.98960137268001,3.43723805684999,2.39224116924001,0.29887184775,0.13814025506,1.94151433044001,3.57825295148999,2.25933888206001,0.35466125933
"4",0.12254377465,2.04369929520001,4.00129763540999,2.16840573820001,0.27097714196,0.12254377465,2.01364489380001,3.59587981331999,2.17540059542001,0.378571007150001,0.12031570602,2.09178633744001,3.68401412246999,2.14742116654001,0.32676655354,0.10471922561,1.86938376708,3.78977529344999,2.37825145480001,0.34669134339,0.13145604917,2.01965577408001,3.70164098429999,2.23835431040001,0.29887184775,0.08689467657,2.01364489380001,3.84265587893999,2.33628231148001,0.29488688978,0.11363150013,1.98359049240001,3.50774550416999,2.30130802538001,0.36263117527,0.12922798054,1.88741640792001,3.84265587893999,2.25933888206001,0.34669134339,0.0891227452,2.08577545716001,3.49011864233999,2.45519488422001,0.25503731008,0.12699991191,1.98960137268001,3.61350667514999,2.26633373928001,0.33075151151
"5",0.11363150013,2.08577545716001,4.01892449723999,2.19638516708001,0.2390974782,0.10026308835,2.07375369660001,3.63113353697999,2.21037488152001,0.35067630136,0.10917536287,2.11582985856001,3.70164098429999,2.19638516708001,0.29887184775,0.07798240205,1.90544904876001,3.80740215527999,2.37825145480001,0.36661613324,0.10917536287,2.04971017548001,3.75452156978999,2.30830288260001,0.26699218399,0.07798240205,2.05572105576001,3.87790960259999,2.35027202592001,0.26699218399,0.10249115698,2.02566665436001,3.56062608965999,2.35726688314001,0.31082672166,0.10471922561,1.96555785156001,3.86028274076999,2.26633373928001,0.33075151151,0.07352626479,2.13987337968001,3.52537236599999,2.47617945588001,0.22714260429,0.1114034315,2.01364489380001,3.63113353697999,2.33628231148001,0.29887184775
"6",0.0891227452,2.26009098528001,3.73689470795999,2.21037488152001,0.22315764632,0.07352626479,2.21200394304001,3.47249178050999,2.25933888206001,0.31481167963,0.08243853931,2.24205834444001,3.45486491867999,2.27332859650001,0.27496209993,0.06907012753,2.00162313324001,3.68401412246999,2.40623088368001,0.33075151151,0.10249115698,2.18796042192001,3.63113353697999,2.28032345372001,0.23112756226,0.06238592164,2.21200394304001,3.64876039880999,2.36426174036001,0.23511252023,0.07798240205,2.15189514024001,3.27859630037999,2.42721545534001,0.29488688978,0.09135081383,2.13386249940001,3.47249178050999,2.30130802538001,0.31082672166,0.05347364712,2.32621066836001,3.27859630037999,2.44820002700001,0.21120277241,0.08021047068,2.12184073884001,3.43723805684999,2.37825145480001,0.30285680572
"7",0.06461399027,2.41637387256001,3.52537236599999,2.21736973874001,0.20721781444,0.06015785301,2.37429771060001,3.19046199122999,2.26633373928001,0.29090193181,0.06015785301,2.36828683032001,3.31385002403999,2.28731831094001,0.25503731008,0.05347364712,2.11582985856001,3.49011864233999,2.42721545534001,0.31481167963,0.08021047068,2.34424330920001,3.29622316220999,2.27332859650001,0.24706739414,0.0445613726,2.36227595004001,3.38435747135999,2.38524631202001,0.21518773038,0.04901750986,2.32019978808001,3.03182023475999,2.45519488422001,0.27496209993,0.08021047068,2.28413450640001,3.19046199122999,2.34327716870001,0.27097714196,0.0445613726,2.42839563312001,3.17283512939999,2.44120516978001,0.18729302459,0.08021047068,2.24806922472001,3.22571571488999,2.40623088368001,0.25105235211
"8",0.0668420589,2.53058059788002,3.33147688586999,2.21037488152001,0.17533815068,0.05347364712,2.50653707676002,2.97893964927,2.29431316816001,0.24706739414,0.04010523534,2.53058059788002,3.03182023475999,2.35027202592001,0.21120277241,0.04010523534,2.30817802752001,3.17283512939999,2.48317431310001,0.25105235211,0.0668420589,2.47047179508001,3.06707395841999,2.28731831094001,0.23112756226,0.03787716671,2.48249355564001,3.15520826756999,2.43421031256001,0.17135319271,0.04233330397,2.45243915424001,2.85555161646,2.46918459866001,0.23112756226,0.07352626479,2.43440651340001,2.90843220195,2.33628231148001,0.25105235211,0.03342102945,2.56063499928002,2.99656651109999,2.43421031256001,0.16338327677,0.06238592164,2.39834123172001,3.04944709658999,2.43421031256001,0.20721781444
"9",0.05347364712,2.71691788656002,2.94368592561,2.19638516708001,0.17135319271,0.04678944123,2.65680908376002,2.66165613633,2.33628231148001,0.20721781444,0.03787716671,2.66281996404002,2.80267103097,2.38524631202001,0.1593983188,0.03342102945,2.51254795704002,2.87317847829,2.44820002700001,0.21518773038,0.05124557849,2.59670028096002,2.89080534012,2.27332859650001,0.22315764632,0.02896489219,2.63276556264002,2.85555161646,2.44120516978001,0.15142840286,0.03342102945,2.62675468236002,2.59114868901,2.44120516978001,0.20721781444,0.06238592164,2.60872204152002,2.57352182718,2.35726688314001,0.21917268835,0.02896489219,2.69888524572002,2.8202978928,2.39224116924001,0.14345848692,0.05347364712,2.50653707676002,2.94368592561,2.46218974144001,0.1593983188
"10",0.04678944123,2.86718989356002,2.62640241267,2.20338002430001,0.15142840286,0.03564909808,2.80107021048002,2.39725320888,2.35027202592001,0.18330806662,0.03564909808,2.77702668936002,2.55589496535,2.45519488422001,0.10360890722,0.03119296082,2.64478732320002,2.59114868901,2.47617945588001,0.17932310865,0.04010523534,2.75899404852002,2.62640241267,2.28731831094001,0.18729302459,0.0222806863,2.75298316824002,2.69690985999,2.42721545534001,0.12751865504,0.02673682356,2.78303756964002,2.25623831424,2.51814859920001,0.14744344489,0.05124557849,2.72893964712002,2.34437262339,2.39224116924001,0.19127798256,0.02450875493,2.86718989356002,2.52064124169,2.39224116924001,0.10759386519,0.04678944123,2.62675468236002,2.8202978928,2.44820002700001,0.12751865504
"11",0.03119296082,2.99341837944002,2.36199948522,2.24534916762001,0.13150361301,0.02896489219,2.89123341468002,2.2914920379,2.42721545534001,0.11556378113,0.02896489219,2.90926605552002,2.36199948522,2.49016917032001,0.05180445361,0.02896489219,2.79505933020002,2.39725320888,2.52514345642001,0.09962394925,0.03342102945,2.86718989356002,2.45013379437,2.36426174036001,0.12353369707,0.02450875493,2.90325517524002,2.43250693254,2.44120516978001,0.07571420143,0.01114034315,2.90325517524002,2.07996969594,2.55312288530001,0.11556378113,0.02896489219,2.83713549216002,2.20335772875,2.49716402754001,0.13150361301,0.02450875493,3.00544014000002,2.27386517607,2.42022059812001,0.05578941158,0.03119296082,2.78303756964002,2.66165613633,2.43421031256001,0.09563899128
"12",0.03119296082,3.12565774560003,2.16810400509,2.21736973874001,0.10360890722,0.02005261767,3.02948366112002,2.1152234196,2.38524631202001,0.10360890722,0.01782454904,3.03549454140002,2.09759655777,2.45519488422001,0.06774428549,0.0222806863,2.98740749916002,2.07996969594,2.46918459866001,0.08766907534,0.02450875493,2.99942925972002,2.13285028143,2.36426174036001,0.12353369707,0.02450875493,3.06554894280002,2.07996969594,2.41322574090001,0.06375932752,0.01336841178,3.01145102028002,1.92132793947,2.50415888476001,0.10360890722,0.02450875493,2.99942925972002,2.00946224862,2.43421031256001,0.11157882316,0.02005261767,3.15571214700003,2.00946224862,2.35027202592001,0.06375932752,0.02450875493,2.89123341468002,2.48538751803,2.42721545534001,0.0796991594
"13",0.02450875493,3.25789711176003,1.9389548013,2.19638516708001,0.09165403331,0.02005261767,3.14369038644003,1.9389548013,2.36426174036001,0.0796991594,0.01114034315,3.16172302728003,1.88607421581,2.42721545534001,0.05977436955,0.02005261767,3.15571214700003,1.78031304483,2.40623088368001,0.08368411737,0.02673682356,3.17374478784003,1.79793990666,2.32229259704001,0.10360890722,0.01559648041,3.25188623148003,1.78031304483,2.35027202592001,0.05977436955,0.01559648041,3.11964686532003,1.762686183,2.45519488422001,0.09165403331,0.02673682356,3.13767950616003,1.762686183,2.37825145480001,0.10360890722,0.01559648041,3.30598415400003,1.74505932117,2.29431316816001,0.06375932752,0.01782454904,3.06554894280002,2.23861145241,2.34327716870001,0.0796991594
"14",0.0222806863,3.35407119624003,1.79793990666,2.16141088098001,0.08368411737,0.01559648041,3.26991887232003,1.69217873568,2.33628231148001,0.07571420143,0.00891227452,3.28194063288003,1.69217873568,2.39923602646001,0.04383453767,0.02005261767,3.25789711176003,1.60404442653,2.37825145480001,0.07172924346,0.02450875493,3.31199503428003,1.60404442653,2.25234402484001,0.09962394925,0.01559648041,3.37811471736003,1.62167128836,2.28032345372001,0.05180445361,0.01559648041,3.22183183008003,1.55116384104,2.43421031256001,0.08368411737,0.02673682356,3.23986447092003,1.55116384104,2.39224116924001,0.07571420143,0.01782454904,3.39013647792003,1.60404442653,2.24534916762001,0.06375932752,0.01782454904,3.23385359064003,1.99183538679,2.29431316816001,0.05180445361
"15",0.02005261767,3.46827792156003,1.62167128836,2.11244688044,0.0796991594,0.01336841178,3.38412559764003,1.53353697921,2.28731831094001,0.06774428549,0.01114034315,3.40215823848003,1.51591011738,2.34327716870001,0.03187966376,0.01782454904,3.39013647792003,1.33964149908,2.35027202592001,0.06375932752,0.02005261767,3.42019087932003,1.39252208457,2.28032345372001,0.06774428549,0.02005261767,3.46827792156003,1.51591011738,2.21037488152001,0.04781949564,0.0222806863,3.37811471736003,1.35726836091,2.32928745426001,0.07172924346,0.02450875493,3.34204943568003,1.39252208457,2.35027202592001,0.07172924346,0.01782454904,3.52838672436003,1.37489522274,2.19638516708001,0.05180445361,0.02005261767,3.37811471736003,1.70980559751,2.24534916762001,0.04383453767
"16",0.0222806863,3.58248464688003,1.4101489464,2.08446745156,0.06375932752,0.02005261767,3.52838672436003,1.26913405176,2.22436459596001,0.05578941158,0.01114034315,3.56445200604003,1.2338803281,2.27332859650001,0.02789470579,0.00891227452,3.50434320324003,1.14574601895,2.30830288260001,0.07172924346,0.01559648041,3.57046288632003,1.14574601895,2.21736973874001,0.06774428549,0.02005261767,3.67865873136003,1.0576117098,2.15441602376001,0.04383453767,0.0222806863,3.52237584408003,1.11049229529,2.28731831094001,0.05578941158,0.02673682356,3.49232144268003,1.18099974261,2.30130802538001,0.04383453767,0.01782454904,3.68466961164003,1.14574601895,2.14042630932,0.03187966376,0.0222806863,3.52237584408003,1.4101489464,2.18939030986001,0.04383453767
"17",0.02450875493,3.73275665388004,1.28676091359,1.95156516438,0.06375932752,0.0222806863,3.59450640744003,1.19862660444,2.17540059542001,0.05180445361,0.01114034315,3.61854992856003,1.18099974261,2.23835431040001,0.02390974782,0.00891227452,3.62456080884003,1.03998484797,2.21037488152001,0.07172924346,0.01114034315,3.65461521024003,1.07523857163,2.18239545264001,0.05578941158,0.02673682356,3.70871313276003,1.03998484797,2.10545202322,0.04383453767,0.0222806863,3.57647376660003,1.07523857163,2.24534916762001,0.05180445361,0.02450875493,3.58248464688003,1.12811915712,2.23135945318001,0.0398495797,0.01336841178,3.75680017500004,1.11049229529,2.098457166,0.02390974782,0.02005261767,3.60652816800003,1.32201463725,2.14042630932,0.0398495797
"18",0.02005261767,3.82291985808004,1.18099974261,1.90260116384,0.06375932752,0.0222806863,3.66062609052003,1.11049229529,2.16141088098001,0.03586462173,0.01559648041,3.67865873136003,1.11049229529,2.19638516708001,0.01593983188,0.00668420589,3.69068049192003,0.951850538819999,2.18939030986001,0.06375932752,0.01336841178,3.78084369612004,0.987104262479999,2.07047773712,0.05180445361,0.0222806863,3.79887633696004,0.969477400649999,2.04249830824,0.04383453767,0.0222806863,3.68466961164003,1.0576117098,2.1334314521,0.04781949564,0.0222806863,3.68466961164003,1.07523857163,2.14042630932,0.0398495797,0.00891227452,3.80488721724004,1.07523857163,2.07047773712,0.02390974782,0.02450875493,3.69669137220003,1.21625346627,2.07747259434,0.03187966376
"19",0.01782454904,3.87100690032004,1.11049229529,1.9235857355,0.0398495797,0.0222806863,3.72073489332004,1.02235798614,2.12643659488,0.03586462173,0.02450875493,3.75078929472004,0.951850538819999,2.15441602376001,0.01195487391,0.00445613726,3.74477841444004,0.916596815159999,2.14742116654001,0.06375932752,0.01782454904,3.85297425948004,0.89896995333,2.02151373658,0.04383453767,0.0222806863,3.90106130172004,0.89896995333,1.97254973604,0.03187966376,0.02450875493,3.75680017500004,0.916596815159999,2.11244688044,0.0398495797,0.01782454904,3.84095249892004,0.86371622967,2.0285085938,0.05578941158,0.01114034315,3.89505042144004,1.0576117098,1.97954459326,0.01593983188,0.02450875493,3.77483281584004,1.18099974261,2.00052916492,0.03187966376
"20",0.02005261767,3.94914834396004,1.03998484797,1.86762687774,0.03187966376,0.02450875493,3.79286545668004,1.00473112431,2.0634828799,0.02390974782,0.02673682356,3.82893073836004,0.84608936784,2.10545202322,0.00796991594,0.00222806863,3.85898513976004,0.77558192052,2.098457166,0.05180445361,0.01559648041,3.91909394256004,0.86371622967,1.97254973604,0.0398495797,0.02005261767,4.02127890732004,0.77558192052,1.89560630662,0.02789470579,0.02450875493,3.82291985808004,0.86371622967,2.07047773712,0.03187966376,0.01559648041,3.91308306228004,0.84608936784,1.9585600216,0.05578941158,0.01559648041,3.99122450592004,1.02235798614,1.88161659218,0.00796991594,0.0222806863,3.87701778060004,1.03998484797,1.93757544994,0.03586462173
"21",0.01559648041,4.00324626648004,1.02235798614,1.84664230608,0.01992478985,0.0222806863,3.88903954116004,0.8813430915,2.01451887936,0.01992478985,0.02673682356,3.89505042144004,0.81083564418,2.04249830824,0.00796991594,0.00222806863,3.93111570312004,0.75795505869,2.03550345102,0.04383453767,0.01114034315,4.00324626648004,0.7050744732,1.95156516438,0.0398495797,0.0222806863,4.07537682984004,0.74032819686,1.83964744886,0.02789470579,0.0222806863,3.93111570312004,0.81083564418,1.9585600216,0.0398495797,0.01782454904,3.97319186508004,0.81083564418,1.90959602106,0.04781949564,0.01336841178,4.09942035096004,0.89896995333,1.80467316276,0.01195487391,0.0222806863,4.02127890732004,0.8813430915,1.83265259164,0.03586462173
"22",0.01559648041,4.10543123124004,0.916596815159999,1.76969887666,0.01992478985,0.02450875493,3.96718098480004,0.82846250601,1.94457030716,0.01593983188,0.03119296082,3.97319186508004,0.74032819686,1.9585600216,0.01195487391,0.00222806863,4.02127890732004,0.72270133503,1.96555487882,0.03187966376,0.01114034315,4.08138771012004,0.65219388771,1.8886114494,0.03586462173,0.02450875493,4.16554003404004,0.63456702588,1.77669373388,0.02390974782,0.02005261767,4.00925714676004,0.74032819686,1.90260116384,0.0398495797,0.02005261767,4.08739859040004,0.68744761137,1.83265259164,0.0398495797,0.01559648041,4.15351827348004,0.916596815159999,1.72772973334,0.01195487391,0.0222806863,4.08739859040004,0.8813430915,1.77669373388,0.02390974782
"23",0.01336841178,4.18357267488004,0.82846250601,1.72073487612,0.01992478985,0.02450875493,4.02728978760004,0.79320878235,1.89560630662,0.01195487391,0.03564909808,4.07537682984004,0.65219388771,1.86063202052,0.01195487391,0.00668420589,4.15351827348004,0.65219388771,1.83265259164,0.02789470579,0.01336841178,4.14149651292004,0.63456702588,1.82565773442,0.03187966376,0.0222806863,4.27373587908004,0.56405957856,1.66477601836,0.03586462173,0.0222806863,4.08138771012004,0.7050744732,1.83265259164,0.03586462173,0.02005261767,4.18357267488004,0.61694016405,1.76270401944,0.03187966376,0.01336841178,4.24969235796004,0.77558192052,1.67177087558,0.01593983188,0.02005261767,4.15351827348004,0.84608936784,1.72772973334,0.01992478985
"24",0.01782454904,4.24368147768004,0.79320878235,1.65078630392,0.01992478985,0.02005261767,4.12346387208004,0.68744761137,1.84664230608,0.00796991594,0.03564909808,4.12346387208004,0.63456702588,1.81166801998,0.01195487391,0.00668420589,4.21362707628004,0.65219388771,1.76270401944,0.02789470579,0.01559648041,4.23165971712004,0.59931330222,1.72772973334,0.03187966376,0.02450875493,4.38193172412005,0.42304468392,1.60182230338,0.02789470579,0.02450875493,4.13548563264004,0.66982074954,1.76969887666,0.0398495797,0.0222806863,4.26772499880004,0.59931330222,1.6787657328,0.02390974782,0.01114034315,4.30379028048004,0.75795505869,1.61581201782,0.01992478985,0.0222806863,4.21963795656004,0.79320878235,1.65778116114,0.02390974782
"25",0.01559648041,4.33985556216005,0.75795505869,1.5738428745,0.01195487391,0.02005261767,4.23767059740004,0.61694016405,1.73472459056,0.01195487391,0.03564909808,4.18958355516004,0.58168644039,1.76270401944,0.00796991594,0.01114034315,4.29176851992004,0.61694016405,1.67177087558,0.02789470579,0.01782454904,4.30379028048004,0.47592526941,1.6787657328,0.03586462173,0.0222806863,4.43001876636005,0.42304468392,1.55285830284,0.02789470579,0.0222806863,4.22564883684004,0.66982074954,1.66477601836,0.04383453767,0.02005261767,4.32182292132005,0.58168644039,1.63679658948,0.01992478985,0.01114034315,4.36389908328005,0.7050744732,1.5738428745,0.01593983188,0.02005261767,4.30379028048004,0.75795505869,1.5738428745,0.02789470579
"26",0.0222806863,4.41799700580005,0.66982074954,1.48990458786,0.01593983188,0.01336841178,4.31581204104005,0.56405957856,1.68576059002,0.01195487391,0.03119296082,4.28575763964004,0.51117899307,1.68576059002,0.01195487391,0.02005261767,4.33985556216005,0.58168644039,1.62280687504,0.01593983188,0.02673682356,4.38794260440005,0.42304468392,1.59482744616,0.02390974782,0.02450875493,4.49613844944005,0.38779096026,1.48290973064,0.02789470579,0.0222806863,4.30379028048004,0.56405957856,1.62280687504,0.0398495797,0.02005261767,4.43001876636005,0.51117899307,1.54586344562,0.01593983188,0.01114034315,4.45406228748005,0.61694016405,1.49689944508,0.01992478985,0.01782454904,4.41198612552005,0.66982074954,1.49689944508,0.02390974782
"27",0.02005261767,4.46608404804005,0.61694016405,1.4689200162,0.01195487391,0.01336841178,4.41198612552005,0.47592526941,1.61581201782,0.00796991594,0.03119296082,4.33985556216005,0.51117899307,1.62280687504,0.01195487391,0.02450875493,4.43602964664005,0.5288058549,1.51788401674,0.01593983188,0.02450875493,4.46608404804005,0.37016409843,1.53187373118,0.02390974782,0.01559648041,4.57427989308005,0.33491037477,1.44793544454,0.02390974782,0.01782454904,4.34586644244005,0.56405957856,1.59482744616,0.03586462173,0.01782454904,4.52619285084005,0.37016409843,1.48290973064,0.02390974782,0.01336841178,4.53821461140005,0.5288058549,1.41995601566,0.02390974782,0.01782454904,4.46608404804005,0.63456702588,1.44793544454,0.02390974782
"28",0.01782454904,4.52619285084005,0.61694016405,1.39197658678,0.01992478985,0.01782454904,4.51417109028005,0.37016409843,1.52487887396,0.00796991594,0.02896489219,4.43001876636005,0.45829840758,1.54586344562,0.01195487391,0.02673682356,4.50214932972005,0.51117899307,1.44094058732,0.01593983188,0.0222806863,4.53220373112005,0.37016409843,1.4689200162,0.01992478985,0.01782454904,4.64641045644005,0.28202978928,1.38498172956,0.01992478985,0.01559648041,4.44805140720005,0.5288058549,1.5038943023,0.03187966376,0.01559648041,4.56225813252005,0.3525372366,1.46192515898,0.01992478985,0.01559648041,4.61635605504005,0.47592526941,1.34301258624,0.02390974782,0.01114034315,4.50816021000005,0.63456702588,1.41296115844,0.02789470579
"29",0.01782454904,4.57427989308005,0.59931330222,1.34301258624,0.01992478985,0.01782454904,4.58029077336005,0.37016409843,1.45493030176,0.00398495797,0.02450875493,4.47209492832005,0.42304468392,1.51788401674,0.01593983188,0.03119296082,4.58029077336005,0.45829840758,1.3639971579,0.01195487391,0.0222806863,4.61034517476005,0.31728351294,1.40596630122,0.01593983188,0.01559648041,4.72455190008005,0.24677606562,1.30803830014,0.02390974782,0.02005261767,4.50816021000005,0.47592526941,1.44793544454,0.02789470579,0.01559648041,4.64039957616005,0.28202978928,1.398971444,0.01992478985,0.01782454904,4.70651925924005,0.40541782209,1.25207944238,0.02789470579,0.01114034315,4.58029077336005,0.61694016405,1.33601772902,0.02789470579
"30",0.01559648041,4.67045397756005,0.5288058549,1.26606915682,0.01992478985,0.01559648041,4.62837781560005,0.37016409843,1.39197658678,0.01195487391,0.02450875493,4.53821461140005,0.38779096026,1.45493030176,0.01593983188,0.03119296082,4.67045397756005,0.42304468392,1.28005887126,0.00796991594,0.02005261767,4.70050837896005,0.31728351294,1.31503315736,0.01195487391,0.02005261767,4.77864982260005,0.19389548013,1.2590742996,0.01992478985,0.02005261767,4.56225813252005,0.49355213124,1.39197658678,0.01992478985,0.01782454904,4.68848661840005,0.28202978928,1.3290228718,0.02390974782,0.01782454904,4.76662806204005,0.38779096026,1.20311544184,0.01992478985,0.01114034315,4.67646485784005,0.51117899307,1.26606915682,0.02789470579
"31",0.01782454904,4.74859542120005,0.44067154575,1.20311544184,0.01992478985,0.01782454904,4.73056278036005,0.3525372366,1.27306401404,0.01195487391,0.02896489219,4.58029077336005,0.37016409843,1.40596630122,0.01195487391,0.03119296082,4.72455190008005,0.42304468392,1.2241000135,0.00398495797,0.02005261767,4.76061718176005,0.28202978928,1.2590742996,0.01195487391,0.01559648041,4.82673686484005,0.21152234196,1.21011029906,0.01992478985,0.0222806863,4.62837781560005,0.42304468392,1.33601772902,0.01992478985,0.02005261767,4.73657366064005,0.21152234196,1.2940485857,0.02390974782,0.01782454904,4.82072598456005,0.37016409843,1.1541514413,0.01593983188,0.00891227452,4.73056278036005,0.49355213124,1.23109487072,0.01992478985
"32",0.01782454904,4.80870422400005,0.42304468392,1.14715658408,0.01593983188,0.01782454904,4.78466070288005,0.28202978928,1.23808972794,0.01195487391,0.02005261767,4.63438869588005,0.3525372366,1.37099201512,0.01593983188,0.03342102945,4.79668246344005,0.33491037477,1.17513601296,NA,0.0222806863,4.85078038596005,0.22914920379,1.16814115574,0.01195487391,0.01782454904,4.88083478736005,0.24677606562,1.14016172686,0.01195487391,0.0222806863,4.69449749868005,0.42304468392,1.25207944238,0.02390974782,0.02005261767,4.79067158316005,0.21152234196,1.23109487072,0.02390974782,0.01559648041,4.86881302680005,0.31728351294,1.12617201242,0.01593983188,0.00891227452,4.80870422400005,0.44067154575,1.1541514413,0.02390974782
"33",0.01782454904,4.87482390708005,0.31728351294,1.1191771552,0.01195487391,0.0222806863,4.83875862540005,0.26440292745,1.16814115574,0.01195487391,0.0222806863,4.71253013952005,0.37016409843,1.26606915682,0.01593983188,0.03119296082,4.84476950568005,0.33491037477,1.12617201242,NA,0.02005261767,4.88083478736005,0.24677606562,1.13316686964,0.01195487391,0.02005261767,4.97099799156006,0.24677606562,1.03523886856,0.00796991594,0.01782454904,4.73056278036005,0.42304468392,1.23808972794,0.01593983188,0.01782454904,4.85078038596005,0.21152234196,1.16814115574,0.02390974782,0.01559648041,4.95897623100006,0.31728351294,1.02124915412,0.01593983188,0.00891227452,4.87482390708005,0.38779096026,1.09819258354,0.02390974782
"34",0.0222806863,4.95897623100006,0.22914920379,1.049228583,0.00796991594,0.0222806863,4.91690006904005,0.21152234196,1.09119772632,0.01593983188,0.02450875493,4.77263894232005,0.33491037477,1.19612058462,0.01992478985,0.02896489219,4.91690006904005,0.28202978928,1.06321829744,0.00398495797,0.02005261767,4.95897623100006,0.22914920379,1.049228583,0.01195487391,0.01782454904,5.03711767464006,0.22914920379,0.97228515358,0.00796991594,0.02005261767,4.75460630148005,0.38779096026,1.2241000135,0.01195487391,0.01782454904,4.90487830848005,0.22914920379,1.09819258354,0.02390974782,0.01336841178,5.01908503380006,0.29965665111,0.97228515358,0.01195487391,0.00668420589,4.97099799156006,0.29965665111,1.02824401134,0.02390974782
"35",0.0222806863,5.00706327324006,0.21152234196,1.00026458246,0.00796991594,0.0222806863,4.97700887184006,0.21152234196,1.03523886856,0.00796991594,0.02005261767,4.82673686484005,0.33491037477,1.14016172686,0.02390974782,0.0222806863,4.95897623100006,0.26440292745,1.03523886856,0.00796991594,0.01782454904,4.98301975212006,0.24677606562,1.02824401134,0.00796991594,0.01559648041,5.07318295632006,0.21152234196,0.95130058192,0.00398495797,0.01559648041,4.79668246344005,0.37016409843,1.19612058462,0.01195487391,0.01782454904,4.97099799156006,0.21152234196,1.02824401134,0.02390974782,0.01559648041,5.06717207604006,0.26440292745,0.92332115304,0.01195487391,0.00891227452,4.98903063240006,0.29965665111,1.0142542969,0.01593983188
"36",0.01559648041,5.10323735772006,0.19389548013,0.90233658138,0.01593983188,0.02450875493,5.03110679436006,0.15864175647,0.98627486802,0.00796991594,0.0222806863,4.89285654792005,0.33491037477,1.05622344022,0.02390974782,0.01336841178,5.03711767464006,0.22914920379,0.98627486802,0.00796991594,0.00891227452,5.02509591408006,0.26440292745,0.99326972524,0.01195487391,0.01782454904,5.13930263940006,0.21152234196,0.867362295280001,0.00398495797,0.01336841178,4.88684566764005,0.37016409843,1.09119772632,0.01593983188,0.01114034315,4.99504151268006,0.21152234196,1.0142542969,0.02789470579,0.01782454904,5.14531351968006,0.24677606562,0.832388009180001,0.01195487391,0.00668420589,5.06116119576006,0.29965665111,0.95130058192,0.00796991594
"37",0.0222806863,5.14531351968006,0.21152234196,0.825393151960001,0.01593983188,0.02450875493,5.06717207604006,0.1762686183,0.93731086748,0.00796991594,0.02450875493,4.95296535072006,0.33491037477,0.9792800108,0.02390974782,0.00891227452,5.12728087884006,0.21152234196,0.90233658138,0.00796991594,0.01336841178,5.05515031548006,0.26440292745,0.9443057247,0.01195487391,0.0222806863,5.17536792108006,0.19389548013,0.818398294740001,0.00398495797,0.01559648041,4.92291094932006,0.38779096026,1.04223372578,0.01195487391,0.01114034315,5.03711767464006,0.21152234196,0.96529029636,0.02789470579,0.01782454904,5.20542232248006,0.22914920379,0.769434294200001,0.01195487391,0.01114034315,5.09722647744006,0.29965665111,0.88834686694,0.01195487391
"38",0.02005261767,5.22345496332006,0.24677606562,0.727465150880001,0.01593983188,0.0222806863,5.14531351968006,0.19389548013,0.853372580840001,0.00398495797,0.02673682356,5.03711767464006,0.38779096026,0.860367438060001,0.01992478985,0.00891227452,5.27755288584006,0.1762686183,0.741454865320001,0.00796991594,0.01336841178,5.18738968164006,0.24677606562,0.797413723080001,0.01195487391,0.01782454904,5.28356376612006,0.1762686183,0.706480579220001,0.00796991594,0.01559648041,5.05515031548006,0.38779096026,0.88135200972,0.01593983188,0.01559648041,5.13329175912006,0.19389548013,0.853372580840001,0.02390974782,0.01559648041,5.32563992808006,0.22914920379,0.636532007020001,0.01195487391,0.01336841178,5.19340056192006,0.29965665111,0.776429151420001,0.00796991594
"39",0.02005261767,5.27154200556006,0.22914920379,0.678501150340001,0.01593983188,0.0222806863,5.24148760416006,0.19389548013,0.741454865320001,0.00398495797,0.02450875493,5.11525911828006,0.40541782209,0.769434294200001,0.01992478985,0.01114034315,5.33766168864006,0.15864175647,0.678501150340001,0.00398495797,0.01114034315,5.30159640696006,0.22914920379,0.678501150340001,0.01195487391,0.02005261767,5.39175961116005,0.14101489464,0.587568006480001,0.00796991594,0.01559648041,5.18738968164006,0.33491037477,0.755444579760001,0.01195487391,0.01782454904,5.22345496332006,0.19389548013,0.748449722540001,0.01992478985,0.02005261767,5.35569432948006,0.21152234196,0.594562863700001,0.01195487391,0.01559648041,5.27755288584006,0.24677606562,0.692490864780001,0.00796991594
"40",0.0222806863,5.32563992808006,0.24677606562,0.608552578140001,0.01195487391,0.0222806863,5.33165080836006,0.21152234196,0.629537149800001,0.00398495797,0.02673682356,5.21143320276006,0.45829840758,0.636532007020001,0.01593983188,0.01559648041,5.40378137172005,0.21152234196,0.566583434820001,0.00398495797,0.01114034315,5.33766168864006,0.22914920379,0.643526864240001,0.00796991594,0.02005261767,5.45787929424005,0.12338803281,0.51761943428,0.00796991594,0.01782454904,5.26553112528006,0.33491037477,0.671506293120001,0.00398495797,0.01559648041,5.31962904780006,0.21152234196,0.657516578680001,0.00796991594,0.01559648041,5.43984665340005,0.19389548013,0.51761943428,0.01195487391,0.01559648041,5.36170520976006,0.22914920379,0.608552578140001,0.00398495797
"41",0.0222806863,5.40979225200005,0.1762686183,0.55259372038,0.00398495797,0.0222806863,5.39175961116005,0.21152234196,0.55259372038,0.00796991594,0.02005261767,5.31962904780006,0.45829840758,0.53860400594,0.01195487391,0.01782454904,5.47591193508005,0.1762686183,0.48264514818,0.00796991594,0.01782454904,5.36771609004006,0.22914920379,0.594562863700001,0.00398495797,0.02005261767,5.50596633648004,0.10576117098,0.46865543374,0.00796991594,0.01559648041,5.37372697032005,0.3525372366,0.54559886316,0.00398495797,0.01559648041,5.37973785060005,0.19389548013,0.594562863700001,0.00796991594,0.01559648041,5.54804249844004,0.19389548013,0.39171200432,0.01195487391,0.01559648041,5.42782489284005,0.19389548013,0.54559886316,0.00398495797
"42",0.0222806863,5.45787929424005,0.15864175647,0.49663486262,0.00796991594,0.02005261767,5.46389017452005,0.21152234196,0.48264514818,0.00398495797,0.0222806863,5.34968344920006,0.45829840758,0.49663486262,0.01195487391,0.02005261767,5.53602073788004,0.15864175647,0.41269657598,0.00796991594,0.02005261767,5.43383577312005,0.1762686183,0.53160914872,0.00398495797,0.01782454904,5.59011866040004,0.08813430915,0.39171200432,0.00398495797,0.01559648041,5.41580313228005,0.3525372366,0.49663486262,0.00398495797,0.01336841178,5.44585753368005,0.19389548013,0.5246142915,0.00796991594,0.01559648041,5.60815130124004,0.1762686183,0.34274800378,0.00398495797,0.01336841178,5.48793369564005,0.19389548013,0.4896400054,NA
"43",0.03119296082,5.46990105480005,0.1762686183,0.4546657193,0.00398495797,0.01782454904,5.54203161816004,0.19389548013,0.41269657598,NA,0.01782454904,5.42181401256005,0.44067154575,0.44067600486,0.00796991594,0.02005261767,5.60214042096004,0.15864175647,0.33575314656,0.00796991594,0.02450875493,5.48793369564005,0.1762686183,0.46166057652,NA,0.01782454904,5.60815130124004,0.10576117098,0.36373257544,0.00398495797,0.01559648041,5.46990105480005,0.3525372366,0.43368114764,0.00398495797,0.01336841178,5.51798809704004,0.19389548013,0.43368114764,0.01195487391,0.01782454904,5.64421658292003,0.1762686183,0.29378400324,0.00398495797,0.01336841178,5.55405337872004,0.15864175647,0.42668629042,NA
"44",0.03119296082,5.54203161816004,0.15864175647,0.37772228988,0.00398495797,0.01782454904,5.59011866040004,0.19389548013,0.35673771822,NA,0.01559648041,5.49394457592005,0.42304468392,0.37072743266,0.00796991594,0.02005261767,5.63219482236003,0.15864175647,0.30777371768,0.00398495797,0.02673682356,5.52399897732004,0.15864175647,0.4196914332,NA,0.02005261767,5.63219482236003,0.10576117098,0.32875828934,0.00398495797,0.01559648041,5.53602073788004,0.37016409843,0.349742861,0.00398495797,0.01336841178,5.55405337872004,0.19389548013,0.39171200432,0.01195487391,0.02005261767,5.68629274488003,0.14101489464,0.25880971714,NA,0.01336841178,5.60815130124004,0.12338803281,0.37772228988,NA
"45",0.03564909808,5.55405337872004,0.1762686183,0.34274800378,0.00398495797,0.0222806863,5.59011866040004,0.21152234196,0.32875828934,0.00398495797,0.02005261767,5.55405337872004,0.37016409843,0.32176343212,NA,0.02005261767,5.68629274488003,0.15864175647,0.25181485992,NA,0.02450875493,5.58410778012004,0.1762686183,0.349742861,NA,0.02005261767,5.69831450544003,0.10576117098,0.2448200027,0.00796991594,0.0222806863,5.56607513928004,0.37016409843,0.30077886046,NA,0.01336841178,5.59011866040004,0.19389548013,0.349742861,0.01195487391,0.02450875493,5.69831450544003,0.15864175647,0.22383543104,NA,0.01559648041,5.63820570264003,0.14101489464,0.32176343212,0.00398495797
"46",0.03787716671,5.57208601956004,0.1762686183,0.3147685749,0.00398495797,0.01782454904,5.62618394208003,0.19389548013,0.30777371768,0.00398495797,0.01782454904,5.56006425900004,0.40541782209,0.30777371768,NA,0.02005261767,5.72836890684003,0.14101489464,0.2098457166,NA,0.02673682356,5.60214042096004,0.15864175647,0.32875828934,NA,0.02005261767,5.71634714628003,0.07050744732,0.23782514548,0.00796991594,0.0222806863,5.59612954068004,0.3525372366,0.27279943158,NA,0.01336841178,5.62017306180004,0.22914920379,0.30077886046,0.01195487391,0.02896489219,5.70432538572003,0.14101489464,0.2098457166,NA,0.02450875493,5.63820570264003,0.14101489464,0.29378400324,0.00398495797
"47",0.03787716671,5.57208601956004,0.22914920379,0.29378400324,0.00398495797,0.01559648041,5.64421658292003,0.21152234196,0.28678914602,0.00398495797,0.02005261767,5.56006425900004,0.38779096026,0.30777371768,NA,0.02005261767,5.72836890684003,0.15864175647,0.20285085938,NA,0.0222806863,5.66826010404003,0.15864175647,0.26580457436,NA,0.01559648041,5.74640154768002,0.05288058549,0.22383543104,0.00796991594,0.0222806863,5.63820570264003,0.29965665111,0.2448200027,NA,0.01336841178,5.64421658292003,0.24677606562,0.27279943158,0.00796991594,0.02673682356,5.72836890684003,0.12338803281,0.19585600216,NA,0.02005261767,5.67427098432003,0.15864175647,0.25880971714,0.00398495797
"48",0.03564909808,5.62618394208003,0.22914920379,0.23782514548,0.00398495797,0.0222806863,5.66826010404003,0.21152234196,0.23782514548,0.00398495797,0.01782454904,5.57809689984004,0.38779096026,0.29378400324,NA,0.0222806863,5.72235802656003,0.15864175647,0.20285085938,NA,0.0222806863,5.70432538572003,0.14101489464,0.23083028826,NA,0.02005261767,5.74039066740003,0.05288058549,0.2098457166,0.01195487391,0.02450875493,5.66826010404003,0.29965665111,0.19585600216,0.00398495797,0.01114034315,5.69831450544003,0.26440292745,0.21684057382,0.00398495797,0.03342102945,5.71634714628003,0.12338803281,0.18886114494,NA,0.02673682356,5.70432538572003,0.14101489464,0.2098457166,0.00398495797
"49",0.03787716671,5.63820570264003,0.21152234196,0.22383543104,0.00398495797,0.03119296082,5.65022746320003,0.21152234196,0.23083028826,0.00398495797,0.0222806863,5.58410778012004,0.37016409843,0.2797942888,NA,0.02673682356,5.71634714628003,0.15864175647,0.19585600216,NA,0.0222806863,5.71033626600003,0.15864175647,0.21684057382,NA,0.02005261767,5.74039066740003,0.05288058549,0.21684057382,0.00796991594,0.0222806863,5.68028186460003,0.28202978928,0.19585600216,0.00398495797,0.01114034315,5.71033626600003,0.22914920379,0.21684057382,0.00398495797,0.02896489219,5.71634714628003,0.15864175647,0.18186628772,0.00398495797,0.0222806863,5.71634714628003,0.14101489464,0.2098457166,0.00398495797
"50",0.03564909808,5.64421658292003,0.21152234196,0.22383543104,0.00398495797,0.03119296082,5.68028186460003,0.1762686183,0.2098457166,0.00398495797,0.02896489219,5.60214042096004,0.33491037477,0.2448200027,0.00398495797,0.02673682356,5.70432538572003,0.1762686183,0.19585600216,0.00398495797,0.0222806863,5.73437978712003,0.14101489464,0.19585600216,NA,0.0222806863,5.75842330824002,0.03525372366,0.19585600216,0.00796991594,0.02450875493,5.66826010404003,0.29965665111,0.19585600216,0.00398495797,0.01336841178,5.71033626600003,0.22914920379,0.20285085938,0.00796991594,0.03564909808,5.71033626600003,0.15864175647,0.16787657328,0.00398495797,0.0222806863,5.72836890684003,0.12338803281,0.19585600216,0.00796991594
"51",0.04010523534,5.65022746320003,0.19389548013,0.2098457166,0.00398495797,0.03342102945,5.69230362516003,0.19389548013,0.18186628772,0.00398495797,0.03564909808,5.60815130124004,0.31728351294,0.22383543104,0.00398495797,0.0222806863,5.71634714628003,0.1762686183,0.19585600216,0.00398495797,0.0222806863,5.71033626600003,0.15864175647,0.2098457166,0.00398495797,0.0222806863,5.75842330824002,0.05288058549,0.19585600216,0.00398495797,0.02450875493,5.66826010404003,0.28202978928,0.20285085938,0.00398495797,0.01114034315,5.71033626600003,0.22914920379,0.21684057382,0.00398495797,0.03564909808,5.71634714628003,0.15864175647,0.16088171606,0.00398495797,0.0222806863,5.75241242796002,0.12338803281,0.1748714305,0.00398495797
"52",0.04010523534,5.65022746320003,0.21152234196,0.20285085938,0.00398495797,0.04010523534,5.68028186460003,0.1762686183,0.18186628772,0.00398495797,0.03564909808,5.59612954068004,0.33491037477,0.23083028826,0.00398495797,0.02005261767,5.71033626600003,0.19389548013,0.19585600216,0.00796991594,0.0222806863,5.69831450544003,0.21152234196,0.20285085938,0.00398495797,0.0222806863,5.75241242796002,0.05288058549,0.20285085938,0.00398495797,0.0222806863,5.68028186460003,0.24677606562,0.20285085938,0.00796991594,0.01114034315,5.71033626600003,0.24677606562,0.2098457166,0.00398495797,0.03564909808,5.71033626600003,0.1762686183,0.16088171606,0.00398495797,0.02450875493,5.75241242796002,0.10576117098,0.1748714305,0.00398495797
"53",0.03342102945,5.65623834348003,0.19389548013,0.22383543104,0.00398495797,0.03564909808,5.68028186460003,0.19389548013,0.1748714305,0.01195487391,0.03564909808,5.60214042096004,0.33491037477,0.22383543104,0.00398495797,0.02450875493,5.71634714628003,0.1762686183,0.18186628772,0.00796991594,0.02450875493,5.70432538572003,0.21152234196,0.18886114494,0.00398495797,0.02005261767,5.75241242796002,0.05288058549,0.2098457166,0.00398495797,0.02450875493,5.68028186460003,0.24677606562,0.19585600216,0.00796991594,0.01114034315,5.72235802656003,0.22914920379,0.20285085938,0.00398495797,0.03119296082,5.71033626600003,0.1762686183,0.16787657328,0.00796991594,0.02673682356,5.75241242796002,0.10576117098,0.16088171606,0.00796991594
"54",0.03564909808,5.63820570264003,0.21152234196,0.23083028826,0.00398495797,0.03787716671,5.66826010404003,0.21152234196,0.18186628772,0.00796991594,0.04010523534,5.61416218152004,0.28202978928,0.22383543104,NA,0.02450875493,5.72836890684003,0.1762686183,0.16787657328,0.00796991594,0.02450875493,5.71033626600003,0.21152234196,0.18186628772,0.00398495797,0.0222806863,5.74640154768002,0.05288058549,0.2098457166,0.00398495797,0.0222806863,5.69230362516003,0.22914920379,0.19585600216,0.00796991594,0.01336841178,5.72235802656003,0.22914920379,0.18886114494,0.00796991594,0.02896489219,5.70432538572003,0.19389548013,0.16787657328,0.01195487391,0.02896489219,5.74640154768002,0.12338803281,0.15388685884,0.00796991594
"55",0.03119296082,5.64421658292003,0.21152234196,0.23083028826,0.00796991594,0.03787716671,5.67427098432003,0.19389548013,0.18186628772,0.00796991594,0.03787716671,5.62618394208003,0.22914920379,0.23782514548,NA,0.02450875493,5.74640154768002,0.14101489464,0.16787657328,0.00398495797,0.02450875493,5.70432538572003,0.21152234196,0.1748714305,0.01195487391,0.0222806863,5.75842330824002,0.07050744732,0.18886114494,0.00398495797,0.01559648041,5.69831450544003,0.22914920379,0.2098457166,0.00796991594,0.01336841178,5.72836890684003,0.21152234196,0.18886114494,0.00796991594,0.02673682356,5.70432538572003,0.19389548013,0.1748714305,0.01195487391,0.02896489219,5.73437978712003,0.14101489464,0.16088171606,0.00796991594
"56",0.02896489219,5.65623834348003,0.19389548013,0.23782514548,0.00398495797,0.03787716671,5.68028186460003,0.19389548013,0.1748714305,0.00796991594,0.03787716671,5.63219482236003,0.21152234196,0.23782514548,NA,0.02673682356,5.74640154768002,0.12338803281,0.16787657328,0.00398495797,0.02450875493,5.70432538572003,0.19389548013,0.18186628772,0.01195487391,0.02005261767,5.75241242796002,0.07050744732,0.19585600216,0.00796991594,0.01559648041,5.70432538572003,0.21152234196,0.2098457166,0.00796991594,0.01336841178,5.74039066740003,0.21152234196,0.1748714305,0.00796991594,0.02896489219,5.70432538572003,0.1762686183,0.1748714305,0.01195487391,0.02896489219,5.71634714628003,0.15864175647,0.1748714305,0.00796991594
"57",0.02673682356,5.65022746320003,0.19389548013,0.25181485992,0.00398495797,0.03564909808,5.68028186460003,0.1762686183,0.18186628772,0.01195487391,0.03564909808,5.62618394208003,0.22914920379,0.2448200027,NA,0.02673682356,5.74640154768002,0.15864175647,0.15388685884,0.00398495797,0.02673682356,5.69831450544003,0.19389548013,0.18886114494,0.00796991594,0.01782454904,5.75241242796002,0.07050744732,0.19585600216,0.01195487391,0.01336841178,5.70432538572003,0.21152234196,0.21684057382,0.00796991594,0.01559648041,5.74640154768002,0.21152234196,0.16787657328,0.00398495797,0.03342102945,5.68028186460003,0.21152234196,0.1748714305,0.01195487391,0.04010523534,5.69230362516003,0.1762686183,0.16088171606,0.00796991594
"58",0.02673682356,5.66826010404003,0.1762686183,0.23083028826,0.00796991594,0.03119296082,5.68028186460003,0.1762686183,0.19585600216,0.01195487391,0.03564909808,5.63219482236003,0.21152234196,0.2448200027,NA,0.02896489219,5.74039066740003,0.15864175647,0.15388685884,0.00398495797,0.02896489219,5.69230362516003,0.19389548013,0.18886114494,0.00796991594,0.01559648041,5.75842330824002,0.07050744732,0.19585600216,0.01195487391,0.00891227452,5.71033626600003,0.19389548013,0.22383543104,0.01195487391,0.01559648041,5.75241242796002,0.21152234196,0.16088171606,0.00398495797,0.02450875493,5.69831450544003,0.1762686183,0.1748714305,0.02390974782,0.03342102945,5.68629274488003,0.1762686183,0.18186628772,0.01195487391
"59",0.02450875493,5.66224922376003,0.1762686183,0.2448200027,0.00796991594,0.02673682356,5.67427098432003,0.1762686183,0.21684057382,0.01195487391,0.03119296082,5.63820570264003,0.1762686183,0.25880971714,0.00398495797,0.02673682356,5.74039066740003,0.15864175647,0.16088171606,0.00398495797,0.02896489219,5.68629274488003,0.21152234196,0.18886114494,0.00796991594,0.01782454904,5.75241242796002,0.07050744732,0.20285085938,0.00796991594,0.00668420589,5.74039066740003,0.15864175647,0.2098457166,0.01195487391,0.01559648041,5.75241242796002,0.19389548013,0.16787657328,0.00398495797,0.02896489219,5.68629274488003,0.1762686183,0.18186628772,0.01992478985,0.03564909808,5.68629274488003,0.1762686183,0.1748714305,0.01195487391
"60",0.02673682356,5.66224922376003,0.15864175647,0.25181485992,0.00398495797,0.02673682356,5.66224922376003,0.21152234196,0.22383543104,0.00796991594,0.02673682356,5.63820570264003,0.1762686183,0.2797942888,NA,0.02005261767,5.74039066740003,0.15864175647,0.16787657328,0.01195487391,0.03119296082,5.69230362516003,0.19389548013,0.18186628772,0.00796991594,0.01559648041,5.75241242796002,0.07050744732,0.21684057382,0.00398495797,0.00891227452,5.72836890684003,0.15864175647,0.2098457166,0.01593983188,0.01336841178,5.76443418852002,0.15864175647,0.1748714305,0.00398495797,0.0222806863,5.69230362516003,0.15864175647,0.20285085938,0.01992478985,0.04233330397,5.67427098432003,0.15864175647,0.16787657328,0.01593983188
