"","Early1.ALL","Late1.CLS","Late1.OPN","Mid1.CLS","Mid1.OPN","Early1.ALL.1","Late1.CLS.1","Late1.OPN.1","Mid1.CLS.1","Mid1.OPN.1","Early1.ALL.2","Late1.CLS.2","Late1.OPN.2","Mid1.CLS.2","Mid1.OPN.2","Early1.ALL.3","Late1.CLS.3","Late1.OPN.3","Mid1.CLS.3","Mid1.OPN.3","Early1.ALL.4","Late1.CLS.4","Late1.OPN.4","Mid1.CLS.4","Mid1.OPN.4","Early1.ALL.5","Late1.CLS.5","Late1.OPN.5","Mid1.CLS.5","Mid1.OPN.5","Early1.ALL.6","Late1.CLS.6","Late1.OPN.6","Mid1.CLS.6","Mid1.OPN.6","Early1.ALL.7","Late1.CLS.7","Late1.OPN.7","Mid1.CLS.7","Mid1.OPN.7","Early1.ALL.8","Late1.CLS.8","Late1.OPN.8","Mid1.CLS.8","Mid1.OPN.8","Early1.ALL.9","Late1.CLS.9","Late1.OPN.9","Mid1.CLS.9","Mid1.OPN.9"
"0",0,1.3573828114,3.72421894459999,0,0.1772644862,0,1.36178989845,3.25022744255999,0,0.2051487874,0,1.3750111596,3.36872531806999,0,0.1951901084,0,1.2516127222,3.50415146150999,0,0.2170992022,0,1.3397544632,3.45336665771999,0,0.159338864,0,1.3309402891,3.58879280115999,0,0.1912066368,0,1.3397544632,3.25022744255999,0,0.1971818442,0,1.22076311285,3.53800799736999,0,0.219090938,0,1.3309402891,3.19944263876999,0,0.1872231652,0,1.36178989845,3.33486878220999,0,0.2270578812
"1",0,1.39704659485,3.72421894459999,0,0.1732810146,0,1.40586076895,3.26715571048999,0,0.2011653158,0,1.39704659485,3.36872531806999,0,0.1931983726,0,1.2868694186,3.57186453322999,0,0.2011653158,0,1.3750111596,3.48722319357999,0,0.1613305998,0,1.3661969855,3.63957760494999,0,0.189214901,0,1.3838253337,3.25022744255999,0,0.1912066368,0,1.2780552445,3.53800799736999,0,0.2011653158,0,1.37060407255,3.23329917462999,0,0.1673058072,0,1.37941824665,3.35179705013999,0,0.2111239948
"2",0,1.43230329125,3.77500374838999,0,0.1473884492,0,1.42348911715,3.33486878220999,0,0.1951901084,0,1.44993163945,3.43643838978999,0,0.19917358,0,1.31771902795,3.62264933701999,0,0.1912066368,0,1.3926395078,3.50415146150999,0,0.1533636566,0,1.410267856,3.67343414080999,0,0.179256222,0,1.410267856,3.30101224634999,0,0.189214901,0,1.3044977668,3.60572106908999,0,0.1912066368,0,1.410267856,3.28408397841999,0,0.1633223356,0,1.3926395078,3.40258185392999,0,0.1931983726
"3",0,1.47637416175001,3.77500374838999,0,0.1414132418,0,1.44993163945,3.40258185392999,0,0.1931983726,0,1.48959542290001,3.50415146150999,0,0.1772644862,0,1.35297572435,3.63957760494999,0,0.1852314294,0,1.4367103783,3.53800799736999,0,0.149380185,0,1.46315290060001,3.67343414080999,0,0.1613305998,0,1.4278962042,3.36872531806999,0,0.179256222,0,1.32653320205,3.65650587287999,0,0.1752727504,0,1.45874581355,3.30101224634999,0,0.149380185,0,1.42348911715,3.43643838978999,0,0.1772644862
"4",0,1.49840959700001,3.84271682010999,0,0.1354380344,0,1.47637416175001,3.45336665771999,0,0.189214901,0,1.53366629340001,3.53800799736999,0,0.1633223356,0,1.37060407255,3.63957760494999,0,0.1732810146,0,1.48078124880001,3.55493626529999,0,0.149380185,0,1.47637416175001,3.69036240873999,0,0.1473884492,0,1.4543387265,3.36872531806999,0,0.1812479578,0,1.3838253337,3.69036240873999,0,0.1732810146,0,1.52925920635001,3.35179705013999,0,0.1274710912,0,1.45874581355,3.47029492564999,0,0.1653140714
"5",0,1.52925920635001,3.85964508803999,0,0.119504148,0,1.52044503225001,3.48722319357999,0,0.1752727504,0,1.55129464160001,3.55493626529999,0,0.149380185,0,1.39704659485,3.65650587287999,0,0.1832396936,0,1.50281668405001,3.60572106908999,0,0.1334462986,0,1.50722377110001,3.72421894459999,0,0.1334462986,0,1.48518833585001,3.41951012185999,0,0.1553553924,0,1.44111746535,3.70729067666999,0,0.1653140714,0,1.56892298980001,3.38565358599999,0,0.1135289406,0,1.47637416175001,3.48722319357999,0,0.149380185
"6",0,1.65706473080001,3.58879280115999,0,0.1115372048,0,1.62180803440001,3.33486878220999,0,0.1573471282,0,1.64384346965001,3.31794051427999,0,0.1374297702,0,1.46755998765001,3.53800799736999,0,0.1653140714,0,1.60417968620001,3.48722319357999,0,0.1155206764,0,1.62180803440001,3.50415146150999,0,0.1175124122,0,1.57773716390001,3.14865783497999,0,0.1473884492,0,1.56451590275001,3.33486878220999,0,0.1553553924,0,1.70554268835001,3.14865783497999,0,0.1055619974,0,1.55570172865001,3.30101224634999,0,0.1513719208
"7",0,1.77164899410001,3.38565358599999,0,0.1035702616,0,1.74079938475001,3.06401649532999,0,0.1453967134,0,1.73639229770001,3.18251437083999,0,0.1274710912,0,1.55129464160001,3.35179705013999,0,0.1573471282,0,1.71876394950001,3.16558610290999,0,0.1234876196,0,1.73198521065001,3.25022744255999,0,0.1075537332,0,1.70113560130001,2.91166208395999,0,0.1374297702,0,1.67469307900001,3.06401649532999,0,0.1354380344,0,1.78046316820001,3.04708822739999,0,0.0936115826,0,1.64825055670001,3.09787303118999,0,0.1254793554
"8",0,1.85538364805001,3.19944263876999,0,0.0876363752,0,1.83775529985001,2.86087728017,0,0.1234876196,0,1.85538364805001,2.91166208395999,0,0.1055619974,0,1.69232142720001,3.04708822739999,0,0.1254793554,0,1.81131277755001,2.94551861981999,0,0.1155206764,0,1.82012695165001,3.03015995946999,0,0.0856446394,0,1.79809151640001,2.74237940466,0,0.1155206764,0,1.78487025525001,2.79316420845,0,0.1254793554,0,1.87741908330001,2.8778055481,0,0.0816611678,0,1.75842773295001,2.92859035188999,0,0.1035702616
"9",0,1.99200334660001,2.82702074431,0,0.0856446394,0,1.94793247610001,2.55616845743,0,0.1035702616,0,1.95233956315001,2.69159460087,0,0.079669432,0,1.84216238690001,2.75930767259,0,0.1075537332,0,1.90386160560001,2.77623594052,0,0.1115372048,0,1.93030412790001,2.74237940466,0,0.0756859604,0,1.92589704085001,2.48845538571,0,0.1035702616,0,1.91267577970001,2.47152711778,0,0.109545469,0,1.97878208545001,2.7085228688,0,0.0717024888,0,1.83775529985001,2.82702074431,0,0.079669432
"10",0,2.10218052285002,2.52231192157,0,0.0756859604,0,2.05370256530001,2.30224443848,0,0.0916198468,0,2.03607421710001,2.45459884985,0,0.0517851308,0,1.93911830200001,2.48845538571,0,0.089628111,0,2.02285295595001,2.52231192157,0,0.0936115826,0,2.01844586890001,2.59002499329,0,0.0637355456,0,2.04048130415001,2.16681829504,0,0.0736942246,0,2.00081752070001,2.25145963469,0,0.0956033184,0,2.10218052285002,2.42074231399,0,0.0537768666,0,1.92589704085001,2.7085228688,0,0.0637355456
"11",0,2.19472935090002,2.26838790262,0,0.0657272814,0,2.11980887105002,2.2006748309,0,0.0577603382,0,2.13303013220002,2.26838790262,0,0.0258925654,0,2.04929547825001,2.30224443848,0,0.049793395,0,2.10218052285002,2.35302924227,0,0.0617438098,0,2.12862304515002,2.33610097434,0,0.0378429802,0,2.12862304515002,1.99753561574,0,0.0577603382,0,2.08014508760002,2.11603349125,0,0.0657272814,0,2.20354352500002,2.18374656297,0,0.0278843012,0,2.04048130415001,2.55616845743,0,0.0478016592
"12",0,2.29168526600002,2.08217695539,0,0.0517851308,0,2.22117187320002,2.0313921516,0,0.0517851308,0,2.22557896025002,2.01446388367,0,0.0338595086,0,2.19032226385002,1.99753561574,0,0.0438181876,0,2.19913643795002,2.04832041953,0,0.0617438098,0,2.24761439550002,1.99753561574,0,0.0318677728,0,2.20795061205002,1.84518120437,0,0.0517851308,0,2.19913643795002,1.92982254402,0,0.0557686024,0,2.31372070125002,1.92982254402,0,0.0318677728,0,2.11980887105002,2.38688577813,0,0.039834716
"13",0,2.38864118110002,1.8621094723,0,0.0458099234,0,2.30490652715002,1.8621094723,0,0.039834716,0,2.31812778830002,1.81132466851,0,0.029876037,0,2.31372070125002,1.70975506093,0,0.0418264518,0,2.32694196240002,1.72668332886,0,0.0517851308,0,2.38423409405002,1.70975506093,0,0.029876037,0,2.28727817895002,1.692826793,0,0.0458099234,0,2.30049944010002,1.692826793,0,0.0517851308,0,2.42389787750002,1.67589852507,0,0.0318677728,0,2.24761439550002,2.14989002711,0,0.039834716
"14",0,2.45915457390002,1.72668332886,0,0.0418264518,0,2.39745535520002,1.62511372128,0,0.0378429802,0,2.40626952930002,1.62511372128,0,0.0219090938,0,2.38864118110002,1.54047238163,0,0.0358512444,0,2.42830496455002,1.54047238163,0,0.049793395,0,2.47678292210002,1.55740064956,0,0.0258925654,0,2.36219865880002,1.48968757784,0,0.0418264518,0,2.37541991995002,1.48968757784,0,0.0378429802,0,2.48559709620002,1.54047238163,0,0.0318677728,0,2.37101283290002,1.91289427609,0,0.0258925654
"15",0,2.54288922785002,1.55740064956,0,0.039834716,0,2.48119000915002,1.47275930991,0,0.0338595086,0,2.49441127030002,1.45583104198,0,0.0159338864,0,2.48559709620002,1.28654836268,0,0.0318677728,0,2.50763253145002,1.33733316647,0,0.0338595086,0,2.54288922785002,1.45583104198,0,0.0239008296,0,2.47678292210002,1.30347663061,0,0.0358512444,0,2.45034039980002,1.33733316647,0,0.0358512444,0,2.58696009835002,1.32040489854,0,0.0258925654,0,2.47678292210002,1.64204198921,0,0.0219090938
"16",0,2.62662388180002,1.3542614344,0,0.0318677728,0,2.58696009835002,1.21883529096,0,0.0278843012,0,2.61340262065002,1.1849787551,0,0.0139421506,0,2.56933175015002,1.10033741545,0,0.0358512444,0,2.61780970770002,1.10033741545,0,0.0338595086,0,2.69713727460003,1.0156960758,0,0.0219090938,0,2.58255301130002,1.06648087959,0,0.0278843012,0,2.56051757605002,1.13419395131,0,0.0219090938,0,2.70154436165003,1.10033741545,0,0.0159338864,0,2.58255301130002,1.3542614344,0,0.0219090938
"17",0,2.73680105805003,1.23576355889,0,0.0318677728,0,2.63543805590002,1.15112221924,0,0.0258925654,0,2.65306640410002,1.13419395131,0,0.0119504148,0,2.65747349115002,0.99876780787,0,0.0358512444,0,2.67950892640002,1.03262434373,0,0.0278843012,0,2.71917270985003,0.99876780787,0,0.0219090938,0,2.62221679475002,1.03262434373,0,0.0258925654,0,2.62662388180002,1.08340914752,0,0.019917358,0,2.75442940625003,1.06648087959,0,0.0119504148,0,2.64425223000002,1.26962009475,0,0.019917358
"18",0,2.80290736380003,1.13419395131,0,0.0318677728,0,2.68391601345003,1.06648087959,0,0.0179256222,0,2.69713727460003,1.06648087959,0,0.0079669432,0,2.70595144870003,0.914126468219999,0,0.0318677728,0,2.77205775445003,0.947983004079999,0,0.0258925654,0,2.78527901560003,0.931054736149999,0,0.0219090938,0,2.70154436165003,1.0156960758,0,0.0239008296,0,2.70154436165003,1.03262434373,0,0.019917358,0,2.78968610265003,1.03262434373,0,0.0119504148,0,2.71035853575003,1.16805048717,0,0.0159338864
"19",0,2.83816406020003,1.06648087959,0,0.019917358,0,2.72798688395003,0.98183953994,0,0.0179256222,0,2.75002231920003,0.914126468219999,0,0.0059752074,0,2.74561523215003,0.880269932359999,0,0.0318677728,0,2.82494279905003,0.863341664429999,0,0.0219090938,0,2.86019949545003,0.863341664429999,0,0.0159338864,0,2.75442940625003,0.880269932359999,0,0.019917358,0,2.81612862495003,0.82948512857,0,0.0278843012,0,2.85579240840003,1.0156960758,0,0.0079669432,0,2.76765066740003,1.13419395131,0,0.0159338864
"20",0,2.89545619185003,0.99876780787,0,0.0159338864,0,2.78087192855003,0.964911272009999,0,0.0119504148,0,2.80731445085003,0.81255686064,0,0.0039834716,0,2.82934988610003,0.74484378892,0,0.0258925654,0,2.87342075660003,0.82948512857,0,0.019917358,0,2.94834123645003,0.74484378892,0,0.0139421506,0,2.80290736380003,0.82948512857,0,0.0159338864,0,2.86901366955003,0.81255686064,0,0.0278843012,0,2.92630580120003,0.98183953994,0,0.0039834716,0,2.84257114725003,0.99876780787,0,0.0179256222
"21",0,2.93511997530003,0.98183953994,0,0.009958679,0,2.85138532135003,0.846413396499999,0,0.009958679,0,2.85579240840003,0.77870032478,0,0.0039834716,0,2.88223493070003,0.72791552099,0,0.0219090938,0,2.93511997530003,0.6771307172,0,0.019917358,0,2.98800501990003,0.71098725306,0,0.0139421506,0,2.88223493070003,0.77870032478,0,0.019917358,0,2.91308454005003,0.77870032478,0,0.0239008296,0,3.00563336810003,0.863341664429999,0,0.0059752074,0,2.94834123645003,0.846413396499999,0,0.0179256222
"22",0,3.01004045515003,0.880269932359999,0,0.009958679,0,2.90867745300003,0.79562859271,0,0.0079669432,0,2.91308454005003,0.71098725306,0,0.0059752074,0,2.94834123645003,0.69405898513,0,0.0159338864,0,2.99241210695003,0.62634591341,0,0.0179256222,0,3.05411132565003,0.60941764548,0,0.0119504148,0,2.93952706235003,0.71098725306,0,0.019917358,0,2.99681919400003,0.66020244927,0,0.019917358,0,3.04529715155003,0.880269932359999,0,0.0059752074,0,2.99681919400003,0.846413396499999,0,0.0119504148
"23",0,3.06733258680003,0.79562859271,0,0.009958679,0,2.95274832350003,0.76177205685,0,0.0059752074,0,2.98800501990003,0.62634591341,0,0.0059752074,0,3.04529715155003,0.62634591341,0,0.0139421506,0,3.03648297745003,0.60941764548,0,0.0159338864,0,3.13343889255003,0.54170457376,0,0.0179256222,0,2.99241210695003,0.6771307172,0,0.0179256222,0,3.06733258680003,0.59248937755,0,0.0159338864,0,3.11581054435003,0.74484378892,0,0.0079669432,0,3.04529715155003,0.81255686064,0,0.009958679
"24",0,3.11140345730003,0.76177205685,0,0.009958679,0,3.02326171630003,0.66020244927,0,0.0039834716,0,3.02326171630003,0.60941764548,0,0.0059752074,0,3.08936802205003,0.62634591341,0,0.0139421506,0,3.10258928320003,0.57556110962,0,0.0159338864,0,3.21276645945003,0.40627843032,0,0.0139421506,0,3.03207589040003,0.64327418134,0,0.019917358,0,3.12903180550003,0.57556110962,0,0.0119504148,0,3.15547432780003,0.72791552099,0,0.009958679,0,3.09377510910003,0.76177205685,0,0.0119504148
"25",0,3.18191685010003,0.72791552099,0,0.0059752074,0,3.10699637025003,0.59248937755,0,0.0059752074,0,3.07173967385003,0.55863284169,0,0.0039834716,0,3.14666015370003,0.59248937755,0,0.0139421506,0,3.15547432780003,0.45706323411,0,0.0179256222,0,3.24802315585003,0.40627843032,0,0.0139421506,0,3.09818219615003,0.64327418134,0,0.0219090938,0,3.16869558895003,0.55863284169,0,0.009958679,0,3.19954519830003,0.6771307172,0,0.0079669432,0,3.15547432780003,0.72791552099,0,0.0139421506
"26",0,3.23920898175003,0.64327418134,0,0.0079669432,0,3.16428850190003,0.54170457376,0,0.0059752074,0,3.14225306665003,0.49091976997,0,0.0059752074,0,3.18191685010003,0.55863284169,0,0.0079669432,0,3.21717354650003,0.40627843032,0,0.0119504148,0,3.29650111340004,0.37242189446,0,0.0139421506,0,3.15547432780003,0.54170457376,0,0.019917358,0,3.24802315585003,0.49091976997,0,0.0079669432,0,3.26565150405003,0.59248937755,0,0.009958679,0,3.23480189470003,0.64327418134,0,0.0119504148
"27",0,3.27446567815003,0.59248937755,0,0.0059752074,0,3.23480189470003,0.45706323411,0,0.0039834716,0,3.18191685010003,0.49091976997,0,0.0059752074,0,3.25243024290003,0.5078480379,0,0.0079669432,0,3.27446567815003,0.35549362653,0,0.0119504148,0,3.35379324505004,0.32163709067,0,0.0119504148,0,3.18632393715003,0.54170457376,0,0.0179256222,0,3.31853654865004,0.35549362653,0,0.0119504148,0,3.32735072275004,0.5078480379,0,0.0119504148,0,3.27446567815003,0.60941764548,0,0.0119504148
"28",0,3.31853654865004,0.59248937755,0,0.009958679,0,3.30972237455004,0.35549362653,0,0.0039834716,0,3.24802315585003,0.44013496618,0,0.0059752074,0,3.30090820045004,0.49091976997,0,0.0079669432,0,3.32294363570004,0.35549362653,0,0.009958679,0,3.40667828965004,0.27085228688,0,0.009958679,0,3.26124441700003,0.5078480379,0,0.0159338864,0,3.34497907095004,0.3385653586,0,0.009958679,0,3.38464285440004,0.45706323411,0,0.0119504148,0,3.30531528750004,0.60941764548,0,0.0139421506
"29",0,3.35379324505004,0.57556110962,0,0.009958679,0,3.35820033210004,0.35549362653,0,0.0019917358,0,3.27887276520003,0.40627843032,0,0.0079669432,0,3.35820033210004,0.44013496618,0,0.0059752074,0,3.38023576735004,0.30470882274,0,0.0079669432,0,3.46397042130004,0.23699575102,0,0.0119504148,0,3.30531528750004,0.45706323411,0,0.0139421506,0,3.40227120260004,0.27085228688,0,0.009958679,0,3.45074916015004,0.38935016239,0,0.0139421506,0,3.35820033210004,0.59248937755,0,0.0139421506
"30",0,3.42430663785004,0.5078480379,0,0.009958679,0,3.39345702850004,0.35549362653,0,0.0059752074,0,3.32735072275004,0.37242189446,0,0.0079669432,0,3.42430663785004,0.40627843032,0,0.0039834716,0,3.44634207310004,0.30470882274,0,0.0059752074,0,3.50363420475004,0.18621094723,0,0.009958679,0,3.34497907095004,0.47399150204,0,0.009958679,0,3.43752789900004,0.27085228688,0,0.0119504148,0,3.49482003065004,0.37242189446,0,0.009958679,0,3.42871372490004,0.49091976997,0,0.0139421506
"31",0,3.48159876950004,0.42320669825,0,0.009958679,0,3.46837750835004,0.3385653586,0,0.0059752074,0,3.35820033210004,0.35549362653,0,0.0059752074,0,3.46397042130004,0.40627843032,0,0.0019917358,0,3.49041294360004,0.27085228688,0,0.0059752074,0,3.53889090115004,0.20313921516,0,0.009958679,0,3.39345702850004,0.40627843032,0,0.009958679,0,3.47278459540004,0.20313921516,0,0.0119504148,0,3.53448381410004,0.35549362653,0,0.0079669432,0,3.46837750835004,0.47399150204,0,0.009958679
"32",0,3.52566964000004,0.40627843032,0,0.0079669432,0,3.50804129180004,0.27085228688,0,0.0059752074,0,3.39786411555004,0.3385653586,0,0.0079669432,0,3.51685546590004,0.32163709067,0,NA,0,3.55651924935004,0.22006748309,0,0.0059752074,0,3.57855468460004,0.23699575102,0,0.0059752074,0,3.44193498605004,0.40627843032,0,0.0119504148,0,3.51244837885004,0.20313921516,0,0.0119504148,0,3.56974051050004,0.30470882274,0,0.0079669432,0,3.52566964000004,0.42320669825,0,0.0119504148
"33",0,3.57414759755004,0.30470882274,0,0.0059752074,0,3.54770507525004,0.25392401895,0,0.0059752074,0,3.45515624720004,0.35549362653,0,0.0079669432,0,3.55211216230004,0.32163709067,0,NA,0,3.57855468460004,0.23699575102,0,0.0059752074,0,3.64466099035004,0.23699575102,0,0.0039834716,0,3.46837750835004,0.40627843032,0,0.0079669432,0,3.55651924935004,0.20313921516,0,0.0119504148,0,3.63584681625004,0.30470882274,0,0.0079669432,0,3.57414759755004,0.37242189446,0,0.0119504148
"34",0,3.63584681625004,0.22006748309,0,0.0039834716,0,3.60499720690004,0.20313921516,0,0.0079669432,0,3.49922711770004,0.32163709067,0,0.009958679,0,3.60499720690004,0.27085228688,0,0.0019917358,0,3.63584681625004,0.22006748309,0,0.0059752074,0,3.69313894790004,0.22006748309,0,0.0039834716,0,3.48600585655004,0.37242189446,0,0.0059752074,0,3.59618303280004,0.22006748309,0,0.0119504148,0,3.67991768675004,0.28778055481,0,0.0059752074,0,3.64466099035004,0.28778055481,0,0.0119504148
"35",0,3.67110351265004,0.20313921516,0,0.0039834716,0,3.64906807740004,0.20313921516,0,0.0039834716,0,3.53889090115004,0.32163709067,0,0.0119504148,0,3.63584681625004,0.25392401895,0,0.0039834716,0,3.65347516445004,0.23699575102,0,0.0039834716,0,3.71958147020004,0.20313921516,0,0.0019917358,0,3.51685546590004,0.35549362653,0,0.0059752074,0,3.64466099035004,0.20313921516,0,0.0119504148,0,3.71517438315004,0.25392401895,0,0.0059752074,0,3.65788225150004,0.28778055481,0,0.0079669432
"36",0,3.74161690545004,0.18621094723,0,0.0079669432,0,3.68873186085004,0.15235441137,0,0.0039834716,0,3.58736885870004,0.32163709067,0,0.0119504148,0,3.69313894790004,0.22006748309,0,0.0039834716,0,3.68432477380004,0.25392401895,0,0.0059752074,0,3.76805942775004,0.20313921516,0,0.0019917358,0,3.58296177165004,0.35549362653,0,0.0079669432,0,3.66228933855004,0.20313921516,0,0.0139421506,0,3.77246651480004,0.23699575102,0,0.0059752074,0,3.71076729610004,0.28778055481,0,0.0039834716
"37",0,3.77246651480004,0.20313921516,0,0.0079669432,0,3.71517438315004,0.1692826793,0,0.0039834716,0,3.63143972920004,0.32163709067,0,0.0119504148,0,3.75924525365004,0.20313921516,0,0.0039834716,0,3.70636020905004,0.25392401895,0,0.0059752074,0,3.79450195005004,0.18621094723,0,0.0019917358,0,3.60940429395004,0.37242189446,0,0.0059752074,0,3.69313894790004,0.20313921516,0,0.0139421506,0,3.81653738530004,0.22006748309,0,0.0059752074,0,3.73720981840004,0.28778055481,0,0.0059752074
"38",0,3.82975864645004,0.23699575102,0,0.0079669432,0,3.77246651480004,0.18621094723,0,0.0019917358,0,3.69313894790004,0.37242189446,0,0.009958679,0,3.86942242990004,0.1692826793,0,0.0039834716,0,3.80331612415004,0.23699575102,0,0.0059752074,0,3.87382951695004,0.1692826793,0,0.0039834716,0,3.70636020905004,0.37242189446,0,0.0079669432,0,3.76365234070004,0.18621094723,0,0.0119504148,0,3.90467912630004,0.22006748309,0,0.0059752074,0,3.80772321120004,0.28778055481,0,0.0039834716
"39",0,3.86501534285004,0.22006748309,0,0.0079669432,0,3.84297990760004,0.18621094723,0,0.0019917358,0,3.75043107955004,0.38935016239,0,0.009958679,0,3.91349330040004,0.15235441137,0,0.0019917358,0,3.88705077810004,0.22006748309,0,0.0059752074,0,3.95315708385004,0.13542614344,0,0.0039834716,0,3.80331612415004,0.32163709067,0,0.0059752074,0,3.82975864645004,0.18621094723,0,0.009958679,0,3.92671456155004,0.20313921516,0,0.0059752074,0,3.86942242990004,0.23699575102,0,0.0039834716
"40",0,3.90467912630004,0.23699575102,0,0.0059752074,0,3.90908621335004,0.20313921516,0,0.0019917358,0,3.82094447235004,0.44013496618,0,0.0079669432,0,3.96197125795004,0.20313921516,0,0.0019917358,0,3.91349330040004,0.22006748309,0,0.0039834716,0,4.00163504140004,0.11849787551,0,0.0039834716,0,3.86060825580004,0.32163709067,0,0.0019917358,0,3.90027203925004,0.20313921516,0,0.0039834716,0,3.98841378025004,0.18621094723,0,0.0059752074,0,3.93112164860004,0.22006748309,0,0.0019917358
"41",0,3.96637834500004,0.1692826793,0,0.0019917358,0,3.95315708385004,0.20313921516,0,0.0039834716,0,3.90027203925004,0.44013496618,0,0.0059752074,0,4.01485630255003,0.1692826793,0,0.0039834716,0,3.93552873565004,0.22006748309,0,0.0019917358,0,4.03689173780003,0.10156960758,0,0.0039834716,0,3.93993582270004,0.3385653586,0,0.0019917358,0,3.94434290975004,0.18621094723,0,0.0039834716,0,4.06774134715003,0.18621094723,0,0.0059752074,0,3.97959960615004,0.18621094723,0,0.0019917358
"42",0,4.00163504140004,0.15235441137,0,0.0039834716,0,4.00604212845004,0.20313921516,0,0.0019917358,0,3.92230747450004,0.44013496618,0,0.0059752074,0,4.05892717305003,0.15235441137,0,0.0039834716,0,3.98400669320004,0.1692826793,0,0.0019917358,0,4.09859095650003,0.08464133965,0,0.0019917358,0,3.97078543205004,0.3385653586,0,0.0019917358,0,3.99282086730004,0.18621094723,0,0.0039834716,0,4.11181221765003,0.1692826793,0,0.0019917358,0,4.02367047665003,0.18621094723,0,NA
"43",0,4.01044921550004,0.1692826793,0,0.0019917358,0,4.06333426010003,0.18621094723,0,NA,0,3.97519251910004,0.42320669825,0,0.0039834716,0,4.10740513060003,0.15235441137,0,0.0039834716,0,4.02367047665003,0.1692826793,0,NA,0,4.11181221765003,0.10156960758,0,0.0019917358,0,4.01044921550004,0.3385653586,0,0.0019917358,0,4.04570591190003,0.18621094723,0,0.0059752074,0,4.13825473995002,0.1692826793,0,0.0019917358,0,4.07214843420003,0.15235441137,0,NA
"44",0,4.06333426010003,0.15235441137,0,0.0019917358,0,4.09859095650003,0.18621094723,0,NA,0,4.02807756370003,0.40627843032,0,0.0039834716,0,4.12944056585003,0.15235441137,0,0.0019917358,0,4.05011299895003,0.15235441137,0,NA,0,4.12944056585003,0.10156960758,0,0.0019917358,0,4.05892717305003,0.35549362653,0,0.0019917358,0,4.07214843420003,0.18621094723,0,0.0059752074,0,4.16910434930002,0.13542614344,0,NA,0,4.11181221765003,0.11849787551,0,NA
"45",0,4.07214843420003,0.1692826793,0,0.0019917358,0,4.09859095650003,0.20313921516,0,0.0019917358,0,4.07214843420003,0.35549362653,0,NA,0,4.16910434930002,0.15235441137,0,NA,0,4.09418386945003,0.1692826793,0,NA,0,4.17791852340002,0.10156960758,0,0.0039834716,0,4.08096260830003,0.35549362653,0,NA,0,4.09859095650003,0.18621094723,0,0.0059752074,0,4.17791852340002,0.15235441137,0,NA,0,4.13384765290002,0.13542614344,0,0.0019917358
"46",0,4.08536969535003,0.1692826793,0,0.0019917358,0,4.12503347880003,0.18621094723,0,0.0019917358,0,4.07655552125003,0.38935016239,0,NA,0,4.19995395865002,0.13542614344,0,NA,0,4.10740513060003,0.15235441137,0,NA,0,4.19113978455002,0.06771307172,0,0.0039834716,0,4.10299804355003,0.3385653586,0,NA,0,4.12062639175003,0.22006748309,0,0.0059752074,0,4.18232561045002,0.13542614344,0,NA,0,4.13384765290002,0.13542614344,0,0.0019917358
"47",0,4.08536969535003,0.22006748309,0,0.0019917358,0,4.13825473995002,0.20313921516,0,0.0019917358,0,4.07655552125003,0.37242189446,0,NA,0,4.19995395865002,0.15235441137,0,NA,0,4.15588308815002,0.15235441137,0,NA,0,4.21317521980002,0.05078480379,0,0.0039834716,0,4.13384765290002,0.28778055481,0,NA,0,4.13825473995002,0.23699575102,0,0.0039834716,0,4.19995395865002,0.11849787551,0,NA,0,4.16029017520002,0.15235441137,0,0.0019917358
"48",0,4.12503347880003,0.22006748309,0,0.0019917358,0,4.15588308815002,0.20313921516,0,0.0019917358,0,4.08977678240003,0.37242189446,0,NA,0,4.19554687160002,0.15235441137,0,NA,0,4.18232561045002,0.13542614344,0,NA,0,4.20876813275002,0.05078480379,0,0.0059752074,0,4.15588308815002,0.28778055481,0,0.0019917358,0,4.17791852340002,0.25392401895,0,0.0019917358,0,4.19113978455002,0.11849787551,0,NA,0,4.18232561045002,0.13542614344,0,0.0019917358
"49",0,4.13384765290002,0.20313921516,0,0.0019917358,0,4.14266182700002,0.20313921516,0,0.0019917358,0,4.09418386945003,0.35549362653,0,NA,0,4.19113978455002,0.15235441137,0,NA,0,4.18673269750002,0.15235441137,0,NA,0,4.20876813275002,0.05078480379,0,0.0039834716,0,4.16469726225002,0.27085228688,0,0.0019917358,0,4.18673269750002,0.22006748309,0,0.0019917358,0,4.19113978455002,0.15235441137,0,0.0019917358,0,4.19113978455002,0.13542614344,0,0.0019917358
"50",0,4.13825473995002,0.20313921516,0,0.0019917358,0,4.16469726225002,0.1692826793,0,0.0019917358,0,4.10740513060003,0.32163709067,0,0.0019917358,0,4.18232561045002,0.1692826793,0,0.0019917358,0,4.20436104570002,0.13542614344,0,NA,0,4.22198939390002,0.03385653586,0,0.0039834716,0,4.15588308815002,0.28778055481,0,0.0019917358,0,4.18673269750002,0.22006748309,0,0.0039834716,0,4.18673269750002,0.15235441137,0,0.0019917358,0,4.19995395865002,0.11849787551,0,0.0039834716
"51",0,4.14266182700002,0.18621094723,0,0.0019917358,0,4.17351143635002,0.18621094723,0,0.0019917358,0,4.11181221765003,0.30470882274,0,0.0019917358,0,4.19113978455002,0.1692826793,0,0.0019917358,0,4.18673269750002,0.15235441137,0,0.0019917358,0,4.22198939390002,0.05078480379,0,0.0019917358,0,4.15588308815002,0.27085228688,0,0.0019917358,0,4.18673269750002,0.22006748309,0,0.0019917358,0,4.19113978455002,0.15235441137,0,0.0019917358,0,4.21758230685002,0.11849787551,0,0.0019917358
"52",0,4.14266182700002,0.20313921516,0,0.0019917358,0,4.16469726225002,0.1692826793,0,0.0019917358,0,4.10299804355003,0.32163709067,0,0.0019917358,0,4.18673269750002,0.18621094723,0,0.0039834716,0,4.17791852340002,0.20313921516,0,0.0019917358,0,4.21758230685002,0.05078480379,0,0.0019917358,0,4.16469726225002,0.23699575102,0,0.0039834716,0,4.18673269750002,0.23699575102,0,0.0019917358,0,4.18673269750002,0.1692826793,0,0.0019917358,0,4.21758230685002,0.10156960758,0,0.0019917358
"53",0,4.14706891405002,0.18621094723,0,0.0019917358,0,4.16469726225002,0.18621094723,0,0.0059752074,0,4.10740513060003,0.32163709067,0,0.0019917358,0,4.19113978455002,0.1692826793,0,0.0039834716,0,4.18232561045002,0.20313921516,0,0.0019917358,0,4.21758230685002,0.05078480379,0,0.0019917358,0,4.16469726225002,0.23699575102,0,0.0039834716,0,4.19554687160002,0.22006748309,0,0.0019917358,0,4.18673269750002,0.1692826793,0,0.0039834716,0,4.21758230685002,0.10156960758,0,0.0039834716
"54",0,4.13384765290002,0.20313921516,0,0.0019917358,0,4.15588308815002,0.20313921516,0,0.0039834716,0,4.11621930470003,0.27085228688,0,NA,0,4.19995395865002,0.1692826793,0,0.0039834716,0,4.18673269750002,0.20313921516,0,0.0019917358,0,4.21317521980002,0.05078480379,0,0.0019917358,0,4.17351143635002,0.22006748309,0,0.0039834716,0,4.19554687160002,0.22006748309,0,0.0039834716,0,4.18232561045002,0.18621094723,0,0.0059752074,0,4.21317521980002,0.11849787551,0,0.0039834716
"55",0,4.13825473995002,0.20313921516,0,0.0039834716,0,4.16029017520002,0.18621094723,0,0.0039834716,0,4.12503347880003,0.22006748309,0,NA,0,4.21317521980002,0.13542614344,0,0.0019917358,0,4.18232561045002,0.20313921516,0,0.0059752074,0,4.22198939390002,0.06771307172,0,0.0019917358,0,4.17791852340002,0.22006748309,0,0.0039834716,0,4.19995395865002,0.20313921516,0,0.0039834716,0,4.18232561045002,0.18621094723,0,0.0059752074,0,4.20436104570002,0.13542614344,0,0.0039834716
"56",0,4.14706891405002,0.18621094723,0,0.0019917358,0,4.16469726225002,0.18621094723,0,0.0039834716,0,4.12944056585003,0.20313921516,0,NA,0,4.21317521980002,0.11849787551,0,0.0019917358,0,4.18232561045002,0.18621094723,0,0.0059752074,0,4.21758230685002,0.06771307172,0,0.0039834716,0,4.18232561045002,0.20313921516,0,0.0039834716,0,4.20876813275002,0.20313921516,0,0.0039834716,0,4.18232561045002,0.1692826793,0,0.0059752074,0,4.19113978455002,0.15235441137,0,0.0039834716
"57",0,4.14266182700002,0.18621094723,0,0.0019917358,0,4.16469726225002,0.1692826793,0,0.0059752074,0,4.12503347880003,0.22006748309,0,NA,0,4.21317521980002,0.15235441137,0,0.0019917358,0,4.17791852340002,0.18621094723,0,0.0039834716,0,4.21758230685002,0.06771307172,0,0.0059752074,0,4.18232561045002,0.20313921516,0,0.0039834716,0,4.21317521980002,0.20313921516,0,0.0019917358,0,4.16469726225002,0.20313921516,0,0.0059752074,0,4.17351143635002,0.1692826793,0,0.0039834716
"58",0,4.15588308815002,0.1692826793,0,0.0039834716,0,4.16469726225002,0.1692826793,0,0.0059752074,0,4.12944056585003,0.20313921516,0,NA,0,4.20876813275002,0.15235441137,0,0.0019917358,0,4.17351143635002,0.18621094723,0,0.0039834716,0,4.22198939390002,0.06771307172,0,0.0059752074,0,4.18673269750002,0.18621094723,0,0.0059752074,0,4.21758230685002,0.20313921516,0,0.0019917358,0,4.17791852340002,0.1692826793,0,0.0119504148,0,4.16910434930002,0.1692826793,0,0.0059752074
"59",0,4.15147600110002,0.1692826793,0,0.0039834716,0,4.16029017520002,0.1692826793,0,0.0059752074,0,4.13384765290002,0.1692826793,0,0.0019917358,0,4.20876813275002,0.15235441137,0,0.0019917358,0,4.16910434930002,0.20313921516,0,0.0039834716,0,4.21758230685002,0.06771307172,0,0.0039834716,0,4.20876813275002,0.15235441137,0,0.0059752074,0,4.21758230685002,0.18621094723,0,0.0019917358,0,4.16910434930002,0.1692826793,0,0.009958679,0,4.16910434930002,0.1692826793,0,0.0059752074
"60",0,4.15147600110002,0.15235441137,0,0.0019917358,0,4.15147600110002,0.20313921516,0,0.0039834716,0,4.13384765290002,0.1692826793,0,NA,0,4.20876813275002,0.15235441137,0,0.0059752074,0,4.17351143635002,0.18621094723,0,0.0039834716,0,4.21758230685002,0.06771307172,0,0.0019917358,0,4.19995395865002,0.15235441137,0,0.0079669432,0,4.22639648095002,0.15235441137,0,0.0019917358,0,4.17351143635002,0.15235441137,0,0.009958679,0,4.16029017520002,0.15235441137,0,0.0079669432
