"","Early1.ALL","Late1.CLS","Late1.OPN","Mid1.CLS","Mid1.OPN","Early1.ALL.1","Late1.CLS.1","Late1.OPN.1","Mid1.CLS.1","Mid1.OPN.1","Early1.ALL.2","Late1.CLS.2","Late1.OPN.2","Mid1.CLS.2","Mid1.OPN.2","Early1.ALL.3","Late1.CLS.3","Late1.OPN.3","Mid1.CLS.3","Mid1.OPN.3","Early1.ALL.4","Late1.CLS.4","Late1.OPN.4","Mid1.CLS.4","Mid1.OPN.4","Early1.ALL.5","Late1.CLS.5","Late1.OPN.5","Mid1.CLS.5","Mid1.OPN.5","Early1.ALL.6","Late1.CLS.6","Late1.OPN.6","Mid1.CLS.6","Mid1.OPN.6","Early1.ALL.7","Late1.CLS.7","Late1.OPN.7","Mid1.CLS.7","Mid1.OPN.7","Early1.ALL.8","Late1.CLS.8","Late1.OPN.8","Mid1.CLS.8","Mid1.OPN.8","Early1.ALL.9","Late1.CLS.9","Late1.OPN.9","Mid1.CLS.9","Mid1.OPN.9"
"0",2.17178596810748,7.13108853590034,3.35722845063618,0.599544039896708,2.90380138786457,1.98695311975791,8.00991986955004,3.54095737082026,0.560612608734584,2.44124895439942,2.10247364997639,7.58305893606304,3.34052582152854,0.591757753664284,2.64682781371726,2.37972292250075,7.88437253617151,3.07328375580625,0.595650896780496,2.38985423956996,2.12557775602009,7.4072926693331,3.37393107974383,0.613170040803452,2.46694631181415,2.28730649832596,7.25663586927887,3.35722845063618,0.611223469245346,2.49264366922888,2.12557775602009,7.15619800257604,3.50755211260497,0.607330326129133,2.5954330988878,2.28730649832596,7.75882520279298,3.47414685438968,0.558666037176478,2.49264366922888,2.47213934667554,7.35707373598169,3.17349953045211,0.574238609641328,2.95519610269403,2.056265437889,7.45751160268451,3.50755211260497,0.597597468338602,2.49264366922888
"1",1.84832848349573,7.25663586927887,3.39063370885147,0.622902898593983,2.77531460079091,1.87143258953943,8.06013880290145,3.54095737082026,0.583971467431859,2.20997273766684,1.75591205932095,7.8341536028201,3.35722845063618,0.605383754571027,2.56973574147307,2.14868186206379,8.21079560295568,3.10668901402154,0.601490611454815,2.18427538025211,1.73280795327725,7.60816840273875,3.42403896706676,0.642368614175045,2.23567009508157,1.91764080162682,7.48262106936022,3.39063370885147,0.628742613268302,2.38985423956996,1.70970384723355,7.23152640260316,3.50755211260497,0.628742613268302,2.69822252854672,1.80212027140834,8.00991986955004,3.49084948349733,0.580078324315646,2.46694631181415,2.10247364997639,7.55794946938734,3.19020215955976,0.591757753664284,2.90380138786457,1.82522437745204,7.70860626944157,3.52425474171261,0.599544039896708,2.44124895439942
"2",1.64039152910246,7.4072926693331,3.47414685438968,0.648208328849364,2.38985423956996,1.61728742305877,8.23590506963139,3.59106525814318,0.597597468338602,2.05578859317846,1.64039152910246,7.95970093619862,3.40733633795911,0.611223469245346,2.41555159698469,1.80212027140834,8.38656186968562,3.17349953045211,0.617063183919664,2.08148595059319,1.50176689284028,7.98481040287433,3.42403896706676,0.638475471058833,2.15857802283738,1.47866278679659,7.73371573611727,3.4407415961744,0.648208328849364,2.28706480991103,1.22451762031592,7.45751160268451,3.5576599999279,0.646261757291257,2.69822252854672,1.4093504686655,8.16057666960427,3.50755211260497,0.597597468338602,2.49264366922888,1.82522437745204,7.75882520279298,3.2069047886674,0.605383754571027,2.80101195820564,1.57107921097137,7.8592630694958,3.64117314546611,0.615116612361558,2.18427538025211
"3",1.3862463626218,7.55794946938734,3.50755211260497,0.661834329756107,2.28706480991103,1.29382993844701,8.51210920306415,3.62447051635847,0.607330326129133,1.95299916351954,1.4093504686655,8.03502933622574,3.40733633795911,0.636528899500726,2.2613674524963,1.54797510492768,8.7632038698212,3.19020215955976,0.613170040803452,2.004393878349,1.27072583240332,8.18568613627997,3.42403896706676,0.655994615081788,1.97869652093427,1.31693404449071,7.90948200284721,3.45744422528204,0.663780901314213,2.05578859317846,0.924164241747866,7.73371573611727,3.59106525814318,0.657941186639895,2.54403838405834,1.22451762031592,8.3112334696585,3.5576599999279,0.597597468338602,2.46694631181415,1.50176689284028,7.95970093619862,3.24031004688268,0.620956327035877,2.69822252854672,1.27072583240332,7.98481040287433,3.69128103278904,0.63458232794262,2.05578859317846
"4",1.24762172635962,7.70860626944157,3.5576599999279,0.675460330662851,2.03009123576373,1.20141351427223,8.7632038698212,3.69128103278904,0.605383754571027,1.72172294678696,1.10899709009744,8.16057666960427,3.40733633795911,0.655994615081788,2.20997273766684,1.31693404449071,8.98918906990255,3.24031004688268,0.61900975547777,1.87590709127534,0.993476559878956,8.3112334696585,3.49084948349733,0.671567187546638,1.85020973386061,1.06278887801005,8.26101453630709,3.47414685438968,0.663780901314213,1.95299916351954,0.785539605485686,7.88437253617151,3.59106525814318,0.681300045337169,2.23567009508157,1.03968477196635,8.53721866973985,3.57436262903554,0.599544039896708,2.38985423956996,1.31693404449071,8.21079560295568,3.27371530509797,0.63458232794262,2.41555159698469,1.17830940822853,8.21079560295568,3.72468629100433,0.642368614175045,1.77311766161642
"5",0.993476559878956,7.93459146952292,3.5576599999279,0.704658904034444,1.69602558937223,1.08589298405374,8.96407960322685,3.75809154921961,0.603437183012921,1.56753880229858,0.854851923616776,8.43678080303703,3.40733633795911,0.655994615081788,2.20997273766684,1.20141351427223,9.11473640328108,3.25701267599033,0.640422042616939,1.56753880229858,0.785539605485686,8.53721866973985,3.49084948349733,0.671567187546638,1.85020973386061,0.924164241747866,8.46189026971274,3.50755211260497,0.657941186639895,1.92730180610481,0.62381086317981,8.13546720292856,3.60776788725083,0.687139760011488,2.05578859317846,0.924164241747866,8.7380944031455,3.5576599999279,0.60927689768724,2.20997273766684,1.10899709009744,8.46189026971274,3.29041793420561,0.659887758198001,2.03009123576373,0.924164241747866,8.53721866973985,3.74138892011197,0.65015490040747,1.59323615971331
"6",0.831747817573079,8.48699973638844,3.35722845063618,0.700765760918231,1.6703282319575,0.854851923616776,9.39094053671384,3.50755211260497,0.628742613268302,1.43905201522492,0.6931231813109,8.93897013655114,3.27371530509797,0.644315185733151,2.23567009508157,0.993476559878956,9.79269200352513,2.95636535205275,0.648208328849364,1.46474937263965,0.600706757136113,9.34072160336243,3.2069047886674,0.669620615988532,1.69602558937223,0.808643711529383,8.98918906990255,3.34052582152854,0.657941186639895,1.77311766161642,0.508290332961326,8.93897013655114,3.30712056331326,0.677406902220957,1.95299916351954,0.739331393398293,9.1900648033082,3.39063370885147,0.626796041710195,1.97869652093427,0.877956029660473,9.01429853657826,3.05658112669861,0.675460330662851,1.87590709127534,0.739331393398293,9.26539320333531,3.49084948349733,0.661834329756107,1.28486787073654
"7",0.55449854504872,9.1900648033082,3.2069047886674,0.698819189360125,1.51614408746911,0.739331393398293,10.2446624036878,3.12339164312918,0.630689184826408,1.25917051332181,0.62381086317981,9.69225413682231,2.9730679811604,0.640422042616939,2.05578859317846,0.924164241747866,10.2195529370121,2.78933906097633,0.648208328849364,1.36195994298073,0.462082120873933,9.81780147020084,3.05658112669861,0.669620615988532,1.59323615971331,0.577602651092416,9.59181627011949,3.15679690134447,0.654048043523682,1.74742030420169,0.41587390878654,9.51648787009237,3.10668901402154,0.675460330662851,1.79881501903115,0.48518622691763,9.99356773693078,3.07328375580625,0.638475471058833,1.77311766161642,0.6931231813109,9.56670680344378,2.88955483562218,0.673513759104744,1.79881501903115,0.55449854504872,9.91823933690366,3.27371530509797,0.654048043523682,1.25917051332181
"8",0.48518622691763,9.69225413682231,3.07328375580625,0.694926046243913,1.336262585566,0.62381086317981,10.8723990705805,2.8561495774069,0.63458232794262,1.10498636883342,0.438978014830236,10.2195529370121,2.72252854454575,0.683246616895275,1.54184144488384,0.600706757136113,10.9226180039319,2.5053943661464,0.659887758198001,1.28486787073654,0.34656159065545,10.6213044038234,2.80604169008397,0.669620615988532,1.28486787073654,0.55449854504872,10.1944434703364,2.88955483562218,0.65015490040747,1.61893351712804,0.392769802742843,10.0940056036336,2.93966272294511,0.679353473779063,1.43905201522492,0.438978014830236,10.5208665371206,2.8561495774069,0.654048043523682,1.41335465781019,0.62381086317981,10.0688961369579,2.67242065722283,0.679353473779063,1.61893351712804,0.462082120873933,10.6213044038234,2.98977061026804,0.644315185733151,1.20777579849234
"9",0.369665696699146,10.4706476037692,2.68912328633047,0.708552047150656,1.07928901141869,0.55449854504872,11.7512304042302,2.47198910793111,0.63458232794262,0.873710152100845,0.34656159065545,10.8221801372291,2.5053943661464,0.673513759104744,1.49044673005438,0.438978014830236,11.5001357374731,2.37177333328526,0.648208328849364,1.23347315590708,0.300353378568056,11.2741505373918,2.55550225346933,0.675460330662851,0.976499581759768,0.438978014830236,10.7468517372019,2.72252854454575,0.655994615081788,1.36195994298073,0.300353378568056,10.7719612038777,2.65571802811518,0.692979474685806,1.10498636883342,0.254145166480663,10.997946403959,2.65571802811518,0.669620615988532,1.23347315590708,0.392769802742843,10.6966328038505,2.47198910793111,0.694926046243913,1.336262585566,0.34656159065545,11.2741505373918,2.78933906097633,0.63458232794262,1.10498636883342
"10",0.34656159065545,11.1988221373646,2.35507070417762,0.714391761824975,0.796618079856653,0.48518622691763,12.3287481377714,2.2715575586394,0.628742613268302,0.745223365027191,0.27724927252436,11.3494789374189,2.28826018774705,0.694926046243913,1.07928901141869,0.300353378568056,12.1529818710415,2.1546391548859,0.644315185733151,1.10498636883342,0.184832848349573,12.0023250709872,2.22144967131648,0.675460330662851,0.873710152100845,0.254145166480663,11.4750262707974,2.45528647882347,0.673513759104744,1.0021969391745,0.27724927252436,11.7261209375545,2.22144967131648,0.692979474685806,0.822315437271384,0.20793695439327,11.4499168041217,2.5053943661464,0.677406902220957,0.950802224345037,0.34656159065545,11.2239316040404,2.23815230042412,0.700765760918231,1.13068372624815,0.34656159065545,12.1278724043658,2.42188122060819,0.630689184826408,0.848012794686114
"11",0.231041060436967,11.8014493375816,2.12123389667062,0.720231476499293,0.591039220538807,0.392769802742843,12.7807185379341,2.08782863845533,0.636528899500726,0.565341863124076,0.254145166480663,11.8265588042573,2.13793652577826,0.712445190266869,0.616736577953538,0.20793695439327,12.6300617378799,1.93750497648655,0.669620615988532,0.719526007612461,0.184832848349573,12.5798428045285,1.95420760559419,0.694926046243913,0.436855076050423,0.184832848349573,12.0023250709872,2.28826018774705,0.683246616895275,0.668131292782999,0.231041060436967,12.2032008043929,2.02101812202476,0.70660547559255,0.513947148294615,0.161728742305877,12.0776534710143,2.2715575586394,0.687139760011488,0.591039220538807,0.323457484611753,11.6759020042031,2.12123389667062,0.708552047150656,0.770920722441922,0.231041060436967,12.7304996045827,2.25485492953176,0.626796041710195,0.668131292782999
"12",0.184832848349573,12.4040765377985,2.02101812202476,0.687139760011488,0.616736577953538,0.323457484611753,13.2326889380968,1.92080234737891,0.632635756384514,0.488249790879884,0.254145166480663,12.3789670711228,1.92080234737891,0.696872617802019,0.591039220538807,0.20793695439327,13.3080173381239,1.67026291076427,0.655994615081788,0.616736577953538,0.161728742305877,13.2829078714482,1.68696553987191,0.679353473779063,0.35976300380623,0.13862463626218,12.5547333378527,2.05442338024005,0.671567187546638,0.668131292782999,0.231041060436967,12.8058280046098,1.78718131451777,0.696872617802019,0.385460361220961,0.161728742305877,12.5798428045285,2.07112600934769,0.683246616895275,0.436855076050423,0.20793695439327,12.4040765377985,1.88739708916362,0.694926046243913,0.69382865019773,0.231041060436967,13.3331268047996,2.02101812202476,0.611223469245346,0.616736577953538
"13",0.0924164241747866,12.9062658713126,1.80388394362541,0.687139760011488,0.539644505709346,0.254145166480663,13.9608634716923,1.62015502344134,0.615116612361558,0.513947148294615,0.231041060436967,12.705390137907,1.78718131451777,0.6910329031277,0.565341863124076,0.184832848349573,13.985972938368,1.41972347414963,0.644315185733151,0.488249790879884,0.13862463626218,13.6595498715838,1.4865339905802,0.675460330662851,0.35976300380623,0.115520530218483,12.9313753379883,1.90409971827127,0.66572747287232,0.616736577953538,0.231041060436967,13.1824700047454,1.63685765254898,0.6910329031277,0.308368288976769,0.161728742305877,13.2075794714211,1.8372892018407,0.663780901314213,0.411157718635692,0.20793695439327,13.1573605380697,1.6034523943337,0.677406902220957,0.591039220538807,0.231041060436967,13.8353161383137,1.8372892018407,0.603437183012921,0.488249790879884
"14",0.0693123181310899,13.5088930715296,1.67026291076427,0.673513759104744,0.3340656463915,0.27724927252436,14.5634906719092,1.38631821593435,0.591757753664284,0.539644505709346,0.27724927252436,13.3582362714753,1.6034523943337,0.663780901314213,0.488249790879884,0.20793695439327,14.9401326720448,1.13577877931971,0.605383754571027,0.436855076050423,0.13862463626218,14.3375054718278,1.40302084504199,0.63458232794262,0.3340656463915,0.13862463626218,13.6344404049081,1.63685765254898,0.646261757291257,0.539644505709346,0.231041060436967,13.810206671638,1.43642610325727,0.667674044430426,0.282670931562038,0.161728742305877,13.8604256049894,1.62015502344134,0.644315185733151,0.3340656463915,0.231041060436967,13.9106445383409,1.31950769950378,0.648208328849364,0.616736577953538,0.184832848349573,14.3877244051793,1.62015502344134,0.587864610548071,0.513947148294615
"15",0.0924164241747866,14.0864108050708,1.51993924879549,0.644315185733151,0.3340656463915,0.300353378568056,14.9652421387205,1.28610244128849,0.580078324315646,0.411157718635692,0.254145166480663,13.810206671638,1.51993924879549,0.642368614175045,0.462552433465153,0.161728742305877,15.3418841388561,1.00215774645856,0.597597468338602,0.385460361220961,0.115520530218483,14.9401326720448,1.23599455396556,0.615116612361558,0.256973574147307,0.13862463626218,14.2119581384493,1.43642610325727,0.644315185733151,0.282670931562038,0.20793695439327,14.5383812052335,1.13577877931971,0.654048043523682,0.205578859317846,0.161728742305877,14.4379433385307,1.41972347414963,0.626796041710195,0.282670931562038,0.231041060436967,14.2872865384764,1.13577877931971,0.646261757291257,0.539644505709346,0.184832848349573,14.8899137386934,1.41972347414963,0.572292038083222,0.513947148294615
"16",0.13862463626218,14.5383812052335,1.31950769950378,0.630689184826408,0.308368288976769,0.231041060436967,15.7436356056674,1.01886037556621,0.56255918029269,0.3340656463915,0.231041060436967,14.6388190719363,1.15248140842735,0.628742613268302,0.385460361220961,0.161728742305877,15.8440734723702,0.751618309843923,0.589811182106177,0.35976300380623,0.13862463626218,15.5929788056131,0.968752488243278,0.595650896780496,0.231276216732577,0.161728742305877,14.9401326720448,1.06896826288913,0.628742613268302,0.282670931562038,0.20793695439327,15.2163368054775,0.835131455382136,0.636528899500726,0.205578859317846,0.13862463626218,14.7643664053148,1.2526971830732,0.624849470152089,0.256973574147307,0.254145166480663,14.8648042720177,0.885239342705065,0.63458232794262,0.462552433465153,0.20793695439327,15.6180882722888,1.11907615021206,0.550879750944053,0.488249790879884
"17",0.161728742305877,14.9652421387205,1.21929192485792,0.613170040803452,0.231276216732577,0.184832848349573,16.1704965391543,1.00215774645856,0.545040036269735,0.205578859317846,0.20793695439327,14.9150232053691,1.10237352110442,0.624849470152089,0.256973574147307,0.161728742305877,16.0951681391272,0.701510422520995,0.580078324315646,0.308368288976769,0.161728742305877,16.0449492057758,0.901941971812707,0.566452323408903,0.231276216732577,0.115520530218483,15.2916652055047,1.01886037556621,0.615116612361558,0.231276216732577,0.184832848349573,15.5929788056131,0.785023568059208,0.61900975547777,0.154184144488384,0.0924164241747866,15.0405705387476,1.16918403753499,0.61900975547777,0.231276216732577,0.254145166480663,15.2163368054775,0.785023568059208,0.622902898593983,0.411157718635692,0.20793695439327,15.8942924057216,1.06896826288913,0.53725375003731,0.462552433465153
"18",0.184832848349573,15.2414462721532,1.13577877931971,0.603437183012921,0.179881501903115,0.161728742305877,16.4467006725871,0.935347230027993,0.535307178479204,0.179881501903115,0.254145166480663,15.2414462721532,1.00215774645856,0.60927689768724,0.231276216732577,0.161728742305877,16.3211533392085,0.684807793413352,0.566452323408903,0.282670931562038,0.161728742305877,16.3462628058843,0.868536713597422,0.552826322502159,0.154184144488384,0.115520530218483,15.6934166723159,0.935347230027993,0.595650896780496,0.205578859317846,0.13862463626218,15.9194018723973,0.701510422520995,0.60927689768724,0.128486787073654,0.115520530218483,15.6180882722888,1.06896826288913,0.585918038989965,0.205578859317846,0.231041060436967,15.5678693389374,0.718213051628637,0.603437183012921,0.436855076050423,0.254145166480663,16.0951681391272,1.00215774645856,0.531414035362991,0.385460361220961
"19",0.161728742305877,15.7185261389917,1.05226563378149,0.580078324315646,0.154184144488384,0.161728742305877,16.6726858726684,0.868536713597422,0.527520892246779,0.154184144488384,0.27724927252436,15.5427598722617,0.952049859135636,0.591757753664284,0.205578859317846,0.20793695439327,16.5722480059656,0.651402535198066,0.550879750944053,0.231276216732577,0.184832848349573,16.5722480059656,0.851834084489779,0.535307178479204,0.154184144488384,0.115520530218483,16.0951681391272,0.818428826274494,0.580078324315646,0.179881501903115,0.184832848349573,16.1202776058029,0.684807793413352,0.59370432522239,0.102789429658923,0.0693123181310899,15.8440734723702,0.985455117350921,0.580078324315646,0.231276216732577,0.27724927252436,15.7185261389917,0.634699906090424,0.599544039896708,0.411157718635692,0.27724927252436,16.3964817392357,0.968752488243278,0.511948319781929,0.35976300380623
"20",0.161728742305877,16.1453870724786,0.985455117350921,0.556719465618372,0.128486787073654,0.184832848349573,16.9488900061011,0.801726197166851,0.510001748223823,0.179881501903115,0.27724927252436,15.9696208057487,0.851834084489779,0.570345466525115,0.205578859317846,0.20793695439327,16.873561606074,0.651402535198066,0.535307178479204,0.128486787073654,0.184832848349573,16.8484521393983,0.785023568059208,0.523627749130566,0.128486787073654,0.115520530218483,16.3964817392357,0.785023568059208,0.566452323408903,0.102789429658923,0.20793695439327,16.5220290726142,0.634699906090424,0.564505751850797,0.128486787073654,0.0462082120873933,16.2960438725328,0.885239342705065,0.560612608734584,0.205578859317846,0.231041060436967,16.2709344058571,0.567889389659853,0.570345466525115,0.385460361220961,0.254145166480663,16.7480142726955,0.835131455382136,0.504162033549504,0.3340656463915
"21",0.231041060436967,16.5220290726142,0.901941971812707,0.533360606921097,0.102789429658923,0.161728742305877,17.2753130728853,0.768320938951566,0.496375747317079,0.102789429658923,0.300353378568056,16.4969196059385,0.768320938951566,0.53725375003731,0.205578859317846,0.184832848349573,17.1999846728582,0.651402535198066,0.513894891340035,0.102789429658923,0.20793695439327,17.300422539561,0.751618309843923,0.492482604200867,0.102789429658923,0.115520530218483,16.7731237393712,0.684807793413352,0.548933179385947,0.102789429658923,0.20793695439327,16.873561606074,0.617997276982781,0.539200321595416,0.128486787073654,0.0693123181310899,16.7480142726955,0.768320938951566,0.539200321595416,0.179881501903115,0.20793695439327,16.6475764059927,0.55118676055221,0.552826322502159,0.282670931562038,0.231041060436967,17.2250941395339,0.751618309843923,0.484696317968442,0.256973574147307
"22",0.231041060436967,16.873561606074,0.868536713597422,0.513894891340035,0.0513947148294615,0.161728742305877,17.6017361396694,0.668105164305709,0.48080317485223,0.128486787073654,0.254145166480663,16.9237805394254,0.617997276982781,0.531414035362991,0.128486787073654,0.184832848349573,17.5012982729666,0.55118676055221,0.504162033549504,0.0770920722441922,0.184832848349573,17.551517206318,0.73491568073628,0.476910031736017,0.102789429658923,0.115520530218483,16.9991089394526,0.651402535198066,0.53725375003731,0.0770920722441922,0.184832848349573,17.1497657395068,0.617997276982781,0.519734606014354,0.128486787073654,0.0693123181310899,16.9991089394526,0.768320938951566,0.517788034456248,0.205578859317846,0.254145166480663,16.9488900061011,0.501078873229282,0.53725375003731,0.205578859317846,0.20793695439327,17.6017361396694,0.651402535198066,0.471070317061699,0.231276216732577
"23",0.254145166480663,17.3506414729124,0.768320938951566,0.484696317968442,0.0770920722441922,0.161728742305877,17.9030497397779,0.601294647875138,0.463284030829274,0.154184144488384,0.254145166480663,17.3506414729124,0.534484131444567,0.510001748223823,0.102789429658923,0.254145166480663,17.8779402731022,0.484376244121639,0.476910031736017,0.0770920722441922,0.161728742305877,17.9030497397779,0.718213051628637,0.455497744596849,0.0770920722441922,0.115520530218483,17.3506414729124,0.584592018767496,0.52168117757246,0.0256973574147307,0.161728742305877,17.4259698729395,0.567889389659853,0.500268890433292,0.205578859317846,0.0693123181310899,17.2753130728853,0.73491568073628,0.504162033549504,0.154184144488384,0.254145166480663,17.3255320062367,0.484376244121639,0.510001748223823,0.205578859317846,0.231041060436967,17.9030497397779,0.601294647875138,0.453551173038743,0.205578859317846
"24",0.254145166480663,17.5766266729937,0.785023568059208,0.467177173945486,0.0513947148294615,0.161728742305877,18.1290349398592,0.55118676055221,0.451604601480637,0.154184144488384,0.20793695439327,17.6519550730209,0.484376244121639,0.494429175758973,0.128486787073654,0.231041060436967,18.4805674733191,0.384160469475783,0.443818315248212,0.0770920722441922,0.161728742305877,18.405239073292,0.634699906090424,0.428245742783362,0.0513947148294615,0.0924164241747866,17.6519550730209,0.534484131444567,0.50610860510761,0.0256973574147307,0.184832848349573,17.6268456063452,0.534484131444567,0.484696317968442,0.231276216732577,0.0924164241747866,17.727283473048,0.517781502336925,0.494429175758973,0.128486787073654,0.254145166480663,17.7523929397237,0.400863098583426,0.486642889526548,0.205578859317846,0.231041060436967,18.2796917399135,0.517781502336925,0.436032029015787,0.179881501903115
"25",0.231041060436967,17.978378139805,0.701510422520995,0.445764886806318,0.0770920722441922,0.231041060436967,18.2796917399135,0.55118676055221,0.437978600573893,0.102789429658923,0.20793695439327,18.0034876064807,0.417565727691068,0.478856603294123,0.0770920722441922,0.231041060436967,18.7316621400761,0.317349953045212,0.432138885899574,0.0770920722441922,0.184832848349573,18.6814432067247,0.55118676055221,0.414619741876619,0.0513947148294615,0.115520530218483,17.9030497397779,0.434268356798711,0.498322318875186,NA,0.184832848349573,17.9030497397779,0.467673615013996,0.471070317061699,0.231276216732577,0.115520530218483,18.1039254731835,0.467673615013996,0.469123745503592,0.128486787073654,0.231041060436967,18.1792538732106,0.317349953045212,0.46523060238738,0.205578859317846,0.231041060436967,18.5056769399948,0.501078873229282,0.426299171225256,0.102789429658923
"26",0.231041060436967,18.3299106732649,0.617997276982781,0.426299171225256,0.102789429658923,0.254145166480663,18.656333740049,0.484376244121639,0.416566313434725,0.0770920722441922,0.27724927252436,18.3299106732649,0.36745784036814,0.453551173038743,0.0770920722441922,0.254145166480663,19.0580852068603,0.267242065722284,0.412673170318512,0.0513947148294615,0.184832848349573,18.8572094734546,0.534484131444567,0.402940312527981,0.0513947148294615,0.115520530218483,18.1792538732106,0.400863098583426,0.48080317485223,NA,0.161728742305877,18.1290349398592,0.434268356798711,0.457444316154955,0.256973574147307,0.13862463626218,18.5307864066705,0.417565727691068,0.441871743690106,0.102789429658923,0.184832848349573,18.5056769399948,0.334052582152855,0.445764886806318,0.154184144488384,0.254145166480663,18.7567716067518,0.450970985906354,0.412673170318512,0.0770920722441922
"27",0.254145166480663,18.7316621400761,0.55118676055221,0.400993740969875,0.102789429658923,0.254145166480663,18.9325378734818,0.450970985906354,0.399047169411769,0.0770920722441922,0.27724927252436,18.4805674733191,0.350755211260497,0.441871743690106,0.102789429658923,0.300353378568056,19.334289340293,0.267242065722284,0.387367740063132,0.0513947148294615,0.161728742305877,19.0580852068603,0.501078873229282,0.397100597853663,NA,0.0924164241747866,18.6814432067247,0.36745784036814,0.445764886806318,0.0256973574147307,0.184832848349573,18.4805674733191,0.417565727691068,0.434085457457681,0.205578859317846,0.161728742305877,18.7567716067518,0.400863098583426,0.42435259966715,0.102789429658923,0.184832848349573,18.7567716067518,0.334052582152855,0.430192314341468,0.102789429658923,0.254145166480663,18.9576473401575,0.450970985906354,0.399047169411769,0.0513947148294615
"28",0.184832848349573,19.0580852068603,0.467673615013996,0.391260883179344,0.102789429658923,0.254145166480663,19.2087420069145,0.450970985906354,0.377634882272601,0.0770920722441922,0.254145166480663,18.7567716067518,0.334052582152855,0.42435259966715,0.102789429658923,0.300353378568056,19.5100556070229,0.283944694829926,0.369848596040176,0.0770920722441922,0.13862463626218,19.2589609402659,0.501078873229282,0.383474596946919,NA,0.115520530218483,19.1083041402117,0.334052582152855,0.414619741876619,0.0256973574147307,0.20793695439327,18.7316621400761,0.400863098583426,0.412673170318512,0.231276216732577,0.161728742305877,19.1836325402388,0.283944694829926,0.406833455644194,0.0770920722441922,0.184832848349573,18.8572094734546,0.300647323937569,0.42435259966715,0.128486787073654,0.254145166480663,19.3091798736173,0.384160469475783,0.377634882272601,0.0770920722441922
"29",0.161728742305877,19.3845082736444,0.434268356798711,0.36790202448207,0.154184144488384,0.27724927252436,19.5602745403743,0.400863098583426,0.354276023575326,0.0770920722441922,0.27724927252436,18.9576473401575,0.300647323937569,0.416566313434725,0.0256973574147307,0.27724927252436,19.8866976071585,0.233836807506998,0.346489737342901,0.102789429658923,0.13862463626218,19.4849461403472,0.501078873229282,0.365955452923963,NA,0.115520530218483,19.334289340293,0.300647323937569,0.400993740969875,0.0256973574147307,0.254145166480663,19.0078662735089,0.36745784036814,0.395154026295557,0.179881501903115,0.20793695439327,19.5351650736986,0.250539436614641,0.379581453830707,0.0770920722441922,0.161728742305877,19.1334136068874,0.283944694829926,0.4087800272023,0.102789429658923,0.184832848349573,19.6104934737258,0.350755211260497,0.360115738249645,0.128486787073654
"30",0.161728742305877,19.5351650736986,0.417565727691068,0.358169166691539,0.154184144488384,0.231041060436967,19.8866976071585,0.350755211260497,0.338703451110476,0.0770920722441922,0.27724927252436,19.2087420069145,0.283944694829926,0.399047169411769,0.0256973574147307,0.27724927252436,20.1126828072398,0.217134178399355,0.332863736436158,0.0770920722441922,0.13862463626218,19.7360408071043,0.501078873229282,0.346489737342901,NA,0.0924164241747866,19.7109313404286,0.250539436614641,0.379581453830707,0.0256973574147307,0.27724927252436,19.1836325402388,0.334052582152855,0.385421168505025,0.154184144488384,0.20793695439327,19.76115027378,0.217134178399355,0.365955452923963,0.0770920722441922,0.184832848349573,19.4347272069958,0.267242065722284,0.387367740063132,0.0770920722441922,0.161728742305877,19.8866976071585,0.334052582152855,0.338703451110476,0.179881501903115
"31",0.115520530218483,19.8866976071585,0.417565727691068,0.33675687955237,0.128486787073654,0.254145166480663,20.0624638738884,0.350755211260497,0.323130878645627,0.0770920722441922,0.231041060436967,19.4598366736715,0.283944694829926,0.381528025388813,0.0513947148294615,0.27724927252436,20.1880112072669,0.250539436614641,0.325077450203733,0.0513947148294615,0.0924164241747866,20.012244940537,0.434268356798711,0.334810307994264,0.0256973574147307,0.0924164241747866,19.8615881404828,0.250539436614641,0.369848596040176,NA,0.231041060436967,19.6607124070772,0.317349953045212,0.350382880459114,0.205578859317846,0.184832848349573,20.1880112072669,0.217134178399355,0.334810307994264,0.0770920722441922,0.13862463626218,19.8113692071314,0.233836807506998,0.365955452923963,0.0770920722441922,0.161728742305877,20.0373544072127,0.350755211260497,0.325077450203733,0.179881501903115
"32",0.13862463626218,20.1126828072398,0.384160469475783,0.321184307087521,0.128486787073654,0.254145166480663,20.3135585406455,0.334052582152855,0.305611734622671,0.0770920722441922,0.231041060436967,19.9118070738342,0.250539436614641,0.350382880459114,0.0513947148294615,0.27724927252436,20.3386680073212,0.250539436614641,0.313398020855096,0.0513947148294615,0.0924164241747866,20.2884490739698,0.417565727691068,0.317291163971308,NA,0.115520530218483,20.0875733405641,0.250539436614641,0.350382880459114,NA,0.231041060436967,19.9369165405099,0.267242065722284,0.334810307994264,0.205578859317846,0.184832848349573,20.4893248073754,0.217134178399355,0.313398020855096,0.0513947148294615,0.161728742305877,20.1126828072398,0.200431549291713,0.344543165784795,0.0770920722441922,0.161728742305877,20.3888869406726,0.350755211260497,0.299772019948352,0.154184144488384
"33",0.13862463626218,20.2382301406184,0.36745784036814,0.311451449296989,0.154184144488384,0.300353378568056,20.4893248073754,0.317349953045212,0.291985733715928,0.0513947148294615,0.231041060436967,20.3888869406726,0.250539436614641,0.315344592413202,0.0256973574147307,0.231041060436967,20.439105874024,0.250539436614641,0.309504877738883,0.0513947148294615,0.115520530218483,20.5897626740782,0.384160469475783,0.29587887683214,NA,0.161728742305877,20.5395437407268,0.233836807506998,0.313398020855096,NA,0.27724927252436,20.1126828072398,0.283944694829926,0.319237735529414,0.154184144488384,0.184832848349573,20.7906384074838,0.200431549291713,0.293932305274034,0.0256973574147307,0.115520530218483,20.3637774739969,0.200431549291713,0.328970593319945,0.0770920722441922,0.161728742305877,20.6399816074296,0.317349953045212,0.286146019041609,0.128486787073654
"34",0.13862463626218,20.3637774739969,0.384160469475783,0.301718591506459,0.128486787073654,0.300353378568056,20.6650910741053,0.334052582152855,0.276413161251078,0.0513947148294615,0.231041060436967,20.690200540781,0.217134178399355,0.293932305274034,0.0513947148294615,0.300353378568056,20.6399816074296,0.233836807506998,0.290039162157821,0.0513947148294615,0.115520530218483,20.865966807511,0.350755211260497,0.276413161251078,0.0256973574147307,0.20793695439327,20.7655289408081,0.200431549291713,0.29587887683214,NA,0.300353378568056,20.439105874024,0.283944694829926,0.293932305274034,0.128486787073654,0.184832848349573,21.0417330742409,0.200431549291713,0.274466589692972,0.0256973574147307,0.13862463626218,20.5646532074025,0.18372892018407,0.311451449296989,0.102789429658923,0.254145166480663,20.8157478741595,0.300647323937569,0.27057344657676,0.0770920722441922
"35",0.13862463626218,20.7655289408081,0.334052582152855,0.278359732809184,0.102789429658923,0.254145166480663,20.9161857408624,0.283944694829926,0.268626875018654,0.0256973574147307,0.231041060436967,20.7906384074838,0.250539436614641,0.282252875925397,0.0513947148294615,0.323457484611753,20.8408573408352,0.200431549291713,0.276413161251078,0.0513947148294615,0.0924164241747866,21.117061474268,0.334052582152855,0.260840588786229,0.0256973574147307,0.231041060436967,21.0166236075652,0.200431549291713,0.274466589692972,NA,0.323457484611753,20.7906384074838,0.267242065722284,0.268626875018654,0.102789429658923,0.161728742305877,21.2928277409979,0.200431549291713,0.256947445670016,0.0256973574147307,0.20793695439327,20.7655289408081,0.18372892018407,0.291985733715928,0.0770920722441922,0.254145166480663,21.0919520075923,0.283944694829926,0.251107730995698,0.0770920722441922
"36",0.13862463626218,20.9915141408895,0.317349953045212,0.262787160344335,0.102789429658923,0.323457484611753,21.0166236075652,0.283944694829926,0.25500087411191,0.0256973574147307,0.161728742305877,21.1923898742951,0.250539436614641,0.256947445670016,0.0513947148294615,0.27724927252436,21.0919520075923,0.200431549291713,0.258894017228123,0.0770920722441922,0.0462082120873933,21.4937034744035,0.317349953045212,0.237481730088955,0.0256973574147307,0.231041060436967,21.2677182743222,0.167026291076427,0.258894017228123,NA,0.34656159065545,21.117061474268,0.217134178399355,0.249161159437592,0.0770920722441922,0.161728742305877,21.4937034744035,0.167026291076427,0.245268016321379,0.0256973574147307,0.20793695439327,20.8910762741867,0.200431549291713,0.282252875925397,0.0513947148294615,0.231041060436967,21.2677182743222,0.250539436614641,0.243321444763273,0.0770920722441922
"37",0.13862463626218,21.2928277409979,0.317349953045212,0.243321444763273,0.0513947148294615,0.323457484611753,21.2928277409979,0.283944694829926,0.233588586972742,0.0256973574147307,0.13862463626218,21.3932656077007,0.233836807506998,0.245268016321379,0.0513947148294615,0.254145166480663,21.1672804076194,0.200431549291713,0.25500087411191,0.0770920722441922,0.0462082120873933,21.795017074512,0.267242065722284,0.219962586065999,0.0256973574147307,0.254145166480663,21.543922407755,0.133621032861142,0.239428301647061,NA,0.392769802742843,21.3932656077007,0.18372892018407,0.227748872298424,0.0770920722441922,0.20793695439327,21.6192508077821,0.167026291076427,0.233588586972742,NA,0.231041060436967,21.1672804076194,0.18372892018407,0.260840588786229,0.0513947148294615,0.254145166480663,21.6694697411335,0.250539436614641,0.212176299833574,0.0513947148294615
"38",0.20793695439327,21.8703454745391,0.300647323937569,0.194657155810619,0.0513947148294615,0.34656159065545,21.7196886744849,0.217134178399355,0.206336585159256,0.0256973574147307,0.13862463626218,21.9205644078905,0.217134178399355,0.206336585159256,0.0513947148294615,0.254145166480663,21.5941413411064,0.200431549291713,0.221909157624105,0.0770920722441922,0.0693123181310899,22.2972064080261,0.250539436614641,0.181031154903876,0.0256973574147307,0.254145166480663,22.1465496079718,0.100215774645856,0.196603727368725,NA,0.41587390878654,21.8452360078634,0.18372892018407,0.190764012694407,0.0770920722441922,0.161728742305877,22.2720969413504,0.150323661968785,0.1888174411363,NA,0.20793695439327,21.6192508077821,0.167026291076427,0.22969544385653,0.0513947148294615,0.254145166480663,21.795017074512,0.267242065722284,0.200496870484937,0.0513947148294615
"39",0.20793695439327,22.1716590746476,0.300647323937569,0.171298297113345,0.0513947148294615,0.41587390878654,21.8954549412148,0.217134178399355,0.186870869578194,0.0256973574147307,0.0924164241747866,22.1214401412961,0.200431549291713,0.198550298926831,0.0256973574147307,0.254145166480663,21.8954549412148,0.217134178399355,0.196603727368725,0.0770920722441922,0.0924164241747866,22.4980821414317,0.267242065722284,0.161565439322814,0.0256973574147307,0.27724927252436,22.6487389414859,0.116918403753499,0.153779153090389,NA,0.392769802742843,22.3474253413775,0.200431549291713,0.153779153090389,0.0513947148294615,0.13862463626218,22.6738484081616,0.150323661968785,0.159618867764708,NA,0.20793695439327,21.8954549412148,0.18372892018407,0.206336585159256,0.0513947148294615,0.323457484611753,22.0712212079447,0.267242065722284,0.175191440229557,0.0256973574147307
"40",0.184832848349573,22.4478632080803,0.267242065722284,0.155725724648495,0.0513947148294615,0.462082120873933,22.2972064080261,0.18372892018407,0.157672296206602,NA,0.115520530218483,22.3474253413775,0.167026291076427,0.182977726461982,0.0256973574147307,0.27724927252436,22.1967685413233,0.217134178399355,0.173244868671451,0.0513947148294615,0.115520530218483,22.6989578748373,0.283944694829926,0.142099723741752,0.0256973574147307,0.300353378568056,22.7993957415401,0.116918403753499,0.140153152183646,NA,0.41587390878654,22.6487389414859,0.200431549291713,0.126527151276903,0.0770920722441922,0.300353378568056,22.7993957415401,0.133621032861142,0.13820658062554,NA,0.20793695439327,22.1967685413233,0.167026291076427,0.184924298020088,0.0513947148294615,0.27724927252436,22.4227537414046,0.250539436614641,0.153779153090389,0.0256973574147307
"41",0.20793695439327,22.6738484081616,0.283944694829926,0.136260009067433,0.0256973574147307,0.462082120873933,22.3474253413775,0.217134178399355,0.147939438416071,0.0256973574147307,0.161728742305877,22.5985200081345,0.18372892018407,0.157672296206602,0.0256973574147307,0.254145166480663,22.472972674756,0.200431549291713,0.153779153090389,0.0770920722441922,0.13862463626218,22.9249430749187,0.283944694829926,0.120687436602584,0.0513947148294615,0.300353378568056,23.0755998749729,0.100215774645856,0.120687436602584,NA,0.392769802742843,22.9751620082701,0.18372892018407,0.105114864137734,0.0770920722441922,0.323457484611753,22.9751620082701,0.133621032861142,0.120687436602584,0.0256973574147307,0.254145166480663,22.4478632080803,0.200431549291713,0.161565439322814,NA,0.27724927252436,22.6236294748102,0.267242065722284,0.136260009067433,0.0256973574147307
"42",0.254145166480663,22.8496146748916,0.283944694829926,0.118740865044478,0.0256973574147307,0.438978014830236,22.5231916081074,0.200431549291713,0.136260009067433,0.0513947148294615,0.161728742305877,22.8245052082159,0.18372892018407,0.140153152183646,0.0256973574147307,0.27724927252436,22.5985200081345,0.200431549291713,0.142099723741752,0.0770920722441922,0.161728742305877,23.1760377416757,0.300647323937569,0.0973285779053096,0.0513947148294615,0.323457484611753,23.3015850750542,0.100215774645856,0.101221721021522,NA,0.369665696699146,23.1760377416757,0.167026291076427,0.091488863230991,0.102789429658923,0.34656159065545,23.150928275,0.100215774645856,0.107061435695841,0.0513947148294615,0.184832848349573,22.6738484081616,0.217134178399355,0.145992866857964,0.0256973574147307,0.27724927252436,22.8747241415673,0.200431549291713,0.124580579718796,0.0256973574147307
"43",0.231041060436967,23.0755998749729,0.267242065722284,0.107061435695841,NA,0.41587390878654,22.7491768081887,0.200431549291713,0.118740865044478,0.0770920722441922,0.184832848349573,23.0755998749729,0.167026291076427,0.12263400816069,NA,0.27724927252436,22.7742862748644,0.200431549291713,0.128473722835009,0.0770920722441922,0.184832848349573,23.3266945417299,0.317349953045212,0.0837025769985663,0.0256973574147307,0.369665696699146,23.3266945417299,0.100215774645856,0.0953820063472034,NA,0.27724927252436,23.3769134750813,0.150323661968785,0.0895422916728848,0.0513947148294615,0.369665696699146,23.2764756083785,0.100215774645856,0.0953820063472034,0.0513947148294615,0.231041060436967,22.7742862748644,0.233836807506998,0.132366865951221,0.0256973574147307,0.27724927252436,23.1760377416757,0.18372892018407,0.103168292579628,0.0256973574147307
"44",0.20793695439327,23.3518040084056,0.233836807506998,0.091488863230991,NA,0.392769802742843,22.8747241415673,0.200431549291713,0.110954578812053,0.0770920722441922,0.231041060436967,23.150928275,0.18372892018407,0.110954578812053,NA,0.300353378568056,22.7993957415401,0.217134178399355,0.126527151276903,0.0256973574147307,0.184832848349573,23.5275702751356,0.300647323937569,0.0700765760918229,0.0256973574147307,0.300353378568056,23.5275702751356,0.116918403753499,0.0817560054404601,0.0256973574147307,0.254145166480663,23.4522418751084,0.133621032861142,0.0875957201147786,0.0513947148294615,0.34656159065545,23.5275702751356,0.116918403753499,0.0759162907661415,0.0513947148294615,0.20793695439327,23.1007093416486,0.217134178399355,0.110954578812053,0.0256973574147307,0.20793695439327,23.3266945417299,0.167026291076427,0.0992751494634158,0.0256973574147307
"45",0.20793695439327,23.5275702751356,0.250539436614641,0.0759162907661415,NA,0.369665696699146,23.1007093416486,0.200431549291713,0.0934354347890972,0.102789429658923,0.231041060436967,23.3266945417299,0.18372892018407,0.0973285779053096,NA,0.300353378568056,23.0253809416215,0.233836807506998,0.107061435695841,0.0256973574147307,0.254145166480663,23.7033365418655,0.250539436614641,0.0564505751850796,0.0256973574147307,0.300353378568056,23.6280081418384,0.116918403753499,0.0739697192080353,0.0256973574147307,0.231041060436967,23.5526797418113,0.150323661968785,0.0798094338823539,0.0513947148294615,0.369665696699146,23.6280081418384,0.116918403753499,0.0661834329756105,0.0513947148294615,0.13862463626218,23.3266945417299,0.217134178399355,0.0992751494634158,0.0256973574147307,0.184832848349573,23.5526797418113,0.133621032861142,0.0875957201147786,0.0256973574147307
"46",0.231041060436967,23.577789208487,0.250539436614641,0.0700765760918229,NA,0.27724927252436,23.3015850750542,0.167026291076427,0.091488863230991,0.0770920722441922,0.254145166480663,23.4522418751084,0.18372892018407,0.0856491485566725,NA,0.254145166480663,23.3015850750542,0.200431549291713,0.0934354347890972,0.0256973574147307,0.27724927252436,23.7284460085412,0.250539436614641,0.0525574320688672,0.0256973574147307,0.300353378568056,23.6280081418384,0.116918403753499,0.0739697192080353,0.0256973574147307,0.254145166480663,23.577789208487,0.150323661968785,0.0759162907661415,0.0513947148294615,0.34656159065545,23.7284460085412,0.133621032861142,0.0583971467431858,0.0513947148294615,0.161728742305877,23.4522418751084,0.217134178399355,0.0875957201147786,0.0256973574147307,0.184832848349573,23.6531176085141,0.133621032861142,0.0798094338823539,0.0256973574147307
"47",0.231041060436967,23.6028986751627,0.267242065722284,0.0661834329756105,NA,0.323457484611753,23.2764756083785,0.18372892018407,0.0875957201147786,0.0770920722441922,0.300353378568056,23.6028986751627,0.167026291076427,0.0720231476499291,NA,0.254145166480663,23.5275702751356,0.18372892018407,0.0778628623242477,0.0256973574147307,0.300353378568056,23.8037744085683,0.233836807506998,0.0467177173945486,0.0256973574147307,0.300353378568056,23.8037744085683,0.133621032861142,0.0564505751850796,0.0513947148294615,0.231041060436967,23.6531176085141,0.116918403753499,0.0798094338823539,NA,0.41587390878654,23.8037744085683,0.167026291076427,0.0428245742783362,0.0513947148294615,0.184832848349573,23.5024608084599,0.250539436614641,0.0778628623242477,0.0256973574147307,0.184832848349573,23.6531176085141,0.133621032861142,0.0798094338823539,0.0256973574147307
"48",0.184832848349573,23.7033365418655,0.267242065722284,0.0622902898593981,NA,0.323457484611753,23.3518040084056,0.200431549291713,0.0798094338823539,0.0770920722441922,0.323457484611753,23.6028986751627,0.18372892018407,0.0681300045337167,NA,0.27724927252436,23.6280081418384,0.18372892018407,0.0681300045337167,0.0256973574147307,0.323457484611753,23.8791028085954,0.250539436614641,0.0389314311621238,NA,0.323457484611753,23.9042122752711,0.150323661968785,0.0447711458364424,0.0513947148294615,0.231041060436967,23.7535554752169,0.0835131455382136,0.0759162907661415,NA,0.41587390878654,23.8539933419197,0.167026291076427,0.04087800272023,0.0256973574147307,0.184832848349573,23.6028986751627,0.250539436614641,0.0700765760918229,0.0256973574147307,0.184832848349573,23.7284460085412,0.150323661968785,0.0720231476499291,0.0256973574147307
"49",0.184832848349573,23.7535554752169,0.267242065722284,0.0583971467431858,NA,0.27724927252436,23.4522418751084,0.18372892018407,0.0778628623242477,0.0770920722441922,0.392769802742843,23.577789208487,0.167026291076427,0.0661834329756105,NA,0.323457484611753,23.6028986751627,0.200431549291713,0.0642368614175043,0.0256973574147307,0.300353378568056,23.8791028085954,0.267242065722284,0.0389314311621238,NA,0.27724927252436,23.8791028085954,0.150323661968785,0.0486642889526548,0.0770920722441922,0.254145166480663,23.7786649418926,0.0835131455382136,0.0720231476499291,NA,0.369665696699146,23.9042122752711,0.150323661968785,0.0389314311621238,0.0770920722441922,0.231041060436967,23.6782270751898,0.217134178399355,0.0622902898593981,0.0513947148294615,0.13862463626218,23.828883875244,0.150323661968785,0.0661834329756105,0.0513947148294615
"50",0.161728742305877,23.828883875244,0.250539436614641,0.0525574320688672,0.0513947148294615,0.20793695439327,23.5275702751356,0.167026291076427,0.0778628623242477,0.102789429658923,0.34656159065545,23.7033365418655,0.150323661968785,0.060343718301292,0.0256973574147307,0.300353378568056,23.577789208487,0.200431549291713,0.0661834329756105,0.0513947148294615,0.300353378568056,23.9293217419468,0.250539436614641,0.0350382880459115,0.0256973574147307,0.27724927252436,23.9293217419468,0.133621032861142,0.0467177173945486,0.0770920722441922,0.20793695439327,23.7535554752169,0.100215774645856,0.0739697192080353,0.0256973574147307,0.300353378568056,23.8791028085954,0.150323661968785,0.0467177173945486,0.0770920722441922,0.254145166480663,23.7033365418655,0.233836807506998,0.0564505751850796,0.0513947148294615,0.13862463626218,23.828883875244,0.150323661968785,0.0661834329756105,0.0513947148294615
"51",0.13862463626218,23.9293217419468,0.250539436614641,0.0467177173945486,0.0513947148294615,0.184832848349573,23.5526797418113,0.167026291076427,0.0759162907661415,0.128486787073654,0.300353378568056,23.6782270751898,0.150323661968785,0.0661834329756105,0.0256973574147307,0.34656159065545,23.5526797418113,0.18372892018407,0.0661834329756105,0.0513947148294615,0.323457484611753,23.9293217419468,0.217134178399355,0.0369848596040177,0.0256973574147307,0.27724927252436,23.9795406752982,0.116918403753499,0.0467177173945486,0.0513947148294615,0.254145166480663,23.7033365418655,0.100215774645856,0.0759162907661415,NA,0.27724927252436,23.8539933419197,0.150323661968785,0.050610860510761,0.0770920722441922,0.254145166480663,23.7284460085412,0.200431549291713,0.060343718301292,0.0256973574147307,0.115520530218483,23.828883875244,0.150323661968785,0.0681300045337167,0.0513947148294615
"52",0.0924164241747866,23.9544312086225,0.233836807506998,0.050610860510761,0.0513947148294615,0.20793695439327,23.5275702751356,0.150323661968785,0.0778628623242477,0.128486787073654,0.300353378568056,23.7033365418655,0.133621032861142,0.0661834329756105,0.0256973574147307,0.300353378568056,23.577789208487,0.18372892018407,0.0700765760918229,0.0256973574147307,0.300353378568056,23.8539933419197,0.250539436614641,0.0389314311621238,0.0513947148294615,0.254145166480663,23.9795406752982,0.116918403753499,0.0486642889526548,0.0513947148294615,0.254145166480663,23.7284460085412,0.100215774645856,0.0739697192080353,NA,0.20793695439327,23.8037744085683,0.18372892018407,0.0525574320688672,0.128486787073654,0.27724927252436,23.7033365418655,0.217134178399355,0.0583971467431858,0.0256973574147307,0.13862463626218,23.8037744085683,0.18372892018407,0.0661834329756105,0.0256973574147307
"53",0.0924164241747866,23.9042122752711,0.250539436614641,0.0525574320688672,0.0513947148294615,0.20793695439327,23.5526797418113,0.167026291076427,0.0739697192080353,0.128486787073654,0.300353378568056,23.7033365418655,0.150323661968785,0.0642368614175043,0.0256973574147307,0.27724927252436,23.6782270751898,0.167026291076427,0.0661834329756105,0.0256973574147307,0.254145166480663,23.8539933419197,0.250539436614641,0.04087800272023,0.0770920722441922,0.20793695439327,23.9795406752982,0.100215774645856,0.0545040036269734,0.0513947148294615,0.254145166480663,23.7535554752169,0.0835131455382136,0.0739697192080353,NA,0.20793695439327,23.8037744085683,0.18372892018407,0.0545040036269734,0.102789429658923,0.231041060436967,23.7033365418655,0.217134178399355,0.060343718301292,0.0513947148294615,0.184832848349573,23.7786649418926,0.167026291076427,0.0661834329756105,0.0256973574147307
"54",0.0924164241747866,23.9544312086225,0.217134178399355,0.0525574320688672,0.0513947148294615,0.231041060436967,23.6028986751627,0.167026291076427,0.0700765760918229,0.102789429658923,0.300353378568056,23.6782270751898,0.167026291076427,0.0661834329756105,NA,0.231041060436967,23.6782270751898,0.18372892018407,0.0681300045337167,0.0256973574147307,0.254145166480663,23.9293217419468,0.217134178399355,0.0389314311621238,0.0770920722441922,0.231041060436967,24.0297596086496,0.0835131455382136,0.0545040036269734,NA,0.231041060436967,23.8037744085683,0.0835131455382136,0.0720231476499291,NA,0.184832848349573,23.828883875244,0.18372892018407,0.0525574320688672,0.128486787073654,0.254145166480663,23.7033365418655,0.200431549291713,0.060343718301292,0.0513947148294615,0.184832848349573,23.828883875244,0.167026291076427,0.0622902898593981,0.0256973574147307
"55",0.115520530218483,23.9544312086225,0.217134178399355,0.050610860510761,0.0513947148294615,0.184832848349573,23.6028986751627,0.167026291076427,0.0739697192080353,0.102789429658923,0.323457484611753,23.6531176085141,0.167026291076427,0.0661834329756105,NA,0.27724927252436,23.6028986751627,0.18372892018407,0.0720231476499291,NA,0.184832848349573,23.9293217419468,0.217134178399355,0.0447711458364424,0.0770920722441922,0.231041060436967,24.0046501419739,0.0835131455382136,0.0564505751850796,NA,0.20793695439327,23.8791028085954,0.0835131455382136,0.0681300045337167,NA,0.184832848349573,23.8791028085954,0.18372892018407,0.0486642889526548,0.128486787073654,0.254145166480663,23.7284460085412,0.200431549291713,0.0583971467431858,0.0513947148294615,0.184832848349573,23.8791028085954,0.150323661968785,0.060343718301292,0.0256973574147307
"56",0.13862463626218,23.9544312086225,0.200431549291713,0.050610860510761,0.0513947148294615,0.20793695439327,23.6028986751627,0.167026291076427,0.0759162907661415,0.0513947148294615,0.300353378568056,23.6280081418384,0.18372892018407,0.0661834329756105,0.0256973574147307,0.300353378568056,23.5526797418113,0.18372892018407,0.0720231476499291,0.0256973574147307,0.184832848349573,23.9544312086225,0.200431549291713,0.0467177173945486,0.0513947148294615,0.231041060436967,24.0046501419739,0.0835131455382136,0.0564505751850796,NA,0.184832848349573,23.828883875244,0.100215774645856,0.0720231476499291,NA,0.184832848349573,23.9293217419468,0.18372892018407,0.0447711458364424,0.128486787073654,0.27724927252436,23.7535554752169,0.200431549291713,0.0545040036269734,0.0513947148294615,0.231041060436967,23.8037744085683,0.150323661968785,0.0622902898593981,0.0256973574147307
"57",0.184832848349573,23.9293217419468,0.200431549291713,0.050610860510761,0.0256973574147307,0.184832848349573,23.577789208487,0.18372892018407,0.0778628623242477,0.0513947148294615,0.231041060436967,23.6028986751627,0.18372892018407,0.0720231476499291,0.0513947148294615,0.323457484611753,23.5275702751356,0.18372892018407,0.0720231476499291,0.0256973574147307,0.20793695439327,23.9042122752711,0.200431549291713,0.050610860510761,0.0256973574147307,0.231041060436967,23.9795406752982,0.0835131455382136,0.0583971467431858,NA,0.20793695439327,23.7786649418926,0.100215774645856,0.0739697192080353,NA,0.161728742305877,23.9544312086225,0.167026291076427,0.0525574320688672,0.0513947148294615,0.254145166480663,23.8539933419197,0.167026291076427,0.0545040036269734,0.0256973574147307,0.300353378568056,23.7786649418926,0.133621032861142,0.0622902898593981,NA
"58",0.184832848349573,23.9042122752711,0.200431549291713,0.050610860510761,0.0513947148294615,0.184832848349573,23.6782270751898,0.150323661968785,0.0739697192080353,0.0513947148294615,0.231041060436967,23.577789208487,0.217134178399355,0.0700765760918229,0.0513947148294615,0.323457484611753,23.4522418751084,0.217134178399355,0.0739697192080353,0.0256973574147307,0.184832848349573,23.8791028085954,0.217134178399355,0.0525574320688672,0.0256973574147307,0.27724927252436,23.8791028085954,0.100215774645856,0.060343718301292,NA,0.254145166480663,23.7033365418655,0.100215774645856,0.0759162907661415,NA,0.184832848349573,23.9795406752982,0.133621032861142,0.0525574320688672,0.0513947148294615,0.254145166480663,23.8791028085954,0.150323661968785,0.0545040036269734,0.0256973574147307,0.300353378568056,23.8037744085683,0.133621032861142,0.060343718301292,NA
"59",0.184832848349573,23.9042122752711,0.200431549291713,0.050610860510761,0.0513947148294615,0.115520530218483,23.7284460085412,0.133621032861142,0.0720231476499291,0.128486787073654,0.184832848349573,23.6531176085141,0.217134178399355,0.0681300045337167,0.0513947148294615,0.27724927252436,23.4773513417841,0.233836807506998,0.0739697192080353,0.0256973574147307,0.184832848349573,23.9042122752711,0.217134178399355,0.050610860510761,0.0256973574147307,0.27724927252436,23.8539933419197,0.100215774645856,0.0622902898593981,NA,0.27724927252436,23.6531176085141,0.116918403753499,0.0759162907661415,NA,0.161728742305877,23.9544312086225,0.150323661968785,0.0564505751850796,0.0256973574147307,0.231041060436967,23.8539933419197,0.133621032861142,0.0622902898593981,NA,0.300353378568056,23.8539933419197,0.100215774645856,0.0583971467431858,0.0256973574147307
"60",0.161728742305877,23.9544312086225,0.167026291076427,0.0525574320688672,0.0513947148294615,0.13862463626218,23.7284460085412,0.133621032861142,0.0700765760918229,0.128486787073654,0.20793695439327,23.6531176085141,0.200431549291713,0.0681300045337167,0.0513947148294615,0.231041060436967,23.4522418751084,0.233836807506998,0.0798094338823539,0.0256973574147307,0.20793695439327,23.8791028085954,0.200431549291713,0.0525574320688672,0.0256973574147307,0.254145166480663,23.8539933419197,0.0835131455382136,0.0642368614175043,0.0256973574147307,0.300353378568056,23.6531176085141,0.100215774645856,0.0739697192080353,0.0256973574147307,0.161728742305877,23.9042122752711,0.167026291076427,0.0583971467431858,0.0256973574147307,0.231041060436967,23.8037744085683,0.133621032861142,0.0661834329756105,NA,0.300353378568056,23.8539933419197,0.100215774645856,0.0564505751850796,0.0513947148294615
