"","Early1.ALL","Late1.CLS","Late1.OPN","Mid1.CLS","Mid1.OPN","Early1.ALL.1","Late1.CLS.1","Late1.OPN.1","Mid1.CLS.1","Mid1.OPN.1","Early1.ALL.2","Late1.CLS.2","Late1.OPN.2","Mid1.CLS.2","Mid1.OPN.2","Early1.ALL.3","Late1.CLS.3","Late1.OPN.3","Mid1.CLS.3","Mid1.OPN.3","Early1.ALL.4","Late1.CLS.4","Late1.OPN.4","Mid1.CLS.4","Mid1.OPN.4","Early1.ALL.5","Late1.CLS.5","Late1.OPN.5","Mid1.CLS.5","Mid1.OPN.5","Early1.ALL.6","Late1.CLS.6","Late1.OPN.6","Mid1.CLS.6","Mid1.OPN.6","Early1.ALL.7","Late1.CLS.7","Late1.OPN.7","Mid1.CLS.7","Mid1.OPN.7","Early1.ALL.8","Late1.CLS.8","Late1.OPN.8","Mid1.CLS.8","Mid1.OPN.8","Early1.ALL.9","Late1.CLS.9","Late1.OPN.9","Mid1.CLS.9","Mid1.OPN.9"
"0",0,0,0.643886565780005,0,0,0,0,0.636555788940005,0,0,0,0,0.634112196660005,0,0,0,0,0.663435304020006,0,0,0,0,0.621894235260005,0,0,0,0,0.635333992800005,0,0,0,0,0.646330158060005,0,0,0,0,0.645108361920005,0,0,0,0,0.632890400520005,0,0,0,0,0.625559623680005,0,0
"1",0,0,0.667100692440006,0,0,0,0,0.654882731040005,0,0,0,0,0.652439138760005,0,0,0,0,0.687871226820006,0,0,0,0,0.645108361920005,0,0,0,0,0.652439138760005,0,0,0,0,0.667100692440006,0,0,0,0,0.671987877000006,0,0,0,0,0.657326323320006,0,0,0,0,0.647551954200005,0,0
"2",0,0,0.695202003660006,0,0,0,0,0.674431469280006,0,0,0,0,0.669544284720006,0,0,0,0,0.701310984360006,0,0,0,0,0.670766080860006,0,0,0,0,0.679318653840006,0,0,0,0,0.690314819100006,0,0,0,0,0.690314819100006,0,0,0,0,0.676875061560006,0,0,0,0,0.668322488580006,0,0
"3",0,0,0.712307149620006,0,0,0,0,0.700089188220006,0,0,0,0,0.685427634540006,0,0,0,0,0.723303314880007,0,0,0,0,0.680540449980006,0,0,0,0,0.704976372780006,0,0,0,0,0.717194334180006,0,0,0,0,0.702532780500006,0,0,0,0,0.695202003660006,0,0,0,0,0.684205838400006,0,0
"4",0,0,0.729412295580007,0,0,0,0,0.715972538040006,0,0,0,0,0.696423799800006,0,0,0,0,0.747739237680007,0,0,0,0,0.695202003660006,0,0,0,0,0.715972538040006,0,0,0,0,0.745295645400007,0,0,0,0,0.722081518740007,0,0,0,0,0.725746907160007,0,0,0,0,0.712307149620006,0,0
"5",0,0,0.750182829960007,0,0,0,0,0.733077684000007,0,0,0,0,0.712307149620006,0,0,0,0,0.763622587500007,0,0,0,0,0.711085353480006,0,0,0,0,0.736743072420007,0,0,0,0,0.761178995220007,0,0,0,0,0.725746907160007,0,0,0,0,0.746517441540007,0,0,0,0,0.733077684000007,0,0
"6",0,0,0.737964868560007,0,0,0,0,0.742852053120007,0,0,0,0,0.723303314880007,0,0,0,0,0.768509772060007,0,0,0,0,0.719637926460006,0,0,0,0,0.744073849260007,0,0,0,0,0.775840548900007,0,0,0,0,0.731855887860007,0,0,0,0,0.756291810660007,0,0,0,0,0.736743072420007,0,0
"7",0,0,0.741630256980007,0,0,0,0,0.742852053120007,0,0,0,0,0.720859722600007,0,0,0,0,0.779505937320008,0,0,0,0,0.731855887860007,0,0,0,0,0.753848218380007,0,0,0,0,0.779505937320008,0,0,0,0,0.736743072420007,0,0,0,0,0.763622587500007,0,0,0,0,0.739186664700007,0,0
"8",0,0,0.752626422240007,0,0,0,0,0.757513606800007,0,0,0,0,0.729412295580007,0,0,0,0,0.790502102580008,0,0,0,0,0.750182829960007,0,0,0,0,0.757513606800007,0,0,0,0,0.791723898720008,0,0,0,0,0.740408460840007,0,0,0,0,0.783171325740008,0,0,0,0,0.753848218380007,0,0
"9",0,0,0.766066179780007,0,0,0,0,0.769731568200007,0,0,0,0,0.744073849260007,0,0,0,0,0.807607248540008,0,0,0,0,0.768509772060007,0,0,0,0,0.769731568200007,0,0,0,0,0.811272636960008,0,0,0,0,0.753848218380007,0,0,0,0,0.800276471700008,0,0,0,0,0.774618752760007,0,0
"10",0,0,0.785614918020008,0,0,0,0,0.784393121880008,0,0,0,0,0.757513606800007,0,0,0,0,0.816159821520008,0,0,0,0,0.791723898720008,0,0,0,0,0.783171325740008,0,0,0,0,0.823490598360008,0,0,0,0,0.764844383640007,0,0,0,0,0.811272636960008,0,0,0,0,0.785614918020008,0,0
"11",0,0,0.802720063980008,0,0,0,0,0.802720063980008,0,0,0,0,0.770953364340007,0,0,0,0,0.829599579060008,0,0,0,0,0.805163656260008,0,0,0,0,0.790502102580008,0,0,0,0,0.833264967480008,0,0,0,0,0.779505937320008,0,0,0,0,0.825934190640008,0,0,0,0,0.803941860120008,0,0
"12",0,0,0.824712394500008,0,0,0,0,0.812494433100008,0,0,0,0,0.792945694860008,0,0,0,0,0.847926521160009,0,0,0,0,0.830821375200008,0,0,0,0,0.799054675560008,0,0,0,0,0.851591909580009,0,0,0,0,0.795389287140008,0,0,0,0,0.839373948180008,0,0,0,0,0.817381617660008,0,0
"13",0,0,0.838152152040008,0,0,0,0,0.824712394500008,0,0,0,0,0.810050840820008,0,0,0,0,0.860144482560009,0,0,0,0,0.849148317300009,0,0,0,0,0.811272636960008,0,0,0,0,0.862588074840009,0,0,0,0,0.803941860120008,0,0,0,0,0.855257298000009,0,0,0,0,0.832043171340008,0,0
"14",0,0,0.858922686420009,0,0,0,0,0.834486763620008,0,0,0,0,0.829599579060008,0,0,0,0,0.878471424660009,0,0,0,0,0.871140647820009,0,0,0,0,0.829599579060008,0,0,0,0,0.882136813080009,0,0,0,0,0.816159821520008,0,0,0,0,0.876027832380009,0,0,0,0,0.850370113440009,0,0
"15",0,0,0.878471424660009,0,0,0,0,0.854035501860009,0,0,0,0,0.860144482560009,0,0,0,0,0.901685551320009,0,0,0,0,0.885802201500009,0,0,0,0,0.851591909580009,0,0,0,0,0.90412914360001,0,0,0,0,0.839373948180008,0,0,0,0,0.889467589920009,0,0,0,0,0.873584240100009,0,0
"16",0,0,0.901685551320009,0,0,0,0,0.868697055540009,0,0,0,0,0.873584240100009,0,0,0,0,0.92367788184001,0,0,0,0,0.901685551320009,0,0,0,0,0.873584240100009,0,0,0,0,0.91634710500001,0,0,0,0,0.844261132740009,0,0,0,0,0.895576570620009,0,0,0,0,0.885802201500009,0,0
"17",0,0,0.90412914360001,0,0,0,0,0.878471424660009,0,0,0,0,0.888245793780009,0,0,0,0,0.93589584324001,0,0,0,0,0.91756890114001,0,0,0,0,0.889467589920009,0,0,0,0,0.92367788184001,0,0,0,0,0.866253463260009,0,0,0,0,0.90901632816001,0,0,0,0,0.893132978340009,0,0
"18",0,0,0.92734327026001,0,0,0,0,0.90290734746001,0,0,0,0,0.901685551320009,0,0,0,0,0.94811380464001,0,0,0,0,0.92001249342001,0,0,0,0,0.90412914360001,0,0,0,0,0.94078302780001,0,0,0,0,0.887023997640009,0,0,0,0,0.92123428956001,0,0,0,0,0.90535093974001,0,0
"19",0,0,0.94078302780001,0,0,0,0,0.91145992044001,0,0,0,0,0.92245608570001,0,0,0,0,0.94689200850001,0,0,0,0,0.93467404710001,0,0,0,0,0.91756890114001,0,0,0,0,0.94689200850001,0,0,0,0,0.90779453202001,0,0,0,0,0.93589584324001,0,0,0,0,0.91756890114001,0,0
"20",0,0,0.95422278534001,0,0,0,0,0.92612147412001,0,0,0,0,0.94689200850001,0,0,0,0,0.95788817376001,0,0,0,0,0.95300098920001,0,0,0,0,0.93100865868001,0,0,0,0,0.96277535832001,0,0,0,0,0.91756890114001,0,0,0,0,0.95910996990001,0,0,0,0,0.93833943552001,0,0
