"","Early1.ALL","Late1.CLS","Late1.OPN","Mid1.CLS","Mid1.OPN","Early1.ALL.1","Late1.CLS.1","Late1.OPN.1","Mid1.CLS.1","Mid1.OPN.1","Early1.ALL.2","Late1.CLS.2","Late1.OPN.2","Mid1.CLS.2","Mid1.OPN.2","Early1.ALL.3","Late1.CLS.3","Late1.OPN.3","Mid1.CLS.3","Mid1.OPN.3","Early1.ALL.4","Late1.CLS.4","Late1.OPN.4","Mid1.CLS.4","Mid1.OPN.4","Early1.ALL.5","Late1.CLS.5","Late1.OPN.5","Mid1.CLS.5","Mid1.OPN.5","Early1.ALL.6","Late1.CLS.6","Late1.OPN.6","Mid1.CLS.6","Mid1.OPN.6","Early1.ALL.7","Late1.CLS.7","Late1.OPN.7","Mid1.CLS.7","Mid1.OPN.7","Early1.ALL.8","Late1.CLS.8","Late1.OPN.8","Mid1.CLS.8","Mid1.OPN.8","Early1.ALL.9","Late1.CLS.9","Late1.OPN.9","Mid1.CLS.9","Mid1.OPN.9"
"0",0.00490799374,1.26241565936,5.17537535293004,0.05685811161,0.732126407199998,0.00773952859,1.2450429668,5.11645267339004,0.05963167803,0.700972091999999,0.00849460455,1.19871578664,5.09681178021004,0.05685811161,0.732126407199998,0.00717322162,1.14659770896,5.33250249837004,0.05824489482,0.697077802599999,0.00698445263,1.34927912216,4.99860731431004,0.05824489482,0.697077802599999,0.00981598747999999,1.2739974544,5.10663222680004,0.03744314667,0.704866381399999,0.00773952859,1.27978835192,5.19501624611004,0.04853741235,0.677606355599999,0.00811706657,1.31453373704,5.18519579952004,0.05963167803,0.619192014599999,0.00887214252999999,1.19871578664,5.08699133362004,0.04992419556,0.747703564799998,0.00660691465,1.31453373704,5.02806865408004,0.06379202766,0.700972091999999
"1",0.00453045576,1.18134309408,5.36196383814005,0.07211272692,0.677606355599999,0.00698445263,1.1871339916,5.26375937224004,0.08459377581,0.626980593399999,0.00736199061,1.16976129904,5.24411847906004,0.09014090865,0.623086303999999,0.00717322162,1.05394334864,5.52891143017005,0.07765985976,0.626980593399999,0.00679568364,1.25662476184,5.18519579952004,0.07488629334,0.642557750999999,0.00830583556,1.21029758168,5.24411847906004,0.05685811161,0.669817776799999,0.00641814566,1.19871578664,5.36196383814005,0.05824489482,0.665923487399999,0.00622937667,1.21029758168,5.40124562450005,0.0693391605,0.615297725199999,0.00736199061,1.11764322136,5.28340026542004,0.06240524445,0.720443538999998,0.00604060768,1.23925206928,5.20483669270004,0.08736734223,0.626980593399999
"2",0.00453045576,1.1002705288,5.58783410971005,0.08875412544,0.595826278199999,0.00641814566,1.11764322136,5.42088651768005,0.09846160791,0.584143409999999,0.00660691465,1.15238860648,5.38160473132005,0.09291447507,0.5880376994,0.00622937667,1.013407066,5.63693634266005,0.09014090865,0.595826278199999,0.00585183869,1.17555219656,5.39142517791005,0.07765985976,0.626980593399999,0.00773952859,1.11764322136,5.46016830404005,0.06656559408,0.630874882799999,0.00604060768,1.1002705288,5.54855232335005,0.06379202766,0.650346329799999,0.00453045576,1.15238860648,5.54855232335005,0.0832069926,0.591931988799999,0.00547430071,1.07710693872,5.44052741086005,0.07627307655,0.685394934399999,0.00509676273,1.16397040152,5.37178428473005,0.10678230717,0.5763548312
"3",0.00415291778,1.03657065608,5.72532036197005,0.09430125828,0.5763548312,0.00453045576,1.05394334864,5.62711589607005,0.09846160791,0.584143409999999,0.00660691465,1.11764322136,5.50927053699005,0.0970748247,0.5490948054,0.0056630697,0.984452578399998,5.81370438128005,0.08875412544,0.5607776736,0.00622937667,1.1292250164,5.46998875063005,0.07904664297,0.615297725199999,0.00679568364,1.03657065608,5.66639768243005,0.07627307655,0.595826278199999,0.00528553172,1.013407066,5.76460214833005,0.0693391605,0.623086303999999,0.00415291778,1.11764322136,5.64675678925005,0.08736734223,0.5724605418,0.00471922475,1.013407066,5.58783410971005,0.0832069926,0.665923487399999,0.00453045576,1.11764322136,5.49945009040005,0.10400874075,0.5763548312
"4",0.0037753798,0.996034373439998,5.86280661423005,0.0970748247,0.5490948054,0.00339784182,1.02498886104,5.75478170174005,0.10123517433,0.5685662524,0.00604060768,1.05973424616,5.59765455630005,0.09568804149,0.5685662524,0.00471922475,0.909170910639999,6.01011331308006,0.09014090865,0.5490948054,0.00622937667,1.06552514368,5.58783410971005,0.08459377581,0.595826278199999,0.00641814566,1.00761616848,5.75478170174005,0.07627307655,0.5880376994,0.00471922475,0.891798218079999,5.99047241990006,0.07765985976,0.603614856999999,0.00358661081,1.04815245112,5.80388393469005,0.08736734223,0.5685662524,0.00509676273,0.938125398239999,5.83334527446005,0.07211272692,0.642557750999999,0.00396414879,1.02498886104,5.72532036197005,0.10400874075,0.5607776736
"5",0.0037753798,0.932334500719999,6.02975420626006,0.09430125828,0.5335176478,0.00320907283,0.955498090799999,5.89226795400005,0.09984839112,0.5685662524,0.00509676273,1.00761616848,5.72532036197005,0.09291447507,0.5802491206,0.00434168677,0.857052832959999,6.13777911875006,0.09291447507,0.5335176478,0.00528553172,1.05394334864,5.71549991538005,0.07765985976,0.591931988799999,0.00604060768,0.932334500719999,5.92172929377005,0.07211272692,0.591931988799999,0.00396414879,0.839680140399999,6.11813822557006,0.08182020939,0.591931988799999,0.00415291778,1.01919796352,5.83334527446005,0.08182020939,0.5802491206,0.00453045576,0.862843730479999,6.00029286649006,0.07488629334,0.630874882799999,0.00320907283,0.943916295759999,5.89226795400005,0.0970748247,0.584143409999999
"6",0.00396414879,1.00761616848,5.93154974036005,0.0970748247,0.5101519114,0.00339784182,0.914961808159999,5.97083152672006,0.09152769186,0.584143409999999,0.00471922475,0.990243475919998,5.81370438128005,0.08043342618,0.599720567599999,0.00358661081,0.868634627999999,6.17706090511006,0.09291447507,0.525729069,0.00471922475,1.04815245112,5.78424304151005,0.07765985976,0.5802491206,0.0056630697,0.926543603199999,5.98065197331006,0.07211272692,0.5802491206,0.00396414879,0.81651655032,6.23598358465006,0.07072594371,0.591931988799999,0.0037753798,1.01919796352,5.88244750741005,0.07488629334,0.5880376994,0.00434168677,0.839680140399999,6.07885643921006,0.07211272692,0.626980593399999,0.00339784182,0.972870783359998,5.92172929377005,0.09014090865,0.5685662524
"7",0.00358661081,1.013407066,5.96101108013006,0.09152769186,0.5179404902,0.00339784182,0.955498090799999,5.97083152672006,0.07904664297,0.591931988799999,0.00415291778,1.03657065608,5.79406348810005,0.07488629334,0.603614856999999,0.00302030384,0.857052832959999,6.26544492442006,0.08875412544,0.5218347796,0.00339784182,1.03077975856,5.88244750741005,0.07211272692,0.595826278199999,0.00490799374,0.909170910639999,6.05921554603006,0.06656559408,0.591931988799999,0.0037753798,0.79914385776,6.26544492442006,0.06379202766,0.615297725199999,0.0037753798,0.996034373439998,5.92172929377005,0.07211272692,0.595826278199999,0.00358661081,0.839680140399999,6.13777911875006,0.0693391605,0.626980593399999,0.00358661081,0.990243475919998,5.94137018695006,0.08459377581,0.5607776736
"8",0.00358661081,1.00182527096,6.04939509944006,0.08736734223,0.5023633326,0.00283153485,0.909170910639999,6.08867688580006,0.07349951013,0.603614856999999,0.0037753798,1.02498886104,5.86280661423005,0.06517881087,0.619192014599999,0.00264276586,0.82230744784,6.35382894373006,0.07349951013,0.5607776736,0.00339784182,0.978661680879998,6.02975420626006,0.0693391605,0.5802491206,0.00471922475,0.914961808159999,6.08867688580006,0.06379202766,0.5880376994,0.00302030384,0.7817711652,6.36364939032006,0.05824489482,0.619192014599999,0.00358661081,1.00761616848,5.95119063354006,0.06517881087,0.599720567599999,0.00339784182,0.78756206272,6.29490626419006,0.06795237729,0.607509146399999,0.00302030384,0.949707193279999,6.05921554603006,0.07349951013,0.584143409999999
"9",0.00283153485,0.984452578399998,6.15742001193006,0.07349951013,0.525729069,0.00283153485,0.880216423039999,6.18688135170006,0.06795237729,0.599720567599999,0.00396414879,0.967079885839998,5.98065197331006,0.05685811161,0.630874882799999,0.00245399687,0.77018937016,6.49131519599006,0.06656559408,0.564671963,0.00302030384,0.914961808159999,6.17706090511006,0.06656559408,0.5802491206,0.0037753798,0.868634627999999,6.18688135170006,0.06101846124,0.607509146399999,0.00320907283,0.71807129248,6.52077653576006,0.05963167803,0.591931988799999,0.00302030384,0.955498090799999,6.05921554603006,0.06379202766,0.607509146399999,0.00245399687,0.75860757512,6.43239251645006,0.06379202766,0.603614856999999,0.00283153485,0.891798218079999,6.22616313806006,0.06379202766,0.5880376994
"10",0.00245399687,0.920752705679999,6.31454715737006,0.07349951013,0.5140462008,0.00245399687,0.851261935439999,6.30472671078006,0.05963167803,0.603614856999999,0.00358661081,0.932334500719999,6.08867688580006,0.04715062914,0.646452040399999,0.00226522788,0.74702578008,6.56005832212007,0.06101846124,0.5724605418,0.00245399687,0.851261935439999,6.36364939032006,0.0693391605,0.5529890948,0.0037753798,0.83388924288,6.29490626419006,0.05685811161,0.599720567599999,0.00320907283,0.677535009840001,6.61898100166007,0.05131097877,0.603614856999999,0.00283153485,0.909170910639999,6.14759956534006,0.06379202766,0.607509146399999,0.00207645889,0.74123488256,6.52077653576006,0.05685811161,0.607509146399999,0.00358661081,0.851261935439999,6.31454715737006,0.05963167803,0.5763548312
"11",0.00207645889,0.857052832959999,6.45203340963006,0.0693391605,0.5218347796,0.0018876899,0.80493475528,6.45203340963006,0.06240524445,0.5802491206,0.00339784182,0.903380013119999,6.19670179829006,0.0416034963,0.642557750999999,0.00207645889,0.694907702400001,6.66808323461007,0.05685811161,0.5802491206,0.00245399687,0.8107256528,6.47167430281006,0.07072594371,0.5335176478,0.00302030384,0.83388924288,6.35382894373006,0.05131097877,0.607509146399999,0.00320907283,0.671744112320001,6.69754457438007,0.04853741235,0.584143409999999,0.00283153485,0.868634627999999,6.26544492442006,0.06379202766,0.5880376994,0.0018876899,0.712280394960001,6.63862189484007,0.06379202766,0.564671963,0.00339784182,0.82230744784,6.46185385622006,0.05269776198,0.5607776736
"12",0.00169892091,0.8107256528,6.62880144825007,0.06517881087,0.5023633326,0.00169892091,0.7817711652,6.53059698235006,0.05824489482,0.5802491206,0.00320907283,0.83388924288,6.37346983691006,0.03882992988,0.630874882799999,0.00207645889,0.619626034640001,6.81538993346007,0.05408454519,0.5802491206,0.00245399687,0.72386219,6.67790368120007,0.05824489482,0.545200516,0.00264276586,0.8107256528,6.42257206986006,0.04576384593,0.619192014599999,0.00264276586,0.636998727200001,6.84485127323007,0.04021671309,0.584143409999999,0.00264276586,0.8107256528,6.39311073009006,0.06379202766,0.5802491206,0.00151015192,0.671744112320001,6.74664680733007,0.06379202766,0.5568833842,0.00358661081,0.7817711652,6.56987876871007,0.04437706272,0.564671963
"13",0.00151015192,0.75860757512,6.73682636074007,0.06240524445,0.506257622,0.00151015192,0.73544398504,6.62880144825007,0.06517881087,0.5568833842,0.00283153485,0.78756206272,6.51095608917006,0.03605636346,0.623086303999999,0.0018876899,0.596462444560001,6.91359439936007,0.0554713284,0.5568833842,0.00226522788,0.648580522240001,6.82521038005007,0.05824489482,0.5413062266,0.00245399687,0.76439847264,6.52077653576006,0.04437706272,0.619192014599999,0.0018876899,0.608044239600001,6.93323529254007,0.04437706272,0.5724605418,0.00264276586,0.7817711652,6.46185385622006,0.06656559408,0.564671963,0.00132138293,0.625416932160001,6.87431261300007,0.06101846124,0.5490948054,0.00339784182,0.72965308752,6.68772412779007,0.04021671309,0.5685662524
"14",0.00151015192,0.71807129248,6.90377395277007,0.0554713284,0.486786175,0.00151015192,0.72386219,6.70736502097007,0.06517881087,0.5335176478,0.00264276586,0.71807129248,6.66808323461007,0.03744314667,0.607509146399999,0.00207645889,0.550135264400001,7.06090109821007,0.04715062914,0.5490948054,0.00226522788,0.590671547040001,7.00197841867007,0.05408454519,0.5218347796,0.0018876899,0.71807129248,6.66808323461007,0.03466958025,0.630874882799999,0.00207645889,0.561717059440001,7.09036243798007,0.04021671309,0.5490948054,0.00283153485,0.74702578008,6.56005832212007,0.06379202766,0.5529890948,0.00169892091,0.550135264400001,7.04126020503007,0.05824489482,0.5335176478,0.00339784182,0.683325907360001,6.83503082664007,0.03882992988,0.545200516
"15",0.00132138293,0.660162317280001,7.06090109821007,0.05685811161,0.4634204386,0.00169892091,0.660162317280001,6.86449216641007,0.06240524445,0.5179404902,0.00245399687,0.590671547040001,6.91359439936007,0.03466958025,0.607509146399999,0.00207645889,0.503808084240001,7.24748958342008,0.04437706272,0.5140462008,0.00169892091,0.526971674320001,7.11982377775007,0.04853741235,0.545200516,0.00207645889,0.642789624720001,6.84485127323007,0.03328279704,0.611403435799999,0.00207645889,0.503808084240001,7.26713047660008,0.04021671309,0.5179404902,0.00302030384,0.683325907360001,6.74664680733007,0.05408454519,0.545200516,0.0018876899,0.4922262892,7.14928511752007,0.05269776198,0.5413062266,0.00339784182,0.631207829680001,7.02161931185007,0.03744314667,0.5101519114
"16",0.00132138293,0.608044239600001,7.24748958342008,0.05131097877,0.440054702200001,0.00169892091,0.613835137120001,6.98233752549007,0.05824489482,0.5140462008,0.0018876899,0.550135264400001,7.02161931185007,0.03050923062,0.615297725199999,0.00226522788,0.44010821152,7.42425762204008,0.04299027951,0.486786175,0.00132138293,0.48064449416,7.24748958342008,0.04437706272,0.545200516,0.00207645889,0.555926161920001,7.02161931185007,0.02912244741,0.611403435799999,0.00169892091,0.48643539168,7.36533494250008,0.03605636346,0.5101519114,0.00302030384,0.660162317280001,6.78592859369007,0.04992419556,0.5568833842,0.00151015192,0.48064449416,7.19838735047008,0.05131097877,0.5413062266,0.00339784182,0.602253342080001,7.11982377775007,0.03328279704,0.5023633326
"17",0.00113261394,0.608044239600001,7.26713047660008,0.04853741235,0.443948991600001,0.00169892091,0.579089752000001,7.06090109821007,0.04992419556,0.5296233584,0.00132138293,0.521180776800001,7.13946467093007,0.02634888099,0.611403435799999,0.00226522788,0.4053628264,7.52246208794008,0.0416034963,0.4751033068,0.00132138293,0.4632718016,7.37515538909008,0.03744314667,0.525729069,0.00207645889,0.515389879280001,7.14928511752007,0.02634888099,0.595826278199999,0.00169892091,0.46906269912,7.42425762204008,0.04021671309,0.486786175,0.00245399687,0.590671547040001,6.96269663231007,0.0416034963,0.5685662524,0.00169892091,0.434317314,7.30641226296008,0.04021671309,0.5568833842,0.00320907283,0.584880649520001,7.17874645729008,0.02634888099,0.5140462008
"18",0.00094384495,0.544344366880001,7.45371896181008,0.04437706272,0.428371834000001,0.00151015192,0.498017186720001,7.25731003001008,0.04853741235,0.5140462008,0.00132138293,0.503808084240001,7.24748958342008,0.03050923062,0.5685662524,0.00226522788,0.3764083388,7.62066655384008,0.03882992988,0.4634204386,0.00151015192,0.4632718016,7.39479628227008,0.03189601383,0.5296233584,0.0018876899,0.46906269912,7.26713047660008,0.02218853136,0.595826278199999,0.00132138293,0.434317314,7.56174387430008,0.03605636346,0.4751033068,0.00245399687,0.550135264400001,7.12964422434007,0.0416034963,0.5296233584,0.0018876899,0.39378103136,7.40461672886008,0.03466958025,0.5568833842,0.00264276586,0.544344366880001,7.27695092319008,0.02912244741,0.506257622
"19",0.00113261394,0.498017186720001,7.56174387430008,0.04021671309,0.424477544600001,0.00169892091,0.46906269912,7.32605315614008,0.04437706272,0.5140462008,0.00132138293,0.42273551896,7.41443717545008,0.02634888099,0.5685662524,0.00226522788,0.39378103136,7.61084610725008,0.03744314667,0.459526149200001,0.0018876899,0.4053628264,7.51264164135008,0.02912244741,0.5218347796,0.00207645889,0.42273551896,7.37515538909008,0.02357531457,0.5763548312,0.00151015192,0.42273551896,7.61084610725008,0.03605636346,0.459526149200001,0.00207645889,0.47485359664,7.29659181637008,0.03466958025,0.5413062266,0.0018876899,0.35324474872,7.52246208794008,0.03466958025,0.5374119372,0.00226522788,0.526971674320001,7.37515538909008,0.02080174815,0.5101519114
"20",0.00132138293,0.45748090408,7.66976878679008,0.02912244741,0.436160412800001,0.00151015192,0.42852641648,7.44389851522008,0.0416034963,0.506257622,0.00132138293,0.33587205616,7.61084610725008,0.02912244741,0.5413062266,0.00207645889,0.35903564624,7.69923012656008,0.03328279704,0.4634204386,0.0018876899,0.37061744128,7.65994834020008,0.02634888099,0.4945747538,0.0018876899,0.38219923632,7.48318030158008,0.02496209778,0.5607776736,0.00151015192,0.35903564624,7.73851191292008,0.03328279704,0.459526149200001,0.00207645889,0.434317314,7.37515538909008,0.03466958025,0.5374119372,0.00207645889,0.26638128592,7.70905057315008,0.03050923062,0.5296233584,0.00245399687,0.45169000656,7.54210298112008,0.01941496494,0.4945747538
