"","Early1.ALL","Late1.CLS","Late1.OPN","Mid1.CLS","Mid1.OPN","Early1.ALL.1","Late1.CLS.1","Late1.OPN.1","Mid1.CLS.1","Mid1.OPN.1","Early1.ALL.2","Late1.CLS.2","Late1.OPN.2","Mid1.CLS.2","Mid1.OPN.2","Early1.ALL.3","Late1.CLS.3","Late1.OPN.3","Mid1.CLS.3","Mid1.OPN.3","Early1.ALL.4","Late1.CLS.4","Late1.OPN.4","Mid1.CLS.4","Mid1.OPN.4","Early1.ALL.5","Late1.CLS.5","Late1.OPN.5","Mid1.CLS.5","Mid1.OPN.5","Early1.ALL.6","Late1.CLS.6","Late1.OPN.6","Mid1.CLS.6","Mid1.OPN.6","Early1.ALL.7","Late1.CLS.7","Late1.OPN.7","Mid1.CLS.7","Mid1.OPN.7","Early1.ALL.8","Late1.CLS.8","Late1.OPN.8","Mid1.CLS.8","Mid1.OPN.8","Early1.ALL.9","Late1.CLS.9","Late1.OPN.9","Mid1.CLS.9","Mid1.OPN.9"
"0",0.05796843,1.29611464,9.32147218100008,0.286423499,0.754481411999998,0.091411755,1.2782782,9.21534536300008,0.300395377,0.722375819999998,0.100329975,1.23071436,9.17996975700007,0.286423499,0.754481411999998,0.08472309,1.17720504,9.60447702900008,0.293409438,0.718362620999998,0.082493535,1.38529684,9.00309172700007,0.293409438,0.718362620999998,0.11593686,1.3080056,9.19765756000008,0.188620353,0.726389018999998,0.091411755,1.31395108,9.35684778700008,0.244507865,0.698296625999999,0.095870865,1.34962396,9.33915998400008,0.300395377,0.638098640999999,0.104789085,1.23071436,9.16228195400008,0.251493804,0.770534207999998,0.078034425,1.34962396,9.05615513600007,0.321353194,0.722375819999998
"1",0.05350932,1.21287792,9.65754043800008,0.363268828,0.698296625999999,0.082493535,1.2188234,9.48066240800008,0.426142279,0.646125038999999,0.086952645,1.20098696,9.44528680200008,0.454086035,0.642111839999999,0.08472309,1.08207736,9.95823308900009,0.391212584,0.646125038999999,0.08026398,1.29016916,9.33915998400008,0.377240706,0.662177834999999,0.09810042,1.24260532,9.44528680200008,0.286423499,0.690270227999999,0.07580487,1.23071436,9.65754043800008,0.293409438,0.686257028999999,0.073575315,1.24260532,9.72829165000008,0.34929695,0.634085441999999,0.086952645,1.14747764,9.51603801400008,0.314367255,0.742441814999998,0.07134576,1.27233272,9.37453559000008,0.440114157,0.646125038999999
"2",0.05350932,1.1296412,10.0643599070001,0.447100096,0.614019446999999,0.07580487,1.14747764,9.76366725600009,0.496001669,0.601979849999999,0.078034425,1.18315052,9.69291604400008,0.468057913,0.605993048999999,0.073575315,1.040459,10.1527989220001,0.454086035,0.614019446999999,0.069116205,1.20693244,9.71060384700008,0.391212584,0.646125038999999,0.091411755,1.14747764,9.83441846800009,0.335325072,0.650138237999999,0.07134576,1.1296412,9.99360869500009,0.321353194,0.670204232999999,0.05350932,1.18315052,9.99360869500009,0.41915634,0.610006247999999,0.064657095,1.10585928,9.79904286200009,0.384226645,0.706323023999999,0.060197985,1.19504148,9.67522824100008,0.537917303,0.593953451999999
"3",0.04905021,1.06424092,10.3119891490001,0.475043852,0.593953451999999,0.05350932,1.08207736,10.1351111190001,0.496001669,0.601979849999999,0.078034425,1.14747764,9.92285748300009,0.48901573,0.565861059,0.06688665,1.0107316,10.4711793760001,0.447100096,0.577900656,0.073575315,1.1593686,9.85210627100009,0.398198523,0.634085441999999,0.08026398,1.06424092,10.2058623310001,0.384226645,0.614019446999999,0.06242754,1.040459,10.3827403610001,0.34929695,0.642111839999999,0.04905021,1.14747764,10.1704867250001,0.440114157,0.589940253,0.055738875,1.040459,10.0643599070001,0.41915634,0.686257028999999,0.05350932,1.14747764,9.90516968000009,0.523945425,0.593953451999999
"4",0.0445911,1.02262256,10.5596183910001,0.48901573,0.565861059,0.04013199,1.05234996,10.3650525580001,0.509973547,0.585927054,0.07134576,1.08802284,10.0820477100001,0.482029791,0.585927054,0.055738875,0.933440359999999,10.8249354360001,0.454086035,0.565861059,0.073575315,1.09396832,10.0643599070001,0.426142279,0.614019446999999,0.07580487,1.03451352,10.3650525580001,0.384226645,0.605993048999999,0.055738875,0.915603919999999,10.7895598300001,0.391212584,0.622045844999999,0.042361545,1.07613188,10.4534915730001,0.440114157,0.585927054,0.060197985,0.963167759999999,10.5065549820001,0.363268828,0.662177834999999,0.046820655,1.05234996,10.3119891490001,0.523945425,0.577900656
"5",0.0445911,0.957222279999999,10.8603110420001,0.475043852,0.549808263,0.037902435,0.981004199999999,10.6126818000001,0.502987608,0.585927054,0.060197985,1.03451352,10.3119891490001,0.468057913,0.597966650999999,0.051279765,0.879931039999999,11.0548768750001,0.468057913,0.549808263,0.06242754,1.08207736,10.2943013460001,0.391212584,0.610006247999999,0.07134576,0.957222279999999,10.6657452090001,0.363268828,0.610006247999999,0.046820655,0.8620946,11.0195012690001,0.412170401,0.610006247999999,0.04905021,1.04640448,10.5065549820001,0.412170401,0.597966650999999,0.05350932,0.885876519999999,10.8072476330001,0.377240706,0.650138237999999,0.037902435,0.969113239999999,10.6126818000001,0.48901573,0.601979849999999
"6",0.046820655,1.03451352,10.6834330120001,0.48901573,0.525729069,0.04013199,0.939385839999999,10.7541842240001,0.461071974,0.601979849999999,0.055738875,1.01667708,10.4711793760001,0.405184462,0.618032645999999,0.042361545,0.891821999999999,11.1256280870001,0.468057913,0.541781865,0.055738875,1.07613188,10.4181159670001,0.391212584,0.597966650999999,0.06688665,0.951276799999999,10.7718720270001,0.363268828,0.597966650999999,0.046820655,0.83831268,11.2317549050001,0.356282889,0.610006247999999,0.0445911,1.04640448,10.5949939970001,0.377240706,0.605993048999999,0.051279765,0.8620946,10.9487500570001,0.363268828,0.646125038999999,0.04013199,0.998840639999999,10.6657452090001,0.454086035,0.585927054
"7",0.042361545,1.040459,10.7364964210001,0.461071974,0.533755467,0.04013199,0.981004199999999,10.7541842240001,0.398198523,0.610006247999999,0.04905021,1.06424092,10.4358037700001,0.377240706,0.622045844999999,0.03567288,0.879931039999999,11.2848183140001,0.447100096,0.537768666,0.04013199,1.05829544,10.5949939970001,0.363268828,0.614019446999999,0.05796843,0.933440359999999,10.9133744510001,0.335325072,0.610006247999999,0.0445911,0.82047624,11.2848183140001,0.321353194,0.634085441999999,0.0445911,1.02262256,10.6657452090001,0.363268828,0.614019446999999,0.042361545,0.8620946,11.0548768750001,0.34929695,0.646125038999999,0.042361545,1.01667708,10.7011208150001,0.426142279,0.577900656
"8",0.042361545,1.02856804,10.8956866480001,0.440114157,0.517702671,0.033443325,0.933440359999999,10.9664378600001,0.370254767,0.622045844999999,0.0445911,1.05234996,10.5596183910001,0.328339133,0.638098640999999,0.03121377,0.84425816,11.4440085410001,0.370254767,0.577900656,0.04013199,1.00478612,10.8603110420001,0.34929695,0.597966650999999,0.055738875,0.939385839999999,10.9664378600001,0.321353194,0.605993048999999,0.03567288,0.8026398,11.4616963440001,0.293409438,0.638098640999999,0.042361545,1.03451352,10.7188086180001,0.328339133,0.618032645999999,0.04013199,0.80858528,11.3378817230001,0.342311011,0.626059043999999,0.03567288,0.975058719999999,10.9133744510001,0.370254767,0.601979849999999
"9",0.033443325,1.0107316,11.0902524810001,0.370254767,0.541781865,0.033443325,0.903712959999999,11.1433158900001,0.342311011,0.618032645999999,0.046820655,0.992895159999999,10.7718720270001,0.286423499,0.650138237999999,0.028984215,0.79074884,11.6916377830001,0.335325072,0.581913855,0.03567288,0.939385839999999,11.1256280870001,0.335325072,0.597966650999999,0.0445911,0.891821999999999,11.1433158900001,0.307381316,0.626059043999999,0.037902435,0.737239520000001,11.7447011920001,0.300395377,0.610006247999999,0.03567288,0.981004199999999,10.9133744510001,0.321353194,0.626059043999999,0.028984215,0.77885788,11.5855109650001,0.321353194,0.622045844999999,0.033443325,0.915603919999999,11.2140671020001,0.321353194,0.605993048999999
"10",0.028984215,0.945331319999999,11.3732573290001,0.370254767,0.529742268,0.028984215,0.873985559999999,11.3555695260001,0.300395377,0.622045844999999,0.042361545,0.957222279999999,10.9664378600001,0.237521926,0.666191033999999,0.02675466,0.76696692,11.8154524040001,0.307381316,0.589940253,0.028984215,0.873985559999999,11.4616963440001,0.34929695,0.569874258,0.0445911,0.85614912,11.3378817230001,0.286423499,0.618032645999999,0.037902435,0.695621160000001,11.9215792220001,0.258479743,0.622045844999999,0.033443325,0.933440359999999,11.0725646780001,0.321353194,0.626059043999999,0.024525105,0.76102144,11.7447011920001,0.286423499,0.626059043999999,0.042361545,0.873985559999999,11.3732573290001,0.300395377,0.593953451999999
"11",0.024525105,0.879931039999999,11.6208865710001,0.34929695,0.537768666,0.02229555,0.82642172,11.6208865710001,0.314367255,0.597966650999999,0.04013199,0.927494879999999,11.1610036930001,0.20957817,0.662177834999999,0.024525105,0.713457600000001,12.0100182370001,0.286423499,0.597966650999999,0.028984215,0.8323672,11.6562621770001,0.356282889,0.549808263,0.03567288,0.85614912,11.4440085410001,0.258479743,0.626059043999999,0.037902435,0.689675680000001,12.0630816460001,0.244507865,0.601979849999999,0.033443325,0.891821999999999,11.2848183140001,0.321353194,0.605993048999999,0.02229555,0.731294040000001,11.9569548280001,0.321353194,0.581913855,0.04013199,0.84425816,11.6385743740001,0.265465682,0.577900656
"12",0.020065995,0.8323672,11.9392670250001,0.328339133,0.517702671,0.020065995,0.8026398,11.7623889950001,0.293409438,0.597966650999999,0.037902435,0.85614912,11.4793841470001,0.195606292,0.650138237999999,0.024525105,0.636166360000001,12.2753352820001,0.272451621,0.597966650999999,0.028984215,0.743185000000001,12.0277060400001,0.293409438,0.56184786,0.03121377,0.8323672,11.5678231620001,0.230535987,0.638098640999999,0.03121377,0.654002800000001,12.3283986910001,0.202592231,0.601979849999999,0.03121377,0.8323672,11.5147597530001,0.321353194,0.597966650999999,0.01783644,0.689675680000001,12.1515206610001,0.321353194,0.573887457,0.042361545,0.8026398,11.8331402070001,0.223550048,0.581913855
"13",0.01783644,0.77885788,12.1338328580001,0.314367255,0.52171587,0.01783644,0.75507596,11.9392670250001,0.328339133,0.573887457,0.033443325,0.80858528,11.7270133890001,0.181634414,0.642111839999999,0.02229555,0.612384440000001,12.4522133120001,0.27943756,0.573887457,0.02675466,0.665893760000001,12.2930230850001,0.293409438,0.557834661,0.028984215,0.78480336,11.7447011920001,0.223550048,0.638098640999999,0.02229555,0.624275400000001,12.4875889180001,0.223550048,0.589940253,0.03121377,0.8026398,11.6385743740001,0.335325072,0.581913855,0.015606885,0.642111840000001,12.3814621000001,0.307381316,0.565861059,0.04013199,0.74913048,12.0453938430001,0.202592231,0.585927054
"14",0.01783644,0.737239520000001,12.4345255090001,0.27943756,0.501649875,0.01783644,0.743185000000001,12.0807694490001,0.328339133,0.549808263,0.03121377,0.737239520000001,12.0100182370001,0.188620353,0.626059043999999,0.024525105,0.564820600000001,12.7175303570001,0.237521926,0.565861059,0.02675466,0.606438960000001,12.6114035390001,0.272451621,0.537768666,0.02229555,0.737239520000001,12.0100182370001,0.174648475,0.650138237999999,0.024525105,0.576711560000001,12.7705937660001,0.202592231,0.565861059,0.033443325,0.76696692,11.8154524040001,0.321353194,0.569874258,0.020065995,0.564820600000001,12.6821547510001,0.293409438,0.549808263,0.04013199,0.701566640000001,12.3107108880001,0.195606292,0.56184786
"15",0.015606885,0.677784720000001,12.7175303570001,0.286423499,0.477570681,0.020065995,0.677784720000001,12.3637742970001,0.314367255,0.533755467,0.028984215,0.606438960000001,12.4522133120001,0.174648475,0.626059043999999,0.024525105,0.517256760000001,13.0535986140001,0.223550048,0.529742268,0.020065995,0.541038680000001,12.8236571750001,0.244507865,0.56184786,0.024525105,0.659948280000001,12.3283986910001,0.167662536,0.630072242999999,0.024525105,0.517256760000001,13.0889742200001,0.202592231,0.533755467,0.03567288,0.701566640000001,12.1515206610001,0.272451621,0.56184786,0.02229555,0.505365800000001,12.8767205840001,0.265465682,0.557834661,0.04013199,0.648057320000001,12.6467791450001,0.188620353,0.525729069
"16",0.015606885,0.624275400000001,13.0535986140001,0.258479743,0.453491487000001,0.020065995,0.630220880000001,12.5760279330001,0.293409438,0.529742268,0.02229555,0.564820600000001,12.6467791450001,0.153690658,0.634085441999999,0.02675466,0.45185648,13.3719790680001,0.216564109,0.501649875,0.015606885,0.493474840000001,13.0535986140001,0.223550048,0.56184786,0.024525105,0.570766080000001,12.6467791450001,0.146704719,0.630072242999999,0.020065995,0.499420320000001,13.2658522500001,0.181634414,0.525729069,0.03567288,0.677784720000001,12.2222718730001,0.251493804,0.573887457,0.01783644,0.493474840000001,12.9651595990001,0.258479743,0.557834661,0.04013199,0.618329920000001,12.8236571750001,0.167662536,0.517702671
"17",0.01337733,0.624275400000001,13.0889742200001,0.244507865,0.457504686000001,0.020065995,0.594548000000001,12.7175303570001,0.251493804,0.545795064,0.015606885,0.535093200000001,12.8590327810001,0.132732841,0.630072242999999,0.02675466,0.4161836,13.5488570980001,0.20957817,0.489610278,0.015606885,0.4756384,13.2835400530001,0.188620353,0.541781865,0.024525105,0.529147720000001,12.8767205840001,0.132732841,0.614019446999999,0.020065995,0.48158388,13.3719790680001,0.202592231,0.501649875,0.028984215,0.606438960000001,12.5406523270001,0.20957817,0.585927054,0.020065995,0.445911,13.1597254320001,0.202592231,0.573887457,0.037902435,0.600493480000001,12.9297839930001,0.132732841,0.529742268
"18",0.011147775,0.558875120000001,13.4250424770001,0.223550048,0.441451890000001,0.01783644,0.511311280000001,13.0712864170001,0.244507865,0.529742268,0.015606885,0.517256760000001,13.0535986140001,0.153690658,0.585927054,0.02675466,0.3864562,13.7257351280001,0.195606292,0.477570681,0.01783644,0.4756384,13.3189156590001,0.160676597,0.545795064,0.02229555,0.48158388,13.0889742200001,0.111775024,0.614019446999999,0.015606885,0.445911,13.6196083100001,0.181634414,0.489610278,0.028984215,0.564820600000001,12.8413449780001,0.20957817,0.545795064,0.02229555,0.40429264,13.3366034620001,0.174648475,0.573887457,0.03121377,0.558875120000001,13.1066620230001,0.146704719,0.52171587
"19",0.01337733,0.511311280000001,13.6196083100001,0.202592231,0.437438691000001,0.020065995,0.48158388,13.1951010380001,0.223550048,0.529742268,0.015606885,0.43402004,13.3542912650001,0.132732841,0.585927054,0.02675466,0.40429264,13.7080473250001,0.188620353,0.473557482000001,0.02229555,0.4161836,13.5311692950001,0.146704719,0.537768666,0.024525105,0.43402004,13.2835400530001,0.118760963,0.593953451999999,0.01783644,0.43402004,13.7080473250001,0.181634414,0.473557482000001,0.024525105,0.48752936,13.1420376290001,0.174648475,0.557834661,0.02229555,0.36267428,13.5488570980001,0.174648475,0.553821462,0.02675466,0.541038680000001,13.2835400530001,0.104789085,0.525729069
"20",0.015606885,0.46969292,13.8141741430002,0.146704719,0.449478288000001,0.01783644,0.43996552,13.4073546740001,0.20957817,0.52171587,0.015606885,0.34483784,13.7080473250001,0.146704719,0.557834661,0.024525105,0.36861976,13.8672375520002,0.167662536,0.477570681,0.02229555,0.38051072,13.7964863400002,0.132732841,0.509676273,0.02229555,0.39240168,13.4781058860001,0.125746902,0.577900656,0.01783644,0.36861976,13.9379887640002,0.167662536,0.473557482000001,0.024525105,0.445911,13.2835400530001,0.174648475,0.553821462,0.024525105,0.27349208,13.8849253550002,0.153690658,0.545795064,0.028984215,0.46374744,13.5842327040001,0.097803146,0.509676273
