"","X1","X2","X3","X4","X5","X1.1","X2.1","X3.1","X4.1","X5.1","X1.2","X2.2","X3.2","X4.2","X5.2","X1.3","X2.3","X3.3","X4.3","X5.3","X1.4","X2.4","X3.4","X4.4","X5.4","X1.5","X2.5","X3.5","X4.5","X5.5","X1.6","X2.6","X3.6","X4.6","X5.6","X1.7","X2.7","X3.7","X4.7","X5.7","X1.8","X2.8","X3.8","X4.8","X5.8","X1.9","X2.9","X3.9","X4.9","X5.9"
"1",4650326.02217989,27789196.8069659,158540675.346407,2252672.31101236,35706493.4752532,7333206.41959136,27406776.6674205,156735658.169788,2362558.76520809,34187068.2209871,8048641.19223442,26386989.6286328,156133985.777581,2252672.31101236,35706493.4752532,6796630.34010907,25239729.2099966,163354054.484059,2307615.53811023,33997140.0642039,6617771.6469483,29701297.504693,153125623.816549,2307615.53811023,33997140.0642039,9300652.04435977,28044143.5666629,156434821.973684,1483467.13164229,34376996.3777704,7333206.41959136,28171616.9465113,159142347.738613,1923012.94842519,33047499.2802876,7690923.80591289,28936457.2256022,158841511.54251,2362558.76520809,30198576.9285387,8406358.57855595,26386989.6286328,155833149.581478,1977956.17552305,36466206.1023863,6260054.26062677,28936457.2256022,154028132.404858,2527388.44650168,34187068.2209871
"2",4292608.63585836,26004569.4890874,164256563.072369,2857047.80908885,33047499.2802876,6617771.6469483,26132042.8689359,161248201.111336,3351536.85296961,30578433.2421052,6975489.03326983,25749622.7293905,160646528.71913,3571309.76136107,30388505.0853219,6796630.34010907,23200155.1324211,169370778.406124,3076820.7174803,30578433.2421052,6438912.95378754,27661723.4271175,158841511.54251,2966934.26328458,31338145.8692382,7869782.49907365,26641936.3883297,160646528.71913,2252672.31101236,32667642.9667211,6081195.56746601,26386989.6286328,164256563.072369,2307615.53811023,32477714.8099378,5902336.87430524,26641936.3883297,165459907.856782,2747161.35489313,30008648.7717554,6975489.03326983,24602362.3107543,161849873.503543,2472445.21940381,35136709.0049034,5723478.18114448,27279303.2875721,159443183.934717,3461423.30716534,30578433.2421052
"3",4292608.63585836,24219942.1712089,171175795.582743,3516366.5342632,29059007.9878391,6081195.56746601,24602362.3107543,166061580.248988,3900969.12394824,28489223.5174893,6260054.26062677,25367202.5898451,164858235.464575,3681196.21555679,28679151.6742726,5902336.87430524,22307841.4734819,172679976.563259,3571309.76136107,29059007.9878391,5544619.48798371,25877096.1092389,165159071.660678,3076820.7174803,30578433.2421052,7333206.41959136,24602362.3107543,167264925.033401,2637274.9006974,30768361.3988884,5723478.18114448,24219942.1712089,169972450.79833,2527388.44650168,31718002.1828047,4292608.63585836,25367202.5898451,169972450.79833,3296593.62587175,28869079.8310558,5186902.10166219,23710048.651815,166663252.641195,3021877.49038244,33427355.5938541,4829184.71534066,25622149.349542,164557399.268472,4230628.48653542,28109367.2039228
"4",3934891.24953683,22817734.9928757,175387502.328189,3736139.44265465,28109367.2039228,4292608.63585836,23200155.1324211,172379140.367156,3900969.12394824,28489223.5174893,6260054.26062677,24602362.3107543,168769106.013917,3846025.89685038,26779870.10644,5365760.79482295,21670474.5742395,178095028.093118,3516366.5342632,27349654.5767898,5902336.87430524,24857309.0704512,167565761.229504,3131763.94457816,30008648.7717554,6438912.95378754,22817734.9928757,173582485.151569,3021877.49038244,29059007.9878391,5008043.40850142,22307841.4734819,176590847.112601,2747161.35489313,30388505.0853219,3934891.24953683,24602362.3107543,172980812.759363,3461423.30716534,27919439.0471395,4471467.32901913,22307841.4734819,171175795.582743,3296593.62587175,32477714.8099378,4292608.63585836,24602362.3107543,168468269.817814,4120742.03233969,28109367.2039228
"5",3577173.8632153,21925421.3339365,179599209.073634,3846025.89685038,26779870.10644,3219456.47689377,22562788.2331788,176290010.916498,4010855.57814397,27729510.8903563,5723478.18114448,23327628.5122696,171476631.778846,3791082.66975252,27729510.8903563,4471467.32901913,20013320.6362095,184111752.015183,3571309.76136107,26779870.10644,5902336.87430524,23455101.8921181,171175795.582743,3351536.85296961,29059007.9878391,6081195.56746601,22180368.0936334,176290010.916498,3021877.49038244,28679151.6742726,4471467.32901913,19630900.4966641,183510079.622976,3076820.7174803,29438864.3014056,3398315.17005453,23072681.7525727,177794191.897014,3461423.30716534,27729510.8903563,4829184.71534066,20650687.5354518,178696700.485324,2857047.80908885,31338145.8692382,3756032.55637606,22562788.2331788,175387502.328189,4120742.03233969,27349654.5767898
"6",3577173.8632153,20523214.1556033,184713424.407389,3736139.44265465,26020157.4793069,3040597.783733,21033107.6749972,180501717.661944,3955912.3510461,27729510.8903563,4829184.71534066,22180368.0936334,175387502.328189,3681196.21555679,28299295.3607061,4113749.94269759,18866060.2175733,188022622.564525,3681196.21555679,26020157.4793069,5008043.40850142,23200155.1324211,175086666.132085,3076820.7174803,28869079.8310558,5723478.18114448,20523214.1556033,181404226.250253,2857047.80908885,28869079.8310558,3756032.55637606,18483640.0780279,187420950.172318,3241650.39877389,28869079.8310558,3934891.24953683,22435314.8533303,178696700.485324,3241650.39877389,28299295.3607061,4292608.63585836,18993533.5974217,183810915.819079,2966934.26328458,30768361.3988884,3040597.783733,20778160.9153003,180501717.661944,3846025.89685038,28489223.5174893
"7",3756032.55637606,22180368.0936334,181705062.446357,3846025.89685038,24880588.5386074,3219456.47689377,20140794.0160579,182908407.23077,3626252.98845893,28489223.5174893,4471467.32901913,21797947.954088,178095028.093118,3186707.17167603,29248936.1446224,3398315.17005453,19121006.9772702,189225967.348938,3681196.21555679,25640301.1657404,4471467.32901913,23072681.7525727,177192519.504808,3076820.7174803,28299295.3607061,5365760.79482295,20395740.7757549,183209243.426873,2857047.80908885,28299295.3607061,3756032.55637606,17973746.558634,191030984.525557,2802104.58199099,28869079.8310558,3577173.8632153,22435314.8533303,180200881.46584,2966934.26328458,28679151.6742726,4113749.94269759,18483640.0780279,186217605.387905,2857047.80908885,30578433.2421052,3219456.47689377,21415527.8145426,181404226.250253,3571309.76136107,27729510.8903563
"8",3398315.17005453,22307841.4734819,182607571.034666,3626252.98845893,25260444.8521739,3219456.47689377,21033107.6749972,182908407.23077,3131763.94457816,28869079.8310558,3934891.24953683,22817734.9928757,177493355.700911,2966934.26328458,29438864.3014056,2861739.09057224,18866060.2175733,191933493.113867,3516366.5342632,25450373.0089571,3219456.47689377,22690261.6130273,180200881.46584,2857047.80908885,29059007.9878391,4650326.02217989,20013320.6362095,185615932.995699,2637274.9006974,28869079.8310558,3577173.8632153,17591326.4190886,191933493.113867,2527388.44650168,30008648.7717554,3577173.8632153,21925421.3339365,181404226.250253,2857047.80908885,29059007.9878391,3398315.17005453,18483640.0780279,188022622.564525,2747161.35489313,30578433.2421052,3398315.17005453,21797947.954088,182005898.64246,3351536.85296961,27349654.5767898
"9",3398315.17005453,22052894.7137849,185315096.799596,3461423.30716534,24500732.2250408,2682880.39741147,20013320.6362095,186518441.584008,2911991.03618671,29438864.3014056,3577173.8632153,22562788.2331788,179599209.073634,2582331.67359954,30198576.9285387,2504021.70425071,18101219.9384824,194641018.878796,2911991.03618671,27349654.5767898,3219456.47689377,21543001.1943911,184713424.407389,2747161.35489313,28299295.3607061,4471467.32901913,20140794.0160579,186518441.584008,2527388.44650168,28679151.6742726,2861739.09057224,17208906.2795432,194941855.074899,2307615.53811023,30198576.9285387,3398315.17005453,22180368.0936334,182306734.838563,2582331.67359954,29248936.1446224,3219456.47689377,17336379.6593916,192836001.702177,2692218.12779526,29628792.4581889,2861739.09057224,20905634.2951487,185615932.995699,2911991.03618671,28489223.5174893
"10",2682880.39741147,21670474.5742395,188624294.956731,2911991.03618671,25640301.1657404,2682880.39741147,19375953.7369671,189526803.545041,2692218.12779526,29248936.1446224,3756032.55637606,21288054.4346941,183209243.426873,2252672.31101236,30768361.3988884,2325163.01108994,16953959.5198462,198852725.624241,2637274.9006974,27539582.733573,2861739.09057224,20140794.0160579,189225967.348938,2637274.9006974,28299295.3607061,3577173.8632153,19121006.9772702,189526803.545041,2417501.99230595,29628792.4581889,3040597.783733,15806699.10121,199755234.212551,2362558.76520809,28869079.8310558,2861739.09057224,21033107.6749972,185615932.995699,2527388.44650168,29628792.4581889,2325163.01108994,16699012.7601493,197047708.447622,2527388.44650168,29438864.3014056,2682880.39741147,19630900.4966641,190730148.329454,2527388.44650168,28679151.6742726
"11",2325163.01108994,20268267.3959064,193437674.094383,2911991.03618671,25070516.6953906,2325163.01108994,18738586.8377248,193136837.89828,2362558.76520809,29438864.3014056,3398315.17005453,20523214.1556033,186518441.584008,1868069.72132733,31528074.0260215,2146304.31792918,16444066.0004524,200958578.996964,2417501.99230595,27919439.0471395,2325163.01108994,18738586.8377248,194941855.074899,2747161.35489313,26969798.2632232,3577173.8632153,18356166.6981794,192836001.702177,2252672.31101236,29248936.1446224,3040597.783733,14914385.4422708,202763596.173584,2032899.40262091,29438864.3014056,2682880.39741147,20013320.6362095,188323458.760628,2527388.44650168,29628792.4581889,1967445.62476841,16316592.6206039,199755234.212551,2252672.31101236,29628792.4581889,3398315.17005453,18738586.8377248,193437674.094383,2362558.76520809,28109367.2039228
"12",1967445.62476841,18866060.2175733,197649380.839828,2747161.35489313,25450373.0089571,1788586.93160765,17718799.798937,197649380.839828,2472445.21940381,28299295.3607061,3219456.47689377,19885847.256361,189827639.741144,1648296.81293588,31338145.8692382,1967445.62476841,15296805.5818162,204267777.1541,2252672.31101236,28299295.3607061,2325163.01108994,17846273.1787855,198251053.232035,2802104.58199099,26020157.4793069,2861739.09057224,18356166.6981794,194641018.878796,2032899.40262091,29628792.4581889,3040597.783733,14786912.0624223,205170285.742409,1923012.94842519,28489223.5174893,2682880.39741147,19121006.9772702,191933493.113867,2527388.44650168,28679151.6742726,1788586.93160765,15679225.7213616,203365268.56579,2527388.44650168,27539582.733573,3219456.47689377,18101219.9384824,197950217.035932,2087842.62971878,27349654.5767898
"13",1609728.23844688,17846273.1787855,203064432.369687,2582331.67359954,24500732.2250408,1609728.23844688,17208906.2795432,200056070.408654,2307615.53811023,28299295.3607061,3040597.783733,18356166.6981794,195242691.271003,1538410.35874015,30768361.3988884,1967445.62476841,13639651.6437861,208780320.095648,2142785.85681664,28299295.3607061,2325163.01108994,15934172.4810585,204568613.350203,2307615.53811023,26589941.9496567,2504021.70425071,17846273.1787855,196746872.251519,1813126.49422946,30198576.9285387,2504021.70425071,14022071.7833315,209682828.683958,1593353.58583801,28489223.5174893,2504021.70425071,17846273.1787855,195844363.663209,2527388.44650168,28299295.3607061,1430869.54528612,14786912.0624223,206674466.722926,2527388.44650168,27159726.4200065,3398315.17005453,17208906.2795432,201259415.193067,1758183.2671316,27539582.733573
"14",1430869.54528612,16699012.7601493,206373630.526822,2472445.21940381,24690660.3818241,1430869.54528612,16189119.2407554,203064432.369687,2582331.67359954,27159726.4200065,2682880.39741147,17336379.6593916,199454398.016448,1428523.90454443,30388505.0853219,1788586.93160765,13129758.1243922,211788682.056681,2197729.0839145,27159726.4200065,2146304.31792918,14277018.5430284,209081156.291752,2307615.53811023,26400013.7928734,2325163.01108994,16826486.1399978,199755234.212551,1758183.2671316,30198576.9285387,1788586.93160765,13384704.8840892,212390354.448887,1758183.2671316,27919439.0471395,2504021.70425071,17208906.2795432,197950217.035932,2637274.9006974,27539582.733573,1252010.85212535,13767125.0236346,210585337.272268,2417501.99230595,26779870.10644,3219456.47689377,16061645.860907,204869449.546306,1593353.58583801,27729510.8903563
"15",1430869.54528612,15806699.10121,211487845.860578,2197729.0839145,23741019.5979078,1430869.54528612,15934172.4810585,205471121.938513,2582331.67359954,26020157.4793069,2504021.70425071,15806699.10121,204267777.1541,1483467.13164229,29628792.4581889,1967445.62476841,12109971.0856045,216301224.998229,1868069.72132733,26779870.10644,2146304.31792918,13002284.7445438,214496207.82161,2142785.85681664,25450373.0089571,1788586.93160765,15806699.10121,204267777.1541,1373580.67744656,30768361.3988884,1967445.62476841,12364917.8453014,217203733.586539,1593353.58583801,26779870.10644,2682880.39741147,16444066.0004524,200958578.996964,2527388.44650168,26969798.2632232,1609728.23844688,12109971.0856045,215699552.606023,2307615.53811023,26020157.4793069,3219456.47689377,15041858.8221192,209381992.487855,1538410.35874015,26589941.9496567
"16",1252010.85212535,14531965.3027254,216301224.998229,2252672.31101236,22601450.6572082,1609728.23844688,14531965.3027254,210284501.076165,2472445.21940381,25260444.8521739,2325163.01108994,13002284.7445438,211788682.056681,1373580.67744656,29628792.4581889,1967445.62476841,11090184.0468167,222017112.724191,1758183.2671316,25070516.6953906,1609728.23844688,11600077.5662106,218106242.174849,1923012.94842519,26589941.9496567,1967445.62476841,14149545.16318,209682828.683958,1318637.4503487,29818720.6149721,1967445.62476841,11090184.0468167,222618785.116397,1593353.58583801,25260444.8521739,2861739.09057224,15041858.8221192,206674466.722926,2142785.85681664,26589941.9496567,1788586.93160765,10835237.2871198,219008750.763159,2087842.62971878,26400013.7928734,3219456.47689377,13894598.403483,215097880.213816,1483467.13164229,24880588.5386074
"17",1252010.85212535,13384704.8840892,222017112.724191,2032899.40262091,21461881.7165087,1609728.23844688,13512178.2639376,213894535.429403,2307615.53811023,25070516.6953906,1788586.93160765,12109971.0856045,215097880.213816,1208750.99615298,30008648.7717554,2146304.31792918,9687976.86848358,227432164.254049,1703240.04003374,23741019.5979078,1252010.85212535,10580290.5274229,222017112.724191,1758183.2671316,26589941.9496567,1967445.62476841,12237444.4654529,215097880.213816,1153807.76905511,29818720.6149721,1609728.23844688,10707763.9072713,225627147.07743,1428523.90454443,24880588.5386074,2861739.09057224,14531965.3027254,207877811.507339,1977956.17552305,27159726.4200065,1430869.54528612,10580290.5274229,220512931.743675,2032899.40262091,26400013.7928734,3219456.47689377,13257231.5042407,218106242.174849,1318637.4503487,24500732.2250408
"18",1073152.15896459,13384704.8840892,222618785.116397,1923012.94842519,21651809.8732919,1609728.23844688,12747337.9848468,216301224.998229,1977956.17552305,25830229.3225237,1252010.85212535,11472604.1863621,218707914.567055,1043921.31485939,29818720.6149721,2146304.31792918,8923136.58939276,230440526.215082,1648296.81293588,23171235.127558,1252010.85212535,10197870.3878774,225927983.273533,1483467.13164229,25640301.1657404,1967445.62476841,11345130.8065137,219008750.763159,1043921.31485939,29059007.9878391,1609728.23844688,10325343.7677259,227432164.254049,1593353.58583801,23741019.5979078,2325163.01108994,13002284.7445438,213292863.037197,1648296.81293588,27729510.8903563,1609728.23844688,9560503.48863511,223822129.90081,1593353.58583801,27159726.4200065,3040597.783733,12874811.3646953,219911259.351468,1043921.31485939,25070516.6953906
"19",894293.465803825,11982497.705756,228334672.842359,1758183.2671316,20892097.2461589,1430869.54528612,10962710.6669683,222317948.920294,1923012.94842519,25070516.6953906,1252010.85212535,11090184.0468167,222017112.724191,1208750.99615298,27729510.8903563,2146304.31792918,8285769.69015042,233448888.176114,1538410.35874015,22601450.6572082,1430869.54528612,10197870.3878774,226529655.66574,1263694.22325084,25830229.3225237,1788586.93160765,10325343.7677259,222618785.116397,879091.633565801,29059007.9878391,1252010.85212535,9560503.48863511,231643870.999495,1428523.90454443,23171235.127558,2325163.01108994,12109971.0856045,218407078.370952,1648296.81293588,25830229.3225237,1788586.93160765,8668189.82969583,226830491.861843,1373580.67744656,27159726.4200065,2504021.70425071,11982497.705756,222919621.312501,1153807.76905511,24690660.3818241
"20",1073152.15896459,10962710.6669683,231643870.999495,1593353.58583801,20702169.0893756,1609728.23844688,10325343.7677259,224423802.293017,1758183.2671316,25070516.6953906,1252010.85212535,9305556.72893817,227131328.057946,1043921.31485939,27729510.8903563,2146304.31792918,8668189.82969583,233148051.980011,1483467.13164229,22411522.500425,1788586.93160765,8923136.58939276,230139690.018978,1153807.76905511,25450373.0089571,1967445.62476841,9305556.72893817,225927983.273533,934034.860663663,28109367.2039228,1430869.54528612,9305556.72893817,233148051.980011,1428523.90454443,22411522.500425,1967445.62476841,10452817.1475744,223521293.704707,1373580.67744656,26400013.7928734,1788586.93160765,7775876.17075655,230440526.215082,1373580.67744656,26210085.6360902,2146304.31792918,11600077.5662106,225927983.273533,824148.406467938,24880588.5386074
"21",1252010.85212535,10070397.008029,234953069.15663,1153807.76905511,21271953.5597254,1430869.54528612,9433030.10878664,228033836.646256,1648296.81293588,24690660.3818241,1252010.85212535,7393456.03121114,233148051.980011,1153807.76905511,26400013.7928734,1967445.62476841,7903349.55060502,235855577.74494,1318637.4503487,22601450.6572082,1788586.93160765,8158296.31030195,234652232.960527,1043921.31485939,24120875.9114743,1788586.93160765,8413243.06999889,229237181.430669,988978.087761526,27349654.5767898,1430869.54528612,7903349.55060502,237058922.529353,1318637.4503487,22411522.500425,1967445.62476841,9560503.48863511,225927983.273533,1373580.67744656,26210085.6360902,1967445.62476841,5863775.47302953,236156413.941043,1208750.99615298,25830229.3225237,2325163.01108994,9942923.62818051,231042198.607288,769205.179370075,24120875.9114743
