"","Current Management","No Management","No Base"
"mean",9097843.83786373,9069804.99590667,1910951.19852238
"standard_deviation",1768165.74627588,1805409.4164808,380172.588340765
"confidence_interval_95_percent",34655.4118139811,35385.3743365185,7451.24581057271
"confidence_interval_95_percent_low",9063188.42604975,9034419.62157015,1903499.95271181
"confidence_interval_95_percent_high",9132499.24967771,9105190.37024319,1918402.44433296
