"","Current Management","No Management","No Base"
"mean",6577291.98650066,6496115.95677535,1404813.80355312
"standard_deviation",1626380.4243957,1663221.95424262,341263.341241625
"confidence_interval_95_percent",31876.4705697655,32598.5512861186,6688.63858077387
"confidence_interval_95_percent_low",6545415.51593089,6463517.40548923,1398125.16497234
"confidence_interval_95_percent_high",6609168.45707042,6528714.50806146,1411502.44213389
