"","Early1.ALL","Late1.CLS","Late1.OPN","Mid1.CLS","Mid1.OPN","Early1.ALL.1","Late1.CLS.1","Late1.OPN.1","Mid1.CLS.1","Mid1.OPN.1","Early1.ALL.2","Late1.CLS.2","Late1.OPN.2","Mid1.CLS.2","Mid1.OPN.2","Early1.ALL.3","Late1.CLS.3","Late1.OPN.3","Mid1.CLS.3","Mid1.OPN.3","Early1.ALL.4","Late1.CLS.4","Late1.OPN.4","Mid1.CLS.4","Mid1.OPN.4","Early1.ALL.5","Late1.CLS.5","Late1.OPN.5","Mid1.CLS.5","Mid1.OPN.5","Early1.ALL.6","Late1.CLS.6","Late1.OPN.6","Mid1.CLS.6","Mid1.OPN.6","Early1.ALL.7","Late1.CLS.7","Late1.OPN.7","Mid1.CLS.7","Mid1.OPN.7","Early1.ALL.8","Late1.CLS.8","Late1.OPN.8","Mid1.CLS.8","Mid1.OPN.8","Early1.ALL.9","Late1.CLS.9","Late1.OPN.9","Mid1.CLS.9","Mid1.OPN.9"
"0",15.8714355285927,NA,NA,9.74855604256222,NA,17.7561684976131,NA,NA,8.67996432251213,NA,17.0948586839217,NA,NA,9.0549087856876,NA,16.0698284727001,NA,NA,9.63607270360958,NA,16.3012869074921,NA,NA,9.50484214149817,NA,17.7231030069285,NA,NA,8.69871154567091,NA,16.3012869074921,NA,NA,9.50484214149817,NA,16.6319418143378,NA,NA,9.31736990991043,NA,15.5738461124316,NA,NA,9.91728105099119,NA,17.7561684976131,NA,NA,8.67996432251213,NA
"1",14.4165539384717,0.308044987221618,NA,9.82354493519732,0.151845705122039,15.6399770938007,0.308044987221618,NA,8.99866711621128,0.188498116703221,15.7391735658544,0.336049076969038,NA,8.92367822357619,0.188498116703221,14.2512264850489,0.224032717979358,NA,9.67356714992713,0.235622645879026,14.4165539384717,0.280040897474198,0.0409067093539975,9.50484214149817,0.240858704676337,16.0367629820156,0.140020448737099,NA,8.90493100041742,0.183262057905909,14.8794708080557,0.448065435958717,NA,9.54233658781571,0.130901469932792,14.4165539384717,0.224032717979358,NA,9.71106159624468,0.198970234297844,13.8213751061495,0.252036807726778,NA,10.0672588362614,0.188498116703221,15.772239056539,0.364053166716457,NA,8.94242544673496,0.172789940311285
"2",12.5979519508205,0.672098153938075,NA,9.95477549730873,0.335107763027948,14.4826849198409,0.672098153938075,NA,8.99866711621128,0.303691410244078,14.2512264850489,0.532077705200976,NA,9.29862268675166,0.282747175054831,12.3334280253439,0.476069525706137,NA,9.86103938151486,0.439828938974182,12.7963448949279,0.560081794948396,0.0409067093539975,9.78605048887977,0.366524115811818,14.1520300129952,0.196028628231939,NA,9.14864490148147,0.403176527393,13.4907201993038,0.756110423180334,NA,9.56108381097449,0.287983233852143,12.862475876297,0.616089974443236,NA,9.74855604256222,0.361288057014506,12.5979519508205,0.476069525706137,NA,10.1422477288965,0.319399586636013,14.1850955036797,0.448065435958717,NA,9.1298976783227,0.356051998217195
"3",11.3083978141223,0.924134961664853,NA,10.2172366215316,0.418884703784935,12.1350350812365,1.00814723090711,NA,9.50484214149817,0.471245291758052,12.9616723483507,0.840122692422594,NA,9.31736990991043,0.424120762582247,10.7462844724847,0.644094064190655,NA,10.2734782910079,0.544550114920415,11.3083978141223,0.812118602675174,NA,10.2547310678491,0.429356821379558,12.5648864601359,0.476069525706137,NA,9.42985324886307,0.523605879731168,11.407594286176,0.784114512927754,NA,10.2547310678491,0.418884703784935,11.5067907582297,0.700102243685495,NA,9.89853382783241,0.518369820933857,11.3083978141223,0.672098153938075,NA,10.4609505225956,0.397940468595688,11.5729217395989,0.532077705200976,NA,9.95477549730873,0.523605879731168
"4",10.3494985842698,1.03615132065453,NA,10.3672144068017,0.507897703339234,10.8785464352229,1.00814723090711,NA,9.82354493519732,0.581202526501597,11.1430703606995,0.980143141159692,NA,10.0485116131026,0.481717409352675,10.0188436774242,0.840122692422594,NA,10.3672144068017,0.596910702893532,10.3825640749544,0.924134961664853,NA,10.4234560762781,0.507897703339234,11.1430703606995,0.616089974443236,NA,9.71106159624468,0.644035232069336,10.8454809445384,0.896130871917433,NA,10.348467183643,0.460773174163429,9.72125426126305,0.784114512927754,NA,10.6296755310246,0.581202526501597,9.95271269605503,0.812118602675174,NA,10.7796533162948,0.49742558574461,10.2833676029007,0.756110423180334,NA,10.4234560762781,0.555022232515038
"5",9.2583373916791,0.868126782170013,NA,10.9483783247237,0.549786173717727,9.4567303357865,1.00814723090711,NA,10.2734782910079,0.680687643650518,9.42366484510194,1.12016358989679,NA,10.6109283078658,0.570730408906973,8.72928954072601,0.896130871917433,NA,10.9671255478825,0.62309099688009,8.49783110593403,1.12016358989679,NA,11.2295866721053,0.544550114920415,9.91964720537046,0.728106333432915,NA,10.1609949520552,0.691159761245141,9.2583373916791,1.03615132065453,NA,11.0421144405176,0.492189526947299,8.43170012456489,0.756110423180334,NA,11.1545977794702,0.644035232069336,8.66315855935687,0.896130871917433,NA,11.2295866721053,0.56025829131235,8.96074797551798,0.784114512927754,NA,10.7984005394535,0.65450734966396
"6",7.43973540402785,0.924134961664853,NA,11.7920033668685,0.59167464409622,7.67119383881983,0.924134961664853,NA,11.342070011058,0.680687643650518,8.66315855935687,1.12016358989679,NA,10.8171477626123,0.633563114474713,7.86958678292724,1.09215950014937,NA,11.3045755647404,0.628327055677401,7.43973540402785,1.14816767964421,NA,11.7732561437098,0.555022232515038,8.72928954072601,0.700102243685495,NA,10.8171477626123,0.701631878839765,7.50586638539699,0.812118602675174,NA,12.0732117142501,0.523605879731168,7.60506285745069,0.784114512927754,NA,11.585783912122,0.649271290866648,7.67119383881983,1.06415541040195,0.0409067093539975,11.5482894658045,0.59167464409622,8.20024168977292,0.700102243685495,NA,11.0983561099939,0.706867937637076
"7",6.2493777393834,0.952139051412273,0.0409067093539975,12.579386739537,0.549786173717727,6.9768185344439,0.924134961664853,NA,11.8857394826624,0.638799173272025,7.14214598786674,1.17617176939163,NA,11.6795200279159,0.62309099688009,6.51390166485994,1.03615132065453,NA,12.166947830044,0.612618879285466,6.71229460896735,1.09215950014937,NA,12.0357172679326,0.607382820488155,6.81149108102105,0.840122692422594,NA,11.9419811521387,0.664979467258583,6.71229460896735,0.896130871917433,NA,12.2794311689966,0.575966467704285,6.05098479527599,0.756110423180334,0.0409067093539975,12.5981339626958,0.612618879285466,7.27440795060501,1.06415541040195,0.0409067093539975,11.7920033668685,0.586438585298908,7.27440795060501,0.672098153938075,NA,11.8669922595036,0.644035232069336
"8",5.42274047226919,0.868126782170013,0.0409067093539975,13.1980451037765,0.523605879731168,4.99288909336981,0.980143141159692,NA,12.9730784258713,0.638799173272025,5.91872283253772,1.09215950014937,NA,12.3919145079493,0.633563114474713,5.35660949090006,1.03615132065453,NA,12.8418478637598,0.607382820488155,5.65419890706117,1.20417585913905,NA,12.7293645248072,0.56025829131235,6.21631224869883,0.896130871917433,NA,12.2044422763615,0.675451584853206,6.01791930459142,0.868126782170013,NA,12.8793423100774,0.523605879731168,5.02595458405438,0.812118602675174,NA,13.2167923269353,0.596910702893532,6.38163970212167,0.980143141159692,0.0409067093539975,12.335672838473,0.59167464409622,5.55500243500747,0.728106333432915,NA,12.9168367563949,0.612618879285466
"9",5.29047850953092,0.896130871917433,0.0409067093539975,13.4980006743169,0.455537115366117,4.8936926213161,0.756110423180334,NA,13.3855173353643,0.581202526501597,5.42274047226919,0.756110423180334,NA,13.160550657459,0.56025829131235,4.56303771447042,0.952139051412273,NA,13.5354951206345,0.555022232515038,4.99288909336981,1.03615132065453,NA,13.2917812195704,0.539314056123103,4.62916869583956,0.784114512927754,NA,13.3667701122055,0.62309099688009,4.8936926213161,0.728106333432915,NA,13.7042201290635,0.49742558574461,3.76946593804079,0.728106333432915,NA,14.079164592239,0.570730408906973,4.49690673310129,0.952139051412273,0.0409067093539975,13.4980006743169,0.570730408906973,4.8936926213161,0.616089974443236,NA,13.5542423437933,0.56025829131235
"10",4.39771026104758,0.756110423180334,0.0409067093539975,14.3416257164618,0.387468351001065,3.63720397530252,0.728106333432915,NA,14.3603729396206,0.513133762136545,4.52997222378586,0.672098153938075,NA,14.0041756996039,0.481717409352675,2.84363219887288,0.952139051412273,NA,14.6228340638434,0.523605879731168,3.40574554051054,0.924134961664853,0.0409067093539975,14.4353618322557,0.486953468149987,3.53800750324881,0.616089974443236,NA,14.3603729396206,0.549786173717727,3.86866241009449,0.672098153938075,NA,14.4541090554145,0.460773174163429,3.43881103119511,0.644094064190655,NA,14.5290979480496,0.513133762136545,3.17428710571856,0.784114512927754,0.0409067093539975,14.491603501732,0.534077997325792,3.07509063366486,0.504073615453556,0.0409067093539975,14.8852951880663,0.492189526947299
"11",3.10815612434943,0.560081794948396,0.0818134187079951,15.4664591059883,0.308927469041389,2.47991180134263,0.616089974443236,NA,15.7101730070524,0.34034382182526,3.37268004982597,0.560081794948396,NA,15.1852507586067,0.356051998217195,2.90976318024202,0.756110423180334,NA,15.3164813207181,0.356051998217195,1.81860198765126,0.700102243685495,0.0818134187079951,16.1038646933867,0.308927469041389,2.77750121750374,0.560081794948396,NA,15.2789868744006,0.424120762582247,2.57910827339633,0.588085884695816,NA,15.7851618996875,0.308927469041389,1.78553649696669,0.448065435958717,NA,16.2913369249744,0.319399586636013,1.55407806217471,0.728106333432915,NA,15.8976452386401,0.413648644987623,1.95086395038953,0.420061346211297,0.0409067093539975,16.1038646933867,0.345579880622571
"12",1.81860198765126,0.504073615453556,0.0818134187079951,16.2538424786568,0.303691410244078,2.57910827339633,0.392057256463877,NA,15.8788980154814,0.319399586636013,2.18232238518151,0.448065435958717,NA,15.9726341312752,0.345579880622571,2.90976318024202,0.448065435958717,NA,15.5976896680997,0.335107763027948,2.28151885723522,0.700102243685495,0.0409067093539975,16.0288758007515,0.261802939865584,2.71137023613461,0.392057256463877,NA,15.578942444941,0.382232292203753,1.65327453422842,0.336049076969038,NA,16.403820263927,0.329871704230636,1.52101257149014,0.364053166716457,NA,16.5163036028797,0.314163527838701,2.28151885723522,0.588085884695816,NA,15.6539313375761,0.392704409798377,2.64523925476547,0.308044987221618,0.0409067093539975,15.8039091228463,0.34034382182526
"13",1.71940551559755,0.280040897474198,0.0409067093539975,16.4788091565621,0.303691410244078,2.24845336655065,0.196028628231939,NA,16.1976008091805,0.319399586636013,2.24845336655065,0.336049076969038,NA,15.9538869081165,0.361288057014506,1.3556851180673,0.280040897474198,NA,16.6287869418323,0.324635645433324,1.28955413669816,0.588085884695816,0.0409067093539975,16.6287869418323,0.272275057460207,1.42181609943644,0.140020448737099,NA,16.3850730407683,0.408412586190312,2.24845336655065,0.252036807726778,NA,16.1226119165454,0.329871704230636,1.8847329690204,0.196028628231939,NA,16.4975563797209,0.293219292649454,1.12422668327532,0.420061346211297,NA,16.4788091565621,0.376996233406441,1.58714355285928,0.168024538484519,NA,16.5350508260385,0.335107763027948
"14",1.65327453422842,0.252036807726778,0.0409067093539975,16.7975119502613,0.230386587081714,0.892768248483345,0.0560081794948396,NA,17.2099508597544,0.277511116257519,1.32261962738273,0.252036807726778,NA,16.6475341649911,0.329871704230636,2.14925689449694,0.140020448737099,NA,16.2913369249744,0.319399586636013,1.8847329690204,0.532077705200976,NA,16.4225674870858,0.251330822270961,2.24845336655065,0.0280040897474198,NA,16.1413591397042,0.366524115811818,1.32261962738273,0.0840122692422594,NA,16.909995289214,0.287983233852143,1.85166747833583,0.168024538484519,NA,16.6100397186736,0.272275057460207,1.71940551559755,0.252036807726778,NA,16.4413147102446,0.324635645433324,2.21538787586608,0.112016358989679,NA,16.3475785944507,0.298455351446766
"15",1.42181609943644,0.168024538484519,NA,17.1162147439605,0.198970234297844,0.79357177642964,NA,NA,17.4724119839772,0.230386587081714,1.9839294410741,0.0560081794948396,NA,16.4975563797209,0.303691410244078,1.19035766464446,0.0560081794948396,NA,17.0224786281666,0.282747175054831,0.99196472053705,0.336049076969038,NA,17.153709190278,0.225150528284402,1.58714355285928,NA,NA,16.6287869418323,0.34034382182526,2.14925689449694,NA,NA,16.5912924955148,0.261802939865584,1.78553649696669,0.112016358989679,NA,16.8162591734201,0.235622645879026,1.12422668327532,0.112016358989679,NA,17.0599730744842,0.272275057460207,1.52101257149014,0.0280040897474198,NA,16.8537536197376,0.282747175054831
"16",1.91779845970496,0.140020448737099,NA,16.8912480660552,0.188498116703221,0.694375304375935,NA,NA,17.6036425460886,0.209442351892467,1.81860198765126,NA,NA,16.741270280785,0.272275057460207,1.28955413669816,NA,NA,17.1349619671193,0.246094763473649,0.99196472053705,0.196028628231939,NA,17.3599286450246,0.193734175500532,1.09116119259075,NA,NA,17.1724564134368,0.267038998662896,1.58714355285928,NA,NA,16.9662369586903,0.246094763473649,1.05809570190619,0.0840122692422594,NA,17.3411814218658,0.209442351892467,2.01699493175867,0.0560081794948396,NA,16.741270280785,0.230386587081714,2.08312591312781,NA,NA,16.7037758344675,0.240858704676337
"17",1.3556851180673,0.0280040897474198,NA,17.322434198707,0.178025999108597,0.628244323006799,NA,NA,17.7911147776764,0.167553881513974,1.42181609943644,NA,NA,17.1162147439605,0.230386587081714,1.2564886460136,NA,NA,17.2474453060719,0.219914469487091,0.958899229852482,0.0560081794948396,NA,17.659884215565,0.141373587527415,1.75247100628212,NA,NA,17.0787202976429,0.188498116703221,1.68634002491298,NA,NA,17.0412258513254,0.209442351892467,1.05809570190619,NA,NA,17.4724119839772,0.188498116703221,1.65327453422842,NA,NA,17.1162147439605,0.193734175500532,1.62020904354385,NA,NA,16.9849841818491,0.235622645879026
"18",1.95086395038953,0.0280040897474198,NA,17.1162147439605,0.141373587527415,0.727440795060504,NA,NA,17.8661036703115,0.130901469932792,1.85166747833583,NA,NA,17.0037314050078,0.193734175500532,1.12422668327532,NA,NA,17.491159207136,0.172789940311285,0.958899229852482,0.0560081794948396,NA,17.6786314387237,0.136137528730104,1.12422668327532,NA,NA,17.5661480997711,0.151845705122039,2.11619140381237,NA,NA,16.8725008428964,0.188498116703221,1.85166747833583,NA,NA,17.2099508597544,0.136137528730104,1.65327453422842,NA,NA,17.1162147439605,0.193734175500532,1.32261962738273,NA,NA,17.1162147439605,0.246094763473649
"19",2.28151885723522,0.0280040897474198,NA,16.9662369586903,0.130901469932792,1.75247100628212,NA,NA,17.2849397523895,0.130901469932792,1.71940551559755,NA,NA,17.153709190278,0.172789940311285,1.05809570190619,NA,NA,17.5848953229299,0.15708176391935,1.81860198765126,0.0280040897474198,NA,17.322434198707,0.104721175946234,2.01699493175867,NA,NA,17.2099508597544,0.109957234743545,1.28955413669816,NA,NA,17.4724119839772,0.151845705122039,0.859702757798777,NA,NA,17.8098620008352,0.12566541113548,0.925833739167913,NA,NA,17.7161258850413,0.141373587527415,1.05809570190619,NA,NA,17.3036869755482,0.235622645879026
"20",1.45488159012101,0.0280040897474198,NA,17.5099064302948,0.109957234743545,1.62020904354385,NA,NA,17.3599286450246,0.130901469932792,0.859702757798777,NA,NA,17.8848508934703,0.104721175946234,2.08312591312781,NA,NA,17.153709190278,0.115193293540857,0.958899229852482,0.0280040897474198,NA,17.8848508934703,0.083776940756987,1.8847329690204,NA,NA,17.4536647608184,0.0628327055677402,1.8847329690204,NA,NA,17.1912036365956,0.136137528730104,1.62020904354385,NA,NA,17.4724119839772,0.099485117148922,1.02503021122162,NA,NA,17.7161258850413,0.12566541113548,1.12422668327532,NA,NA,17.4161703145009,0.193734175500532
"21",2.28151885723522,0.0280040897474198,NA,17.0787202976429,0.099485117148922,1.8847329690204,NA,NA,17.2474453060719,0.120429352338169,1.65327453422842,NA,NA,17.4724119839772,0.0942490583516103,1.09116119259075,NA,NA,17.7723675545176,0.099485117148922,0.892768248483345,0.0280040897474198,NA,17.9598397861054,0.0733048231623636,0.826637267114209,NA,NA,18.072323125058,0.0575966467704285,1.91779845970496,NA,NA,17.1724564134368,0.136137528730104,0.859702757798777,NA,NA,17.9598397861054,0.083776940756987,2.01699493175867,NA,NA,17.2286980829131,0.104721175946234,2.24845336655065,NA,NA,16.9662369586903,0.141373587527415
"22",1.22342315532903,NA,NA,17.6973786618825,0.099485117148922,1.71940551559755,NA,NA,17.3599286450246,0.115193293540857,1.55407806217471,NA,NA,17.5099064302948,0.099485117148922,1.12422668327532,NA,NA,17.7723675545176,0.0942490583516103,0.79357177642964,0.0280040897474198,NA,18.0348286787405,0.0680687643650519,1.75247100628212,NA,NA,17.5661480997711,0.0523605879731168,2.11619140381237,NA,NA,17.153709190278,0.109957234743545,0.958899229852482,NA,NA,17.9223453397878,0.0785408819596753,1.2564886460136,NA,NA,17.6973786618825,0.0942490583516103,1.78553649696669,NA,NA,17.2661925292307,0.130901469932792
"23",1.91779845970496,NA,NA,17.3599286450246,0.083776940756987,1.75247100628212,NA,NA,17.2849397523895,0.130901469932792,0.958899229852482,NA,NA,17.8473564471527,0.099485117148922,1.15729217395989,NA,NA,17.8098620008352,0.0785408819596753,0.79357177642964,0.0280040897474198,NA,18.072323125058,0.0575966467704285,1.38875060875187,NA,NA,17.7723675545176,0.0523605879731168,1.12422668327532,NA,NA,17.7348731082001,0.104721175946234,0.99196472053705,NA,NA,17.903598116629,0.0785408819596753,1.19035766464446,NA,NA,17.7161258850413,0.099485117148922,1.09116119259075,NA,NA,17.659884215565,0.130901469932792
"24",1.12422668327532,NA,NA,17.7911147776764,0.0890129995542986,2.08312591312781,NA,NA,17.1724564134368,0.109957234743545,1.09116119259075,NA,NA,17.8098620008352,0.0890129995542986,1.91779845970496,NA,NA,17.4161703145009,0.0680687643650519,1.75247100628212,0.0280040897474198,NA,17.5661480997711,0.0471245291758052,1.81860198765126,NA,NA,17.5099064302948,0.0575966467704285,1.95086395038953,NA,NA,17.3411814218658,0.083776940756987,2.21538787586608,NA,NA,17.2286980829131,0.0733048231623636,1.09116119259075,NA,NA,17.8473564471527,0.0785408819596753,1.8847329690204,NA,NA,17.3036869755482,0.104721175946234
"25",1.9839294410741,NA,NA,17.2661925292307,0.099485117148922,2.31458434791979,NA,NA,17.0787202976429,0.099485117148922,1.05809570190619,NA,NA,17.8473564471527,0.083776940756987,1.09116119259075,NA,NA,17.903598116629,0.0628327055677402,0.760506285745072,0.0280040897474198,NA,18.0535759018992,0.0680687643650519,0.727440795060504,NA,NA,18.1473120176931,0.0523605879731168,1.09116119259075,NA,NA,17.8098620008352,0.0890129995542986,1.02503021122162,NA,NA,17.9410925629466,0.0628327055677402,1.22342315532903,NA,NA,17.7911147776764,0.0733048231623636,1.68634002491298,NA,NA,17.4724119839772,0.0890129995542986
"26",1.9839294410741,NA,NA,17.3036869755482,0.0890129995542986,1.38875060875187,NA,NA,17.6036425460886,0.099485117148922,1.65327453422842,NA,NA,17.5286536534535,0.0785408819596753,0.925833739167913,NA,NA,18.0348286787405,0.0523605879731168,1.71940551559755,0.0280040897474198,NA,17.5099064302948,0.0680687643650519,1.38875060875187,NA,NA,17.7723675545176,0.0523605879731168,2.11619140381237,NA,NA,17.3599286450246,0.0523605879731168,1.8847329690204,NA,NA,17.3974230913421,0.0785408819596753,2.11619140381237,NA,NA,17.3036869755482,0.0680687643650519,1.81860198765126,NA,NA,17.4349175376597,0.0785408819596753
"27",1.02503021122162,NA,NA,17.8473564471527,0.0890129995542986,1.38875060875187,NA,NA,17.6223897692474,0.0942490583516103,1.85166747833583,NA,NA,17.4161703145009,0.0785408819596753,1.62020904354385,NA,NA,17.6223897692474,0.0575966467704285,0.760506285745072,0.0280040897474198,NA,18.0535759018992,0.0680687643650519,1.58714355285928,NA,NA,17.6411369924062,0.0575966467704285,2.01699493175867,NA,NA,17.3974230913421,0.0575966467704285,0.958899229852482,NA,NA,17.903598116629,0.083776940756987,1.15729217395989,NA,NA,17.8661036703115,0.0628327055677402,2.01699493175867,NA,NA,17.3411814218658,0.0733048231623636
"28",1.75247100628212,NA,NA,17.4536647608184,0.083776940756987,1.28955413669816,NA,NA,17.659884215565,0.099485117148922,1.12422668327532,NA,NA,17.8848508934703,0.0628327055677402,0.925833739167913,NA,NA,17.9973342324229,0.0628327055677402,1.52101257149014,0.0280040897474198,NA,17.6223897692474,0.0680687643650519,0.892768248483345,NA,NA,18.0535759018992,0.0523605879731168,2.11619140381237,NA,NA,17.3411814218658,0.0575966467704285,1.78553649696669,0.0280040897474198,NA,17.491159207136,0.0628327055677402,1.12422668327532,NA,NA,17.9223453397878,0.0523605879731168,1.9839294410741,NA,NA,17.3599286450246,0.0733048231623636
"29",2.05006042244324,NA,NA,17.2474453060719,0.0942490583516103,1.9839294410741,NA,NA,17.2661925292307,0.099485117148922,1.15729217395989,NA,NA,17.8848508934703,0.0575966467704285,0.958899229852482,NA,NA,17.9598397861054,0.0680687643650519,1.09116119259075,0.0280040897474198,NA,17.8473564471527,0.0733048231623636,0.892768248483345,NA,NA,18.0348286787405,0.0575966467704285,1.68634002491298,NA,NA,17.5848953229299,0.0575966467704285,1.65327453422842,NA,NA,17.5474008766123,0.0733048231623636,1.02503021122162,NA,NA,17.9785870092641,0.0523605879731168,1.05809570190619,NA,NA,17.903598116629,0.0680687643650519
"30",1.09116119259075,NA,NA,17.7911147776764,0.0942490583516103,1.91779845970496,NA,NA,17.3411814218658,0.0890129995542986,1.9839294410741,NA,NA,17.3974230913421,0.0628327055677402,1.62020904354385,NA,NA,17.5661480997711,0.0733048231623636,0.99196472053705,0.0280040897474198,NA,17.8473564471527,0.0890129995542986,1.9839294410741,NA,NA,17.4349175376597,0.0523605879731168,1.95086395038953,NA,NA,17.3974230913421,0.0680687643650519,2.05006042244324,NA,NA,17.3411814218658,0.0680687643650519,0.925833739167913,NA,NA,18.0160814555817,0.0575966467704285,1.75247100628212,NA,NA,17.491159207136,0.0733048231623636
"31",2.08312591312781,NA,NA,17.2286980829131,0.0942490583516103,1.15729217395989,NA,NA,17.7161258850413,0.104721175946234,2.54604278271176,NA,NA,17.0974675208017,0.0575966467704285,2.01699493175867,NA,NA,17.3786758681833,0.0628327055677402,2.01699493175867,0.0280040897474198,NA,17.2286980829131,0.099485117148922,0.99196472053705,NA,NA,17.9973342324229,0.0523605879731168,1.75247100628212,NA,NA,17.5099064302948,0.0680687643650519,1.19035766464446,NA,NA,17.8848508934703,0.0523605879731168,0.958899229852482,NA,NA,17.9973342324229,0.0575966467704285,1.62020904354385,NA,NA,17.6223897692474,0.0575966467704285
"32",1.15729217395989,NA,NA,17.7911147776764,0.083776940756987,1.85166747833583,NA,NA,17.322434198707,0.104721175946234,1.32261962738273,NA,NA,17.7536203313588,0.0680687643650519,2.01699493175867,NA,NA,17.2849397523895,0.0890129995542986,1.75247100628212,0.0280040897474198,NA,17.3599286450246,0.104721175946234,1.48794708080557,NA,NA,17.7161258850413,0.0523605879731168,0.79357177642964,NA,NA,18.0535759018992,0.0680687643650519,2.14925689449694,NA,NA,17.3599286450246,0.0471245291758052,0.892768248483345,NA,NA,17.9785870092641,0.0733048231623636,0.826637267114209,NA,NA,18.1285647945343,0.0418884703784935
"33",1.15729217395989,NA,NA,17.8098620008352,0.0785408819596753,1.05809570190619,NA,NA,17.8286092239939,0.0890129995542986,1.85166747833583,NA,NA,17.4349175376597,0.0733048231623636,1.45488159012101,NA,NA,17.6411369924062,0.0785408819596753,1.78553649696669,0.0280040897474198,NA,17.3599286450246,0.099485117148922,1.75247100628212,NA,NA,17.6036425460886,0.0418884703784935,0.727440795060504,NA,NA,18.1098175713756,0.0628327055677402,2.41378081997349,NA,NA,17.2099508597544,0.0471245291758052,0.892768248483345,NA,NA,17.9785870092641,0.0733048231623636,1.55407806217471,NA,NA,17.6411369924062,0.0628327055677402
"34",1.81860198765126,NA,NA,17.491159207136,0.0628327055677402,2.05006042244324,NA,NA,17.3036869755482,0.0785408819596753,1.2564886460136,NA,NA,17.7911147776764,0.0680687643650519,1.81860198765126,NA,NA,17.4349175376597,0.0785408819596753,1.55407806217471,0.0280040897474198,NA,17.4724119839772,0.104721175946234,1.68634002491298,NA,NA,17.6411369924062,0.0418884703784935,1.95086395038953,NA,NA,17.4349175376597,0.0575966467704285,1.19035766464446,NA,NA,17.903598116629,0.0471245291758052,1.62020904354385,NA,NA,17.5661480997711,0.0733048231623636,1.58714355285928,NA,NA,17.6036425460886,0.0680687643650519
"35",2.18232238518151,NA,NA,17.322434198707,0.0523605879731168,1.12422668327532,NA,NA,17.8286092239939,0.0785408819596753,1.15729217395989,NA,NA,17.7911147776764,0.083776940756987,1.68634002491298,NA,NA,17.491159207136,0.083776940756987,1.91779845970496,0.0280040897474198,NA,17.322434198707,0.0890129995542986,1.75247100628212,NA,NA,17.5474008766123,0.0575966467704285,0.694375304375935,NA,NA,18.1473120176931,0.0575966467704285,1.15729217395989,NA,NA,17.903598116629,0.0523605879731168,1.95086395038953,NA,NA,17.3411814218658,0.083776940756987,1.65327453422842,NA,NA,17.5661480997711,0.0680687643650519
"36",2.18232238518151,NA,NA,17.3036869755482,0.0575966467704285,1.12422668327532,NA,NA,17.8473564471527,0.0733048231623636,1.22342315532903,NA,NA,17.7536203313588,0.083776940756987,0.925833739167913,NA,NA,17.9410925629466,0.0785408819596753,1.8847329690204,0.0560081794948396,NA,17.3599286450246,0.0785408819596753,1.62020904354385,NA,NA,17.6223897692474,0.0575966467704285,0.694375304375935,NA,NA,18.1098175713756,0.0680687643650519,1.12422668327532,0.0280040897474198,NA,17.903598116629,0.0523605879731168,2.01699493175867,NA,NA,17.322434198707,0.0785408819596753,1.85166747833583,NA,NA,17.4724119839772,0.0628327055677402
"37",2.08312591312781,NA,NA,17.2661925292307,0.083776940756987,0.925833739167913,NA,NA,17.9973342324229,0.0628327055677402,2.21538787586608,NA,NA,17.2286980829131,0.0733048231623636,1.95086395038953,NA,NA,17.3974230913421,0.0680687643650519,1.19035766464446,0.0280040897474198,NA,17.7536203313588,0.083776940756987,0.826637267114209,NA,NA,18.0910703482168,0.0523605879731168,1.8847329690204,NA,NA,17.4161703145009,0.0733048231623636,1.68634002491298,0.0560081794948396,NA,17.5661480997711,0.0523605879731168,1.02503021122162,0.0280040897474198,NA,17.8286092239939,0.0890129995542986,0.958899229852482,NA,NA,17.9785870092641,0.0628327055677402
"38",1.3556851180673,0.112016358989679,NA,17.5848953229299,0.0890129995542986,1.85166747833583,0.196028628231939,0.0409067093539975,17.3411814218658,0.0575966467704285,1.95086395038953,0.0280040897474198,NA,17.3786758681833,0.0680687643650519,0.99196472053705,0.0560081794948396,NA,17.9223453397878,0.0628327055677402,1.2564886460136,0.280040897474198,NA,17.5474008766123,0.083776940756987,1.71940551559755,0.0560081794948396,NA,17.5286536534535,0.0575966467704285,0.727440795060504,0.168024538484519,NA,17.9410925629466,0.0785408819596753,1.55407806217471,0.280040897474198,NA,17.4536647608184,0.0628327055677402,0.958899229852482,0.168024538484519,NA,17.7911147776764,0.083776940756987,1.8847329690204,0.140020448737099,NA,17.4161703145009,0.0471245291758052
"39",2.28151885723522,0.280040897474198,NA,16.9849841818491,0.0785408819596753,1.15729217395989,0.560081794948396,0.0409067093539975,17.4161703145009,0.0785408819596753,1.12422668327532,0.252036807726778,NA,17.7348731082001,0.0575966467704285,2.05006042244324,0.364053166716457,NA,17.1349619671193,0.0575966467704285,1.91779845970496,1.00814723090711,NA,16.7037758344675,0.0785408819596753,1.71940551559755,0.280040897474198,NA,17.3786758681833,0.0575966467704285,1.42181609943644,0.448065435958717,NA,17.3786758681833,0.0733048231623636,1.3556851180673,0.700102243685495,NA,17.2661925292307,0.0680687643650519,2.05006042244324,0.504073615453556,NA,16.9662369586903,0.0785408819596753,1.78553649696669,0.392057256463877,NA,17.2849397523895,0.0523605879731168
"40",2.28151885723522,0.476069525706137,NA,16.8537536197376,0.0785408819596753,1.91779845970496,1.00814723090711,0.0409067093539975,16.7037758344675,0.0733048231623636,1.02503021122162,0.560081794948396,NA,17.5848953229299,0.0575966467704285,1.05809570190619,0.840122692422594,NA,17.3599286450246,0.0628327055677402,1.09116119259075,1.26018403863389,NA,17.0224786281666,0.0733048231623636,0.694375304375935,0.728106333432915,NA,17.6411369924062,0.0628327055677402,1.71940551559755,0.896130871917433,NA,16.9474897355315,0.0628327055677402,0.859702757798777,1.06415541040195,NA,17.3036869755482,0.0680687643650519,1.19035766464446,0.672098153938075,NA,17.322434198707,0.083776940756987,0.99196472053705,0.784114512927754,NA,17.4724119839772,0.0523605879731168
"41",1.45488159012101,0.644094064190655,NA,17.2099508597544,0.0785408819596753,1.19035766464446,1.37220039762357,0.0409067093539975,16.8912480660552,0.0680687643650519,1.78553649696669,1.06415541040195,NA,16.7975119502613,0.0628327055677402,0.925833739167913,0.896130871917433,NA,17.4161703145009,0.0575966467704285,1.62020904354385,1.54022493610809,NA,16.5350508260385,0.0733048231623636,1.68634002491298,1.03615132065453,NA,16.8537536197376,0.0680687643650519,1.71940551559755,1.17617176939163,NA,16.7600175039438,0.0628327055677402,1.71940551559755,1.40020448737099,NA,16.572545272356,0.0733048231623636,2.38071532928892,0.952139051412273,NA,16.4975563797209,0.0733048231623636,1.71940551559755,1.26018403863389,NA,16.7037758344675,0.0628327055677402
"42",2.18232238518151,0.924134961664853,NA,16.6475341649911,0.0680687643650519,1.05809570190619,1.79226174383487,0.0818134187079951,16.7037758344675,0.0575966467704285,1.09116119259075,1.40020448737099,NA,17.0037314050078,0.0523605879731168,1.85166747833583,1.31619221812873,NA,16.6850286113087,0.0366524115811818,1.12422668327532,1.93228219257197,NA,16.572545272356,0.0680687643650519,1.58714355285928,1.40020448737099,NA,16.6662813881499,0.0680687643650519,0.79357177642964,1.42820857711841,0.0409067093539975,17.0974675208017,0.0628327055677402,1.48794708080557,1.70824947459261,NA,16.5163036028797,0.0680687643650519,1.3556851180673,1.14816767964421,0.0409067093539975,16.9287425123727,0.0733048231623636,1.78553649696669,1.90427810282455,NA,16.2350952554981,0.0628327055677402
"43",2.11619140381237,1.28818812838131,NA,16.3663258176095,0.0890129995542986,1.09116119259075,2.6883926157523,0.0818134187079951,16.0851174702279,0.0575966467704285,1.15729217395989,1.54022493610809,NA,16.909995289214,0.0418884703784935,2.05006042244324,1.56822902585551,NA,16.3475785944507,0.0523605879731168,2.11619140381237,2.32433944903585,NA,15.7289202302112,0.0733048231623636,1.58714355285928,1.73625356434003,NA,16.4413147102446,0.0680687643650519,0.760506285745072,1.73625356434003,0.0409067093539975,16.909995289214,0.0628327055677402,0.925833739167913,2.01629446181423,0.0409067093539975,16.6475341649911,0.0575966467704285,2.01699493175867,1.42820857711841,0.0818134187079951,16.3850730407683,0.0628327055677402,1.19035766464446,2.12831082080391,NA,16.4225674870858,0.0628327055677402
"44",1.12422668327532,1.59623311560293,NA,16.741270280785,0.083776940756987,1.09116119259075,2.91242533373166,0.0818134187079951,15.8788980154814,0.0733048231623636,0.925833739167913,2.10030673105649,NA,16.6662813881499,0.0418884703784935,1.05809570190619,2.12831082080391,NA,16.5350508260385,0.0523605879731168,1.15729217395989,2.5483721670152,NA,16.1038646933867,0.0785408819596753,1.55407806217471,2.24032717979359,NA,16.1226119165454,0.0680687643650519,1.68634002491298,1.96028628231939,0.0409067093539975,16.2538424786568,0.0575966467704285,1.91779845970496,2.49236398752036,0.0409067093539975,15.7851618996875,0.0523605879731168,2.08312591312781,1.68024538484519,0.0818134187079951,16.0851174702279,0.0890129995542986,1.3556851180673,2.49236398752036,NA,16.1038646933867,0.0575966467704285
"45",2.24845336655065,1.65224129509777,NA,16.1226119165454,0.0680687643650519,2.14925689449694,3.41649894918521,NA,14.9977785270189,0.0680687643650519,0.99196472053705,2.66038852600488,NA,16.2725897018156,0.0366524115811818,1.78553649696669,2.32433944903585,NA,15.9726341312752,0.0575966467704285,0.958899229852482,2.85641715423682,NA,15.9726341312752,0.0890129995542986,0.892768248483345,2.66038852600488,NA,16.2913369249744,0.0471245291758052,1.52101257149014,2.4083517182781,0.0409067093539975,16.0851174702279,0.0471245291758052,1.85166747833583,2.74440079524714,0.0818134187079951,15.6351841144173,0.0523605879731168,1.02503021122162,1.79226174383487,0.0818134187079951,16.6287869418323,0.083776940756987,2.08312591312781,2.94042942347908,0.0409067093539975,15.3727229901944,0.0575966467704285
"46",2.28151885723522,1.68024538484519,NA,16.0663702470691,0.0733048231623636,1.22342315532903,3.38849485943779,0.0409067093539975,15.5039535523059,0.0733048231623636,1.75247100628212,3.05244578246876,NA,15.578942444941,0.0366524115811818,0.925833739167913,2.43635580802552,NA,16.3663258176095,0.0628327055677402,1.65327453422842,3.08044987221618,NA,15.4477118828295,0.083776940756987,0.99196472053705,2.9684335132265,NA,16.0101285775928,0.0523605879731168,1.48794708080557,2.6883926157523,0.0409067093539975,15.9726341312752,0.0314163527838701,1.15729217395989,2.94042942347908,0.122720128061993,15.8788980154814,0.0523605879731168,1.15729217395989,2.12831082080391,0.122720128061993,16.3475785944507,0.0733048231623636,1.45488159012101,3.19246623120585,0.0409067093539975,15.5976896680997,0.0471245291758052
"47",2.34764983860435,1.87627401307713,NA,15.9163924617989,0.0680687643650519,1.28955413669816,3.75254802615425,0.0409067093539975,15.2039979817655,0.0785408819596753,1.05809570190619,3.38849485943779,NA,15.7476674533699,0.0366524115811818,1.75247100628212,2.8284130644894,NA,15.6164368912585,0.0680687643650519,1.85166747833583,3.50051121842747,NA,15.0540201964953,0.083776940756987,2.08312591312781,3.24847441070069,NA,15.2039979817655,0.0523605879731168,1.78553649696669,2.8284130644894,0.0409067093539975,15.7101730070524,0.0314163527838701,1.9839294410741,3.1084539619636,0.122720128061993,15.2977340975593,0.0523605879731168,1.9839294410741,2.52036807726778,0.122720128061993,15.6351841144173,0.0680687643650519,1.32261962738273,3.55651939792231,0.0409067093539975,15.4289646596708,0.0471245291758052
"48",2.41378081997349,2.10030673105649,NA,15.7101730070524,0.0733048231623636,2.41378081997349,3.86456438514392,0.0409067093539975,14.5478451712083,0.0628327055677402,1.8847329690204,3.41649894918521,NA,15.2602396512418,0.0366524115811818,0.892768248483345,2.9684335132265,NA,16.0101285775928,0.0680687643650519,0.79357177642964,4.06059301337586,NA,15.2789868744006,0.083776940756987,1.81860198765126,3.47250712868005,0.0409067093539975,15.1852507586067,0.0523605879731168,0.892768248483345,3.38849485943779,0.0409067093539975,15.7851618996875,0.0471245291758052,2.14925689449694,3.58452348766973,0.122720128061993,14.82905351859,0.0680687643650519,1.12422668327532,2.85641715423682,0.122720128061993,15.9163924617989,0.0628327055677402,1.2564886460136,3.94857665438618,0.0409067093539975,15.2039979817655,0.0471245291758052
"49",1.62020904354385,2.49236398752036,NA,15.8788980154814,0.0785408819596753,2.24845336655065,3.72454393640683,0.0409067093539975,14.7353174027961,0.0628327055677402,1.91779845970496,3.75254802615425,NA,14.9977785270189,0.0418884703784935,1.91779845970496,3.02444169272134,NA,15.3727229901944,0.0733048231623636,1.75247100628212,4.06059301337586,NA,14.7540646259549,0.0785408819596753,1.05809570190619,3.55651939792231,0.0818134187079951,15.5601952217822,0.0471245291758052,1.62020904354385,3.64053166716457,0.0409067093539975,15.2039979817655,0.0471245291758052,2.24845336655065,3.52851530817489,0.122720128061993,14.7728118491136,0.0785408819596753,1.19035766464446,2.74440079524714,0.122720128061993,15.991381354434,0.0523605879731168,1.75247100628212,3.83656029539651,0.0818134187079951,14.9790313038602,0.0471245291758052
"50",1.45488159012101,2.57637625676262,NA,15.8976452386401,0.083776940756987,2.11619140381237,3.72454393640683,0.0409067093539975,14.82905351859,0.0575966467704285,1.68634002491298,3.50051121842747,NA,15.2789868744006,0.0471245291758052,0.925833739167913,3.47250712868005,NA,15.6351841144173,0.0733048231623636,1.65327453422842,4.42464618009232,NA,14.5290979480496,0.0890129995542986,1.09116119259075,3.9765807441336,0.0818134187079951,15.2602396512418,0.0471245291758052,1.91779845970496,3.41649894918521,NA,15.241492428083,0.0366524115811818,1.95086395038953,3.41649894918521,0.16362683741599,14.9977785270189,0.0785408819596753,2.11619140381237,3.1084539619636,0.122720128061993,15.241492428083,0.0471245291758052,1.42181609943644,4.14460528261812,0.0818134187079951,15.0165257501777,0.0314163527838701
"51",1.22342315532903,2.77240488499456,NA,15.9163924617989,0.0785408819596753,1.55407806217471,4.14460528261812,0.0409067093539975,14.8665479649075,0.0575966467704285,1.95086395038953,3.58452348766973,NA,15.1102618659716,0.0366524115811818,1.65327453422842,3.30448259019553,NA,15.3539757670357,0.0680687643650519,0.99196472053705,4.42464618009232,NA,14.9602840807014,0.0733048231623636,1.15729217395989,3.80855620564909,0.0409067093539975,15.3914702133532,0.0366524115811818,2.21538787586608,3.58452348766973,NA,14.8852951880663,0.0575966467704285,2.14925689449694,3.47250712868005,0.122720128061993,14.82905351859,0.0890129995542986,1.58714355285928,3.1084539619636,0.122720128061993,15.4852063291471,0.0628327055677402,1.8847329690204,4.06059301337586,0.0818134187079951,14.7540646259549,0.0471245291758052
"52",1.22342315532903,2.88442124398424,NA,15.8976452386401,0.0628327055677402,0.958899229852482,3.94857665438618,0.0409067093539975,15.2789868744006,0.0733048231623636,1.85166747833583,3.41649894918521,NA,15.241492428083,0.0471245291758052,1.78553649696669,3.52851530817489,NA,15.1477563122891,0.0628327055677402,1.05809570190619,4.92871979554587,NA,14.6040868406847,0.0680687643650519,1.28955413669816,3.69653984665941,0.0409067093539975,15.3914702133532,0.0366524115811818,1.2564886460136,3.50051121842747,NA,15.5227007754646,0.0471245291758052,1.9839294410741,3.55651939792231,0.16362683741599,14.9040424112251,0.0733048231623636,1.8847329690204,3.41649894918521,0.0818134187079951,15.1290090891304,0.0628327055677402,2.18232238518151,4.17260937236554,0.0818134187079951,14.5290979480496,0.0418884703784935
"53",1.8847329690204,2.80040897474198,NA,15.5601952217822,0.0680687643650519,2.11619140381237,3.86456438514392,NA,14.7353174027961,0.0628327055677402,0.826637267114209,3.50051121842747,NA,15.7664146765287,0.0471245291758052,1.48794708080557,3.72454393640683,0.0409067093539975,15.2039979817655,0.0523605879731168,1.55407806217471,4.92871979554587,0.0409067093539975,14.2853840469855,0.0733048231623636,1.09116119259075,3.72454393640683,0.0409067093539975,15.4664591059883,0.0418884703784935,1.32261962738273,3.47250712868005,NA,15.5039535523059,0.0471245291758052,1.19035766464446,3.94857665438618,0.204533546769988,15.1102618659716,0.0628327055677402,2.11619140381237,3.19246623120585,0.0409067093539975,15.1477563122891,0.0680687643650519,2.18232238518151,3.9765807441336,0.0818134187079951,14.6978229564785,0.0314163527838701
"54",1.9839294410741,3.02444169272134,NA,15.3539757670357,0.0680687643650519,1.19035766464446,3.52851530817489,NA,15.5414479986234,0.0471245291758052,0.892768248483345,3.47250712868005,NA,15.7289202302112,0.0523605879731168,1.78553649696669,3.78055211590167,0.0409067093539975,15.0352729733365,0.0418884703784935,1.02503021122162,4.95672388529329,0.0818134187079951,14.6040868406847,0.0575966467704285,0.99196472053705,3.41649894918521,0.0409067093539975,15.7101730070524,0.0471245291758052,1.3556851180673,3.47250712868005,NA,15.4852063291471,0.0471245291758052,2.01699493175867,3.89256847489134,0.286346965477983,14.6415812870022,0.0628327055677402,1.19035766464446,3.44450303893263,0.0818134187079951,15.578942444941,0.0418884703784935,2.34764983860435,3.80855620564909,0.0818134187079951,14.6978229564785,0.0366524115811818
"55",1.12422668327532,2.94042942347908,NA,15.9351396849577,0.0575966467704285,1.75247100628212,3.52851530817489,NA,15.2227452049242,0.0471245291758052,1.58714355285928,3.41649894918521,NA,15.3914702133532,0.0471245291758052,0.892768248483345,3.75254802615425,0.0409067093539975,15.578942444941,0.0366524115811818,1.05809570190619,4.92871979554587,0.0818134187079951,14.6228340638434,0.0523605879731168,0.99196472053705,3.58452348766973,0.0409067093539975,15.578942444941,0.0523605879731168,2.11619140381237,3.50051121842747,NA,15.0165257501777,0.0523605879731168,2.05006042244324,3.72454393640683,0.286346965477983,14.7915590722724,0.0471245291758052,1.12422668327532,3.47250712868005,0.0818134187079951,15.578942444941,0.0471245291758052,1.81860198765126,3.89256847489134,0.0818134187079951,14.9415368575426,0.0366524115811818
"56",1.95086395038953,2.9684335132265,NA,15.5227007754646,0.0366524115811818,1.62020904354385,3.38849485943779,NA,15.410217436512,0.0418884703784935,0.892768248483345,3.52851530817489,0.0409067093539975,15.6914257838936,0.0471245291758052,0.958899229852482,3.72454393640683,0.0409067093539975,15.5414479986234,0.0418884703784935,1.09116119259075,4.76069525706135,0.0818134187079951,14.6790757333198,0.0628327055677402,0.859702757798777,3.24847441070069,0.0409067093539975,15.9163924617989,0.0418884703784935,1.55407806217471,3.47250712868005,NA,15.2977340975593,0.0680687643650519,1.28955413669816,4.03258892362844,0.245440256123985,14.9977785270189,0.0575966467704285,1.95086395038953,3.9765807441336,0.0818134187079951,14.7540646259549,0.0523605879731168,1.55407806217471,4.08859710312328,0.122720128061993,14.9227896343838,0.0418884703784935
"57",1.02503021122162,3.24847441070069,NA,15.8039091228463,0.0523605879731168,0.958899229852482,3.44450303893263,NA,15.7289202302112,0.0471245291758052,0.760506285745072,4.00458483388102,0.122720128061993,15.4477118828295,0.0366524115811818,1.68634002491298,3.58452348766973,0.0409067093539975,15.2789868744006,0.0261802939865584,1.05809570190619,4.95672388529329,0.0818134187079951,14.5665923943671,0.0628327055677402,1.52101257149014,3.50051121842747,0.0409067093539975,15.3914702133532,0.0366524115811818,2.5129772920272,3.36049076969037,NA,14.8103062954312,0.0733048231623636,2.34764983860435,3.89256847489134,0.245440256123985,14.4728562785732,0.0628327055677402,2.01699493175867,3.80855620564909,0.122720128061993,14.7728118491136,0.0628327055677402,0.925833739167913,4.20061346211296,0.122720128061993,15.2039979817655,0.0418884703784935
"58",0.859702757798777,2.94042942347908,NA,16.0663702470691,0.0628327055677402,0.925833739167913,3.44450303893263,NA,15.7476674533699,0.0471245291758052,0.892768248483345,3.86456438514392,0.122720128061993,15.4852063291471,0.0314163527838701,1.81860198765126,3.86456438514392,0.0409067093539975,15.0165257501777,0.0261802939865584,1.81860198765126,5.01273206478813,0.0818134187079951,14.1166590385565,0.0575966467704285,0.99196472053705,3.55651939792231,0.0409067093539975,15.6726785607348,0.0314163527838701,2.77750121750374,3.13645805171102,NA,14.8478007417487,0.0628327055677402,1.19035766464446,4.31262982110264,0.204533546769988,14.8852951880663,0.0575966467704285,0.99196472053705,3.64053166716457,0.122720128061993,15.4852063291471,0.0575966467704285,0.958899229852482,3.61252757741715,0.122720128061993,15.5601952217822,0.0471245291758052
"59",1.68634002491298,3.24847441070069,NA,15.3727229901944,0.0680687643650519,0.892768248483345,3.33248667994295,NA,15.8601507923226,0.0418884703784935,1.02503021122162,3.72454393640683,0.122720128061993,15.4852063291471,0.0366524115811818,1.09116119259075,4.14460528261812,NA,15.2602396512418,0.0261802939865584,1.85166747833583,4.84470752630361,0.0818134187079951,14.2478896006679,0.0471245291758052,0.892768248483345,3.33248667994295,0.0409067093539975,15.8601507923226,0.0366524115811818,1.45488159012101,3.30448259019553,0.0409067093539975,15.4289646596708,0.0733048231623636,2.24845336655065,4.03258892362844,0.16362683741599,14.5103507248908,0.0523605879731168,0.859702757798777,3.64053166716457,0.0818134187079951,15.5976896680997,0.0523605879731168,1.75247100628212,3.86456438514392,0.122720128061993,14.9415368575426,0.0471245291758052
"60",0.859702757798777,3.13645805171102,NA,15.9351396849577,0.0628327055677402,1.78553649696669,3.19246623120585,NA,15.4664591059883,0.0366524115811818,0.925833739167913,3.75254802615425,0.122720128061993,15.5414479986234,0.0314163527838701,1.95086395038953,4.06059301337586,0.0409067093539975,14.8478007417487,0.015708176391935,2.18232238518151,4.84470752630361,0.0818134187079951,14.0229229227626,0.0575966467704285,0.892768248483345,3.38849485943779,0.0409067093539975,15.8601507923226,0.0261802939865584,1.2564886460136,3.80855620564909,0.0409067093539975,15.1665035354479,0.083776940756987,1.8847329690204,4.1166011928707,0.204533546769988,14.6228340638434,0.0575966467704285,1.48794708080557,3.52851530817489,0.0818134187079951,15.3164813207181,0.0523605879731168,1.75247100628212,3.92057256463876,0.122720128061993,14.8852951880663,0.0523605879731168
