"","Early1.ALL","Late1.CLS","Late1.OPN","Mid1.CLS","Mid1.OPN","total","Early1.ALL.1","Late1.CLS.1","Late1.OPN.1","Mid1.CLS.1","Mid1.OPN.1","total.1","Early1.ALL.2","Late1.CLS.2","Late1.OPN.2","Mid1.CLS.2","Mid1.OPN.2","total.2","Early1.ALL.3","Late1.CLS.3","Late1.OPN.3","Mid1.CLS.3","Mid1.OPN.3","total.3","Early1.ALL.4","Late1.CLS.4","Late1.OPN.4","Mid1.CLS.4","Mid1.OPN.4","total.4","Early1.ALL.5","Late1.CLS.5","Late1.OPN.5","Mid1.CLS.5","Mid1.OPN.5","total.5","Early1.ALL.6","Late1.CLS.6","Late1.OPN.6","Mid1.CLS.6","Mid1.OPN.6","total.6","Early1.ALL.7","Late1.CLS.7","Late1.OPN.7","Mid1.CLS.7","Mid1.OPN.7","total.7","Early1.ALL.8","Late1.CLS.8","Late1.OPN.8","Mid1.CLS.8","Mid1.OPN.8","total.8","Early1.ALL.9","Late1.CLS.9","Late1.OPN.9","Mid1.CLS.9","Mid1.OPN.9","total.9"
"0",7585083.39425012,NA,NA,2524216.20763197,NA,10109299.6018821,8485812.04731732,NA,NA,2247523.27718001,NA,10733335.3244973,8169766.90589023,NA,NA,2344608.51593508,NA,10514375.4218253,7679896.93667824,NA,NA,2495090.63600545,NA,10174987.5726837,7790512.73617772,NA,NA,2461110.80244117,NA,10251623.5386189,8470009.79024596,NA,NA,2252377.53911776,NA,10722387.3293637,7790512.73617772,NA,NA,2461110.80244117,NA,10251623.5386189,7948535.30689127,NA,NA,2412568.18306363,NA,10361103.4899549,7442863.08060793,NA,NA,2567904.56507176,NA,10010767.6456797,8485812.04731732,NA,NA,2247523.27718001,NA,10733335.3244973
"1",6889784.08311052,123885.606941203,NA,2543633.25538299,486628.181429335,10043931.126864,7474467.59475064,123885.606941203,NA,2330045.73012182,604090.156257106,10532489.0880708,7521874.3659647,135147.934844948,NA,2310628.68237081,604090.156257106,10571741.1394376,6810772.79775375,90098.6232299655,NA,2504799.15988096,755112.695321382,10160783.2761861,6889784.08311052,112623.279037457,26579.0583835292,2461110.80244117,771892.977439635,10261990.2004123,7664094.67960689,56311.6395187284,NA,2305774.42043305,587309.874138853,10613490.6136975,7111015.68210948,180197.246459931,NA,2470819.32631668,419507.052956323,10181539.3078424,6889784.08311052,90098.6232299655,NA,2514507.68375646,637650.720493611,10132041.1105906,6605343.45582614,101360.951133711,NA,2606738.66057379,604090.156257106,9917533.22379075,7537676.62303605,146410.262748694,NA,2315482.94430856,553749.309902347,10553319.1399957
"2",6020659.94418603,270295.869689896,NA,2577613.08894726,1073938.05556819,9942506.95839138,6921388.59725323,270295.869689896,NA,2330045.73012182,973256.362858671,10494986.5599236,6810772.79775375,213984.230171168,NA,2407713.92112588,906135.234385659,10338606.1834365,5894241.8876152,191459.574363677,NA,2553341.77925849,1409543.69793325,10048586.9391706,6115473.48661416,225246.558074914,26579.0583835292,2533924.73150748,1174619.74827771,10075843.5828578,6763366.02653969,78836.2953262198,NA,2368879.82562385,1292081.72310548,10503163.8705952,6447320.8851126,304082.853401133,NA,2475673.58825443,922915.516503912,10149992.8432721,6147078.00075687,247771.213882405,NA,2524216.20763197,1157839.46615945,10076904.8884307,6020659.94418603,191459.574363677,NA,2626155.7083248,1023597.20921343,9861872.43608794,6779168.28361104,180197.246459931,NA,2364025.5636861,1141059.1840412,10464450.2777983
"3",5404371.91840321,371656.820823607,NA,2645572.75607582,1342422.56946024,9764024.06476287,5799428.34518707,405443.804534844,NA,2461110.80244117,1510225.39064277,10176208.3428059,6194484.77197093,337869.83711237,NA,2412568.18306363,1359202.85157849,10304125.6437254,5135733.54819019,259033.541786151,NA,2660135.54188908,1745149.34029831,9800051.97216372,5404371.91840321,326607.509208625,NA,2655281.27995132,1375983.13369674,9762243.8412599,6004857.68711468,191459.574363677,NA,2441693.75469016,1678028.21182529,10316039.2279938,5451778.68961727,315345.181304879,NA,2655281.27995132,1342422.56946024,9764827.72033371,5499185.46083134,281558.197593642,NA,2563050.303134,1661247.92970704,10005041.891266,5404371.91840321,270295.869689896,NA,2708678.16126662,1275301.44098722,9658647.39034695,5530789.97497405,213984.230171168,NA,2577613.08894726,1678028.21182529,10000415.5059178
"4",4946106.46333393,416706.13243859,NA,2684406.85157785,1627687.36547054,9674906.81282091,5198942.5764756,405443.804534844,NA,2543633.25538299,1862611.31512608,10010630.9515195,5325360.63304644,394181.476631099,NA,2601884.39863603,1543785.95487927,9865212.46319284,4788083.89262039,337869.83711237,NA,2684406.85157785,1912952.16148083,9723312.74279144,4961908.72040529,371656.820823607,NA,2698969.63739111,1627687.36547054,9660222.54409054,5325360.63304644,247771.213882405,NA,2514507.68375646,2063974.70054511,10151614.2312304,5183140.31940425,360394.492919862,NA,2679552.58964009,1476664.82640626,9699752.22837047,4645863.5789782,315345.181304879,NA,2752366.5187064,1862611.31512608,9576186.59411556,4756479.37847768,326607.509208625,NA,2791200.61420843,1594126.80123403,9468414.30312877,4914501.94919123,304082.853401133,NA,2698969.63739111,1778709.90453481,9696264.34451828
"5",4424631.97997924,349132.165016116,NA,2834888.97164821,1761929.62241656,9370582.73906013,4519445.52240737,405443.804534844,NA,2660135.54188908,2181436.67537288,9766461.54420417,4503643.26533601,450493.116149827,NA,2747512.25676865,1829050.75088957,9530699.38914405,4171795.86683757,360394.492919862,NA,2839743.23358597,1996853.5720721,9368787.1654155,4061180.06733809,450493.116149827,NA,2907702.90071452,1745149.34029831,9164525.42450074,4740677.12140633,292820.525497388,NA,2631009.97026256,2214997.23960938,9879504.85677565,4424631.97997924,416706.13243859,NA,2859160.28133698,1577346.51911578,9277844.91287059,4029575.55319538,304082.853401133,NA,2888285.85296351,2063974.70054511,9285918.96010513,4140191.35269486,360394.492919862,NA,2907702.90071452,1795490.18665306,9203778.93298231,4282411.66633705,315345.181304879,NA,2796054.87614618,2097535.26478161,9491346.98856973
"6",3555507.84105475,371656.820823607,NA,3053330.75884713,1896171.87936258,8876667.30008807,3666123.64055423,371656.820823607,NA,2936828.47234104,2181436.67537288,9156045.60909176,4140191.35269486,450493.116149827,NA,2800909.13808394,2030414.1363086,9422007.74323723,3760937.18298236,439230.788246082,NA,2927119.94846554,2013633.85419035,9140921.77388432,3555507.84105475,461755.444053573,NA,3048476.49690938,1778709.90453481,8844449.68655251,4171795.86683757,281558.197593642,NA,2800909.13808394,2248557.80384589,9502821.00636104,3587112.35519746,326607.509208625,NA,3126144.68791344,1678028.21182529,8717892.76414482,3634519.12641152,315345.181304879,NA,2999933.87753184,2080754.98266336,9030553.1679116,3666123.64055423,427968.460342336,26579.0583835292,2990225.35365634,1896171.87936258,9007068.39229901,3918959.7536959,281558.197593642,NA,2873723.06715024,2265338.08596414,9339579.10440393
"7",2986626.58648599,382919.148727353,26579.0583835292,3257209.76023279,1761929.62241656,8415264.17624622,3334276.24205579,371656.820823607,NA,3077602.0685359,2047194.41842686,8830729.54984215,3413287.52741256,473017.771957318,NA,3024205.18722061,1996853.5720721,8907364.05866259,3113044.64305683,416706.13243859,NA,3150415.99760221,1963293.00783559,8643459.78093322,3207858.18548495,439230.788246082,NA,3116436.16403793,1946512.72571734,8710037.86348631,3255264.95669901,337869.83711237,NA,3092164.85434916,2131095.82901812,8816395.47717867,3207858.18548495,360394.492919862,NA,3179541.56922873,1845831.03300782,8593625.28064137,2891813.04405786,304082.853401133,26579.0583835292,3262064.02217055,1963293.00783559,8447831.98584867,3476496.55569798,427968.460342336,26579.0583835292,3053330.75884713,1879391.59724433,8863766.4305153,3476496.55569798,270295.869689896,NA,3072747.80659815,2063974.70054511,8883514.93253113
"8",2591570.15970213,349132.165016116,26579.0583835292,3417400.40417867,1678028.21182529,8062709.99910574,2386140.81777452,394181.476631099,NA,3359149.26092562,2047194.41842686,8186665.9737581,2828604.01577245,439230.788246082,NA,3208667.14085526,2030414.1363086,8506916.08118239,2559965.64555942,416706.13243859,NA,3325169.42736135,1946512.72571734,8248353.9310767,2702185.95920161,484280.099861064,NA,3296043.85573482,1795490.18665306,8278000.10145056,2970824.32941464,360394.492919862,NA,3160124.52147772,2164656.39325463,8655999.73706684,2876010.78698651,349132.165016116,NA,3334877.95123685,1678028.21182529,8238049.11506477,2401943.07484588,326607.509208625,NA,3422254.66611642,1912952.16148083,8063757.41165176,3049835.61477141,394181.476631099,26579.0583835292,3194104.35504199,1896171.87936258,8560872.38419061,2654779.18798755,292820.525497388,NA,3344586.47511236,1963293.00783559,8255479.19643289
"9",2528361.13141671,360394.492919862,26579.0583835292,3495068.59518273,1459884.54428801,7870287.82219084,2338734.04656046,304082.853401133,NA,3465943.02355621,1862611.31512608,7971371.23864388,2591570.15970213,304082.853401133,NA,3407691.88030316,1795490.18665306,8098835.08005949,2180711.47584692,382919.148727353,NA,3504777.11905824,1778709.90453481,7847117.64816732,2386140.81777452,416706.13243859,NA,3441671.71386744,1728369.05818005,7972887.7222606,2212315.98998963,315345.181304879,NA,3461088.76161845,1996853.5720721,7985603.50498505,2338734.04656046,292820.525497388,NA,3548465.47649803,1594126.80123403,7774146.84978991,1801457.30613441,292820.525497388,NA,3645550.71525311,1829050.75088957,7568879.29777448,2149106.96170421,382919.148727353,26579.0583835292,3495068.59518273,1829050.75088957,7882724.51488739,2338734.04656046,247771.213882405,NA,3509631.38099599,1795490.18665306,7891626.82809192
"10",2101700.19049014,304082.853401133,26579.0583835292,3713510.38238167,1241740.87675072,7387613.3614072,1738248.27784899,292820.525497388,NA,3718364.64431942,1644467.64758879,7393901.09525459,2164909.21877556,270295.869689896,NA,3626133.66750209,1543785.95487927,7605124.71084682,1358994.10813649,382919.148727353,NA,3786324.31144798,1678028.21182529,7206265.78013712,1627632.47834951,371656.820823607,26579.0583835292,3737781.69207044,1560566.23699752,7324216.28662461,1690841.50663493,247771.213882405,NA,3718364.64431942,1761929.62241656,7418906.98725332,1848864.07734847,270295.869689896,NA,3742635.95400819,1476664.82640626,7338460.72745283,1643434.73542087,259033.541786151,NA,3762053.00175921,1644467.64758879,7308988.92655502,1517016.67885003,315345.181304879,26579.0583835292,3752344.4778837,1711588.7760618,7322874.17248394,1469609.90763597,202721.902267422,26579.0583835292,3854283.97857654,1577346.51911578,7130541.36597924
"11",1485412.16470732,225246.558074914,53158.1167670583,4004766.09864692,990036.644976924,6758619.58317314,1185169.28035159,247771.213882405,NA,4067871.50383772,1090718.33768644,6591530.33575816,1611830.22127816,225246.558074914,NA,3931952.16958061,1141059.1840412,6910088.13297488,1390598.6222792,304082.853401133,NA,3965932.00314489,1141059.1840412,6801672.66286642,869124.138924497,281558.197593642,53158.1167670583,4169811.00453056,990036.644976924,6363688.10279268,1327389.59399378,225246.558074914,NA,3956223.47926938,1359202.85157849,6868062.48291656,1232576.05156565,236508.885978659,NA,4087288.55158874,990036.644976924,6546410.13410997,853321.881853143,180197.246459931,NA,4218353.6239081,1023597.20921343,6275469.96143461,742706.082353661,292820.525497388,NA,4116414.12321527,1325642.28734198,6477583.0184083,932333.167209915,168934.918556185,26579.0583835292,4169811.00453056,1107498.61980469,6405156.76848489
"12",869124.138924497,202721.902267422,53158.1167670583,4208645.10003259,973256.362858671,6306905.62085024,1232576.05156565,157672.59065244,NA,4111559.86127751,1023597.20921343,6525405.71270903,1042948.9667094,180197.246459931,NA,4135831.17096628,1107498.61980469,6466476.0039403,1390598.6222792,180197.246459931,NA,4038745.9322112,1073938.05556819,6683479.85651852,1090355.73792346,281558.197593642,26579.0583835292,4150393.95677954,839014.105912647,6387901.05659282,1295785.07985107,157672.59065244,NA,4033891.67027344,1224960.59463247,6712309.93540942,790112.853567724,135147.934844948,NA,4247479.19553463,1057157.77344994,6229897.75739724,726903.825282306,146410.262748694,NA,4276604.76716115,1006816.92709518,6156735.78228733,1090355.73792346,236508.885978659,NA,4053308.71802446,1258521.15886897,6638694.50079555,1264180.56570836,123885.606941203,26579.0583835292,4092142.81352649,1090718.33768644,6597506.38224603
"13",821717.367710434,112623.279037457,26579.0583835292,4266896.24328564,973256.362858671,6201072.31127574,1074553.48085211,78836.2953262198,NA,4194082.31421933,1023597.20921343,6371069.29961109,1074553.48085211,135147.934844948,NA,4130976.90902853,1157839.46615945,6498517.79088504,647892.539925534,112623.279037457,NA,4305730.33878768,1040377.49133168,6106623.64908235,616288.025782825,236508.885978659,26579.0583835292,4305730.33878768,872574.670149153,6057680.97908184,679497.054068243,56311.6395187284,NA,4242624.93359687,1308862.00522373,6287295.63240757,1074553.48085211,101360.951133711,NA,4174665.26646832,1057157.77344994,6407737.47190407,900728.653067206,78836.2953262198,NA,4271750.5052234,939695.798622165,6191011.25223899,537276.740426052,168934.918556185,NA,4266896.24328564,1208180.31251421,6181288.2147821,758508.339425015,67573.9674224741,NA,4281459.02909891,1073938.05556819,6181479.39151459
"14",790112.853567724,101360.951133711,26579.0583835292,4349418.69622747,738332.413203129,6005803.97251556,426660.940926571,22524.6558074914,NA,4456212.45885806,889354.952267406,5794753.00785953,632090.282854179,101360.951133711,NA,4310584.60072543,1057157.77344994,6101193.60816326,1027146.70963804,56311.6395187284,NA,4218353.6239081,1023597.20921343,6325409.1822783,900728.653067206,213984.230171168,NA,4252333.45747238,805453.541676141,6172499.8823869,1074553.48085211,11262.3279037457,NA,4179519.52840607,1174619.74827771,6439955.08543963,632090.282854179,33786.9837112371,NA,4378544.26785399,922915.516503912,5967337.05092332,884926.395995852,67573.9674224741,NA,4300876.07684992,872574.670149153,6125951.1104174,821717.367710434,101360.951133711,NA,4257187.71941014,1040377.49133168,6220643.52958596,1058751.22378075,45049.3116149827,NA,4232916.40972137,956476.080740418,6293193.02585752
"15",679497.054068243,67573.9674224741,NA,4431941.14916929,637650.720493611,5816662.89115361,379254.169712508,NA,NA,4524172.12598662,738332.413203129,5641758.70890225,948135.42428127,22524.6558074914,NA,4271750.5052234,973256.362858671,6215666.94817083,568881.254568761,22524.6558074914,NA,4407669.83948052,906135.234385659,5905210.98424243,474067.712140635,135147.934844948,NA,4441649.67304479,721552.131084876,5772417.45111525,758508.339425015,NA,NA,4305730.33878768,1090718.33768644,6154957.01589913,1027146.70963804,NA,NA,4296021.81491217,839014.105912647,6162182.63046286,853321.881853143,45049.3116149827,NA,4354272.95816522,755112.695321382,6007756.84695473,537276.740426052,45049.3116149827,NA,4417378.36335602,872574.670149153,5872279.08554621,726903.825282306,11262.3279037457,NA,4363981.48204073,906135.234385659,6008282.86961244
"16",916530.910138561,56311.6395187284,NA,4373690.00591624,604090.156257106,5950622.71183063,331847.398498445,NA,NA,4558151.95955089,671211.284730117,5561210.64277946,869124.138924497,NA,NA,4334855.9104142,872574.670149153,6076554.71948785,616288.025782825,NA,NA,4436795.41110704,788673.259557888,5841756.69644775,474067.712140635,78836.2953262198,NA,4495046.55436009,620870.438375358,5668821.0002023,521474.483354698,NA,NA,4446503.93498255,855794.3880309,5823772.80636815,758508.339425015,NA,NA,4393107.05366725,788673.259557888,5940288.65265016,505672.226283344,33786.9837112371,NA,4490192.29242234,671211.284730117,5700862.78714703,963937.681352625,22524.6558074914,NA,4334855.9104142,738332.413203129,6059650.66077745,995542.195495334,NA,NA,4325147.38653869,771892.977439635,6092582.55947366
"17",647892.539925534,11262.3279037457,NA,4485338.03048458,570529.5920206,5715022.49033446,300242.884355735,NA,NA,4606694.57892844,536969.027784094,5443906.49106827,679497.054068243,NA,NA,4431941.14916929,738332.413203129,5849770.61644066,600485.76871147,NA,NA,4465920.98273357,704771.848966623,5771178.60041166,458265.45506928,22524.6558074914,NA,4572714.74536416,453067.617192829,5506572.47343376,837519.624781788,NA,NA,4422232.62529378,604090.156257106,5863842.40633267,805915.110639079,NA,NA,4412524.10141827,671211.284730117,5889650.49678747,505672.226283344,NA,NA,4524172.12598662,604090.156257106,5633934.50852706,790112.853567724,NA,NA,4431941.14916929,620870.438375358,5842924.44111237,774310.59649637,NA,NA,4397961.31560501,755112.695321382,5927384.60742276
"18",932333.167209915,11262.3279037457,NA,4431941.14916929,453067.617192829,5828604.26147578,347649.655569799,NA,NA,4626111.62667945,419507.052956323,5393268.33520557,884926.395995852,NA,NA,4402815.57754276,620870.438375358,5908612.41191397,537276.740426052,NA,NA,4529026.38792437,553749.309902347,5620052.43825277,458265.45506928,22524.6558074914,NA,4577569.00730191,436287.335074576,5494646.45325326,537276.740426052,NA,NA,4548443.43567539,486628.181429335,5572348.35753077,1011344.45256669,NA,NA,4368835.74397848,604090.156257106,5984270.35280228,884926.395995852,NA,NA,4456212.45885806,436287.335074576,5777426.18992849,790112.853567724,NA,NA,4431941.14916929,620870.438375358,5842924.44111237,632090.282854179,NA,NA,4431941.14916929,788673.259557888,5852704.69158135
"19",1090355.73792346,11262.3279037457,NA,4393107.05366725,419507.052956323,5914232.17245078,837519.624781788,NA,NA,4475629.50660907,419507.052956323,5732656.18434719,821717.367710434,NA,NA,4441649.67304479,553749.309902347,5817116.35065757,505672.226283344,NA,NA,4553297.69761314,503408.463547588,5562378.38744407,869124.138924497,11262.3279037457,NA,4485338.03048458,335605.642365059,5701330.13967788,963937.681352625,NA,NA,4456212.45885806,352385.924483312,5772536.06469399,616288.025782825,NA,NA,4524172.12598662,486628.181429335,5627088.33319878,410858.683855217,NA,NA,4611548.84086619,402726.770838071,5425134.29555948,442463.197997926,NA,NA,4587277.53117742,453067.617192829,5482808.34636817,505672.226283344,NA,NA,4480483.76854683,755112.695321382,5741268.69015155
"20",695299.311139597,11262.3279037457,NA,4533880.64986212,352385.924483312,5592828.21338878,774310.59649637,NA,NA,4495046.55436009,419507.052956323,5688864.20381278,410858.683855217,NA,NA,4630965.88861721,335605.642365059,5377430.21483748,995542.195495334,NA,NA,4441649.67304479,369166.206601565,5806358.07514169,458265.45506928,11262.3279037457,NA,4630965.88861721,268484.513892047,5368978.18548228,900728.653067206,NA,NA,4519317.86404886,201363.385419035,5621409.9025351,900728.653067206,NA,NA,4451358.1969203,436287.335074576,5788374.18506209,774310.59649637,NA,NA,4524172.12598662,318825.360246806,5617308.08272979,489869.969211989,NA,NA,4587277.53117742,402726.770838071,5479874.27122748,537276.740426052,NA,NA,4509609.34017335,620870.438375358,5667756.51897476
"21",1090355.73792346,11262.3279037457,NA,4422232.62529378,318825.360246806,5842676.05136779,900728.653067206,NA,NA,4465920.98273357,385946.488719818,5752596.12452059,790112.853567724,NA,NA,4524172.12598662,302045.078128553,5616330.05768289,521474.483354698,NA,NA,4601840.31699068,318825.360246806,5442140.16059219,426660.940926571,11262.3279037457,NA,4650382.93636822,234923.949655541,5323230.15485408,395056.426783862,NA,NA,4679508.50799475,184583.103300782,5259148.03807939,916530.910138561,NA,NA,4446503.93498255,436287.335074576,5799322.18019569,410858.683855217,NA,NA,4650382.93636822,268484.513892047,5329726.13411549,963937.681352625,NA,NA,4461066.72079581,335605.642365059,5760610.04451349,1074553.48085211,NA,NA,4393107.05366725,453067.617192829,5920728.15171219
"22",584683.511640116,NA,NA,4582423.26923967,318825.360246806,5485932.14112659,821717.367710434,NA,NA,4495046.55436009,369166.206601565,5685930.12867209,742706.082353661,NA,NA,4533880.64986212,318825.360246806,5595412.09246259,537276.740426052,NA,NA,4601840.31699068,302045.078128553,5441162.13554529,379254.169712508,11262.3279037457,NA,4669799.98411924,218143.667537288,5278460.14927278,837519.624781788,NA,NA,4548443.43567539,167802.821182529,5553765.8816397,1011344.45256669,NA,NA,4441649.67304479,352385.924483312,5805380.05009479,458265.45506928,NA,NA,4640674.41249272,251704.231773794,5350644.09933579,600485.76871147,NA,NA,4582423.26923967,302045.078128553,5484954.11607969,853321.881853143,NA,NA,4470775.24467132,419507.052956323,5743604.17948079
"23",916530.910138561,NA,NA,4495046.55436009,268484.513892047,5680061.9783907,837519.624781788,NA,NA,4475629.50660907,419507.052956323,5732656.18434719,458265.45506928,NA,NA,4621257.3647417,318825.360246806,5398348.18005779,553078.997497407,NA,NA,4611548.84086619,251704.231773794,5416332.07013739,379254.169712508,11262.3279037457,NA,4679508.50799475,184583.103300782,5254608.10891179,663694.796996888,NA,NA,4601840.31699068,167802.821182529,5433337.9351701,537276.740426052,NA,NA,4592131.79311517,335605.642365059,5465014.17590629,474067.712140635,NA,NA,4635820.15055496,251704.231773794,5361592.09446939,568881.254568761,NA,NA,4587277.53117742,318825.360246806,5474984.14599299,521474.483354698,NA,NA,4572714.74536416,419507.052956323,5513696.28167518
"24",537276.740426052,NA,NA,4606694.57892844,285264.7960103,5429236.11536479,995542.195495334,NA,NA,4446503.93498255,352385.924483312,5794432.05496119,521474.483354698,NA,NA,4611548.84086619,285264.7960103,5418288.12023119,916530.910138561,NA,NA,4509609.34017335,218143.667537288,5644283.9178492,837519.624781788,11262.3279037457,NA,4548443.43567539,151022.539064276,5548247.9274252,869124.138924497,NA,NA,4533880.64986212,184583.103300782,5587587.8920874,932333.167209915,NA,NA,4490192.29242234,268484.513892047,5691009.9735243,1058751.22378075,NA,NA,4461066.72079581,234923.949655541,5754741.8942321,521474.483354698,NA,NA,4621257.3647417,251704.231773794,5394436.07987019,900728.653067206,NA,NA,4480483.76854683,335605.642365059,5716818.06397909
"25",948135.42428127,NA,NA,4470775.24467132,318825.360246806,5737736.0291994,1106157.99499482,NA,NA,4422232.62529378,318825.360246806,5847215.9805354,505672.226283344,NA,NA,4621257.3647417,268484.513892047,5395414.10491709,521474.483354698,NA,NA,4635820.15055496,201363.385419035,5358658.0193287,363451.912641153,11262.3279037457,NA,4674654.24605699,218143.667537288,5267512.15413918,347649.655569799,NA,NA,4698925.55574577,167802.821182529,5214378.03249809,521474.483354698,NA,NA,4611548.84086619,285264.7960103,5418288.12023119,489869.969211989,NA,NA,4645528.67443047,201363.385419035,5336762.02906149,584683.511640116,NA,NA,4606694.57892844,234923.949655541,5426302.04022409,805915.110639079,NA,NA,4524172.12598662,285264.7960103,5615352.03263599
"26",948135.42428127,NA,NA,4480483.76854683,285264.7960103,5713883.9888384,663694.796996888,NA,NA,4558151.95955089,318825.360246806,5540672.11679459,790112.853567724,NA,NA,4538734.91179988,251704.231773794,5580551.9971414,442463.197997926,NA,NA,4669799.98411924,167802.821182529,5280066.0032997,821717.367710434,11262.3279037457,NA,4533880.64986212,218143.667537288,5585004.01301359,663694.796996888,NA,NA,4601840.31699068,167802.821182529,5433337.9351701,1011344.45256669,NA,NA,4495046.55436009,167802.821182529,5674193.82810931,900728.653067206,NA,NA,4504755.0782356,251704.231773794,5657187.9630766,1011344.45256669,NA,NA,4480483.76854683,218143.667537288,5709971.8886508,869124.138924497,NA,NA,4514463.60211111,251704.231773794,5635291.9728094
"27",489869.969211989,NA,NA,4621257.3647417,285264.7960103,5396392.12996399,663694.796996888,NA,NA,4563006.22148865,302045.078128553,5528746.09661409,884926.395995852,NA,NA,4509609.34017335,251704.231773794,5646239.967943,774310.59649637,NA,NA,4563006.22148865,184583.103300782,5521899.9212858,363451.912641153,11262.3279037457,NA,4674654.24605699,218143.667537288,5267512.15413918,758508.339425015,NA,NA,4567860.4834264,184583.103300782,5510951.9261522,963937.681352625,NA,NA,4504755.0782356,184583.103300782,5653275.86288901,458265.45506928,NA,NA,4635820.15055496,268484.513892047,5362570.11951629,553078.997497407,NA,NA,4626111.62667945,201363.385419035,5380554.00959589,963937.681352625,NA,NA,4490192.29242234,234923.949655541,5689053.9234305
"28",837519.624781788,NA,NA,4519317.86404886,268484.513892047,5625322.0027227,616288.025782825,NA,NA,4572714.74536416,318825.360246806,5507828.13139379,537276.740426052,NA,NA,4630965.88861721,201363.385419035,5369606.01446229,442463.197997926,NA,NA,4660091.46024373,201363.385419035,5303918.04366069,726903.825282306,11262.3279037457,NA,4563006.22148865,218143.667537288,5519316.04221199,426660.940926571,NA,NA,4674654.24605699,167802.821182529,5269118.0081661,1011344.45256669,NA,NA,4490192.29242234,184583.103300782,5686119.84828981,853321.881853143,11262.3279037457,NA,4529026.38792437,201363.385419035,5594973.98310029,537276.740426052,NA,NA,4640674.41249272,167802.821182529,5345753.9741013,948135.42428127,NA,NA,4495046.55436009,234923.949655541,5678105.9282969
"29",979739.938423979,NA,NA,4465920.98273357,302045.078128553,5747705.9992861,948135.42428127,NA,NA,4470775.24467132,318825.360246806,5737736.0291994,553078.997497407,NA,NA,4630965.88861721,184583.103300782,5368627.9894154,458265.45506928,NA,NA,4650382.93636822,218143.667537288,5326792.05897479,521474.483354698,11262.3279037457,NA,4621257.3647417,234923.949655541,5388918.12565568,426660.940926571,NA,NA,4669799.98411924,184583.103300782,5281044.02834659,805915.110639079,NA,NA,4553297.69761314,184583.103300782,5543795.911553,790112.853567724,NA,NA,4543589.17373763,234923.949655541,5568625.9769609,489869.969211989,NA,NA,4655237.19830598,167802.821182529,5312909.9887005,505672.226283344,NA,NA,4635820.15055496,218143.667537288,5359636.04437559
"30",521474.483354698,NA,NA,4606694.57892844,302045.078128553,5430214.14041169,916530.910138561,NA,NA,4490192.29242234,285264.7960103,5691987.9985712,948135.42428127,NA,NA,4504755.0782356,201363.385419035,5654253.8879359,774310.59649637,NA,NA,4548443.43567539,234923.949655541,5557677.9818273,474067.712140635,11262.3279037457,NA,4621257.3647417,285264.7960103,5391852.20079638,948135.42428127,NA,NA,4514463.60211111,167802.821182529,5630401.84757491,932333.167209915,NA,NA,4504755.0782356,218143.667537288,5655231.9129828,979739.938423979,NA,NA,4490192.29242234,218143.667537288,5688075.8983836,442463.197997926,NA,NA,4664945.72218149,184583.103300782,5291992.02348019,837519.624781788,NA,NA,4529026.38792437,234923.949655541,5601469.9623617
"31",995542.195495334,NA,NA,4461066.72079581,302045.078128553,5758653.9944197,553078.997497407,NA,NA,4587277.53117742,335605.642365059,5475962.17103989,1216773.7944943,NA,NA,4427086.88723153,184583.103300782,5828443.78502661,963937.681352625,NA,NA,4499900.81629784,201363.385419035,5665201.8830695,963937.681352625,11262.3279037457,NA,4461066.72079581,318825.360246806,5755092.09029899,474067.712140635,NA,NA,4660091.46024373,167802.821182529,5301961.9935669,837519.624781788,NA,NA,4533880.64986212,218143.667537288,5589543.9421812,568881.254568761,NA,NA,4630965.88861721,167802.821182529,5367649.9643685,458265.45506928,NA,NA,4660091.46024373,184583.103300782,5302940.01861379,774310.59649637,NA,NA,4563006.22148865,184583.103300782,5521899.9212858
"32",553078.997497407,NA,NA,4606694.57892844,268484.513892047,5428258.09031789,884926.395995852,NA,NA,4485338.03048458,335605.642365059,5705870.06884549,632090.282854179,NA,NA,4596986.05505293,218143.667537288,5447220.0054444,963937.681352625,NA,NA,4475629.50660907,285264.7960103,5724831.983972,837519.624781788,11262.3279037457,NA,4495046.55436009,335605.642365059,5679434.14941068,711101.568210952,NA,NA,4587277.53117742,167802.821182529,5466181.9205709,379254.169712508,NA,NA,4674654.24605699,218143.667537288,5272052.08330679,1027146.70963804,NA,NA,4495046.55436009,151022.539064276,5673215.80306241,426660.940926571,NA,NA,4655237.19830598,234923.949655541,5316822.08888809,395056.426783862,NA,NA,4694071.29380801,134242.256946024,5223369.9775379
"33",553078.997497407,NA,NA,4611548.84086619,251704.231773794,5416332.07013739,505672.226283344,NA,NA,4616403.10280394,285264.7960103,5407340.12509759,884926.395995852,NA,NA,4514463.60211111,234923.949655541,5634313.9477625,695299.311139597,NA,NA,4567860.4834264,251704.231773794,5514864.02633979,853321.881853143,11262.3279037457,NA,4495046.55436009,318825.360246806,5678456.12436379,837519.624781788,NA,NA,4558151.95955089,134242.256946024,5529913.84127871,347649.655569799,NA,NA,4689217.03187026,201363.385419035,5238230.07285909,1153564.76620888,NA,NA,4456212.45885806,151022.539064276,5760799.76413121,426660.940926571,NA,NA,4655237.19830598,234923.949655541,5316822.08888809,742706.082353661,NA,NA,4567860.4834264,201363.385419035,5511929.9511991
"34",869124.138924497,NA,NA,4529026.38792437,201363.385419035,5599513.9122679,979739.938423979,NA,NA,4480483.76854683,251704.231773794,5711927.9387446,600485.76871147,NA,NA,4606694.57892844,218143.667537288,5425324.01517719,869124.138924497,NA,NA,4514463.60211111,251704.231773794,5635291.9728094,742706.082353661,11262.3279037457,NA,4524172.12598662,335605.642365059,5613746.17860908,805915.110639079,NA,NA,4567860.4834264,134242.256946024,5508017.85101151,932333.167209915,NA,NA,4514463.60211111,184583.103300782,5631379.87262181,568881.254568761,NA,NA,4635820.15055496,151022.539064276,5355723.944188,774310.59649637,NA,NA,4548443.43567539,234923.949655541,5557677.9818273,758508.339425015,NA,NA,4558151.95955089,218143.667537288,5534803.9665132
"35",1042948.9667094,NA,NA,4485338.03048458,167802.821182529,5696089.81837651,537276.740426052,NA,NA,4616403.10280394,251704.231773794,5405384.07500379,553078.997497407,NA,NA,4606694.57892844,268484.513892047,5428258.09031789,805915.110639079,NA,NA,4529026.38792437,268484.513892047,5603426.0124555,916530.910138561,11262.3279037457,NA,4485338.03048458,285264.7960103,5698396.06453719,837519.624781788,NA,NA,4543589.17373763,184583.103300782,5565691.9018202,331847.398498445,NA,NA,4698925.55574577,184583.103300782,5215356.05754499,553078.997497407,NA,NA,4635820.15055496,167802.821182529,5356701.9692349,932333.167209915,NA,NA,4490192.29242234,268484.513892047,5691009.9735243,790112.853567724,NA,NA,4548443.43567539,218143.667537288,5556699.9567804
"36",1042948.9667094,NA,NA,4480483.76854683,184583.103300782,5708015.83855701,537276.740426052,NA,NA,4621257.3647417,234923.949655541,5393458.05482329,584683.511640116,NA,NA,4596986.05505293,268484.513892047,5450154.08058509,442463.197997926,NA,NA,4645528.67443047,251704.231773794,5339696.10420219,900728.653067206,22524.6558074914,NA,4495046.55436009,251704.231773794,5670004.09500858,774310.59649637,NA,NA,4563006.22148865,184583.103300782,5521899.9212858,331847.398498445,NA,NA,4689217.03187026,218143.667537288,5239208.09790599,537276.740426052,11262.3279037457,NA,4635820.15055496,167802.821182529,5352162.04006729,963937.681352625,NA,NA,4485338.03048458,251704.231773794,5700979.943611,884926.395995852,NA,NA,4524172.12598662,201363.385419035,5610461.9074015
"37",995542.195495334,NA,NA,4470775.24467132,268484.513892047,5734801.9540587,442463.197997926,NA,NA,4660091.46024373,201363.385419035,5303918.04366069,1058751.22378075,NA,NA,4461066.72079581,234923.949655541,5754741.8942321,932333.167209915,NA,NA,4504755.0782356,218143.667537288,5655231.9129828,568881.254568761,11262.3279037457,NA,4596986.05505293,268484.513892047,5445614.15141748,395056.426783862,NA,NA,4684362.7699325,167802.821182529,5247222.0178989,900728.653067206,NA,NA,4509609.34017335,234923.949655541,5645261.9428961,805915.110639079,22524.6558074914,NA,4548443.43567539,167802.821182529,5544686.02330449,489869.969211989,11262.3279037457,NA,4616403.10280394,285264.7960103,5402800.19592998,458265.45506928,NA,NA,4655237.19830598,201363.385419035,5314866.03879429
"38",647892.539925534,45049.3116149827,NA,4553297.69761314,285264.7960103,5531504.34516396,884926.395995852,78836.2953262198,26579.0583835292,4490192.29242234,184583.103300782,5665117.14542872,932333.167209915,11262.3279037457,NA,4499900.81629784,218143.667537288,5661639.97894879,474067.712140635,22524.6558074914,NA,4640674.41249272,201363.385419035,5338630.16585988,600485.76871147,112623.279037457,NA,4543589.17373763,268484.513892047,5525182.73537861,821717.367710434,22524.6558074914,NA,4538734.91179988,184583.103300782,5567560.03861859,347649.655569799,67573.9674224741,NA,4645528.67443047,251704.231773794,5312456.52919654,742706.082353661,112623.279037457,NA,4519317.86404886,201363.385419035,5576010.61085901,458265.45506928,67573.9674224741,NA,4606694.57892844,268484.513892047,5401018.51531224,900728.653067206,56311.6395187284,NA,4509609.34017335,151022.539064276,5617672.17182356
"39",1090355.73792346,112623.279037457,NA,4397961.31560501,251704.231773794,5852644.56433972,553078.997497407,225246.558074914,26579.0583835292,4509609.34017335,251704.231773794,5566218.185903,537276.740426052,101360.951133711,NA,4592131.79311517,184583.103300782,5415352.58797572,979739.938423979,146410.262748694,NA,4436795.41110704,184583.103300782,5747528.7155805,916530.910138561,405443.804534844,NA,4325147.38653869,251704.231773794,5898826.33298589,821717.367710434,112623.279037457,NA,4499900.81629784,184583.103300782,5618824.56634652,679497.054068243,180197.246459931,NA,4499900.81629784,234923.949655541,5594519.06648156,647892.539925534,281558.197593642,NA,4470775.24467132,218143.667537288,5618369.64972778,979739.938423979,202721.902267422,NA,4393107.05366725,251704.231773794,5827273.12613245,853321.881853143,157672.59065244,NA,4475629.50660907,167802.821182529,5654426.80029719
"40",1090355.73792346,191459.574363677,NA,4363981.48204073,251704.231773794,5897501.02610166,916530.910138561,405443.804534844,26579.0583835292,4325147.38653869,234923.949655541,5908625.10925117,489869.969211989,225246.558074914,NA,4553297.69761314,184583.103300782,5452997.32820083,505672.226283344,337869.83711237,NA,4495046.55436009,201363.385419035,5539952.00317484,521474.483354698,506804.755668556,NA,4407669.83948052,234923.949655541,5670873.02815931,331847.398498445,292820.525497388,NA,4567860.4834264,201363.385419035,5393891.79284127,821717.367710434,360394.492919862,NA,4388252.7917295,201363.385419035,5771728.03777883,410858.683855217,427968.460342336,NA,4480483.76854683,218143.667537288,5537454.58028167,568881.254568761,270295.869689896,NA,4485338.03048458,268484.513892047,5592999.66863529,474067.712140635,315345.181304879,NA,4524172.12598662,167802.821182529,5481387.84061466
"41",695299.311139597,259033.541786151,NA,4456212.45885806,251704.231773794,5662249.5435576,568881.254568761,551854.067283538,26579.0583835292,4373690.00591624,218143.667537288,5739148.05368935,853321.881853143,427968.460342336,NA,4349418.69622747,201363.385419035,5832072.42384198,442463.197997926,360394.492919862,NA,4509609.34017335,184583.103300782,5497050.13439192,774310.59649637,619428.034706013,NA,4281459.02909891,234923.949655541,5910121.60995683,805915.110639079,416706.13243859,NA,4363981.48204073,218143.667537288,5804746.39265568,821717.367710434,473017.771957318,NA,4339710.17235196,201363.385419035,5835808.69743874,821717.367710434,563116.395187284,NA,4291167.55297442,234923.949655541,5910925.26552767,1137762.50913752,382919.148727353,NA,4271750.5052234,234923.949655541,6027356.11274382,821717.367710434,506804.755668556,NA,4325147.38653869,201363.385419035,5855032.89533672
"42",1042948.9667094,371656.820823607,NA,4310584.60072543,218143.667537288,5943334.05579572,505672.226283344,720788.985839724,53158.1167670583,4325147.38653869,184583.103300782,5789349.8187296,521474.483354698,563116.395187284,NA,4402815.57754276,167802.821182529,5655209.27726727,884926.395995852,529329.411476047,NA,4320293.12460094,117461.974827771,5852010.90690061,537276.740426052,777100.625358453,NA,4291167.55297442,218143.667537288,5823688.58629621,758508.339425015,563116.395187284,NA,4315438.86266319,218143.667537288,5855207.26481277,379254.169712508,574378.72309103,26579.0583835292,4427086.88723153,201363.385419035,5608662.22383763,711101.568210952,687002.002128487,NA,4276604.76716115,218143.667537288,5892852.00503788,647892.539925534,461755.444053573,26579.0583835292,4383398.52979174,234923.949655541,5754549.52180992,853321.881853143,765838.297454707,NA,4203790.83809484,201363.385419035,6024314.40282173
"43",1011344.45256669,518067.083572301,NA,4237770.67165912,285264.7960103,6052447.00380841,521474.483354698,1081183.47875959,53158.1167670583,4164956.74259281,184583.103300782,6005355.92477493,553078.997497407,619428.034706013,NA,4378544.26785399,134242.256946024,5685293.55700343,979739.938423979,630690.362609759,NA,4232916.40972137,167802.821182529,6011149.53193763,1011344.45256669,934773.216010893,NA,4072725.76577548,234923.949655541,6253767.3840086,758508.339425015,698264.330032233,NA,4257187.71941014,218143.667537288,5932104.05640467,363451.912641153,698264.330032233,26579.0583835292,4378544.26785399,201363.385419035,5668202.95432994,442463.197997926,810887.60906969,26579.0583835292,4310584.60072543,184583.103300782,5775097.56947736,963937.681352625,574378.72309103,53158.1167670583,4242624.93359687,201363.385419035,6035462.84022662,568881.254568761,855936.920684673,NA,4252333.45747238,201363.385419035,5878515.01814485
"44",537276.740426052,641952.690513504,NA,4334855.9104142,268484.513892047,5782569.85524581,521474.483354698,1171282.10198955,53158.1167670583,4111559.86127751,234923.949655541,6092398.51304436,442463.197997926,844674.592780927,NA,4315438.86266319,134242.256946024,5736818.91038806,505672.226283344,855936.920684673,NA,4281459.02909891,167802.821182529,5810870.99724945,553078.997497407,1024871.83924086,NA,4169811.00453056,251704.231773794,5999466.07304262,742706.082353661,900986.232299656,NA,4174665.26646832,218143.667537288,6036501.24865892,805915.110639079,788362.953262198,26579.0583835292,4208645.10003259,184583.103300782,6014085.32561818,916530.910138561,1002347.18343337,26579.0583835292,4087288.55158874,167802.821182529,6200548.52472673,995542.195495334,675739.674224741,53158.1167670583,4164956.74259281,285264.7960103,6174661.52509024,647892.539925534,1002347.18343337,NA,4169811.00453056,184583.103300782,6004633.83119024
"45",1074553.48085211,664477.346320996,NA,4174665.26646832,218143.667537288,6131839.7611787,1027146.70963804,1374004.00425697,NA,3883409.55020307,218143.667537288,6502703.93163537,474067.712140635,1069921.15085584,NA,4213499.36197035,117461.974827771,5874950.1997946,853321.881853143,934773.216010893,NA,4135831.17096628,184583.103300782,6108509.3721311,458265.45506928,1148757.44618206,NA,4135831.17096628,285264.7960103,6028118.86822792,426660.940926571,1069921.15085584,NA,4218353.6239081,151022.539064276,5865958.25475479,726903.825282306,968560.19972213,26579.0583835292,4164956.74259281,151022.539064276,6038022.36504505,884926.395995852,1103708.13456708,53158.1167670583,4048454.45608671,167802.821182529,6258049.92459922,489869.969211989,720788.985839724,53158.1167670583,4305730.33878768,268484.513892047,5838031.9244985,995542.195495334,1182544.4298933,26579.0583835292,3980494.78895815,184583.103300782,6369743.57603109
"46",1090355.73792346,675739.674224741,NA,4160102.48065505,234923.949655541,6161121.8424588,584683.511640116,1362741.67635323,26579.0583835292,4014474.62252243,234923.949655541,6223402.81855484,837519.624781788,1227593.74150828,NA,4033891.67027344,117461.974827771,6216467.01139128,442463.197997926,979822.527625876,NA,4237770.67165912,201363.385419035,5861419.78270196,790112.853567724,1238856.06941202,NA,3999911.83670917,268484.513892047,6297365.27358096,474067.712140635,1193806.75779704,NA,4145539.69484179,167802.821182529,5981216.985962,711101.568210952,1081183.47875959,26579.0583835292,4135831.17096628,100681.692709518,6055376.96902987,553078.997497407,1182544.4298933,79737.1751505875,4111559.86127751,167802.821182529,6094723.28500133,553078.997497407,855936.920684673,79737.1751505875,4232916.40972137,234923.949655541,5956593.45270957,695299.311139597,1283905.38102701,26579.0583835292,4038745.9322112,151022.539064276,6195552.22182561
"47",1121960.25206617,754575.969550961,NA,4121268.38515302,218143.667537288,6215948.27430744,616288.025782825,1509151.93910192,26579.0583835292,3936806.43151836,251704.231773794,6340529.68656043,505672.226283344,1362741.67635323,NA,4077580.02771323,117461.974827771,6063455.90517757,837519.624781788,1137495.11827831,NA,4043600.19414895,218143.667537288,6236758.60474634,884926.395995852,1407790.98796821,NA,3897972.33601633,268484.513892047,6459174.23387244,995542.195495334,1306430.0368345,NA,3936806.43151836,167802.821182529,6406581.48503072,853321.881853143,1137495.11827831,26579.0583835292,4067871.50383772,100681.692709518,6185949.25506223,948135.42428127,1250118.39731577,79737.1751505875,3961077.74120713,167802.821182529,6406871.55913729,948135.42428127,1013609.51133711,79737.1751505875,4048454.45608671,218143.667537288,6308080.23439297,632090.282854179,1430315.6437757,26579.0583835292,3995057.57477141,151022.539064276,6235065.0988491
"48",1153564.76620888,844674.592780927,NA,4067871.50383772,234923.949655541,6301034.81248307,1153564.76620888,1554201.2507169,26579.0583835292,3766907.26369696,201363.385419035,6702615.72442531,900728.653067206,1374004.00425697,NA,3951369.21733162,117461.974827771,6343563.84948357,426660.940926571,1193806.75779704,NA,4145539.69484179,218143.667537288,5984151.06110269,379254.169712508,1633037.54604312,NA,3956223.47926938,268484.513892047,6236999.70891705,869124.138924497,1396528.66006446,26579.0583835292,3931952.16958061,167802.821182529,6391986.84813563,426660.940926571,1362741.67635323,26579.0583835292,4087288.55158874,151022.539064276,6054292.76631634,1027146.70963804,1441577.97167945,79737.1751505875,3839721.19276328,218143.667537288,6606326.71676864,537276.740426052,1148757.44618206,79737.1751505875,4121268.38515302,201363.385419035,6088403.13233075,600485.76871147,1587988.23442814,26579.0583835292,3936806.43151836,151022.539064276,6302882.03210578
"49",774310.59649637,1002347.18343337,NA,4111559.86127751,251704.231773794,6139921.87298104,1074553.48085211,1497889.61119817,26579.0583835292,3815449.88307451,201363.385419035,6615835.41892735,916530.910138561,1509151.93910192,NA,3883409.55020307,134242.256946024,6443334.65638957,916530.910138561,1216331.41360453,NA,3980494.78895815,234923.949655541,6348281.06235678,837519.624781788,1633037.54604312,NA,3820304.14501226,251704.231773794,6542565.54761096,505672.226283344,1430315.6437757,53158.1167670583,4029037.40833569,151022.539064276,6169205.93422607,774310.59649637,1464102.62748694,26579.0583835292,3936806.43151836,151022.539064276,6352821.25294947,1074553.48085211,1419053.31587195,79737.1751505875,3825158.40695002,251704.231773794,6650206.61059846,568881.254568761,1103708.13456708,79737.1751505875,4140685.43290404,167802.821182529,6060814.81837299,837519.624781788,1542938.92281316,53158.1167670583,3878555.28826531,151022.539064276,6463194.49169159
"50",695299.311139597,1036134.1671446,NA,4116414.12321527,268484.513892047,6116332.11539151,1011344.45256669,1497889.61119817,26579.0583835292,3839721.19276328,184583.103300782,6560117.41821245,805915.110639079,1407790.98796821,NA,3956223.47926938,151022.539064276,6320952.11694094,442463.197997926,1396528.66006446,NA,4048454.45608671,234923.949655541,6122370.26380464,790112.853567724,1779447.80879181,NA,3762053.00175921,285264.7960103,6616878.46012905,521474.483354698,1599250.56233188,53158.1167670583,3951369.21733162,151022.539064276,6276274.91884954,916530.910138561,1374004.00425697,NA,3946514.95539387,117461.974827771,6354511.84461717,932333.167209915,1374004.00425697,106316.233534117,3883409.55020307,251704.231773794,6547767.18697786,1011344.45256669,1250118.39731577,79737.1751505875,3946514.95539387,151022.539064276,6438737.51949119,679497.054068243,1666824.52975436,53158.1167670583,3888263.81214082,100681.692709518,6388425.20544
"51",584683.511640116,1114970.46247082,NA,4121268.38515302,251704.231773794,6072626.59103775,742706.082353661,1666824.52975436,26579.0583835292,3849429.71663879,184583.103300782,6470122.49043112,932333.167209915,1441577.97167945,NA,3912535.12182959,117461.974827771,6403908.23554672,790112.853567724,1328954.69264199,NA,3975640.52702039,218143.667537288,6312851.7407674,474067.712140635,1779447.80879181,NA,3873701.02632756,234923.949655541,6362140.49691555,553078.997497407,1531676.59490941,26579.0583835292,3985349.0508959,117461.974827771,6214145.67651402,1058751.22378075,1441577.97167945,NA,3854283.97857654,184583.103300782,6539196.27733752,1027146.70963804,1396528.66006446,79737.1751505875,3839721.19276328,285264.7960103,6628398.53362667,758508.339425015,1250118.39731577,79737.1751505875,4009620.36058467,201363.385419035,6299347.65789508,900728.653067206,1633037.54604312,53158.1167670583,3820304.14501226,151022.539064276,6558250.99995392
"52",584683.511640116,1160019.77408581,NA,4116414.12321527,201363.385419035,6062480.79436022,458265.45506928,1587988.23442814,26579.0583835292,3956223.47926938,234923.949655541,6263980.17680587,884926.395995852,1374004.00425697,NA,3946514.95539387,151022.539064276,6356467.89471097,853321.881853143,1419053.31587195,NA,3922243.6457051,201363.385419035,6395982.22884923,505672.226283344,1982169.71105924,NA,3781470.04951023,218143.667537288,6487455.65439009,616288.025782825,1486627.28329443,26579.0583835292,3985349.0508959,117461.974827771,6232305.39318446,600485.76871147,1407790.98796821,NA,4019328.88446018,151022.539064276,6178628.18020414,948135.42428127,1430315.6437757,106316.233534117,3859138.24051429,234923.949655541,6578829.49176092,900728.653067206,1374004.00425697,53158.1167670583,3917389.38376734,201363.385419035,6446643.54327762,1042948.9667094,1678086.8576581,53158.1167670583,3762053.00175921,134242.256946024,6670489.19983979
"53",900728.653067206,1126232.79037457,NA,4029037.40833569,218143.667537288,6274142.51931475,1011344.45256669,1554201.2507169,NA,3815449.88307451,201363.385419035,6582358.97177713,395056.426783862,1407790.98796821,NA,4082434.28965099,151022.539064276,6036304.24346733,711101.568210952,1497889.61119817,26579.0583835292,3936806.43151836,167802.821182529,6340179.49049355,742706.082353661,1982169.71105924,26579.0583835292,3698947.59656841,234923.949655541,6685326.39802037,521474.483354698,1497889.61119817,26579.0583835292,4004766.09864692,134242.256946024,6184951.50852934,632090.282854179,1396528.66006446,NA,4014474.62252243,151022.539064276,6194116.10450535,568881.254568761,1587988.23442814,132895.291917646,3912535.12182959,201363.385419035,6403663.28816317,1011344.45256669,1283905.38102701,26579.0583835292,3922243.6457051,218143.667537288,6462216.20521961,1042948.9667094,1599250.56233188,53158.1167670583,3805741.359199,100681.692709518,6601780.69771686
"54",948135.42428127,1216331.41360453,NA,3975640.52702039,218143.667537288,6358251.03244349,568881.254568761,1419053.31587195,NA,4024183.14639794,151022.539064276,6163140.25590293,426660.940926571,1396528.66006446,NA,4072725.76577548,167802.821182529,6063718.18794904,853321.881853143,1520414.26700566,26579.0583835292,3893118.07407857,134242.256946024,6427675.53826693,489869.969211989,1993432.03896298,53158.1167670583,3781470.04951023,184583.103300782,6502513.27775304,474067.712140635,1374004.00425697,26579.0583835292,4067871.50383772,151022.539064276,6093544.81768314,647892.539925534,1396528.66006446,NA,4009620.36058467,151022.539064276,6205064.09963895,963937.681352625,1565463.57862065,186053.408684704,3791178.57338574,201363.385419035,6707996.62746275,568881.254568761,1385266.33216072,53158.1167670583,4033891.67027344,134242.256946024,6175439.63071601,1121960.25206617,1531676.59490941,53158.1167670583,3805741.359199,117461.974827771,6629998.29776941
"55",537276.740426052,1182544.4298933,NA,4126122.64709077,184583.103300782,6030526.92071091,837519.624781788,1419053.31587195,NA,3941660.69345612,151022.539064276,6349256.17317413,758508.339425015,1374004.00425697,NA,3985349.0508959,151022.539064276,6268883.93364217,426660.940926571,1509151.93910192,26579.0583835292,4033891.67027344,117461.974827771,6113745.58351323,505672.226283344,1982169.71105924,53158.1167670583,3786324.31144798,167802.821182529,6495127.18674015,474067.712140635,1441577.97167945,26579.0583835292,4033891.67027344,167802.821182529,6143919.23365958,1011344.45256669,1407790.98796821,NA,3888263.81214082,167802.821182529,6475202.07385825,979739.938423979,1497889.61119817,186053.408684704,3830012.66888777,151022.539064276,6644718.1662589,537276.740426052,1396528.66006446,53158.1167670583,4033891.67027344,151022.539064276,6171877.72659529,869124.138924497,1565463.57862065,53158.1167670583,3868846.7643898,117461.974827771,6474054.57352978
"56",932333.167209915,1193806.75779704,NA,4019328.88446018,117461.974827771,6262930.78429491,774310.59649637,1362741.67635323,NA,3990203.31283366,134242.256946024,6261497.84262928,426660.940926571,1419053.31587195,26579.0583835292,4063017.24189997,151022.539064276,6086333.0961463,458265.45506928,1497889.61119817,26579.0583835292,4024183.14639794,134242.256946024,6141159.52799494,521474.483354698,1914595.74363676,53158.1167670583,3800887.09726124,201363.385419035,6491478.8264388,410858.683855217,1306430.0368345,26579.0583835292,4121268.38515302,134242.256946024,5999378.42117229,742706.082353661,1396528.66006446,NA,3961077.74120713,218143.667537288,6318456.15116255,616288.025782825,1621775.21813938,159474.350301175,3883409.55020307,184583.103300782,6465530.24772722,932333.167209915,1599250.56233188,53158.1167670583,3820304.14501226,167802.821182529,6572848.81250365,742706.082353661,1644299.87394687,79737.1751505875,3863992.50245205,134242.256946024,6464977.89084919
"57",489869.969211989,1306430.0368345,NA,4092142.81352649,167802.821182529,6056245.64075551,458265.45506928,1385266.33216072,NA,4072725.76577548,151022.539064276,6067280.09206975,363451.912641153,1610512.89023563,79737.1751505875,3999911.83670917,117461.974827771,6171075.78956431,805915.110639079,1441577.97167945,26579.0583835292,3956223.47926938,83901.4105912647,6314197.0305627,505672.226283344,1993432.03896298,53158.1167670583,3771761.52563472,201363.385419035,6525387.29306714,726903.825282306,1407790.98796821,26579.0583835292,3985349.0508959,117461.974827771,6264084.89735772,1200971.53742294,1351479.34844948,NA,3834866.93082552,234923.949655541,6622241.76635349,1121960.25206617,1565463.57862065,159474.350301175,3747490.21594595,201363.385419035,6795751.78235298,963937.681352625,1531676.59490941,79737.1751505875,3825158.40695002,201363.385419035,6601873.24378167,442463.197997926,1689349.18556185,79737.1751505875,3936806.43151836,134242.256946024,6282598.24717475
"58",410858.683855217,1182544.4298933,NA,4160102.48065505,201363.385419035,5954868.9798226,442463.197997926,1385266.33216072,NA,4077580.02771323,151022.539064276,6056332.09693615,426660.940926571,1554201.2507169,79737.1751505875,4009620.36058467,100681.692709518,6170901.42008825,869124.138924497,1554201.2507169,26579.0583835292,3888263.81214082,83901.4105912647,6422069.67075701,869124.138924497,2015956.69477047,53158.1167670583,3655259.23912862,184583.103300782,6778081.29289143,474067.712140635,1430315.6437757,26579.0583835292,4058162.97996222,100681.692709518,6089807.0869716,1327389.59399378,1261380.72521952,NA,3844575.45470103,201363.385419035,6634709.15933336,568881.254568761,1734398.49717683,132895.291917646,3854283.97857654,184583.103300782,6475042.12554056,474067.712140635,1464102.62748694,79737.1751505875,4009620.36058467,184583.103300782,6212110.97866362,458265.45506928,1452840.29958319,79737.1751505875,4029037.40833569,151022.539064276,6170902.87720303
"59",805915.110639079,1306430.0368345,NA,3980494.78895815,218143.667537288,6310983.60396901,426660.940926571,1340217.02054574,NA,4106705.59933976,134242.256946024,6007825.81775809,489869.969211989,1497889.61119817,79737.1751505875,4009620.36058467,117461.974827771,6194579.0909732,521474.483354698,1666824.52975436,NA,3951369.21733162,83901.4105912647,6223569.64103195,884926.395995852,1948382.727348,53158.1167670583,3689239.0726929,151022.539064276,6726728.85186808,426660.940926571,1340217.02054574,26579.0583835292,4106705.59933976,117461.974827771,6017624.59402336,695299.311139597,1328954.69264199,26579.0583835292,3995057.57477141,234923.949655541,6280814.58659207,1074553.48085211,1621775.21813938,106316.233534117,3757198.73982146,167802.821182529,6727646.49352958,410858.683855217,1464102.62748694,53158.1167670583,4038745.9322112,167802.821182529,6134668.18150294,837519.624781788,1554201.2507169,79737.1751505875,3868846.7643898,151022.539064276,6491327.35410336
"60",410858.683855217,1261380.72521952,NA,4126122.64709077,201363.385419035,5999725.44158454,853321.881853143,1283905.38102701,NA,4004766.09864692,117461.974827771,6259455.33635484,442463.197997926,1509151.93910192,79737.1751505875,4024183.14639794,100681.692709518,6156217.15135789,932333.167209915,1633037.54604312,26579.0583835292,3844575.45470103,50340.8463547588,6486866.07269236,1042948.9667094,1948382.727348,53158.1167670583,3630987.92943985,184583.103300782,6860060.84356508,426660.940926571,1362741.67635323,26579.0583835292,4106705.59933976,83901.4105912647,6006588.68559435,600485.76871147,1531676.59490941,26579.0583835292,3927097.90764285,268484.513892047,6354323.84353931,900728.653067206,1655562.20185061,132895.291917646,3786324.31144798,184583.103300782,6660093.56158423,711101.568210952,1419053.31587195,53158.1167670583,3965932.00314489,167802.821182529,6317047.82517738,837519.624781788,1576725.90652439,79737.1751505875,3854283.97857654,167802.821182529,6516069.50621584
