"","Early1.ALL","Late1.CLS","Late1.OPN","Mid1.CLS","Mid1.OPN","Early1.ALL.1","Late1.CLS.1","Late1.OPN.1","Mid1.CLS.1","Mid1.OPN.1","Early1.ALL.2","Late1.CLS.2","Late1.OPN.2","Mid1.CLS.2","Mid1.OPN.2","Early1.ALL.3","Late1.CLS.3","Late1.OPN.3","Mid1.CLS.3","Mid1.OPN.3","Early1.ALL.4","Late1.CLS.4","Late1.OPN.4","Mid1.CLS.4","Mid1.OPN.4","Early1.ALL.5","Late1.CLS.5","Late1.OPN.5","Mid1.CLS.5","Mid1.OPN.5","Early1.ALL.6","Late1.CLS.6","Late1.OPN.6","Mid1.CLS.6","Mid1.OPN.6","Early1.ALL.7","Late1.CLS.7","Late1.OPN.7","Mid1.CLS.7","Mid1.OPN.7","Early1.ALL.8","Late1.CLS.8","Late1.OPN.8","Mid1.CLS.8","Mid1.OPN.8","Early1.ALL.9","Late1.CLS.9","Late1.OPN.9","Mid1.CLS.9","Mid1.OPN.9"
"0",5.02987608000001,13.96295978,14.5515623,8.76304297200001,0.754035501000001,5.72549724000001,14.008294065,12.69954528,8.76304297200001,0.872647827000001,5.93953452000001,14.14429692,13.162549535,8.49014544000001,0.830286282000001,5.02987608000001,12.87493694,13.691697255,9.27851608800002,0.923481681000002,5.61847860000001,13.78162264,13.49326686,9.30883803600002,0.677784720000001,4.70882016000001,13.69095407,14.02241458,9.15722829600002,0.813341664000001,6.36760908000001,13.78162264,12.69954528,8.67207712800001,0.838758591000001,5.88602520000001,12.557596945,13.823984185,8.91465271200002,0.931953990000002,4.97636676000001,13.69095407,12.501114885,9.76366725600003,0.796397046000001,5.61847860000001,14.008294065,13.030262605,8.33853570000001,0.965843226000001
"1",4.60180152,14.370968345,14.5515623,8.79336492000001,0.737090883000001,5.08338540000001,14.461636915,12.765688745,8.85400881600001,0.855703209000001,5.61847860000001,14.370968345,13.162549535,8.55078933600001,0.821813973000001,4.33425492,13.23761122,13.956271115,9.55141362000003,0.855703209000001,4.65531084000001,14.14429692,13.62555379,9.52109167200003,0.686257029000001,4.06670832,14.05362835,14.220844975,9.21787219200002,0.804869355000001,5.35093200000001,14.23496549,12.69954528,9.03594050400002,0.813341664000001,5.24391336000001,13.14694265,13.823984185,9.15722829600002,0.855703209000001,4.12021764,14.098962635,12.633401815,10.218496476,0.711673956000001,4.70882016000001,14.189631205,13.09640607,8.94497466000002,0.898064754000002
"2",4.22723628,14.733642625,14.749992695,9.06626245200002,0.626950866,4.22723628,14.642974055,13.030262605,9.18755024400002,0.830286282000001,4.54829220000001,14.914979765,13.427123395,8.58111128400001,0.847230900000001,3.7456524,13.554951215,14.15470151,9.73334530800003,0.813341664000001,4.12021764,14.32563406,13.691697255,9.79398920400003,0.652367793,3.15704988,14.5069712,14.353131905,9.52109167200003,0.762507810000001,4.33425492,14.5069712,12.897975675,9.36948193200002,0.804869355000001,4.22723628,13.41894836,14.088558045,9.58173556800003,0.813341664000001,3.53161512,14.5069712,12.83183221,10.248818424,0.694729338000001,4.06670832,14.32563406,13.294836465,9.39980388000002,0.821813973000001
"3",3.42459648,15.1869854750001,14.749992695,9.30883803600002,0.601533939,3.31757784,14.914979765,13.294836465,9.43012582800002,0.821813973000001,3.7456524,15.3229883300001,13.691697255,8.97529660800002,0.754035501000001,2.99652192,13.917625495,14.220844975,9.97592089200003,0.787924737000001,3.7456524,14.77897691,13.823984185,9.70302336000003,0.635423175,2.99652192,15.0509826200001,14.353131905,9.52109167200003,0.686257029000001,3.58512444,14.68830834,13.162549535,9.70302336000003,0.762507810000001,3.63863376,13.645619785,14.28698844,9.91527699600003,0.745563192000001,3.05003124,15.0056483350001,12.897975675,10.370106216,0.635423175,3.31757784,14.642974055,13.427123395,9.79398920400003,0.754035501000001
"4",2.9430126,15.4136569000001,15.014566555,9.39980388000002,0.576117012,2.9430126,15.1869854750001,13.49326686,9.43012582800002,0.804869355000001,2.88950328,15.7763311800001,13.823984185,9.30883803600002,0.694729338000001,2.51493804,14.098962635,14.220844975,10.30946232,0.737090883000001,3.15704988,15.2323197600001,13.89012765,9.70302336000003,0.635423175,2.08686348,15.1869854750001,14.41927537,10.127530632,0.626950866,2.72897532,14.9603140500001,13.162549535,9.97592089200003,0.770980119000001,3.10354056,14.23496549,14.41927537,9.79398920400003,0.737090883000001,2.1403728,15.7309968950001,13.09640607,10.643003748,0.542227776,3.05003124,15.0056483350001,13.559410325,9.82431115200003,0.703201647000001
"5",2.72897532,15.7309968950001,15.08071002,9.52109167200003,0.50833854,2.4079194,15.6403283250001,13.62555379,9.58173556800003,0.745563192000001,2.62195668,15.9576683200001,13.89012765,9.52109167200003,0.635423175,1.8728262,14.370968345,14.28698844,10.30946232,0.779452428000001,2.62195668,15.4589911850001,14.088558045,10.00624284,0.567644703,1.8728262,15.5043254700001,14.5515623,10.188174528,0.567644703,2.46142872,15.2776540450001,13.36097993,10.218496476,0.660840102000001,2.51493804,14.824311195,14.485418835,9.82431115200003,0.703201647000001,1.76580756,16.1390054600001,13.228693,10.733969592,0.482921613,2.675466,15.1869854750001,13.62555379,10.127530632,0.635423175
"6",2.1403728,17.0456911600001,14.02241458,9.58173556800003,0.474449304,1.76580756,16.6830168800001,13.030262605,9.79398920400003,0.669312411000001,1.97984484,16.9096883050001,12.96411914,9.85463310000003,0.584589321,1.65878892,15.0963169050001,13.823984185,10.430750112,0.703201647000001,2.46142872,16.5016797400001,13.62555379,9.88495504800003,0.491393922,1.49826096,16.6830168800001,13.691697255,10.248818424,0.499866231,1.8728262,16.2296740300001,12.30268449,10.521715956,0.626950866,2.19388212,16.0936711750001,13.030262605,9.97592089200003,0.660840102000001,1.28422368,17.5443682950001,12.30268449,10.6126818,0.449032377,1.92633552,16.0030026050001,12.897975675,10.30946232,0.643895484000001
"7",1.55177028,18.2243825700001,13.228693,9.61205751600003,0.440560068,1.44475164,17.9070425750001,11.971967165,9.82431115200003,0.618478557,1.44475164,17.8617082900001,12.43497142,9.91527699600003,0.542227776,1.28422368,15.9576683200001,13.09640607,10.521715956,0.669312411000001,1.92633552,17.6803711500001,12.368827955,9.85463310000003,0.525283158,1.0701864,17.8163740050001,12.69954528,10.339784268,0.457504686,1.17720504,17.4990340100001,11.37667598,10.643003748,0.584589321,1.92633552,17.2270283000001,11.971967165,10.15785258,0.576117012,1.0701864,18.3150511400001,11.9058237,10.582359852,0.398198523,1.92633552,16.9550225900001,12.104254095,10.430750112,0.533755467
"8",1.6052796,19.0857339850001,12.501114885,9.58173556800003,0.372781596,1.28422368,18.9043968450001,11.178245585,9.94559894400003,0.525283158,0.96316776,19.0857339850001,11.37667598,10.188174528,0.449032377,0.96316776,17.4083654400001,11.9058237,10.76429154,0.533755467,1.6052796,18.6323911350001,11.50896291,9.91527699600003,0.491393922,0.90965844,18.7230597050001,11.839680235,10.552037904,0.364309287,1.01667708,18.4963882800001,10.71524133,10.703647644,0.491393922,1.76580756,18.3603854250001,10.913671725,10.127530632,0.533755467,0.8026398,19.3124054100001,11.24438905,10.552037904,0.347364669,1.49826096,18.0883797150001,11.442819445,10.552037904,0.440560068
"9",1.28422368,20.4910968200001,11.045958655,9.52109167200003,0.364309287,1.12369572,20.0377539700001,9.98766321499999,10.127530632,0.440560068,0.90965844,20.0830882550001,10.516810935,10.339784268,0.33889236,0.8026398,18.9497311300001,10.781384795,10.6126818,0.457504686,1.23071436,19.5844111200001,10.84752826,9.85463310000003,0.474449304,0.69562116,19.8564168300001,10.71524133,10.582359852,0.321947742,0.8026398,19.8110825450001,9.72308935499999,10.582359852,0.440560068,1.49826096,19.6750796900001,9.65694588999999,10.218496476,0.465976995,0.69562116,20.3550939650001,10.5829544,10.370106216,0.305003124,1.28422368,18.9043968450001,11.045958655,10.673325696,0.33889236
"10",1.12369572,21.6244539450002,9.85537628499999,9.55141362000003,0.321947742,0.85614912,21.1257768100002,8.99551124,10.188174528,0.389726214,0.85614912,20.9444396700001,9.59080242499999,10.643003748,0.220280034,0.74913048,19.9470854000001,9.72308935499999,10.733969592,0.381253905,0.96316776,20.8084368150001,9.85537628499999,9.91527699600003,0.398198523,0.5350932,20.7631025300001,10.119950145,10.521715956,0.271113888,0.64211184,20.9897739550001,8.46636352,10.91590128,0.313475433,1.23071436,20.5817653900001,8.797080845,10.370106216,0.406670832,0.58860252,21.6244539450002,9.45851549499999,10.370106216,0.228752343,1.12369572,19.8110825450001,10.5829544,10.6126818,0.271113888
"11",0.74913048,22.5764739300002,8.86322431,9.73334530800003,0.279586197,0.69562116,21.8057910850002,8.59865045,10.521715956,0.245696961,0.69562116,21.9417939400002,8.86322431,10.794613488,0.110140017,0.69562116,21.0804425250002,8.99551124,10.946223228,0.211807725,0.8026398,21.6244539450002,9.193941635,10.248818424,0.262641579,0.58860252,21.8964596550002,9.12779817,10.582359852,0.160973871,0.2675466,21.8964596550002,7.80492887000001,11.0675110200001,0.245696961,0.69562116,21.3977825200002,8.267933125,10.824935436,0.279586197,0.58860252,22.6671425000002,8.532506985,10.491394008,0.118612326,0.74913048,20.9897739550001,9.98766321499999,10.552037904,0.203335416
"12",0.74913048,23.5738282000002,8.135646195,9.61205751600003,0.220280034,0.48158388,22.8484796400002,7.93721580000001,10.339784268,0.220280034,0.42807456,22.8938139250002,7.87107233500001,10.643003748,0.144029253,0.5350932,22.5311396450002,7.80492887000001,10.703647644,0.186390798,0.58860252,22.6218082150002,8.00335926500001,10.248818424,0.262641579,0.58860252,23.1204853500002,7.80492887000001,10.46107206,0.135556944,0.32105592,22.7124767850002,7.20963768500001,10.855257384,0.220280034,0.58860252,22.6218082150002,7.54035501000001,10.552037904,0.237224652,0.48158388,23.8004996250002,7.54035501000001,10.188174528,0.135556944,0.58860252,21.8057910850002,9.326228565,10.521715956,0.16944618
"13",0.58860252,24.5711824700002,7.27578115000001,9.52109167200003,0.194863107,0.48158388,23.7098310550002,7.27578115000001,10.248818424,0.16944618,0.2675466,23.8458339100002,7.07735075500001,10.521715956,0.127084635,0.48158388,23.8004996250002,6.68048996500001,10.430750112,0.177918489,0.64211184,23.9365024800002,6.74663343000001,10.066886736,0.220280034,0.37456524,24.5258481850002,6.68048996500001,10.188174528,0.127084635,0.37456524,23.5284939150002,6.61434650000001,10.643003748,0.194863107,0.64211184,23.6644967700002,6.61434650000001,10.30946232,0.220280034,0.37456524,24.9338567500002,6.54820303500001,9.94559894400003,0.135556944,0.42807456,23.1204853500002,8.400220055,10.15785258,0.16944618
"14",0.5350932,25.2965310300002,6.74663343000001,9.36948193200002,0.177918489,0.37456524,24.6618510400002,6.34977264000001,10.127530632,0.160973871,0.21403728,24.7525196100002,6.34977264000001,10.400428164,0.093195399,0.48158388,24.5711824700002,6.01905531500001,10.30946232,0.152501562,0.58860252,24.9791910350002,6.01905531500001,9.76366725600003,0.211807725,0.37456524,25.4778681700002,6.08519878000001,9.88495504800003,0.110140017,0.37456524,24.2991767600002,5.82062492000001,10.552037904,0.177918489,0.64211184,24.4351796150002,5.82062492000001,10.370106216,0.160973871,0.42807456,25.5685367400002,6.01905531500001,9.73334530800003,0.135556944,0.42807456,24.3898453300002,7.47421154500001,9.94559894400003,0.110140017
"15",0.48158388,26.1578824450002,6.08519878000001,9.15722829600002,0.16944618,0.32105592,25.5232024550002,5.75448145500001,9.91527699600003,0.144029253,0.2675466,25.6592053100002,5.68833799000001,10.15785258,0.067778472,0.42807456,25.5685367400002,5.02690334,10.188174528,0.135556944,0.48158388,25.7952081650002,5.225333735,9.88495504800003,0.144029253,0.48158388,26.1578824450002,5.68833799000001,9.58173556800003,0.101667708,0.5350932,25.4778681700002,5.093046805,10.097208684,0.152501562,0.58860252,25.2058624600002,5.225333735,10.188174528,0.152501562,0.42807456,26.6112252950002,5.15919027,9.52109167200003,0.110140017,0.48158388,25.4778681700002,6.41591610500001,9.73334530800003,0.093195399
"16",0.5350932,27.0192338600002,5.2914772,9.03594050400002,0.135556944,0.48158388,26.6112252950002,4.76232948,9.64237946400003,0.118612326,0.2675466,26.8832310050002,4.63004255,9.85463310000003,0.059306163,0.21403728,26.4298881550002,4.299325225,10.00624284,0.152501562,0.37456524,26.9285652900002,4.299325225,9.61205751600003,0.144029253,0.48158388,27.7445824200003,3.9686079,9.33915998400002,0.093195399,0.5350932,26.5658910100002,4.167038295,9.91527699600003,0.118612326,0.64211184,26.3392195850002,4.431612155,9.97592089200003,0.093195399,0.42807456,27.7899167050003,4.299325225,9.27851608800002,0.067778472,0.5350932,26.5658910100002,5.2914772,9.49076972400002,0.093195399
"17",0.58860252,28.1525909850003,4.828472945,8.45982349200001,0.135556944,0.5350932,27.1099024300003,4.49775562,9.43012582800002,0.110140017,0.2675466,27.2912395700003,4.431612155,9.70302336000003,0.050833854,0.21403728,27.3365738550003,3.902464435,9.58173556800003,0.152501562,0.2675466,27.5632452800003,4.034751365,9.46044777600003,0.118612326,0.64211184,27.9712538450003,3.902464435,9.12690634800002,0.093195399,0.5350932,26.9738995750002,4.034751365,9.73334530800003,0.110140017,0.58860252,27.0192338600002,4.23318176,9.67270141200003,0.08472309,0.32105592,28.3339281250003,4.167038295,9.09658440000002,0.050833854,0.48158388,27.2005710000003,4.960759875,9.27851608800002,0.08472309
"18",0.48158388,28.8326052600003,4.431612155,8.24756985600001,0.135556944,0.5350932,27.6085795650003,4.167038295,9.36948193200002,0.076250781,0.37456524,27.7445824200003,4.167038295,9.52109167200003,0.033889236,0.16052796,27.8352509900003,3.57174711,9.49076972400002,0.135556944,0.32105592,28.5152652650003,3.70403404,8.97529660800002,0.110140017,0.5350932,28.6512681200003,3.637890575,8.85400881600001,0.093195399,0.5350932,27.7899167050003,3.9686079,9.24819414000002,0.101667708,0.5350932,27.7899167050003,4.034751365,9.27851608800002,0.08472309,0.21403728,28.6966024050003,4.034751365,8.97529660800002,0.050833854,0.58860252,27.8805852750003,4.563899085,9.00561855600002,0.067778472
"19",0.42807456,29.1952795400003,4.167038295,8.33853570000001,0.08472309,0.5350932,28.0619224150003,3.83632097,9.21787219200002,0.076250781,0.58860252,28.2885938400003,3.57174711,9.33915998400002,0.025416927,0.10701864,28.2432595550003,3.43946018,9.30883803600002,0.135556944,0.42807456,29.0592766850003,3.373316715,8.76304297200001,0.093195399,0.5350932,29.4219509650003,3.373316715,8.55078933600001,0.067778472,0.58860252,28.3339281250003,3.43946018,9.15722829600002,0.08472309,0.42807456,28.9686081150003,3.241029785,8.79336492000001,0.118612326,0.2675466,29.3766166800003,3.9686079,8.58111128400001,0.033889236,0.58860252,28.4699309800003,4.431612155,8.67207712800001,0.067778472
"20",0.48158388,29.7846252450003,3.902464435,8.095960116,0.067778472,0.58860252,28.6059338350003,3.770177505,8.94497466000002,0.050833854,0.64211184,28.8779395450003,3.17488632,9.12690634800002,0.016944618,0.05350932,29.1046109700003,2.91031246,9.09658440000002,0.110140017,0.37456524,29.5579538200003,3.241029785,8.55078933600001,0.08472309,0.48158388,30.3286366650003,2.91031246,8.217247908,0.059306163,0.58860252,28.8326052600003,3.241029785,8.97529660800002,0.067778472,0.37456524,29.5126195350003,3.17488632,8.49014544000001,0.118612326,0.37456524,30.1019652400003,3.83632097,8.156604012,0.016944618,0.5350932,29.2406138250003,3.902464435,8.39917959600001,0.076250781
"21",0.37456524,30.1926338100003,3.83632097,8.004994272,0.042361545,0.5350932,29.3312823950003,3.30717325,8.73272102400001,0.042361545,0.64211184,29.3766166800003,3.04259939,8.85400881600001,0.016944618,0.05350932,29.6486223900003,2.844168995,8.82368686800001,0.093195399,0.2675466,30.1926338100003,2.6457386,8.45982349200001,0.08472309,0.5350932,30.7366452300003,2.77802553,7.974672324,0.059306163,0.5350932,29.6486223900003,3.04259939,8.49014544000001,0.08472309,0.42807456,29.9659623850003,3.04259939,8.277891804,0.101667708,0.32105592,30.9179823700003,3.373316715,7.823062584,0.025416927,0.5350932,30.3286366650003,3.30717325,7.944350376,0.076250781
"22",0.37456524,30.9633166550003,3.43946018,7.671452844,0.042361545,0.58860252,29.9206281000003,3.108742855,8.42950154400001,0.033889236,0.74913048,29.9659623850003,2.77802553,8.49014544000001,0.025416927,0.05350932,30.3286366650003,2.711882065,8.52046738800001,0.067778472,0.2675466,30.7819795150003,2.447308205,8.18692596,0.076250781,0.58860252,31.4166595050003,2.38116474,7.701774792,0.050833854,0.48158388,30.2379680950003,2.77802553,8.24756985600001,0.08472309,0.48158388,30.8273138000003,2.579595135,7.944350376,0.08472309,0.37456524,31.3259909350003,3.43946018,7.48952115599999,0.025416927,0.5350932,30.8273138000003,3.30717325,7.701774792,0.050833854
"23",0.32105592,31.5526623600003,3.108742855,7.45919920799999,0.042361545,0.58860252,30.3739709500003,2.976455925,8.217247908,0.025416927,0.85614912,30.7366452300003,2.447308205,8.065638168,0.025416927,0.16052796,31.3259909350003,2.447308205,7.944350376,0.059306163,0.32105592,31.2353223650003,2.38116474,7.914028428,0.067778472,0.5350932,32.2326766350003,2.11659088,7.21662362399999,0.076250781,0.5350932,30.7819795150003,2.6457386,7.944350376,0.076250781,0.48158388,31.5526623600003,2.315021275,7.64113089599999,0.067778472,0.32105592,32.0513394950003,2.91031246,7.24694557199999,0.033889236,0.48158388,31.3259909350003,3.17488632,7.48952115599999,0.042361545
"24",0.42807456,32.0060052100003,2.976455925,7.15597972799999,0.042361545,0.48158388,31.0993195100003,2.579595135,8.004994272,0.016944618,0.85614912,31.0993195100003,2.38116474,7.853384532,0.025416927,0.16052796,31.7793337850003,2.447308205,7.64113089599999,0.059306163,0.37456524,31.9153366400003,2.24887781,7.48952115599999,0.067778472,0.58860252,33.0486937650003,1.58744316,6.94372609199998,0.059306163,0.58860252,31.1899880800003,2.51345167,7.671452844,0.08472309,0.5350932,32.1873423500003,2.24887781,7.27726751999999,0.050833854,0.2675466,32.4593480600003,2.844168995,7.00436998799998,0.042361545,0.5350932,31.8246680700003,2.976455925,7.18630167599999,0.050833854
"25",0.37456524,32.7313537700003,2.844168995,6.82243829999998,0.025416927,0.48158388,31.9606709250003,2.315021275,7.51984310399999,0.025416927,0.85614912,31.5979966450003,2.182734345,7.64113089599999,0.016944618,0.2675466,32.3686794900003,2.315021275,7.24694557199999,0.059306163,0.42807456,32.4593480600003,1.785873555,7.27726751999999,0.076250781,0.5350932,33.4113680450004,1.58744316,6.73147245599998,0.059306163,0.5350932,31.8700023550003,2.51345167,7.21662362399999,0.093195399,0.48158388,32.5953509150003,2.182734345,7.09533583199999,0.042361545,0.2675466,32.9126909100003,2.6457386,6.82243829999998,0.033889236,0.48158388,32.4593480600003,2.844168995,6.82243829999998,0.059306163
"26",0.5350932,33.3206994750004,2.51345167,6.45857492399998,0.033889236,0.32105592,32.5500166300003,2.11659088,7.30758946799999,0.025416927,0.74913048,32.3233452050003,1.918160485,7.30758946799999,0.025416927,0.48158388,32.7313537700003,2.182734345,7.03469193599998,0.033889236,0.64211184,33.0940280500003,1.58744316,6.91340414399998,0.050833854,0.58860252,33.9100451800004,1.45515623,6.42825297599998,0.059306163,0.5350932,32.4593480600003,2.11659088,7.03469193599998,0.08472309,0.48158388,33.4113680450004,1.918160485,6.70115050799998,0.033889236,0.2675466,33.5927051850004,2.315021275,6.48889687199998,0.042361545,0.42807456,33.2753651900004,2.51345167,6.48889687199998,0.050833854
"27",0.48158388,33.6833737550004,2.315021275,6.36760907999998,0.025416927,0.32105592,33.2753651900004,1.785873555,7.00436998799998,0.016944618,0.74913048,32.7313537700003,1.918160485,7.03469193599998,0.025416927,0.58860252,33.4567023300004,1.98430395,6.57986271599998,0.033889236,0.58860252,33.6833737550004,1.389012765,6.64050661199998,0.050833854,0.37456524,34.4993908850004,1.256725835,6.27664323599998,0.050833854,0.42807456,32.7766880550003,2.11659088,6.91340414399998,0.076250781,0.42807456,34.1367166050004,1.389012765,6.42825297599998,0.050833854,0.32105592,34.2273851750004,1.98430395,6.15535544399998,0.050833854,0.42807456,33.6833737550004,2.38116474,6.27664323599998,0.050833854
"28",0.42807456,34.1367166050004,2.315021275,6.03406765199998,0.042361545,0.42807456,34.0460480350004,1.389012765,6.61018466399998,0.016944618,0.69562116,33.4113680450004,1.71973009,6.70115050799998,0.025416927,0.64211184,33.9553794650004,1.918160485,6.24632128799998,0.033889236,0.5350932,34.1820508900004,1.389012765,6.36760907999998,0.042361545,0.42807456,35.0434023050004,1.05829544,6.00374570399998,0.042361545,0.37456524,33.5473709000004,1.98430395,6.51921881999998,0.067778472,0.37456524,34.4087223150004,1.3228693,6.33728713199998,0.042361545,0.37456524,34.8167308800004,1.785873555,5.82181401599999,0.050833854,0.2675466,34.0007137500004,2.38116474,6.12503349599998,0.059306163
"29",0.42807456,34.4993908850004,2.24887781,5.82181401599999,0.042361545,0.42807456,34.5447251700004,1.389012765,6.30696518399998,0.008472309,0.58860252,33.7287080400004,1.58744316,6.57986271599998,0.033889236,0.74913048,34.5447251700004,1.71973009,5.91277985999999,0.025416927,0.5350932,34.7713965950004,1.19058237,6.09471154799998,0.033889236,0.37456524,35.6327480100004,0.92600851,5.67020427599999,0.050833854,0.48158388,34.0007137500004,1.785873555,6.27664323599998,0.059306163,0.37456524,34.9980680200004,1.05829544,6.06438959999998,0.042361545,0.42807456,35.4967451550004,1.521299695,5.42762869199999,0.059306163,0.2675466,34.5447251700004,2.315021275,5.79149206799999,0.059306163
"30",0.37456524,35.2247394450004,1.98430395,5.48827258799999,0.042361545,0.37456524,34.9073994500004,1.389012765,6.03406765199998,0.025416927,0.58860252,34.2273851750004,1.45515623,6.30696518399998,0.033889236,0.74913048,35.2247394450004,1.58744316,5.54891648399999,0.016944618,0.48158388,35.4514108700004,1.19058237,5.70052622399999,0.025416927,0.48158388,36.0407565750004,0.727578115,5.45795063999999,0.042361545,0.48158388,34.4087223150004,1.85201702,6.03406765199998,0.042361545,0.42807456,35.3607423000004,1.05829544,5.76117011999999,0.050833854,0.42807456,35.9500880050004,1.45515623,5.21537505599999,0.042361545,0.2675466,35.2700737300004,1.918160485,5.48827258799999,0.059306163
"31",0.42807456,35.8140851500004,1.653586625,5.21537505599999,0.042361545,0.42807456,35.6780822950004,1.3228693,5.51859453599999,0.025416927,0.69562116,34.5447251700004,1.389012765,6.09471154799998,0.025416927,0.74913048,35.6327480100004,1.58744316,5.30634089999999,0.008472309,0.48158388,35.9047537200004,1.05829544,5.45795063999999,0.025416927,0.37456524,36.4034308550004,0.79372158,5.24569700399999,0.042361545,0.5350932,34.9073994500004,1.58744316,5.79149206799999,0.042361545,0.48158388,35.7234165800004,0.79372158,5.60956037999999,0.050833854,0.42807456,36.3580965700004,1.389012765,5.00312141999999,0.033889236,0.21403728,35.6780822950004,1.85201702,5.33666284799999,0.042361545
"32",0.42807456,36.2674280000004,1.58744316,4.97279947199999,0.033889236,0.42807456,36.0860908600004,1.05829544,5.36698479599999,0.025416927,0.48158388,34.9527337350004,1.3228693,5.94310180799998,0.033889236,0.8026398,36.1767594300004,1.256725835,5.09408726399999,NA,0.5350932,36.5847679950004,0.859865045,5.06376531599999,0.025416927,0.42807456,36.8114394200004,0.92600851,4.94247752399999,0.025416927,0.5350932,35.4060765850004,1.58744316,5.42762869199999,0.050833854,0.48158388,36.1314251450004,0.79372158,5.33666284799999,0.050833854,0.37456524,36.7207708500004,1.19058237,4.88183362799999,0.033889236,0.21403728,36.2674280000004,1.653586625,5.00312141999999,0.050833854
"33",0.42807456,36.7661051350004,1.19058237,4.85151167999999,0.025416927,0.5350932,36.4940994250004,0.992151975,5.06376531599999,0.025416927,0.5350932,35.5420794400004,1.389012765,5.48827258799999,0.033889236,0.74913048,36.5394337100004,1.256725835,4.88183362799999,NA,0.48158388,36.8114394200004,0.92600851,4.91215557599999,0.025416927,0.48158388,37.4914536950004,0.92600851,4.487648304,0.016944618,0.42807456,35.6780822950004,1.58744316,5.36698479599999,0.033889236,0.42807456,36.5847679950004,0.79372158,5.06376531599999,0.050833854,0.37456524,37.4007851250004,1.19058237,4.427004408,0.033889236,0.21403728,36.7661051350004,1.45515623,4.76054583599999,0.050833854
"34",0.5350932,37.4007851250004,0.859865045,4.5482922,0.016944618,0.5350932,37.0834451300004,0.79372158,4.73022388799999,0.033889236,0.58860252,35.9954222900004,1.256725835,5.18505310799999,0.042361545,0.69562116,37.0834451300004,1.05829544,4.608936096,0.008472309,0.48158388,37.4007851250004,0.859865045,4.5482922,0.025416927,0.42807456,37.9901308300004,0.859865045,4.214750772,0.016944618,0.48158388,35.8594194350004,1.45515623,5.30634089999999,0.025416927,0.42807456,36.9927765600004,0.859865045,4.76054583599999,0.050833854,0.32105592,37.8541279750004,1.124438905,4.214750772,0.025416927,0.16052796,37.4914536950004,1.124438905,4.457326356,0.050833854
"35",0.5350932,37.7634594050004,0.79372158,4.336038564,0.016944618,0.5350932,37.5367879800004,0.79372158,4.487648304,0.016944618,0.48158388,36.4034308550004,1.256725835,4.94247752399999,0.050833854,0.5350932,37.4007851250004,0.992151975,4.487648304,0.016944618,0.42807456,37.5821222650004,0.92600851,4.457326356,0.016944618,0.37456524,38.2621365400004,0.79372158,4.123784928,0.008472309,0.37456524,36.1767594300004,1.389012765,5.18505310799999,0.025416927,0.42807456,37.4914536950004,0.79372158,4.457326356,0.050833854,0.37456524,38.2168022550004,0.992151975,4.002497136,0.025416927,0.21403728,37.6274565500004,1.124438905,4.39668246,0.033889236
"36",0.37456524,38.4888079650004,0.727578115,3.911531292,0.033889236,0.58860252,37.9447965450004,0.595291185,4.275394668,0.016944618,0.5350932,36.9021079900004,1.256725835,4.578614148,0.050833854,0.32105592,37.9901308300004,0.859865045,4.275394668,0.016944618,0.21403728,37.8994622600004,0.992151975,4.305716616,0.025416927,0.42807456,38.7608136750004,0.79372158,3.759921552,0.008472309,0.32105592,36.8567737050004,1.389012765,4.73022388799999,0.033889236,0.2675466,37.6727908350004,0.79372158,4.39668246,0.059306163,0.42807456,38.8061479600004,0.92600851,3.608311812,0.025416927,0.16052796,38.1714679700004,1.124438905,4.123784928,0.016944618
"37",0.5350932,38.8061479600004,0.79372158,3.577989864,0.033889236,0.58860252,38.2168022550004,0.66143465,4.063141032,0.016944618,0.58860252,37.3554508400004,1.256725835,4.24507272,0.050833854,0.21403728,38.6701451050004,0.79372158,3.911531292,0.016944618,0.32105592,38.1261336850004,0.992151975,4.09346298,0.025416927,0.5350932,39.0328193850004,0.727578115,3.547667916,0.008472309,0.37456524,37.1287794150004,1.45515623,4.517970252,0.025416927,0.2675466,37.9901308300004,0.79372158,4.184428824,0.059306163,0.42807456,39.2594908100005,0.859865045,3.33541428000001,0.025416927,0.2675466,38.4434736800004,1.124438905,3.850887396,0.025416927
"38",0.48158388,39.3954936650005,0.92600851,3.153482592,0.033889236,0.5350932,38.8061479600004,0.727578115,3.699277656,0.008472309,0.64211184,37.9901308300004,1.45515623,3.729599604,0.042361545,0.21403728,39.8035022300005,0.66143465,3.21412648800001,0.016944618,0.32105592,39.1234879550004,0.92600851,3.45670207200001,0.025416927,0.42807456,39.8488365150005,0.66143465,3.062516748,0.016944618,0.37456524,38.1261336850004,1.45515623,3.820565448,0.033889236,0.37456524,38.7154793900004,0.727578115,3.699277656,0.050833854,0.37456524,40.1661765100004,0.859865045,2.759297268,0.025416927,0.32105592,39.1688222400004,1.124438905,3.36573622800001,0.016944618
"39",0.48158388,39.7581679450005,0.859865045,2.941228956,0.033889236,0.5350932,39.5314965200005,0.727578115,3.21412648800001,0.008472309,0.58860252,38.5794765350004,1.521299695,3.33541428000001,0.042361545,0.2675466,40.2568450800004,0.595291185,2.941228956,0.008472309,0.2675466,39.9848393700005,0.859865045,2.941228956,0.025416927,0.48158388,40.6648536450004,0.52914772,2.547043632,0.016944618,0.37456524,39.1234879550004,1.256725835,3.27477038400001,0.025416927,0.42807456,39.3954936650005,0.727578115,3.24444843600001,0.042361545,0.48158388,40.3928479350004,0.79372158,2.57736558,0.025416927,0.37456524,39.8035022300005,0.92600851,3.001872852,0.016944618
"40",0.5350932,40.1661765100004,0.92600851,2.638009476,0.025416927,0.5350932,40.2115107950004,0.79372158,2.72897532,0.008472309,0.64211184,39.3048250950005,1.71973009,2.759297268,0.033889236,0.37456524,40.7555222150004,0.79372158,2.456077788,0.008472309,0.2675466,40.2568450800004,0.859865045,2.789619216,0.016944618,0.48158388,41.1635307800004,0.463004255,2.243824152,0.016944618,0.42807456,39.7128336600005,1.256725835,2.910907008,0.008472309,0.37456524,40.1208422250005,0.79372158,2.850263112,0.016944618,0.37456524,41.0275279250004,0.727578115,2.243824152,0.025416927,0.37456524,40.4381822200004,0.859865045,2.638009476,0.008472309
"41",0.5350932,40.8008565000004,0.66143465,2.395433892,0.008472309,0.5350932,40.6648536450004,0.79372158,2.395433892,0.016944618,0.48158388,40.1208422250005,1.71973009,2.334789996,0.025416927,0.42807456,41.2995336350004,0.66143465,2.092214412,0.016944618,0.42807456,40.4835165050004,0.859865045,2.57736558,0.008472309,0.48158388,41.5262050600003,0.39686079,2.031570516,0.016944618,0.37456524,40.5288507900004,1.3228693,2.365111944,0.008472309,0.37456524,40.5741850750004,0.727578115,2.57736558,0.016944618,0.37456524,41.8435450550003,0.727578115,1.698029088,0.025416927,0.37456524,40.9368593550004,0.727578115,2.365111944,0.008472309
"42",0.5350932,41.1635307800004,0.595291185,2.152858308,0.016944618,0.48158388,41.2088650650004,0.79372158,2.092214412,0.008472309,0.5350932,40.3475136500004,1.71973009,2.152858308,0.025416927,0.48158388,41.7528764850003,0.595291185,1.788994932,0.016944618,0.48158388,40.9821936400004,0.66143465,2.304468048,0.008472309,0.42807456,42.1608850500003,0.330717325,1.698029088,0.008472309,0.37456524,40.8461907850004,1.3228693,2.152858308,0.008472309,0.32105592,41.0728622100004,0.727578115,2.2741461,0.016944618,0.37456524,42.2968879050003,0.66143465,1.485775452,0.008472309,0.32105592,41.3902022050003,0.727578115,2.12253636,NA
"43",0.74913048,41.2541993500004,0.66143465,1.97092662,0.008472309,0.42807456,41.7982107700003,0.727578115,1.788994932,NA,0.42807456,40.8915250700004,1.653586625,1.910282724,0.016944618,0.48158388,42.2515536200003,0.595291185,1.455453504,0.016944618,0.58860252,41.3902022050003,0.66143465,2.001248568,NA,0.42807456,42.2968879050003,0.39686079,1.576741296,0.008472309,0.37456524,41.2541993500004,1.3228693,1.879960776,0.008472309,0.32105592,41.6168736300003,0.727578115,1.879960776,0.025416927,0.42807456,42.5688936150002,0.66143465,1.273521816,0.008472309,0.32105592,41.8888793400003,0.595291185,1.849638828,NA
"44",0.74913048,41.7982107700003,0.595291185,1.637385192,0.008472309,0.42807456,42.1608850500003,0.727578115,1.546419348,NA,0.37456524,41.4355364900003,1.58744316,1.607063244,0.016944618,0.48158388,42.4782250450003,0.595291185,1.334165712,0.008472309,0.64211184,41.6622079150003,0.595291185,1.81931688,NA,0.48158388,42.4782250450003,0.39686079,1.425131556,0.008472309,0.37456524,41.7528764850003,1.389012765,1.5160974,0.008472309,0.32105592,41.8888793400003,0.727578115,1.698029088,0.025416927,0.48158388,42.8862336100002,0.52914772,1.121912076,NA,0.32105592,42.2968879050003,0.463004255,1.637385192,NA
"45",0.85614912,41.8888793400003,0.66143465,1.485775452,0.008472309,0.5350932,42.1608850500003,0.79372158,1.425131556,0.008472309,0.48158388,41.8888793400003,1.389012765,1.394809608,NA,0.48158388,42.8862336100002,0.595291185,1.091590128,NA,0.58860252,42.1155507650003,0.66143465,1.5160974,NA,0.48158388,42.9769021800002,0.39686079,1.06126818,0.016944618,0.5350932,41.9795479100003,1.389012765,1.303843764,NA,0.32105592,42.1608850500003,0.727578115,1.5160974,0.025416927,0.58860252,42.9769021800002,0.595291185,0.970302336,NA,0.37456524,42.5235593300003,0.52914772,1.394809608,0.008472309
"46",0.90965844,42.0248821950003,0.66143465,1.36448766,0.008472309,0.42807456,42.4328907600003,0.727578115,1.334165712,0.008472309,0.42807456,41.9342136250003,1.521299695,1.334165712,NA,0.48158388,43.2035736050002,0.52914772,0.90965844,NA,0.64211184,42.2515536200003,0.595291185,1.425131556,NA,0.48158388,43.1129050350002,0.26457386,1.030946232,0.016944618,0.5350932,42.2062193350003,1.3228693,1.182555972,NA,0.32105592,42.3875564750003,0.859865045,1.303843764,0.025416927,0.69562116,43.0222364650002,0.52914772,0.90965844,NA,0.58860252,42.5235593300003,0.52914772,1.273521816,0.008472309
"47",0.90965844,42.0248821950003,0.859865045,1.273521816,0.008472309,0.37456524,42.5688936150002,0.79372158,1.243199868,0.008472309,0.48158388,41.9342136250003,1.45515623,1.334165712,NA,0.48158388,43.2035736050002,0.595291185,0.879336492,NA,0.5350932,42.7502307550002,0.595291185,1.152234024,NA,0.37456524,43.3395764600002,0.198430395,0.970302336,0.016944618,0.5350932,42.5235593300003,1.124438905,1.06126818,NA,0.32105592,42.5688936150002,0.92600851,1.182555972,0.016944618,0.64211184,43.2035736050002,0.463004255,0.849014544,NA,0.48158388,42.7955650400002,0.595291185,1.121912076,0.008472309
"48",0.85614912,42.4328907600003,0.859865045,1.030946232,0.008472309,0.5350932,42.7502307550002,0.79372158,1.030946232,0.008472309,0.42807456,42.0702164800003,1.45515623,1.273521816,NA,0.5350932,43.1582393200002,0.595291185,0.879336492,NA,0.5350932,43.0222364650002,0.52914772,1.000624284,NA,0.48158388,43.2942421750002,0.198430395,0.90965844,0.025416927,0.58860252,42.7502307550002,1.124438905,0.849014544,0.008472309,0.2675466,42.9769021800002,0.992151975,0.939980388,0.008472309,0.8026398,43.1129050350002,0.463004255,0.818692596,NA,0.64211184,43.0222364650002,0.52914772,0.90965844,0.008472309
"49",0.90965844,42.5235593300003,0.79372158,0.970302336,0.008472309,0.74913048,42.6142279000002,0.79372158,1.000624284,0.008472309,0.5350932,42.1155507650003,1.389012765,1.21287792,NA,0.64211184,43.1129050350002,0.595291185,0.849014544,NA,0.5350932,43.0675707500002,0.595291185,0.939980388,NA,0.48158388,43.2942421750002,0.198430395,0.939980388,0.016944618,0.5350932,42.8408993250002,1.05829544,0.849014544,0.008472309,0.2675466,43.0675707500002,0.859865045,0.939980388,0.008472309,0.69562116,43.1129050350002,0.595291185,0.788370648,0.008472309,0.5350932,43.1129050350002,0.52914772,0.90965844,0.008472309
"50",0.85614912,42.5688936150002,0.79372158,0.970302336,0.008472309,0.74913048,42.8408993250002,0.66143465,0.90965844,0.008472309,0.69562116,42.2515536200003,1.256725835,1.06126818,0.008472309,0.64211184,43.0222364650002,0.66143465,0.849014544,0.008472309,0.5350932,43.2489078900002,0.52914772,0.849014544,NA,0.5350932,43.4302450300002,0.13228693,0.849014544,0.016944618,0.58860252,42.7502307550002,1.124438905,0.849014544,0.008472309,0.32105592,43.0675707500002,0.859865045,0.879336492,0.016944618,0.85614912,43.0675707500002,0.595291185,0.727726752,0.008472309,0.5350932,43.2035736050002,0.463004255,0.849014544,0.016944618
"51",0.96316776,42.6142279000002,0.727578115,0.90965844,0.008472309,0.8026398,42.9315678950002,0.727578115,0.788370648,0.008472309,0.85614912,42.2968879050003,1.19058237,0.970302336,0.008472309,0.5350932,43.1129050350002,0.66143465,0.849014544,0.008472309,0.5350932,43.0675707500002,0.595291185,0.90965844,0.008472309,0.5350932,43.4302450300002,0.198430395,0.849014544,0.008472309,0.58860252,42.7502307550002,1.05829544,0.879336492,0.008472309,0.2675466,43.0675707500002,0.859865045,0.939980388,0.008472309,0.85614912,43.1129050350002,0.595291185,0.697404804,0.008472309,0.5350932,43.3849107450002,0.463004255,0.7580487,0.008472309
"52",0.96316776,42.6142279000002,0.79372158,0.879336492,0.008472309,0.96316776,42.8408993250002,0.66143465,0.788370648,0.008472309,0.85614912,42.2062193350003,1.256725835,1.000624284,0.008472309,0.48158388,43.0675707500002,0.727578115,0.849014544,0.016944618,0.5350932,42.9769021800002,0.79372158,0.879336492,0.008472309,0.5350932,43.3849107450002,0.198430395,0.879336492,0.008472309,0.5350932,42.8408993250002,0.92600851,0.879336492,0.016944618,0.2675466,43.0675707500002,0.92600851,0.90965844,0.008472309,0.85614912,43.0675707500002,0.66143465,0.697404804,0.008472309,0.58860252,43.3849107450002,0.39686079,0.7580487,0.008472309
"53",0.8026398,42.6595621850002,0.727578115,0.970302336,0.008472309,0.85614912,42.8408993250002,0.727578115,0.7580487,0.025416927,0.85614912,42.2515536200003,1.256725835,0.970302336,0.008472309,0.58860252,43.1129050350002,0.66143465,0.788370648,0.016944618,0.58860252,43.0222364650002,0.79372158,0.818692596,0.008472309,0.48158388,43.3849107450002,0.198430395,0.90965844,0.008472309,0.58860252,42.8408993250002,0.92600851,0.849014544,0.016944618,0.2675466,43.1582393200002,0.859865045,0.879336492,0.008472309,0.74913048,43.0675707500002,0.66143465,0.727726752,0.016944618,0.64211184,43.3849107450002,0.39686079,0.697404804,0.016944618
"54",0.85614912,42.5235593300003,0.79372158,1.000624284,0.008472309,0.90965844,42.7502307550002,0.79372158,0.788370648,0.016944618,0.96316776,42.3422221900003,1.05829544,0.970302336,NA,0.58860252,43.2035736050002,0.66143465,0.727726752,0.016944618,0.58860252,43.0675707500002,0.79372158,0.788370648,0.008472309,0.5350932,43.3395764600002,0.198430395,0.90965844,0.008472309,0.5350932,42.9315678950002,0.859865045,0.849014544,0.016944618,0.32105592,43.1582393200002,0.859865045,0.818692596,0.016944618,0.69562116,43.0222364650002,0.727578115,0.727726752,0.025416927,0.69562116,43.3395764600002,0.463004255,0.667082856,0.016944618
"55",0.74913048,42.5688936150002,0.79372158,1.000624284,0.016944618,0.90965844,42.7955650400002,0.727578115,0.788370648,0.016944618,0.90965844,42.4328907600003,0.859865045,1.030946232,NA,0.58860252,43.3395764600002,0.52914772,0.727726752,0.008472309,0.58860252,43.0222364650002,0.79372158,0.7580487,0.025416927,0.5350932,43.4302450300002,0.26457386,0.818692596,0.008472309,0.37456524,42.9769021800002,0.859865045,0.90965844,0.016944618,0.32105592,43.2035736050002,0.79372158,0.818692596,0.016944618,0.64211184,43.0222364650002,0.727578115,0.7580487,0.025416927,0.69562116,43.2489078900002,0.52914772,0.697404804,0.016944618
"56",0.69562116,42.6595621850002,0.727578115,1.030946232,0.008472309,0.90965844,42.8408993250002,0.727578115,0.7580487,0.016944618,0.90965844,42.4782250450003,0.79372158,1.030946232,NA,0.64211184,43.3395764600002,0.463004255,0.727726752,0.008472309,0.58860252,43.0222364650002,0.727578115,0.788370648,0.025416927,0.48158388,43.3849107450002,0.26457386,0.849014544,0.016944618,0.37456524,43.0222364650002,0.79372158,0.90965844,0.016944618,0.32105592,43.2942421750002,0.79372158,0.7580487,0.016944618,0.69562116,43.0222364650002,0.66143465,0.7580487,0.025416927,0.69562116,43.1129050350002,0.595291185,0.7580487,0.016944618
"57",0.64211184,42.6142279000002,0.727578115,1.091590128,0.008472309,0.85614912,42.8408993250002,0.66143465,0.788370648,0.025416927,0.85614912,42.4328907600003,0.859865045,1.06126818,NA,0.64211184,43.3395764600002,0.595291185,0.667082856,0.008472309,0.64211184,42.9769021800002,0.727578115,0.818692596,0.016944618,0.42807456,43.3849107450002,0.26457386,0.849014544,0.025416927,0.32105592,43.0222364650002,0.79372158,0.939980388,0.016944618,0.37456524,43.3395764600002,0.79372158,0.727726752,0.008472309,0.8026398,42.8408993250002,0.79372158,0.7580487,0.025416927,0.96316776,42.9315678950002,0.66143465,0.697404804,0.016944618
"58",0.64211184,42.7502307550002,0.66143465,1.000624284,0.016944618,0.74913048,42.8408993250002,0.66143465,0.849014544,0.025416927,0.85614912,42.4782250450003,0.79372158,1.06126818,NA,0.69562116,43.2942421750002,0.595291185,0.667082856,0.008472309,0.69562116,42.9315678950002,0.727578115,0.818692596,0.016944618,0.37456524,43.4302450300002,0.26457386,0.849014544,0.025416927,0.21403728,43.0675707500002,0.727578115,0.970302336,0.025416927,0.37456524,43.3849107450002,0.79372158,0.697404804,0.008472309,0.58860252,42.9769021800002,0.66143465,0.7580487,0.050833854,0.8026398,42.8862336100002,0.66143465,0.788370648,0.025416927
"59",0.58860252,42.7048964700002,0.66143465,1.06126818,0.016944618,0.64211184,42.7955650400002,0.66143465,0.939980388,0.025416927,0.74913048,42.5235593300003,0.66143465,1.121912076,0.008472309,0.64211184,43.2942421750002,0.595291185,0.697404804,0.008472309,0.69562116,42.8862336100002,0.79372158,0.818692596,0.016944618,0.42807456,43.3849107450002,0.26457386,0.879336492,0.016944618,0.16052796,43.2942421750002,0.595291185,0.90965844,0.025416927,0.37456524,43.3849107450002,0.727578115,0.727726752,0.008472309,0.69562116,42.8862336100002,0.66143465,0.788370648,0.042361545,0.85614912,42.8862336100002,0.66143465,0.7580487,0.025416927
"60",0.64211184,42.7048964700002,0.595291185,1.091590128,0.008472309,0.64211184,42.7048964700002,0.79372158,0.970302336,0.016944618,0.64211184,42.5235593300003,0.66143465,1.21287792,NA,0.48158388,43.2942421750002,0.595291185,0.727726752,0.025416927,0.74913048,42.9315678950002,0.727578115,0.788370648,0.016944618,0.37456524,43.3849107450002,0.26457386,0.939980388,0.008472309,0.21403728,43.2035736050002,0.595291185,0.90965844,0.033889236,0.32105592,43.4755793150002,0.595291185,0.7580487,0.008472309,0.5350932,42.9315678950002,0.595291185,0.879336492,0.042361545,1.01667708,42.7955650400002,0.595291185,0.727726752,0.033889236
