"","Early1.ALL","Late1.CLS","Late1.OPN","Mid1.CLS","Mid1.OPN","Early1.ALL.1","Late1.CLS.1","Late1.OPN.1","Mid1.CLS.1","Mid1.OPN.1","Early1.ALL.2","Late1.CLS.2","Late1.OPN.2","Mid1.CLS.2","Mid1.OPN.2","Early1.ALL.3","Late1.CLS.3","Late1.OPN.3","Mid1.CLS.3","Mid1.OPN.3","Early1.ALL.4","Late1.CLS.4","Late1.OPN.4","Mid1.CLS.4","Mid1.OPN.4","Early1.ALL.5","Late1.CLS.5","Late1.OPN.5","Mid1.CLS.5","Mid1.OPN.5","Early1.ALL.6","Late1.CLS.6","Late1.OPN.6","Mid1.CLS.6","Mid1.OPN.6","Early1.ALL.7","Late1.CLS.7","Late1.OPN.7","Mid1.CLS.7","Mid1.OPN.7","Early1.ALL.8","Late1.CLS.8","Late1.OPN.8","Mid1.CLS.8","Mid1.OPN.8","Early1.ALL.9","Late1.CLS.9","Late1.OPN.9","Mid1.CLS.9","Mid1.OPN.9"
"0",0.20957817,1.83120784,3.89131665999999,2.018936371,0.357174711,0.238562385,1.83715332,3.39605817599999,2.018936371,0.413359497000001,0.247480605,1.85498976000001,3.51987279699999,1.95606292,0.393293502000001,0.20957817,1.68851632,3.66137522099999,2.137697334,0.437438691000001,0.234103275,1.80742592,3.60831181199999,2.144683273,0.32105592,0.19620084,1.79553496,3.74981423599999,2.109753578,0.385267104000001,0.265317045,1.80742592,3.39605817599999,1.997978554,0.397306701000001,0.24525105,1.64689796,3.69675082699999,2.053866066,0.441451890000001,0.207348615,1.79553496,3.34299476699999,2.24947235800001,0.377240706,0.234103275,1.83715332,3.48449719099999,1.921133225,0.457504686000001
"1",0.19174173,1.88471716000001,3.89131665999999,2.02592231,0.349148313,0.211807725,1.89660812000001,3.41374597899999,2.039894188,0.405333099000001,0.234103275,1.88471716000001,3.51987279699999,1.970034798,0.389280303000001,0.180593955,1.73608016,3.73212643299999,2.20057078500001,0.405333099000001,0.193971285,1.85498976000001,3.64368741799999,2.19358484600001,0.325069119,0.16944618,1.8430988,3.80287764499999,2.123725456,0.381253905000001,0.2229555,1.86688072000001,3.39605817599999,2.081809822,0.385267104000001,0.21849639,1.7241892,3.69675082699999,2.109753578,0.405333099000001,0.171675735,1.84904428,3.37837037299999,2.35426144300001,0.337108716,0.19620084,1.86093524000001,3.50218499399999,2.060852005,0.425399094000001
"2",0.176134845,1.93228100000001,3.94438006899999,2.088795761,0.296976726,0.176134845,1.92039004000001,3.48449719099999,2.116739517,0.393293502000001,0.189512175,1.95606292000001,3.59062400899999,1.977020737,0.401319900000001,0.15606885,1.77769852,3.78518984199999,2.24248641900001,0.385267104000001,0.171675735,1.87877168000001,3.66137522099999,2.25645829700001,0.309016323,0.131543745,1.90255360000001,3.83825325099999,2.19358484600001,0.36118791,0.180593955,1.90255360000001,3.44912158499999,2.15865515100001,0.381253905000001,0.176134845,1.75986208,3.76750203899999,2.20755672400001,0.385267104000001,0.14715063,1.90255360000001,3.43143378199999,2.36124738200001,0.329082318,0.16944618,1.87877168000001,3.55524840299999,2.16564109000001,0.389280303000001
"3",0.14269152,1.99173580000001,3.94438006899999,2.144683273,0.284937129,0.13823241,1.95606292000001,3.55524840299999,2.17262702900001,0.389280303000001,0.15606885,2.00957224000001,3.66137522099999,2.067837944,0.357174711,0.12485508,1.82526236,3.80287764499999,2.29837393100001,0.373227507,0.15606885,1.93822648000001,3.69675082699999,2.23550048000001,0.300989925,0.12485508,1.97389936000001,3.83825325099999,2.19358484600001,0.325069119,0.149380185,1.92633552000001,3.51987279699999,2.23550048000001,0.36118791,0.15160974,1.78958948,3.82056544799999,2.28440205300001,0.353161512,0.127084635,1.96795388000001,3.44912158499999,2.38919113800001,0.300989925,0.13823241,1.92039004000001,3.59062400899999,2.25645829700001,0.357174711
"4",0.122625525,2.02146320000001,4.01513128099999,2.16564109000001,0.272897532,0.122625525,1.99173580000001,3.60831181199999,2.17262702900001,0.381253905000001,0.12039597,2.06902704000001,3.69675082699999,2.144683273,0.329082318,0.104789085,1.84904428,3.80287764499999,2.37521926000001,0.349148313,0.131543745,1.99768128000001,3.71443862999999,2.23550048000001,0.300989925,0.086952645,1.99173580000001,3.85594105399999,2.33330362600001,0.296976726,0.113707305,1.96200840000001,3.51987279699999,2.29837393100001,0.365201109,0.12931419,1.86688072000001,3.85594105399999,2.25645829700001,0.349148313,0.0891822,2.06308156000001,3.50218499399999,2.45206458900001,0.256844736,0.127084635,1.96795388000001,3.62599961499999,2.26344423600001,0.333095517
"5",0.113707305,2.06308156000001,4.03281908399999,2.19358484600001,0.24079194,0.100329975,2.05119060000001,3.64368741799999,2.20755672400001,0.353161512,0.109248195,2.09280896000001,3.71443862999999,2.19358484600001,0.300989925,0.078034425,1.88471716000001,3.82056544799999,2.37521926000001,0.369214308,0.109248195,2.02740868000001,3.76750203899999,2.30535987000001,0.268884333,0.078034425,2.03335416000001,3.89131665999999,2.34727550400001,0.268884333,0.10255953,2.00362676000001,3.57293620599999,2.35426144300001,0.313029522,0.104789085,1.94417196000001,3.87362885699999,2.26344423600001,0.333095517,0.073575315,2.11659088000001,3.53756059999999,2.47302240600001,0.228752343,0.11147775,1.99173580000001,3.64368741799999,2.33330362600001,0.300989925
"6",0.0891822,2.23550048000001,3.74981423599999,2.20755672400001,0.224739144,0.073575315,2.18793664000001,3.48449719099999,2.25645829700001,0.317042721,0.082493535,2.21766404000001,3.46680938799999,2.27043017500001,0.276910731,0.069116205,1.97984484000001,3.69675082699999,2.40316301600001,0.333095517,0.10255953,2.16415472000001,3.64368741799999,2.27741611400001,0.232765542,0.06242754,2.18793664000001,3.66137522099999,2.36124738200001,0.236778741,0.078034425,2.12848184000001,3.28993135799999,2.42412083300001,0.296976726,0.091411755,2.11064540000001,3.48449719099999,2.29837393100001,0.313029522,0.05350932,2.30090076000001,3.28993135799999,2.44507865000001,0.212699547,0.08026398,2.09875444000001,3.44912158499999,2.37521926000001,0.305003124
"7",0.064657095,2.39008296000001,3.53756059999999,2.21454266300001,0.208686348,0.060197985,2.34846460000001,3.20149234299999,2.26344423600001,0.292963527,0.060197985,2.34251912000001,3.32530696399999,2.28440205300001,0.256844736,0.05350932,2.09280896000001,3.50218499399999,2.42412083300001,0.317042721,0.08026398,2.31873720000001,3.30761916099999,2.27043017500001,0.248818338,0.0445911,2.33657364000001,3.39605817599999,2.38220519900001,0.216712746,0.04905021,2.29495528000001,3.04230211599999,2.45206458900001,0.276910731,0.08026398,2.25928240000001,3.20149234299999,2.34028956500001,0.272897532,0.0445911,2.40197392000001,3.18380453999999,2.43809271100001,0.188620353,0.08026398,2.22360952000001,3.23686794899999,2.40316301600001,0.252831537
"8",0.06688665,2.50304708000002,3.34299476699999,2.20755672400001,0.176580756,0.05350932,2.47926516000002,2.989238707,2.29138799200001,0.248818338,0.04013199,2.50304708000002,3.04230211599999,2.34727550400001,0.212699547,0.04013199,2.28306432000001,3.18380453999999,2.48000834500001,0.252831537,0.06688665,2.44359228000001,3.07767772199999,2.28440205300001,0.232765542,0.037902435,2.45548324000002,3.16611673699999,2.43110677200001,0.172567557,0.042361545,2.42575584000001,2.865424086,2.46603646700001,0.232765542,0.073575315,2.40791940000001,2.918487495,2.33330362600001,0.252831537,0.033443325,2.53277448000002,3.00692651,2.43110677200001,0.164541159,0.06242754,2.37224652000001,3.05998991899999,2.43110677200001,0.208686348
"9",0.05350932,2.68735696000002,2.953863101,2.19358484600001,0.172567557,0.046820655,2.62790216000002,2.670858253,2.33330362600001,0.208686348,0.037902435,2.63384764000002,2.812360677,2.38220519900001,0.16052796,0.033443325,2.48521064000002,2.883111889,2.44507865000001,0.216712746,0.051279765,2.56844736000002,2.900799692,2.27043017500001,0.224739144,0.028984215,2.60412024000002,2.865424086,2.43809271100001,0.152501562,0.033443325,2.59817476000002,2.600107041,2.43809271100001,0.208686348,0.06242754,2.58033832000002,2.582419238,2.35426144300001,0.220725945,0.028984215,2.66952052000002,2.83004848,2.38919113800001,0.144475164,0.05350932,2.47926516000002,2.953863101,2.45905052800001,0.16052796
"10",0.046820655,2.83599396000002,2.635482647,2.20057078500001,0.152501562,0.03567288,2.77059368000002,2.405541208,2.34727550400001,0.184607154,0.03567288,2.74681176000002,2.564731435,2.45206458900001,0.104343174,0.03121377,2.61601120000002,2.600107041,2.47302240600001,0.180593955,0.04013199,2.72897532000002,2.635482647,2.28440205300001,0.188620353,0.02229555,2.72302984000002,2.706233859,2.42412083300001,0.128422368,0.02675466,2.75275724000002,2.264038784,2.51493804000001,0.148488363,0.051279765,2.69924792000002,2.352477799,2.38919113800001,0.192633552,0.024525105,2.83599396000002,2.529355829,2.38919113800001,0.108356373,0.046820655,2.59817476000002,2.83004848,2.44507865000001,0.128422368
"11",0.03121377,2.96084904000002,2.370165602,2.24248641900001,0.132435567,0.028984215,2.85977588000002,2.29941439,2.42412083300001,0.116382771,0.028984215,2.87761232000002,2.370165602,2.48699428400001,0.052171587,0.028984215,2.76464820000002,2.405541208,2.52192397900001,0.100329975,0.033443325,2.83599396000002,2.458604617,2.36124738200001,0.124409169,0.024525105,2.87166684000002,2.440916814,2.43809271100001,0.076250781,0.011147775,2.87166684000002,2.087160754,2.54986773500001,0.116382771,0.028984215,2.80626656000002,2.210975375,2.49398022300001,0.132435567,0.024525105,2.97274000000002,2.281726587,2.41713489400001,0.056184786,0.03121377,2.75275724000002,2.670858253,2.43110677200001,0.096316776
"12",0.03121377,3.09164960000003,2.175599769,2.21454266300001,0.104343174,0.020065995,2.99652192000002,2.12253636,2.38220519900001,0.104343174,0.01783644,3.00246740000002,2.104848557,2.45206458900001,0.068224383,0.02229555,2.95490356000002,2.087160754,2.46603646700001,0.088290378,0.024525105,2.96679452000002,2.140224163,2.36124738200001,0.124409169,0.024525105,3.03219480000002,2.087160754,2.41014895500001,0.064211184,0.01337733,2.97868548000002,1.927970527,2.50096616200001,0.104343174,0.024525105,2.96679452000002,2.016409542,2.43110677200001,0.112369572,0.020065995,3.12137700000003,2.016409542,2.34727550400001,0.064211184,0.024525105,2.85977588000002,2.493980223,2.42412083300001,0.08026398
"13",0.024525105,3.22245016000003,1.94565833,2.19358484600001,0.092303577,0.020065995,3.10948604000003,1.94565833,2.36124738200001,0.08026398,0.011147775,3.12732248000003,1.892594921,2.42412083300001,0.060197985,0.020065995,3.12137700000003,1.786468103,2.40316301600001,0.084277179,0.02675466,3.13921344000003,1.804155906,2.31933174800001,0.104343174,0.015606885,3.21650468000003,1.786468103,2.34727550400001,0.060197985,0.015606885,3.08570412000003,1.7687803,2.45206458900001,0.092303577,0.02675466,3.10354056000003,1.7687803,2.37521926000001,0.104343174,0.015606885,3.27001400000003,1.751092497,2.29138799200001,0.064211184,0.01783644,3.03219480000002,2.246350981,2.34028956500001,0.08026398
"14",0.02229555,3.31757784000003,1.804155906,2.15865515100001,0.084277179,0.015606885,3.23434112000003,1.698029088,2.33330362600001,0.076250781,0.00891822,3.24623208000003,1.698029088,2.39617707700001,0.044145189,0.020065995,3.22245016000003,1.609590073,2.37521926000001,0.072237582,0.024525105,3.27595948000003,1.609590073,2.24947235800001,0.100329975,0.015606885,3.34135976000003,1.627277876,2.27741611400001,0.052171587,0.015606885,3.18677728000003,1.556526664,2.43110677200001,0.084277179,0.02675466,3.20461372000003,1.556526664,2.38919113800001,0.076250781,0.01783644,3.35325072000003,1.609590073,2.24248641900001,0.064211184,0.01783644,3.19866824000003,1.998721739,2.29138799200001,0.052171587
"15",0.020065995,3.43054196000003,1.627277876,2.109753578,0.08026398,0.01337733,3.34730524000003,1.538838861,2.28440205300001,0.068224383,0.011147775,3.36514168000003,1.521151058,2.34028956500001,0.032105592,0.01783644,3.35325072000003,1.344273028,2.34727550400001,0.064211184,0.020065995,3.38297812000003,1.397336437,2.27741611400001,0.068224383,0.020065995,3.43054196000003,1.521151058,2.20755672400001,0.048158388,0.02229555,3.34135976000003,1.361960831,2.32631768700001,0.072237582,0.024525105,3.30568688000003,1.397336437,2.34727550400001,0.072237582,0.01783644,3.48999676000003,1.379648634,2.19358484600001,0.052171587,0.020065995,3.34135976000003,1.715716891,2.24248641900001,0.044145189
"16",0.02229555,3.54350608000003,1.41502424,2.081809822,0.064211184,0.020065995,3.48999676000003,1.273521816,2.22152860200001,0.056184786,0.011147775,3.52566964000003,1.23814621,2.27043017500001,0.028092393,0.00891822,3.46621484000003,1.149707195,2.30535987000001,0.072237582,0.015606885,3.53161512000003,1.149707195,2.21454266300001,0.068224383,0.020065995,3.63863376000003,1.06126818,2.15166921200001,0.044145189,0.02229555,3.48405128000003,1.114331589,2.28440205300001,0.056184786,0.02675466,3.45432388000003,1.185082801,2.29837393100001,0.044145189,0.01783644,3.64457924000003,1.149707195,2.137697334,0.032105592,0.02229555,3.48405128000003,1.41502424,2.18659890700001,0.044145189
"17",0.024525105,3.69214308000004,1.291209619,1.949076981,0.064211184,0.02229555,3.55539704000003,1.202770604,2.17262702900001,0.052171587,0.011147775,3.57917896000003,1.185082801,2.23550048000001,0.024079194,0.00891822,3.58512444000003,1.043580377,2.20755672400001,0.072237582,0.011147775,3.61485184000003,1.078955983,2.17961296800001,0.056184786,0.02675466,3.66836116000003,1.043580377,2.102767639,0.044145189,0.02229555,3.53756060000003,1.078955983,2.24248641900001,0.052171587,0.024525105,3.54350608000003,1.132019392,2.22851454100001,0.04013199,0.01337733,3.71592500000004,1.114331589,2.0957817,0.024079194,0.020065995,3.56728800000003,1.326585225,2.137697334,0.04013199
"18",0.020065995,3.78132528000004,1.185082801,1.900175408,0.064211184,0.02229555,3.62079732000003,1.114331589,2.15865515100001,0.036118791,0.015606885,3.63863376000003,1.114331589,2.19358484600001,0.016052796,0.006688665,3.65052472000003,0.955141361999999,2.18659890700001,0.064211184,0.01337733,3.73970692000004,0.990516967999999,2.067837944,0.052171587,0.02229555,3.75754336000004,0.972829164999999,2.039894188,0.044145189,0.02229555,3.64457924000003,1.06126818,2.130711395,0.048158388,0.02229555,3.64457924000003,1.078955983,2.137697334,0.04013199,0.00891822,3.76348884000004,1.078955983,2.067837944,0.024079194,0.024525105,3.65647020000003,1.220458407,2.074823883,0.032105592
"19",0.01783644,3.82888912000004,1.114331589,1.921133225,0.04013199,0.02229555,3.68025212000004,1.025892574,2.123725456,0.036118791,0.024525105,3.70997952000004,0.955141361999999,2.15166921200001,0.012039597,0.00445911,3.70403404000004,0.919765755999999,2.144683273,0.064211184,0.01783644,3.81105268000004,0.902077952999999,2.018936371,0.044145189,0.02229555,3.85861652000004,0.902077952999999,1.970034798,0.032105592,0.024525105,3.71592500000004,0.919765755999999,2.109753578,0.04013199,0.01783644,3.79916172000004,0.866702347,2.02592231,0.056184786,0.011147775,3.85267104000004,1.06126818,1.977020737,0.016052796,0.024525105,3.73376144000004,1.185082801,1.997978554,0.032105592
"20",0.020065995,3.90618036000004,1.043580377,1.865245713,0.032105592,0.024525105,3.75159788000004,1.008204771,2.060852005,0.024079194,0.02675466,3.78727076000004,0.849014544,2.102767639,0.008026398,0.002229555,3.81699816000004,0.778263332,2.0957817,0.052171587,0.015606885,3.87645296000004,0.866702347,1.970034798,0.04013199,0.020065995,3.97752612000004,0.778263332,1.893189469,0.028092393,0.024525105,3.78132528000004,0.866702347,2.067837944,0.032105592,0.015606885,3.87050748000004,0.849014544,1.95606292,0.056184786,0.015606885,3.94779872000004,1.025892574,1.879217591,0.008026398,0.02229555,3.83483460000004,1.043580377,1.935105103,0.036118791
"21",0.015606885,3.95968968000004,1.025892574,1.844287896,0.020065995,0.02229555,3.84672556000004,0.88439015,2.011950432,0.020065995,0.02675466,3.85267104000004,0.813638938,2.039894188,0.008026398,0.002229555,3.88834392000004,0.760575529,2.032908249,0.044145189,0.011147775,3.95968968000004,0.70751212,1.949076981,0.04013199,0.02229555,4.03103544000004,0.742887726,1.837301957,0.028092393,0.02229555,3.88834392000004,0.813638938,1.95606292,0.04013199,0.01783644,3.92996228000004,0.813638938,1.907161347,0.048158388,0.01337733,4.05481736000004,0.902077952999999,1.802372262,0.012039597,0.02229555,3.97752612000004,0.88439015,1.830316018,0.036118791
"22",0.015606885,4.06076284000004,0.919765755999999,1.767442567,0.020065995,0.024525105,3.92401680000004,0.831326741,1.942091042,0.016052796,0.03121377,3.92996228000004,0.742887726,1.95606292,0.012039597,0.002229555,3.97752612000004,0.725199923,1.963048859,0.032105592,0.011147775,4.03698092000004,0.654448711,1.88620353,0.036118791,0.024525105,4.12021764000004,0.636760908,1.774428506,0.024079194,0.020065995,3.96563516000004,0.742887726,1.900175408,0.04013199,0.020065995,4.04292640000004,0.689824317,1.830316018,0.04013199,0.015606885,4.10832668000004,0.919765755999999,1.725526933,0.012039597,0.02229555,4.04292640000004,0.88439015,1.774428506,0.024079194
"23",0.01337733,4.13805408000004,0.831326741,1.718540994,0.020065995,0.024525105,3.98347160000004,0.795951135,1.893189469,0.012039597,0.03567288,4.03103544000004,0.654448711,1.858259774,0.012039597,0.006688665,4.10832668000004,0.654448711,1.830316018,0.028092393,0.01337733,4.09643572000004,0.636760908,1.823330079,0.032105592,0.02229555,4.22723628000004,0.566009696,1.662653482,0.036118791,0.02229555,4.03698092000004,0.70751212,1.830316018,0.036118791,0.020065995,4.13805408000004,0.619073105,1.760456628,0.032105592,0.01337733,4.20345436000004,0.778263332,1.669639421,0.016052796,0.020065995,4.10832668000004,0.849014544,1.725526933,0.020065995
"24",0.01783644,4.19750888000004,0.795951135,1.648681604,0.020065995,0.020065995,4.07859928000004,0.689824317,1.844287896,0.008026398,0.03567288,4.07859928000004,0.636760908,1.809358201,0.012039597,0.006688665,4.16778148000004,0.654448711,1.760456628,0.028092393,0.015606885,4.18561792000004,0.601385302,1.725526933,0.032105592,0.024525105,4.33425492000005,0.424507272,1.599780031,0.028092393,0.024525105,4.09049024000004,0.672136514,1.767442567,0.04013199,0.02229555,4.22129080000004,0.601385302,1.67662536,0.024079194,0.011147775,4.25696368000004,0.760575529,1.613751909,0.020065995,0.02229555,4.17372696000004,0.795951135,1.655667543,0.024079194
"25",0.015606885,4.29263656000005,0.760575529,1.571836275,0.012039597,0.020065995,4.19156340000004,0.619073105,1.732512872,0.012039597,0.03567288,4.14399956000004,0.583697499,1.760456628,0.008026398,0.011147775,4.24507272000004,0.619073105,1.669639421,0.028092393,0.01783644,4.25696368000004,0.477570681,1.67662536,0.036118791,0.02229555,4.38181876000005,0.424507272,1.550878458,0.028092393,0.02229555,4.17967244000004,0.672136514,1.662653482,0.044145189,0.020065995,4.27480012000005,0.583697499,1.634709726,0.020065995,0.011147775,4.31641848000005,0.70751212,1.571836275,0.016052796,0.020065995,4.25696368000004,0.760575529,1.571836275,0.028092393
"26",0.02229555,4.36992780000005,0.672136514,1.488005007,0.016052796,0.01337733,4.26885464000005,0.566009696,1.683611299,0.012039597,0.03121377,4.23912724000004,0.512946287,1.683611299,0.012039597,0.020065995,4.29263656000005,0.583697499,1.620737848,0.016052796,0.02675466,4.34020040000005,0.424507272,1.592794092,0.024079194,0.024525105,4.44721904000005,0.389131666,1.481019068,0.028092393,0.02229555,4.25696368000004,0.566009696,1.620737848,0.04013199,0.020065995,4.38181876000005,0.512946287,1.543892519,0.016052796,0.011147775,4.40560068000005,0.619073105,1.494990946,0.020065995,0.01783644,4.36398232000005,0.672136514,1.494990946,0.024079194
"27",0.020065995,4.41749164000005,0.619073105,1.46704719,0.012039597,0.01337733,4.36398232000005,0.477570681,1.613751909,0.008026398,0.03121377,4.29263656000005,0.512946287,1.620737848,0.012039597,0.024525105,4.38776424000005,0.53063409,1.515948763,0.016052796,0.024525105,4.41749164000005,0.371443863,1.529920641,0.024079194,0.015606885,4.52451028000005,0.336068257,1.446089373,0.024079194,0.01783644,4.29858204000005,0.566009696,1.592794092,0.036118791,0.01783644,4.47694644000005,0.371443863,1.481019068,0.024079194,0.01337733,4.48883740000005,0.53063409,1.418145617,0.024079194,0.01783644,4.41749164000005,0.636760908,1.446089373,0.024079194
"28",0.01783644,4.47694644000005,0.619073105,1.390201861,0.020065995,0.01783644,4.46505548000005,0.371443863,1.522934702,0.008026398,0.028984215,4.38181876000005,0.459882878,1.543892519,0.012039597,0.02675466,4.45316452000005,0.512946287,1.439103434,0.016052796,0.02229555,4.48289192000005,0.371443863,1.46704719,0.020065995,0.01783644,4.59585604000005,0.283004848,1.383215922,0.020065995,0.015606885,4.39965520000005,0.53063409,1.501976885,0.032105592,0.015606885,4.51261932000005,0.35375606,1.460061251,0.020065995,0.015606885,4.56612864000005,0.477570681,1.341300288,0.024079194,0.011147775,4.45911000000005,0.636760908,1.411159678,0.028092393
"29",0.01783644,4.52451028000005,0.601385302,1.341300288,0.020065995,0.01783644,4.53045576000005,0.371443863,1.453075312,0.004013199,0.024525105,4.42343712000005,0.424507272,1.515948763,0.016052796,0.03121377,4.53045576000005,0.459882878,1.362258105,0.012039597,0.02229555,4.56018316000005,0.318380454,1.404173739,0.016052796,0.015606885,4.67314728000005,0.247629242,1.306370593,0.024079194,0.020065995,4.45911000000005,0.477570681,1.446089373,0.028092393,0.015606885,4.58991056000005,0.283004848,1.3971878,0.020065995,0.01783644,4.65531084000005,0.406819469,1.250483081,0.028092393,0.011147775,4.53045576000005,0.619073105,1.334314349,0.028092393
"30",0.015606885,4.61963796000005,0.53063409,1.264454959,0.020065995,0.015606885,4.57801960000005,0.371443863,1.390201861,0.012039597,0.024525105,4.48883740000005,0.389131666,1.453075312,0.016052796,0.03121377,4.61963796000005,0.424507272,1.278426837,0.008026398,0.020065995,4.64936536000005,0.318380454,1.313356532,0.012039597,0.020065995,4.72665660000005,0.194565833,1.25746902,0.020065995,0.020065995,4.51261932000005,0.495258484,1.390201861,0.020065995,0.01783644,4.63747440000005,0.283004848,1.32732841,0.024079194,0.01783644,4.71476564000005,0.389131666,1.201581508,0.020065995,0.011147775,4.62558344000005,0.512946287,1.264454959,0.028092393
"31",0.01783644,4.69692920000005,0.442195075,1.201581508,0.020065995,0.01783644,4.67909276000005,0.35375606,1.271440898,0.012039597,0.028984215,4.53045576000005,0.371443863,1.404173739,0.012039597,0.03121377,4.67314728000005,0.424507272,1.222539325,0.004013199,0.020065995,4.70882016000005,0.283004848,1.25746902,0.012039597,0.015606885,4.77422044000005,0.212253636,1.208567447,0.020065995,0.02229555,4.57801960000005,0.424507272,1.334314349,0.020065995,0.020065995,4.68503824000005,0.212253636,1.292398715,0.024079194,0.01783644,4.76827496000005,0.371443863,1.152679935,0.016052796,0.00891822,4.67909276000005,0.495258484,1.229525264,0.020065995
"32",0.01783644,4.75638400000005,0.424507272,1.145693996,0.016052796,0.01783644,4.73260208000005,0.283004848,1.236511203,0.012039597,0.020065995,4.58396508000005,0.35375606,1.369244044,0.016052796,0.033443325,4.74449304000005,0.336068257,1.173637752,NA,0.02229555,4.79800236000005,0.229941439,1.166651813,0.012039597,0.01783644,4.82772976000005,0.247629242,1.138708057,0.012039597,0.02229555,4.64341988000005,0.424507272,1.250483081,0.024079194,0.020065995,4.73854756000005,0.212253636,1.229525264,0.024079194,0.015606885,4.81583880000005,0.318380454,1.124736179,0.016052796,0.00891822,4.75638400000005,0.442195075,1.152679935,0.024079194
"33",0.01783644,4.82178428000005,0.318380454,1.11775024,0.012039597,0.02229555,4.78611140000005,0.265317045,1.166651813,0.012039597,0.02229555,4.66125632000005,0.371443863,1.264454959,0.016052796,0.03121377,4.79205688000005,0.336068257,1.124736179,NA,0.020065995,4.82772976000005,0.247629242,1.131722118,0.012039597,0.020065995,4.91691196000006,0.247629242,1.033918972,0.008026398,0.01783644,4.67909276000005,0.424507272,1.236511203,0.016052796,0.01783644,4.79800236000005,0.212253636,1.166651813,0.024079194,0.015606885,4.90502100000006,0.318380454,1.019947094,0.016052796,0.00891822,4.82178428000005,0.389131666,1.096792423,0.024079194
"34",0.02229555,4.90502100000006,0.229941439,1.04789085,0.008026398,0.02229555,4.86340264000005,0.212253636,1.089806484,0.016052796,0.024525105,4.72071112000005,0.336068257,1.194595569,0.020065995,0.028984215,4.86340264000005,0.283004848,1.061862728,0.004013199,0.020065995,4.90502100000006,0.229941439,1.04789085,0.012039597,0.01783644,4.98231224000006,0.229941439,0.971045521,0.008026398,0.020065995,4.70287468000005,0.389131666,1.222539325,0.012039597,0.01783644,4.85151168000005,0.229941439,1.096792423,0.024079194,0.01337733,4.96447580000006,0.300692651,0.971045521,0.012039597,0.006688665,4.91691196000006,0.300692651,1.026933033,0.024079194
"35",0.02229555,4.95258484000006,0.212253636,0.998989276999999,0.008026398,0.02229555,4.92285744000006,0.212253636,1.033918972,0.008026398,0.020065995,4.77422044000005,0.336068257,1.138708057,0.024079194,0.02229555,4.90502100000006,0.265317045,1.033918972,0.008026398,0.01783644,4.92880292000006,0.247629242,1.026933033,0.008026398,0.015606885,5.01798512000006,0.212253636,0.950087704,0.004013199,0.015606885,4.74449304000005,0.371443863,1.194595569,0.012039597,0.01783644,4.91691196000006,0.212253636,1.026933033,0.024079194,0.015606885,5.01203964000006,0.265317045,0.922143948,0.012039597,0.00891822,4.93474840000006,0.300692651,1.012961155,0.016052796
"36",0.015606885,5.04771252000006,0.194565833,0.901186131,0.016052796,0.024525105,4.97636676000006,0.159190227,0.985017399,0.008026398,0.02229555,4.83962072000005,0.336068257,1.054876789,0.024079194,0.01337733,4.98231224000006,0.229941439,0.985017399,0.008026398,0.00891822,4.97042128000006,0.265317045,0.992003338,0.012039597,0.01783644,5.08338540000006,0.212253636,0.866256436,0.004013199,0.01337733,4.83367524000005,0.371443863,1.089806484,0.016052796,0.011147775,4.94069388000006,0.212253636,1.012961155,0.028092393,0.01783644,5.08933088000006,0.247629242,0.831326741000001,0.012039597,0.006688665,5.00609416000006,0.300692651,0.950087704,0.008026398
"37",0.02229555,5.08933088000006,0.212253636,0.824340802000001,0.016052796,0.024525105,5.01203964000006,0.17687803,0.936115826,0.008026398,0.024525105,4.89907552000006,0.336068257,0.97803146,0.024079194,0.00891822,5.07149444000006,0.212253636,0.901186131,0.008026398,0.01337733,5.00014868000006,0.265317045,0.943101765,0.012039597,0.02229555,5.11905828000006,0.194565833,0.817354863000001,0.004013199,0.015606885,4.86934812000005,0.389131666,1.040904911,0.012039597,0.011147775,4.98231224000006,0.212253636,0.964059582,0.028092393,0.01783644,5.14878568000006,0.229941439,0.768453290000001,0.012039597,0.011147775,5.04176704000006,0.300692651,0.887214253,0.012039597
"38",0.020065995,5.16662212000006,0.247629242,0.726537656000001,0.016052796,0.02229555,5.08933088000006,0.194565833,0.852284558000001,0.004013199,0.02675466,4.98231224000006,0.389131666,0.859270497000001,0.020065995,0.00891822,5.22013144000006,0.17687803,0.740509534000001,0.008026398,0.01337733,5.13094924000006,0.247629242,0.796397046000001,0.012039597,0.01783644,5.22607692000006,0.17687803,0.705579839000001,0.008026398,0.015606885,5.00014868000006,0.389131666,0.880228314,0.016052796,0.015606885,5.07743992000006,0.194565833,0.852284558000001,0.024079194,0.015606885,5.26769528000006,0.229941439,0.635720449000001,0.012039597,0.01337733,5.13689472000006,0.300692651,0.775439229000001,0.008026398
"39",0.020065995,5.21418596000006,0.229941439,0.677636083000001,0.016052796,0.02229555,5.18445856000006,0.194565833,0.740509534000001,0.004013199,0.024525105,5.05960348000006,0.406819469,0.768453290000001,0.020065995,0.011147775,5.27958624000006,0.159190227,0.677636083000001,0.004013199,0.011147775,5.24391336000006,0.229941439,0.677636083000001,0.012039597,0.020065995,5.33309556000005,0.141502424,0.586818876000001,0.008026398,0.015606885,5.13094924000006,0.336068257,0.754481412000001,0.012039597,0.01783644,5.16662212000006,0.194565833,0.747495473000001,0.020065995,0.020065995,5.29742268000006,0.212253636,0.593804815000001,0.012039597,0.015606885,5.22013144000006,0.247629242,0.691607961000001,0.008026398
"40",0.02229555,5.26769528000006,0.247629242,0.607776693000001,0.012039597,0.02229555,5.27364076000006,0.212253636,0.628734510000001,0.004013199,0.02675466,5.15473116000006,0.459882878,0.635720449000001,0.016052796,0.015606885,5.34498652000005,0.212253636,0.565861059,0.004013199,0.011147775,5.27958624000006,0.229941439,0.642706388000001,0.008026398,0.020065995,5.39849584000005,0.123814621,0.516959486,0.008026398,0.01783644,5.20824048000006,0.336068257,0.670650144000001,0.004013199,0.015606885,5.26174980000006,0.212253636,0.656678266000001,0.008026398,0.015606885,5.38065940000005,0.194565833,0.516959486,0.012039597,0.015606885,5.30336816000006,0.229941439,0.607776693000001,0.004013199
"41",0.02229555,5.35093200000005,0.17687803,0.551889181,0.004013199,0.02229555,5.33309556000005,0.212253636,0.551889181,0.008026398,0.020065995,5.26174980000006,0.459882878,0.537917303,0.012039597,0.01783644,5.41633228000005,0.17687803,0.482029791,0.008026398,0.01783644,5.30931364000006,0.229941439,0.593804815000001,0.004013199,0.020065995,5.44605968000004,0.106126818,0.468057913,0.008026398,0.015606885,5.31525912000006,0.35375606,0.544903242,0.004013199,0.015606885,5.32120460000005,0.194565833,0.593804815000001,0.008026398,0.015606885,5.48767804000004,0.194565833,0.391212584,0.012039597,0.015606885,5.36876844000005,0.194565833,0.544903242,0.004013199
"42",0.02229555,5.39849584000005,0.159190227,0.496001669,0.008026398,0.020065995,5.40444132000005,0.212253636,0.482029791,0.004013199,0.02229555,5.29147720000006,0.459882878,0.496001669,0.012039597,0.020065995,5.47578708000004,0.159190227,0.412170401,0.008026398,0.020065995,5.37471392000005,0.17687803,0.530931364,0.004013199,0.01783644,5.52929640000004,0.088439015,0.391212584,0.004013199,0.015606885,5.35687748000005,0.35375606,0.496001669,0.004013199,0.01337733,5.38660488000005,0.194565833,0.523945425,0.008026398,0.015606885,5.54713284000004,0.17687803,0.342311011,0.004013199,0.01337733,5.42822324000005,0.194565833,0.48901573,NA
"43",0.03121377,5.41038680000005,0.17687803,0.454086035,0.004013199,0.01783644,5.48173256000004,0.194565833,0.412170401,NA,0.01783644,5.36282296000005,0.442195075,0.440114157,0.008026398,0.020065995,5.54118736000004,0.159190227,0.335325072,0.008026398,0.024525105,5.42822324000005,0.17687803,0.461071974,NA,0.01783644,5.54713284000004,0.106126818,0.363268828,0.004013199,0.015606885,5.41038680000005,0.35375606,0.433128218,0.004013199,0.01337733,5.45795064000004,0.194565833,0.433128218,0.012039597,0.01783644,5.58280572000003,0.17687803,0.293409438,0.004013199,0.01337733,5.49362352000004,0.159190227,0.426142279,NA
"44",0.03121377,5.48173256000004,0.159190227,0.377240706,0.004013199,0.01783644,5.52929640000004,0.194565833,0.356282889,NA,0.015606885,5.43416872000005,0.424507272,0.370254767,0.008026398,0.020065995,5.57091476000003,0.159190227,0.307381316,0.004013199,0.02675466,5.46389612000004,0.159190227,0.41915634,NA,0.020065995,5.57091476000003,0.106126818,0.328339133,0.004013199,0.015606885,5.47578708000004,0.371443863,0.34929695,0.004013199,0.01337733,5.49362352000004,0.194565833,0.391212584,0.012039597,0.020065995,5.62442408000003,0.141502424,0.258479743,NA,0.01337733,5.54713284000004,0.123814621,0.377240706,NA
"45",0.03567288,5.49362352000004,0.17687803,0.342311011,0.004013199,0.02229555,5.52929640000004,0.212253636,0.328339133,0.004013199,0.020065995,5.49362352000004,0.371443863,0.321353194,NA,0.020065995,5.62442408000003,0.159190227,0.251493804,NA,0.024525105,5.52335092000004,0.17687803,0.34929695,NA,0.020065995,5.63631504000003,0.106126818,0.244507865,0.008026398,0.02229555,5.50551448000004,0.371443863,0.300395377,NA,0.01337733,5.52929640000004,0.194565833,0.34929695,0.012039597,0.024525105,5.63631504000003,0.159190227,0.223550048,NA,0.015606885,5.57686024000003,0.141502424,0.321353194,0.004013199
"46",0.037902435,5.51145996000004,0.17687803,0.314367255,0.004013199,0.01783644,5.56496928000004,0.194565833,0.307381316,0.004013199,0.01783644,5.49956900000004,0.406819469,0.307381316,NA,0.020065995,5.66604244000003,0.141502424,0.20957817,NA,0.02675466,5.54118736000004,0.159190227,0.328339133,NA,0.020065995,5.65415148000003,0.070751212,0.237521926,0.008026398,0.02229555,5.53524188000004,0.35375606,0.272451621,NA,0.01337733,5.55902380000004,0.229941439,0.300395377,0.012039597,0.028984215,5.64226052000003,0.141502424,0.20957817,NA,0.024525105,5.57686024000003,0.141502424,0.293409438,0.004013199
"47",0.037902435,5.51145996000004,0.229941439,0.293409438,0.004013199,0.015606885,5.58280572000003,0.212253636,0.286423499,0.004013199,0.020065995,5.49956900000004,0.389131666,0.307381316,NA,0.020065995,5.66604244000003,0.159190227,0.202592231,NA,0.02229555,5.60658764000003,0.159190227,0.265465682,NA,0.015606885,5.68387888000002,0.053063409,0.223550048,0.008026398,0.02229555,5.57686024000003,0.300692651,0.244507865,NA,0.01337733,5.58280572000003,0.247629242,0.272451621,0.008026398,0.02675466,5.66604244000003,0.123814621,0.195606292,NA,0.020065995,5.61253312000003,0.159190227,0.258479743,0.004013199
"48",0.03567288,5.56496928000004,0.229941439,0.237521926,0.004013199,0.02229555,5.60658764000003,0.212253636,0.237521926,0.004013199,0.01783644,5.51740544000004,0.389131666,0.293409438,NA,0.02229555,5.66009696000003,0.159190227,0.202592231,NA,0.02229555,5.64226052000003,0.141502424,0.230535987,NA,0.020065995,5.67793340000003,0.053063409,0.20957817,0.012039597,0.024525105,5.60658764000003,0.300692651,0.195606292,0.004013199,0.011147775,5.63631504000003,0.265317045,0.216564109,0.004013199,0.033443325,5.65415148000003,0.123814621,0.188620353,NA,0.02675466,5.64226052000003,0.141502424,0.20957817,0.004013199
"49",0.037902435,5.57686024000003,0.212253636,0.223550048,0.004013199,0.03121377,5.58875120000003,0.212253636,0.230535987,0.004013199,0.02229555,5.52335092000004,0.371443863,0.27943756,NA,0.02675466,5.65415148000003,0.159190227,0.195606292,NA,0.02229555,5.64820600000003,0.159190227,0.216564109,NA,0.020065995,5.67793340000003,0.053063409,0.216564109,0.008026398,0.02229555,5.61847860000003,0.283004848,0.195606292,0.004013199,0.011147775,5.64820600000003,0.229941439,0.216564109,0.004013199,0.028984215,5.65415148000003,0.159190227,0.181634414,0.004013199,0.02229555,5.65415148000003,0.141502424,0.20957817,0.004013199
"50",0.03567288,5.58280572000003,0.212253636,0.223550048,0.004013199,0.03121377,5.61847860000003,0.17687803,0.20957817,0.004013199,0.028984215,5.54118736000004,0.336068257,0.244507865,0.004013199,0.02675466,5.64226052000003,0.17687803,0.195606292,0.004013199,0.02229555,5.67198792000003,0.141502424,0.195606292,NA,0.02229555,5.69576984000002,0.035375606,0.195606292,0.008026398,0.024525105,5.60658764000003,0.300692651,0.195606292,0.004013199,0.01337733,5.64820600000003,0.229941439,0.202592231,0.008026398,0.03567288,5.64820600000003,0.159190227,0.167662536,0.004013199,0.02229555,5.66604244000003,0.123814621,0.195606292,0.008026398
"51",0.04013199,5.58875120000003,0.194565833,0.20957817,0.004013199,0.033443325,5.63036956000003,0.194565833,0.181634414,0.004013199,0.03567288,5.54713284000004,0.318380454,0.223550048,0.004013199,0.02229555,5.65415148000003,0.17687803,0.195606292,0.004013199,0.02229555,5.64820600000003,0.159190227,0.20957817,0.004013199,0.02229555,5.69576984000002,0.053063409,0.195606292,0.004013199,0.024525105,5.60658764000003,0.283004848,0.202592231,0.004013199,0.011147775,5.64820600000003,0.229941439,0.216564109,0.004013199,0.03567288,5.65415148000003,0.159190227,0.160676597,0.004013199,0.02229555,5.68982436000003,0.123814621,0.174648475,0.004013199
"52",0.04013199,5.58875120000003,0.212253636,0.202592231,0.004013199,0.04013199,5.61847860000003,0.17687803,0.181634414,0.004013199,0.03567288,5.53524188000004,0.336068257,0.230535987,0.004013199,0.020065995,5.64820600000003,0.194565833,0.195606292,0.008026398,0.02229555,5.63631504000003,0.212253636,0.202592231,0.004013199,0.02229555,5.68982436000003,0.053063409,0.202592231,0.004013199,0.02229555,5.61847860000003,0.247629242,0.202592231,0.008026398,0.011147775,5.64820600000003,0.247629242,0.20957817,0.004013199,0.03567288,5.64820600000003,0.17687803,0.160676597,0.004013199,0.024525105,5.68982436000003,0.106126818,0.174648475,0.004013199
"53",0.033443325,5.59469668000003,0.194565833,0.223550048,0.004013199,0.03567288,5.61847860000003,0.194565833,0.174648475,0.012039597,0.03567288,5.54118736000004,0.336068257,0.223550048,0.004013199,0.024525105,5.65415148000003,0.17687803,0.181634414,0.008026398,0.024525105,5.64226052000003,0.212253636,0.188620353,0.004013199,0.020065995,5.68982436000003,0.053063409,0.20957817,0.004013199,0.024525105,5.61847860000003,0.247629242,0.195606292,0.008026398,0.011147775,5.66009696000003,0.229941439,0.202592231,0.004013199,0.03121377,5.64820600000003,0.17687803,0.167662536,0.008026398,0.02675466,5.68982436000003,0.106126818,0.160676597,0.008026398
"54",0.03567288,5.57686024000003,0.212253636,0.230535987,0.004013199,0.037902435,5.60658764000003,0.212253636,0.181634414,0.008026398,0.04013199,5.55307832000004,0.283004848,0.223550048,NA,0.024525105,5.66604244000003,0.17687803,0.167662536,0.008026398,0.024525105,5.64820600000003,0.212253636,0.181634414,0.004013199,0.02229555,5.68387888000002,0.053063409,0.20957817,0.004013199,0.02229555,5.63036956000003,0.229941439,0.195606292,0.008026398,0.01337733,5.66009696000003,0.229941439,0.188620353,0.008026398,0.028984215,5.64226052000003,0.194565833,0.167662536,0.012039597,0.028984215,5.68387888000002,0.123814621,0.153690658,0.008026398
"55",0.03121377,5.58280572000003,0.212253636,0.230535987,0.008026398,0.037902435,5.61253312000003,0.194565833,0.181634414,0.008026398,0.037902435,5.56496928000004,0.229941439,0.237521926,NA,0.024525105,5.68387888000002,0.141502424,0.167662536,0.004013199,0.024525105,5.64226052000003,0.212253636,0.174648475,0.012039597,0.02229555,5.69576984000002,0.070751212,0.188620353,0.004013199,0.015606885,5.63631504000003,0.229941439,0.20957817,0.008026398,0.01337733,5.66604244000003,0.212253636,0.188620353,0.008026398,0.02675466,5.64226052000003,0.194565833,0.174648475,0.012039597,0.028984215,5.67198792000003,0.141502424,0.160676597,0.008026398
"56",0.028984215,5.59469668000003,0.194565833,0.237521926,0.004013199,0.037902435,5.61847860000003,0.194565833,0.174648475,0.008026398,0.037902435,5.57091476000003,0.212253636,0.237521926,NA,0.02675466,5.68387888000002,0.123814621,0.167662536,0.004013199,0.024525105,5.64226052000003,0.194565833,0.181634414,0.012039597,0.020065995,5.68982436000003,0.070751212,0.195606292,0.008026398,0.015606885,5.64226052000003,0.212253636,0.20957817,0.008026398,0.01337733,5.67793340000003,0.212253636,0.174648475,0.008026398,0.028984215,5.64226052000003,0.17687803,0.174648475,0.012039597,0.028984215,5.65415148000003,0.159190227,0.174648475,0.008026398
"57",0.02675466,5.58875120000003,0.194565833,0.251493804,0.004013199,0.03567288,5.61847860000003,0.17687803,0.181634414,0.012039597,0.03567288,5.56496928000004,0.229941439,0.244507865,NA,0.02675466,5.68387888000002,0.159190227,0.153690658,0.004013199,0.02675466,5.63631504000003,0.194565833,0.188620353,0.008026398,0.01783644,5.68982436000003,0.070751212,0.195606292,0.012039597,0.01337733,5.64226052000003,0.212253636,0.216564109,0.008026398,0.015606885,5.68387888000002,0.212253636,0.167662536,0.004013199,0.033443325,5.61847860000003,0.212253636,0.174648475,0.012039597,0.04013199,5.63036956000003,0.17687803,0.160676597,0.008026398
"58",0.02675466,5.60658764000003,0.17687803,0.230535987,0.008026398,0.03121377,5.61847860000003,0.17687803,0.195606292,0.012039597,0.03567288,5.57091476000003,0.212253636,0.244507865,NA,0.028984215,5.67793340000003,0.159190227,0.153690658,0.004013199,0.028984215,5.63036956000003,0.194565833,0.188620353,0.008026398,0.015606885,5.69576984000002,0.070751212,0.195606292,0.012039597,0.00891822,5.64820600000003,0.194565833,0.223550048,0.012039597,0.015606885,5.68982436000003,0.212253636,0.160676597,0.004013199,0.024525105,5.63631504000003,0.17687803,0.174648475,0.024079194,0.033443325,5.62442408000003,0.17687803,0.181634414,0.012039597
"59",0.024525105,5.60064216000003,0.17687803,0.244507865,0.008026398,0.02675466,5.61253312000003,0.17687803,0.216564109,0.012039597,0.03121377,5.57686024000003,0.17687803,0.258479743,0.004013199,0.02675466,5.67793340000003,0.159190227,0.160676597,0.004013199,0.028984215,5.62442408000003,0.212253636,0.188620353,0.008026398,0.01783644,5.68982436000003,0.070751212,0.202592231,0.008026398,0.006688665,5.67793340000003,0.159190227,0.20957817,0.012039597,0.015606885,5.68982436000003,0.194565833,0.167662536,0.004013199,0.028984215,5.62442408000003,0.17687803,0.181634414,0.020065995,0.03567288,5.62442408000003,0.17687803,0.174648475,0.012039597
"60",0.02675466,5.60064216000003,0.159190227,0.251493804,0.004013199,0.02675466,5.60064216000003,0.212253636,0.223550048,0.008026398,0.02675466,5.57686024000003,0.17687803,0.27943756,NA,0.020065995,5.67793340000003,0.159190227,0.167662536,0.012039597,0.03121377,5.63036956000003,0.194565833,0.181634414,0.008026398,0.015606885,5.68982436000003,0.070751212,0.216564109,0.004013199,0.00891822,5.66604244000003,0.159190227,0.20957817,0.016052796,0.01337733,5.70171532000002,0.159190227,0.174648475,0.004013199,0.02229555,5.63036956000003,0.159190227,0.202592231,0.020065995,0.042361545,5.61253312000003,0.159190227,0.167662536,0.016052796
