"","Early1.ALL","Late1.CLS","Late1.OPN","Mid1.CLS","Mid1.OPN","Early1.ALL.1","Late1.CLS.1","Late1.OPN.1","Mid1.CLS.1","Mid1.OPN.1","Early1.ALL.2","Late1.CLS.2","Late1.OPN.2","Mid1.CLS.2","Mid1.OPN.2","Early1.ALL.3","Late1.CLS.3","Late1.OPN.3","Mid1.CLS.3","Mid1.OPN.3","Early1.ALL.4","Late1.CLS.4","Late1.OPN.4","Mid1.CLS.4","Mid1.OPN.4","Early1.ALL.5","Late1.CLS.5","Late1.OPN.5","Mid1.CLS.5","Mid1.OPN.5","Early1.ALL.6","Late1.CLS.6","Late1.OPN.6","Mid1.CLS.6","Mid1.OPN.6","Early1.ALL.7","Late1.CLS.7","Late1.OPN.7","Mid1.CLS.7","Mid1.OPN.7","Early1.ALL.8","Late1.CLS.8","Late1.OPN.8","Mid1.CLS.8","Mid1.OPN.8","Early1.ALL.9","Late1.CLS.9","Late1.OPN.9","Mid1.CLS.9","Mid1.OPN.9"
"0",0,1.37340588,3.72781595999999,0,0.171973009,0,1.37786499,3.25336665599999,0,0.199024943,0,1.39124232,3.37197898199999,0,0.189363538,0,1.26638724,3.50753592599999,0,0.210618629,0,1.35556944,3.45670207199999,0,0.15458248,0,1.34665122,3.59225901599999,0,0.185498976,0,1.35556944,3.25336665599999,0,0.191295819,0,1.23517347,3.54142516199999,0,0.21255091,0,1.34665122,3.20253280199999,0,0.181634414,0,1.37786499,3.33808974599999,0,0.220280034
"1",0,1.41353787,3.72781595999999,0,0.168108447,0,1.42245609,3.27031127399999,0,0.195160381,0,1.41353787,3.37197898199999,0,0.187431257,0,1.30206012,3.57531439799999,0,0.195160381,0,1.39124232,3.49059130799999,0,0.156514761,0,1.3823241,3.64309286999999,0,0.183566695,0,1.40016054,3.25336665599999,0,0.185498976,0,1.2931419,3.54142516199999,0,0.195160381,0,1.38678321,3.23642203799999,0,0.162311604,0,1.39570143,3.35503436399999,0,0.204821786
"2",0,1.44921075,3.77864981399999,0,0.142988794,0,1.44029253,3.33808974599999,0,0.189363538,0,1.46704719000001,3.43975745399999,0,0.1932281,0,1.33327389,3.62614825199999,0,0.185498976,0,1.40907876,3.50753592599999,0,0.148785637,0,1.4269152,3.67698210599999,0,0.17390529,0,1.4269152,3.30420050999999,0,0.183566695,0,1.31989656,3.60920363399999,0,0.185498976,0,1.4269152,3.28725589199999,0,0.158447042,0,1.40907876,3.40586821799999,0,0.187431257
"3",0,1.49380185000001,3.77864981399999,0,0.137191951,0,1.46704719000001,3.40586821799999,0,0.187431257,0,1.50717918000001,3.50753592599999,0,0.171973009,0,1.36894677,3.64309286999999,0,0.179702133,0,1.45366986,3.54142516199999,0,0.144921075,0,1.48042452000001,3.67698210599999,0,0.156514761,0,1.44475164,3.37197898199999,0,0.17390529,0,1.34219211,3.66003748799999,0,0.170040728,0,1.47596541000001,3.30420050999999,0,0.144921075,0,1.44029253,3.43975745399999,0,0.171973009
"4",0,1.51609740000001,3.84642828599999,0,0.131395108,0,1.49380185000001,3.45670207199999,0,0.183566695,0,1.55177028000001,3.54142516199999,0,0.158447042,0,1.38678321,3.64309286999999,0,0.168108447,0,1.49826096000001,3.55836977999999,0,0.144921075,0,1.49380185000001,3.69392672399999,0,0.142988794,0,1.47150630000001,3.37197898199999,0,0.175837571,0,1.40016054,3.69392672399999,0,0.168108447,0,1.54731117000001,3.35503436399999,0,0.123665984,0,1.47596541000001,3.47364668999999,0,0.160379323
"5",0,1.54731117000001,3.86337290399999,0,0.11593686,0,1.53839295000001,3.49059130799999,0,0.170040728,0,1.56960672000001,3.55836977999999,0,0.144921075,0,1.41353787,3.66003748799999,0,0.177769852,0,1.52055651000001,3.60920363399999,0,0.129462827,0,1.52501562000001,3.72781595999999,0,0.129462827,0,1.50272007000001,3.42281283599999,0,0.150717918,0,1.45812897,3.71087134199999,0,0.160379323,0,1.58744316000001,3.38892359999999,0,0.110140017,0,1.49380185000001,3.49059130799999,0,0.144921075
"6",0,1.67662536000001,3.59225901599999,0,0.108207736,0,1.64095248000001,3.33808974599999,0,0.152650199,0,1.66324803000001,3.32114512799999,0,0.133327389,0,1.48488363000001,3.54142516199999,0,0.160379323,0,1.62311604000001,3.49059130799999,0,0.112072298,0,1.64095248000001,3.50753592599999,0,0.114004579,0,1.59636138000001,3.15169894799999,0,0.142988794,0,1.58298405000001,3.33808974599999,0,0.150717918,0,1.72567557000001,3.15169894799999,0,0.102410893,0,1.57406583000001,3.30420050999999,0,0.146853356
"7",0,1.79256222000001,3.38892359999999,0,0.100478612,0,1.76134845000001,3.06697585799999,0,0.141056513,0,1.75688934000001,3.18558818399999,0,0.123665984,0,1.56960672000001,3.35503436399999,0,0.152650199,0,1.73905290000001,3.16864356599999,0,0.119801422,0,1.75243023000001,3.25336665599999,0,0.104343174,0,1.72121646000001,2.91447429599999,0,0.133327389,0,1.69446180000001,3.06697585799999,0,0.131395108,0,1.80148044000001,3.05003123999999,0,0.090817207,0,1.66770714000001,3.10086509399999,0,0.121733703
"8",0,1.87728531000001,3.20253280199999,0,0.085020364,0,1.85944887000001,2.863640442,0,0.119801422,0,1.87728531000001,2.91447429599999,0,0.102410893,0,1.71229824000001,3.05003123999999,0,0.121733703,0,1.83269421000001,2.94836353199999,0,0.112072298,0,1.84161243000001,3.03308662199999,0,0.083088083,0,1.81931688000001,2.745028116,0,0.112072298,0,1.80593955000001,2.79586197,0,0.121733703,0,1.89958086000001,2.88058506,0,0.079223521,0,1.77918489000001,2.93141891399999,0,0.100478612
"9",0,2.01551772000001,2.829751206,0,0.083088083,0,1.97092662000001,2.558637318,0,0.100478612,0,1.97538573000001,2.694194262,0,0.07729124,0,1.86390798000001,2.761972734,0,0.104343174,0,1.92633552000001,2.778917352,0,0.108207736,0,1.95309018000001,2.745028116,0,0.073426678,0,1.94863107000001,2.490858846,0,0.100478612,0,1.93525374000001,2.473914228,0,0.106275455,0,2.00214039000001,2.71113888,0,0.069562116,0,1.85944887000001,2.829751206,0,0.07729124
"10",0,2.12699547000002,2.524748082,0,0.073426678,0,2.07794526000002,2.304468048,0,0.088884926,0,2.06010882000001,2.45696961,0,0.050239306,0,1.96200840000001,2.490858846,0,0.086952645,0,2.04673149000001,2.524748082,0,0.090817207,0,2.04227238000001,2.592526554,0,0.061832992,0,2.06456793000001,2.168911104,0,0.071494397,0,2.02443594000001,2.253634194,0,0.0927494879999999,0,2.12699547000002,2.423080374,0,0.052171587,0,1.94863107000001,2.71113888,0,0.061832992
"11",0,2.22063678000002,2.270578812,0,0.063765273,0,2.14483191000002,2.20280034,0,0.056036149,0,2.15820924000002,2.270578812,0,0.025119653,0,2.07348615000002,2.304468048,0,0.048307025,0,2.12699547000002,2.355301902,0,0.059900711,0,2.15375013000002,2.338357284,0,0.036713339,0,2.15375013000002,1.999464924,0,0.056036149,0,2.10469992000002,2.11807725,0,0.063765273,0,2.22955500000002,2.185855722,0,0.027051934,0,2.06456793000001,2.558637318,0,0.046374744
"12",0,2.31873720000002,2.084188014,0,0.050239306,0,2.24739144000002,2.03335416,0,0.050239306,0,2.25185055000002,2.016409542,0,0.032848777,0,2.21617767000002,1.999464924,0,0.042510182,0,2.22509589000002,2.050298778,0,0.059900711,0,2.27414610000002,1.999464924,0,0.030916496,0,2.23401411000002,1.846963362,0,0.050239306,0,2.22509589000002,1.931686452,0,0.054103868,0,2.34103275000002,1.931686452,0,0.030916496,0,2.14483191000002,2.389191138,0,0.03864562
"13",0,2.41683762000002,1.86390798,0,0.044442463,0,2.33211453000002,1.86390798,0,0.03864562,0,2.34549186000002,1.813074126,0,0.028984215,0,2.34103275000002,1.711406418,0,0.040577901,0,2.35441008000002,1.728351036,0,0.050239306,0,2.41237851000002,1.711406418,0,0.028984215,0,2.31427809000002,1.6944618,0,0.044442463,0,2.32765542000002,1.6944618,0,0.050239306,0,2.45251050000002,1.677517182,0,0.030916496,0,2.27414610000002,2.151966486,0,0.03864562
"14",0,2.48818338000002,1.728351036,0,0.040577901,0,2.42575584000002,1.626683328,0,0.036713339,0,2.43467406000002,1.626683328,0,0.021255091,0,2.41683762000002,1.541960238,0,0.034781058,0,2.45696961000002,1.541960238,0,0.048307025,0,2.50601982000002,1.558904856,0,0.025119653,0,2.39008296000002,1.491126384,0,0.040577901,0,2.40346029000002,1.491126384,0,0.036713339,0,2.51493804000002,1.541960238,0,0.030916496,0,2.39900118000002,1.914741834,0,0.025119653
"15",0,2.57290647000002,1.558904856,0,0.03864562,0,2.51047893000002,1.474181766,0,0.032848777,0,2.52385626000002,1.457237148,0,0.015458248,0,2.51493804000002,1.287790968,0,0.030916496,0,2.53723359000002,1.338624822,0,0.032848777,0,2.57290647000002,1.457237148,0,0.023187372,0,2.50601982000002,1.304735586,0,0.034781058,0,2.47926516000002,1.338624822,0,0.034781058,0,2.61749757000002,1.321680204,0,0.025119653,0,2.50601982000002,1.643627946,0,0.021255091
"16",0,2.65762956000002,1.35556944,0,0.030916496,0,2.61749757000002,1.220012496,0,0.027051934,0,2.64425223000002,1.18612326,0,0.013525967,0,2.59966113000002,1.10140017,0,0.034781058,0,2.64871134000002,1.10140017,0,0.032848777,0,2.72897532000003,1.01667708,0,0.021255091,0,2.61303846000002,1.067510934,0,0.027051934,0,2.59074291000002,1.135289406,0,0.021255091,0,2.73343443000003,1.10140017,0,0.015458248,0,2.61303846000002,1.35556944,0,0.021255091
"17",0,2.76910731000003,1.236957114,0,0.030916496,0,2.66654778000002,1.152234024,0,0.025119653,0,2.68438422000002,1.135289406,0,0.011593686,0,2.68884333000002,0.999732462,0,0.034781058,0,2.71113888000003,1.033621698,0,0.027051934,0,2.75127087000003,0.999732462,0,0.021255091,0,2.65317045000002,1.033621698,0,0.025119653,0,2.65762956000002,1.084455552,0,0.01932281,0,2.78694375000003,1.067510934,0,0.011593686,0,2.67546600000002,1.27084635,0,0.01932281
"18",0,2.83599396000003,1.135289406,0,0.030916496,0,2.71559799000003,1.067510934,0,0.017390529,0,2.72897532000003,1.067510934,0,0.007729124,0,2.73789354000003,0.915009371999999,0,0.030916496,0,2.80478019000003,0.948898607999999,0,0.025119653,0,2.81815752000003,0.931953989999999,0,0.021255091,0,2.73343443000003,1.01667708,0,0.023187372,0,2.73343443000003,1.033621698,0,0.01932281,0,2.82261663000003,1.033621698,0,0.011593686,0,2.74235265000003,1.169178642,0,0.015458248
"19",0,2.87166684000003,1.067510934,0,0.01932281,0,2.76018909000003,0.982787844,0,0.017390529,0,2.78248464000003,0.915009371999999,0,0.005796843,0,2.77802553000003,0.881120135999999,0,0.030916496,0,2.85828951000003,0.864175518,0,0.021255091,0,2.89396239000003,0.864175518,0,0.015458248,0,2.78694375000003,0.881120135999999,0,0.01932281,0,2.84937129000003,0.830286282,0,0.027051934,0,2.88950328000003,1.01667708,0,0.007729124,0,2.80032108000003,1.135289406,0,0.015458248
"20",0,2.92963527000003,0.999732462,0,0.015458248,0,2.81369841000003,0.965843226,0,0.011593686,0,2.84045307000003,0.813341664,0,0.003864562,0,2.86274862000003,0.745563192,0,0.025119653,0,2.90733972000003,0.830286282,0,0.01932281,0,2.98314459000003,0.745563192,0,0.013525967,0,2.83599396000003,0.830286282,0,0.015458248,0,2.90288061000003,0.813341664,0,0.027051934,0,2.96084904000003,0.982787844,0,0.003864562,0,2.87612595000003,0.999732462,0,0.017390529
"21",0,2.96976726000003,0.982787844,0,0.009661405,0,2.88504417000003,0.8472309,0,0.009661405,0,2.88950328000003,0.779452428,0,0.003864562,0,2.91625794000003,0.728618574,0,0.021255091,0,2.96976726000003,0.67778472,0,0.01932281,0,3.02327658000003,0.711673956,0,0.013525967,0,2.91625794000003,0.779452428,0,0.01932281,0,2.94747171000003,0.779452428,0,0.023187372,0,3.04111302000003,0.864175518,0,0.005796843,0,2.98314459000003,0.8472309,0,0.017390529
"22",0,3.04557213000003,0.881120135999999,0,0.009661405,0,2.94301260000003,0.796397046,0,0.007729124,0,2.94747171000003,0.711673956,0,0.005796843,0,2.98314459000003,0.694729338,0,0.015458248,0,3.02773569000003,0.626950866,0,0.017390529,0,3.09016323000003,0.610006248,0,0.011593686,0,2.97422637000003,0.711673956,0,0.01932281,0,3.03219480000003,0.660840102,0,0.01932281,0,3.08124501000003,0.881120135999999,0,0.005796843,0,3.03219480000003,0.8472309,0,0.011593686
"23",0,3.10354056000003,0.796397046,0,0.009661405,0,2.98760370000003,0.76250781,0,0.005796843,0,3.02327658000003,0.626950866,0,0.005796843,0,3.08124501000003,0.626950866,0,0.013525967,0,3.07232679000003,0.610006248,0,0.015458248,0,3.17042721000003,0.542227776,0,0.017390529,0,3.02773569000003,0.67778472,0,0.017390529,0,3.10354056000003,0.59306163,0,0.015458248,0,3.15259077000003,0.745563192,0,0.007729124,0,3.08124501000003,0.813341664,0,0.009661405
"24",0,3.14813166000003,0.76250781,0,0.009661405,0,3.05894946000003,0.660840102,0,0.003864562,0,3.05894946000003,0.610006248,0,0.005796843,0,3.12583611000003,0.626950866,0,0.013525967,0,3.13921344000003,0.576117012,0,0.015458248,0,3.25069119000003,0.406670832,0,0.013525967,0,3.06786768000003,0.643895484,0,0.01932281,0,3.16596810000003,0.576117012,0,0.011593686,0,3.19272276000003,0.728618574,0,0.009661405,0,3.13029522000003,0.76250781,0,0.011593686
"25",0,3.21947742000003,0.728618574,0,0.005796843,0,3.14367255000003,0.59306163,0,0.005796843,0,3.10799967000003,0.559172394,0,0.003864562,0,3.18380454000003,0.59306163,0,0.013525967,0,3.19272276000003,0.457504686,0,0.017390529,0,3.28636407000003,0.406670832,0,0.013525967,0,3.13475433000003,0.643895484,0,0.021255091,0,3.20610009000003,0.559172394,0,0.009661405,0,3.23731386000003,0.67778472,0,0.007729124,0,3.19272276000003,0.728618574,0,0.013525967
"26",0,3.27744585000003,0.643895484,0,0.007729124,0,3.20164098000003,0.542227776,0,0.005796843,0,3.17934543000003,0.491393922,0,0.005796843,0,3.21947742000003,0.559172394,0,0.007729124,0,3.25515030000003,0.406670832,0,0.011593686,0,3.33541428000004,0.372781596,0,0.013525967,0,3.19272276000003,0.542227776,0,0.01932281,0,3.28636407000003,0.491393922,0,0.007729124,0,3.30420051000004,0.59306163,0,0.009661405,0,3.27298674000003,0.643895484,0,0.011593686
"27",0,3.31311873000004,0.59306163,0,0.005796843,0,3.27298674000003,0.457504686,0,0.003864562,0,3.21947742000003,0.491393922,0,0.005796843,0,3.29082318000003,0.50833854,0,0.007729124,0,3.31311873000004,0.355836978,0,0.011593686,0,3.39338271000004,0.321947742,0,0.011593686,0,3.22393653000003,0.542227776,0,0.017390529,0,3.35770983000004,0.355836978,0,0.011593686,0,3.36662805000004,0.50833854,0,0.011593686,0,3.31311873000004,0.610006248,0,0.011593686
"28",0,3.35770983000004,0.59306163,0,0.009661405,0,3.34879161000004,0.355836978,0,0.003864562,0,3.28636407000003,0.440560068,0,0.005796843,0,3.33987339000004,0.491393922,0,0.007729124,0,3.36216894000004,0.355836978,0,0.009661405,0,3.44689203000004,0.271113888,0,0.009661405,0,3.29974140000004,0.50833854,0,0.015458248,0,3.38446449000004,0.33889236,0,0.009661405,0,3.42459648000004,0.457504686,0,0.011593686,0,3.34433250000004,0.610006248,0,0.013525967
"29",0,3.39338271000004,0.576117012,0,0.009661405,0,3.39784182000004,0.355836978,0,0.001932281,0,3.31757784000004,0.406670832,0,0.007729124,0,3.39784182000004,0.440560068,0,0.005796843,0,3.42013737000004,0.305003124,0,0.007729124,0,3.50486046000004,0.237224652,0,0.011593686,0,3.34433250000004,0.457504686,0,0.013525967,0,3.44243292000004,0.271113888,0,0.009661405,0,3.49148313000004,0.389726214,0,0.013525967,0,3.39784182000004,0.59306163,0,0.013525967
"30",0,3.46472847000004,0.50833854,0,0.009661405,0,3.43351470000004,0.355836978,0,0.005796843,0,3.36662805000004,0.372781596,0,0.007729124,0,3.46472847000004,0.406670832,0,0.003864562,0,3.48702402000004,0.305003124,0,0.005796843,0,3.54499245000004,0.186390798,0,0.009661405,0,3.38446449000004,0.474449304,0,0.009661405,0,3.47810580000004,0.271113888,0,0.011593686,0,3.53607423000004,0.372781596,0,0.009661405,0,3.46918758000004,0.491393922,0,0.013525967
"31",0,3.52269690000004,0.42361545,0,0.009661405,0,3.50931957000004,0.33889236,0,0.005796843,0,3.39784182000004,0.355836978,0,0.005796843,0,3.50486046000004,0.406670832,0,0.001932281,0,3.53161512000004,0.271113888,0,0.005796843,0,3.58066533000004,0.203335416,0,0.009661405,0,3.43351470000004,0.406670832,0,0.009661405,0,3.51377868000004,0.203335416,0,0.011593686,0,3.57620622000004,0.355836978,0,0.007729124,0,3.50931957000004,0.474449304,0,0.009661405
"32",0,3.56728800000004,0.406670832,0,0.007729124,0,3.54945156000004,0.271113888,0,0.005796843,0,3.43797381000004,0.33889236,0,0.007729124,0,3.55836978000004,0.321947742,0,NA,0,3.59850177000004,0.220280034,0,0.005796843,0,3.62079732000004,0.237224652,0,0.005796843,0,3.48256491000004,0.406670832,0,0.011593686,0,3.55391067000004,0.203335416,0,0.011593686,0,3.61187910000004,0.305003124,0,0.007729124,0,3.56728800000004,0.42361545,0,0.011593686
"33",0,3.61633821000004,0.305003124,0,0.005796843,0,3.58958355000004,0.25416927,0,0.005796843,0,3.49594224000004,0.355836978,0,0.007729124,0,3.59404266000004,0.321947742,0,NA,0,3.62079732000004,0.237224652,0,0.005796843,0,3.68768397000004,0.237224652,0,0.003864562,0,3.50931957000004,0.406670832,0,0.007729124,0,3.59850177000004,0.203335416,0,0.011593686,0,3.67876575000004,0.305003124,0,0.007729124,0,3.61633821000004,0.372781596,0,0.011593686
"34",0,3.67876575000004,0.220280034,0,0.003864562,0,3.64755198000004,0.203335416,0,0.007729124,0,3.54053334000004,0.321947742,0,0.009661405,0,3.64755198000004,0.271113888,0,0.001932281,0,3.67876575000004,0.220280034,0,0.005796843,0,3.73673418000004,0.220280034,0,0.003864562,0,3.52715601000004,0.372781596,0,0.005796843,0,3.63863376000004,0.220280034,0,0.011593686,0,3.72335685000004,0.288058506,0,0.005796843,0,3.68768397000004,0.288058506,0,0.011593686
"35",0,3.71443863000004,0.203335416,0,0.003864562,0,3.69214308000004,0.203335416,0,0.003864562,0,3.58066533000004,0.321947742,0,0.011593686,0,3.67876575000004,0.25416927,0,0.003864562,0,3.69660219000004,0.237224652,0,0.003864562,0,3.76348884000004,0.203335416,0,0.001932281,0,3.55836978000004,0.355836978,0,0.005796843,0,3.68768397000004,0.203335416,0,0.011593686,0,3.75902973000004,0.25416927,0,0.005796843,0,3.70106130000004,0.288058506,0,0.007729124
"36",0,3.78578439000004,0.186390798,0,0.007729124,0,3.73227507000004,0.152501562,0,0.003864562,0,3.62971554000004,0.321947742,0,0.011593686,0,3.73673418000004,0.220280034,0,0.003864562,0,3.72781596000004,0.25416927,0,0.005796843,0,3.81253905000004,0.203335416,0,0.001932281,0,3.62525643000004,0.355836978,0,0.007729124,0,3.70552041000004,0.203335416,0,0.013525967,0,3.81699816000004,0.237224652,0,0.005796843,0,3.75457062000004,0.288058506,0,0.003864562
"37",0,3.81699816000004,0.203335416,0,0.007729124,0,3.75902973000004,0.16944618,0,0.003864562,0,3.67430664000004,0.321947742,0,0.011593686,0,3.80362083000004,0.203335416,0,0.003864562,0,3.75011151000004,0.25416927,0,0.005796843,0,3.83929371000004,0.186390798,0,0.001932281,0,3.65201109000004,0.372781596,0,0.005796843,0,3.73673418000004,0.203335416,0,0.013525967,0,3.86158926000004,0.220280034,0,0.005796843,0,3.78132528000004,0.288058506,0,0.005796843
"38",0,3.87496659000004,0.237224652,0,0.007729124,0,3.81699816000004,0.186390798,0,0.001932281,0,3.73673418000004,0.372781596,0,0.009661405,0,3.91509858000005,0.16944618,0,0.003864562,0,3.84821193000004,0.237224652,0,0.005796843,0,3.91955769000005,0.16944618,0,0.003864562,0,3.75011151000004,0.372781596,0,0.007729124,0,3.80807994000004,0.186390798,0,0.011593686,0,3.95077146000004,0.220280034,0,0.005796843,0,3.85267104000004,0.288058506,0,0.003864562
"39",0,3.91063947000005,0.220280034,0,0.007729124,0,3.88834392000004,0.186390798,0,0.001932281,0,3.79470261000004,0.389726214,0,0.009661405,0,3.95968968000004,0.152501562,0,0.001932281,0,3.93293502000005,0.220280034,0,0.005796843,0,3.99982167000004,0.135556944,0,0.003864562,0,3.84821193000004,0.321947742,0,0.005796843,0,3.87496659000004,0.186390798,0,0.009661405,0,3.97306701000004,0.203335416,0,0.005796843,0,3.91509858000005,0.237224652,0,0.003864562
"40",0,3.95077146000004,0.237224652,0,0.005796843,0,3.95523057000004,0.203335416,0,0.001932281,0,3.86604837000004,0.440560068,0,0.007729124,0,4.00873989000004,0.203335416,0,0.001932281,0,3.95968968000004,0.220280034,0,0.003864562,0,4.04887188000004,0.118612326,0,0.003864562,0,3.90618036000005,0.321947742,0,0.001932281,0,3.94631235000004,0.203335416,0,0.003864562,0,4.03549455000004,0.186390798,0,0.005796843,0,3.97752612000004,0.220280034,0,0.001932281
"41",0,4.01319900000004,0.16944618,0,0.001932281,0,3.99982167000004,0.203335416,0,0.003864562,0,3.94631235000004,0.440560068,0,0.005796843,0,4.06224921000003,0.16944618,0,0.003864562,0,3.98198523000004,0.220280034,0,0.001932281,0,4.08454476000003,0.101667708,0,0.003864562,0,3.98644434000004,0.33889236,0,0.001932281,0,3.99090345000004,0.186390798,0,0.003864562,0,4.11575853000003,0.186390798,0,0.005796843,0,4.02657633000004,0.186390798,0,0.001932281
"42",0,4.04887188000004,0.152501562,0,0.003864562,0,4.05333099000004,0.203335416,0,0.001932281,0,3.96860790000004,0.440560068,0,0.005796843,0,4.10684031000003,0.152501562,0,0.003864562,0,4.03103544000004,0.16944618,0,0.001932281,0,4.14697230000003,0.08472309,0,0.001932281,0,4.01765811000004,0.33889236,0,0.001932281,0,4.03995366000004,0.186390798,0,0.003864562,0,4.16034963000003,0.16944618,0,0.001932281,0,4.07116743000003,0.186390798,0,NA
"43",0,4.05779010000004,0.16944618,0,0.001932281,0,4.11129942000003,0.186390798,0,NA,0,4.02211722000004,0.42361545,0,0.003864562,0,4.15589052000003,0.152501562,0,0.003864562,0,4.07116743000003,0.16944618,0,NA,0,4.16034963000003,0.101667708,0,0.001932281,0,4.05779010000004,0.33889236,0,0.001932281,0,4.09346298000003,0.186390798,0,0.005796843,0,4.18710429000002,0.16944618,0,0.001932281,0,4.12021764000003,0.152501562,0,NA
"44",0,4.11129942000003,0.152501562,0,0.001932281,0,4.14697230000003,0.186390798,0,NA,0,4.07562654000003,0.406670832,0,0.003864562,0,4.17818607000003,0.152501562,0,0.001932281,0,4.09792209000003,0.152501562,0,NA,0,4.17818607000003,0.101667708,0,0.001932281,0,4.10684031000003,0.355836978,0,0.001932281,0,4.12021764000003,0.186390798,0,0.005796843,0,4.21831806000002,0.135556944,0,NA,0,4.16034963000003,0.118612326,0,NA
"45",0,4.12021764000003,0.16944618,0,0.001932281,0,4.14697230000003,0.203335416,0,0.001932281,0,4.12021764000003,0.355836978,0,NA,0,4.21831806000002,0.152501562,0,NA,0,4.14251319000003,0.16944618,0,NA,0,4.22723628000002,0.101667708,0,0.003864562,0,4.12913586000003,0.355836978,0,NA,0,4.14697230000003,0.186390798,0,0.005796843,0,4.22723628000002,0.152501562,0,NA,0,4.18264518000003,0.135556944,0,0.001932281
"46",0,4.13359497000003,0.16944618,0,0.001932281,0,4.17372696000003,0.186390798,0,0.001932281,0,4.12467675000003,0.389726214,0,NA,0,4.24953183000002,0.135556944,0,NA,0,4.15589052000003,0.152501562,0,NA,0,4.24061361000002,0.067778472,0,0.003864562,0,4.15143141000003,0.33889236,0,NA,0,4.16926785000003,0.220280034,0,0.005796843,0,4.23169539000002,0.135556944,0,NA,0,4.18264518000003,0.135556944,0,0.001932281
"47",0,4.13359497000003,0.220280034,0,0.001932281,0,4.18710429000002,0.203335416,0,0.001932281,0,4.12467675000003,0.372781596,0,NA,0,4.24953183000002,0.152501562,0,NA,0,4.20494073000002,0.152501562,0,NA,0,4.26290916000002,0.050833854,0,0.003864562,0,4.18264518000003,0.288058506,0,NA,0,4.18710429000002,0.237224652,0,0.003864562,0,4.24953183000002,0.118612326,0,NA,0,4.20939984000002,0.152501562,0,0.001932281
"48",0,4.17372696000003,0.220280034,0,0.001932281,0,4.20494073000002,0.203335416,0,0.001932281,0,4.13805408000003,0.372781596,0,NA,0,4.24507272000002,0.152501562,0,NA,0,4.23169539000002,0.135556944,0,NA,0,4.25845005000002,0.050833854,0,0.005796843,0,4.20494073000002,0.288058506,0,0.001932281,0,4.22723628000002,0.25416927,0,0.001932281,0,4.24061361000002,0.118612326,0,NA,0,4.23169539000002,0.135556944,0,0.001932281
"49",0,4.18264518000003,0.203335416,0,0.001932281,0,4.19156340000002,0.203335416,0,0.001932281,0,4.14251319000003,0.355836978,0,NA,0,4.24061361000002,0.152501562,0,NA,0,4.23615450000002,0.152501562,0,NA,0,4.25845005000002,0.050833854,0,0.003864562,0,4.21385895000002,0.271113888,0,0.001932281,0,4.23615450000002,0.220280034,0,0.001932281,0,4.24061361000002,0.152501562,0,0.001932281,0,4.24061361000002,0.135556944,0,0.001932281
"50",0,4.18710429000002,0.203335416,0,0.001932281,0,4.21385895000002,0.16944618,0,0.001932281,0,4.15589052000003,0.321947742,0,0.001932281,0,4.23169539000002,0.16944618,0,0.001932281,0,4.25399094000002,0.135556944,0,NA,0,4.27182738000002,0.033889236,0,0.003864562,0,4.20494073000002,0.288058506,0,0.001932281,0,4.23615450000002,0.220280034,0,0.003864562,0,4.23615450000002,0.152501562,0,0.001932281,0,4.24953183000002,0.118612326,0,0.003864562
"51",0,4.19156340000002,0.186390798,0,0.001932281,0,4.22277717000002,0.186390798,0,0.001932281,0,4.16034963000003,0.305003124,0,0.001932281,0,4.24061361000002,0.16944618,0,0.001932281,0,4.23615450000002,0.152501562,0,0.001932281,0,4.27182738000002,0.050833854,0,0.001932281,0,4.20494073000002,0.271113888,0,0.001932281,0,4.23615450000002,0.220280034,0,0.001932281,0,4.24061361000002,0.152501562,0,0.001932281,0,4.26736827000002,0.118612326,0,0.001932281
"52",0,4.19156340000002,0.203335416,0,0.001932281,0,4.21385895000002,0.16944618,0,0.001932281,0,4.15143141000003,0.321947742,0,0.001932281,0,4.23615450000002,0.186390798,0,0.003864562,0,4.22723628000002,0.203335416,0,0.001932281,0,4.26736827000002,0.050833854,0,0.001932281,0,4.21385895000002,0.237224652,0,0.003864562,0,4.23615450000002,0.237224652,0,0.001932281,0,4.23615450000002,0.16944618,0,0.001932281,0,4.26736827000002,0.101667708,0,0.001932281
"53",0,4.19602251000002,0.186390798,0,0.001932281,0,4.21385895000002,0.186390798,0,0.005796843,0,4.15589052000003,0.321947742,0,0.001932281,0,4.24061361000002,0.16944618,0,0.003864562,0,4.23169539000002,0.203335416,0,0.001932281,0,4.26736827000002,0.050833854,0,0.001932281,0,4.21385895000002,0.237224652,0,0.003864562,0,4.24507272000002,0.220280034,0,0.001932281,0,4.23615450000002,0.16944618,0,0.003864562,0,4.26736827000002,0.101667708,0,0.003864562
"54",0,4.18264518000003,0.203335416,0,0.001932281,0,4.20494073000002,0.203335416,0,0.003864562,0,4.16480874000003,0.271113888,0,NA,0,4.24953183000002,0.16944618,0,0.003864562,0,4.23615450000002,0.203335416,0,0.001932281,0,4.26290916000002,0.050833854,0,0.001932281,0,4.22277717000002,0.220280034,0,0.003864562,0,4.24507272000002,0.220280034,0,0.003864562,0,4.23169539000002,0.186390798,0,0.005796843,0,4.26290916000002,0.118612326,0,0.003864562
"55",0,4.18710429000002,0.203335416,0,0.003864562,0,4.20939984000002,0.186390798,0,0.003864562,0,4.17372696000003,0.220280034,0,NA,0,4.26290916000002,0.135556944,0,0.001932281,0,4.23169539000002,0.203335416,0,0.005796843,0,4.27182738000002,0.067778472,0,0.001932281,0,4.22723628000002,0.220280034,0,0.003864562,0,4.24953183000002,0.203335416,0,0.003864562,0,4.23169539000002,0.186390798,0,0.005796843,0,4.25399094000002,0.135556944,0,0.003864562
"56",0,4.19602251000002,0.186390798,0,0.001932281,0,4.21385895000002,0.186390798,0,0.003864562,0,4.17818607000003,0.203335416,0,NA,0,4.26290916000002,0.118612326,0,0.001932281,0,4.23169539000002,0.186390798,0,0.005796843,0,4.26736827000002,0.067778472,0,0.003864562,0,4.23169539000002,0.203335416,0,0.003864562,0,4.25845005000002,0.203335416,0,0.003864562,0,4.23169539000002,0.16944618,0,0.005796843,0,4.24061361000002,0.152501562,0,0.003864562
"57",0,4.19156340000002,0.186390798,0,0.001932281,0,4.21385895000002,0.16944618,0,0.005796843,0,4.17372696000003,0.220280034,0,NA,0,4.26290916000002,0.152501562,0,0.001932281,0,4.22723628000002,0.186390798,0,0.003864562,0,4.26736827000002,0.067778472,0,0.005796843,0,4.23169539000002,0.203335416,0,0.003864562,0,4.26290916000002,0.203335416,0,0.001932281,0,4.21385895000002,0.203335416,0,0.005796843,0,4.22277717000002,0.16944618,0,0.003864562
"58",0,4.20494073000002,0.16944618,0,0.003864562,0,4.21385895000002,0.16944618,0,0.005796843,0,4.17818607000003,0.203335416,0,NA,0,4.25845005000002,0.152501562,0,0.001932281,0,4.22277717000002,0.186390798,0,0.003864562,0,4.27182738000002,0.067778472,0,0.005796843,0,4.23615450000002,0.186390798,0,0.005796843,0,4.26736827000002,0.203335416,0,0.001932281,0,4.22723628000002,0.16944618,0,0.011593686,0,4.21831806000002,0.16944618,0,0.005796843
"59",0,4.20048162000002,0.16944618,0,0.003864562,0,4.20939984000002,0.16944618,0,0.005796843,0,4.18264518000003,0.16944618,0,0.001932281,0,4.25845005000002,0.152501562,0,0.001932281,0,4.21831806000002,0.203335416,0,0.003864562,0,4.26736827000002,0.067778472,0,0.003864562,0,4.25845005000002,0.152501562,0,0.005796843,0,4.26736827000002,0.186390798,0,0.001932281,0,4.21831806000002,0.16944618,0,0.009661405,0,4.21831806000002,0.16944618,0,0.005796843
"60",0,4.20048162000002,0.152501562,0,0.001932281,0,4.20048162000002,0.203335416,0,0.003864562,0,4.18264518000003,0.16944618,0,NA,0,4.25845005000002,0.152501562,0,0.005796843,0,4.22277717000002,0.186390798,0,0.003864562,0,4.26736827000002,0.067778472,0,0.001932281,0,4.24953183000002,0.152501562,0,0.007729124,0,4.27628649000002,0.152501562,0,0.001932281,0,4.22277717000002,0.152501562,0,0.009661405,0,4.20939984000002,0.152501562,0,0.007729124
